<?xml version="1.0" encoding="UTF-8" standalone="no"?>
<svg xmlns="http://www.w3.org/2000/svg" contentScriptType="application/ecmascript" contentStyleType="text/css"
     height="876px" preserveAspectRatio="none" style="width:591px;height:876px;" version="1.1" viewBox="0 0 591 876"
     width="591.2px" zoomAndPan="magnify">
    <defs>
        <filter height="300%" id="fqxpnyu76pxfl" width="300%" x="-1" y="-1">
            <feGaussianBlur result="blurOut" stdDeviation="1.6"/>
            <feColorMatrix in="blurOut" result="blurOut2" type="matrix"
                           values="0 0 0 0 0 0 0 0 0 0 0 0 0 0 0 0 0 0 .4 0"/>
            <feOffset dx="3.2" dy="3.2" in="blurOut2" result="blurOut3"/>
            <feBlend in="SourceGraphic" in2="blurOut3" mode="normal"/>
        </filter>
    </defs>
    <g><!--MD5=[2ff1aee713c08e70e89166ac5ca3241b]
class RetirarCandidaturaUI-->
        <rect fill="#FEFECE" filter="url(#fqxpnyu76pxfl)" height="38.4" id="RetirarCandidaturaUI"
              style="stroke: #A80036; stroke-width: 1.2000000000000002;" width="119.2" x="271.6" y="6.4"/>
        <ellipse cx="283.6" cy="19.2" fill="#ADD1B2" rx="8.8" ry="8.8" style="stroke: #A80036; stroke-width: 0.8;"/>
        <path d="M285.2,16.4 Q285.3625,16 285.55,15.8 Q285.7375,15.6 285.95,15.6 Q286.325,15.6 286.5625,15.825 Q286.8,16.05 286.8,16.575 L286.8,17.825 Q286.8,18.35 286.575,18.575 Q286.35,18.8 286,18.8 Q285.6875,18.8 285.4875,18.6625 Q285.2875,18.525 285.2,18.1625 Q285.1625,17.9125 285.025,17.775 Q284.775,17.5125 284.325,17.3625 Q283.875,17.2 283.425,17.2 Q282.8625,17.2 282.3875,17.425 Q281.925,17.65 281.5625,18.15 Q281.2,18.65 281.2,19.3375 L281.2,20.075 Q281.2,20.9 281.875,21.45 Q282.55,22 283.75,22 Q284.4625,22 284.9625,21.8375 Q285.25,21.75 285.575,21.4625 Q285.7875,21.3 285.9,21.25 Q286.0125,21.2 286.15,21.2 Q286.4125,21.2 286.6,21.4125 Q286.8,21.6125 286.8,21.9 Q286.8,22.175 286.525,22.5 Q286.125,22.975 285.4875,23.2375 Q284.65,23.6 283.625,23.6 Q282.425,23.6 281.4625,23.125 Q280.6875,22.75 280.1375,21.9375 Q279.6,21.125 279.6,20.1625 L279.6,19.2875 Q279.6,18.2875 280.075,17.4125 Q280.5625,16.5375 281.4,16.075 Q282.25,15.6 283.2,15.6 Q283.775,15.6 284.275,15.8 Q284.775,16 285.2,16.4 Z "/>
        <text fill="#000000" font-family="sans-serif" font-size="9.6" lengthAdjust="spacingAndGlyphs" textLength="93.6"
              x="294.8" y="23.1281">RetirarCandidaturaUI
        </text>
        <line style="stroke: #A80036; stroke-width: 1.2000000000000002;" x1="272.4" x2="390" y1="32" y2="32"/>
        <line style="stroke: #A80036; stroke-width: 1.2000000000000002;" x1="272.4" x2="390" y1="38.4" y2="38.4"/><!--MD5=[67c765c08f582c00114ef074ee81e93c]
class RetirarCandidaturaController-->
        <rect fill="#FEFECE" filter="url(#fqxpnyu76pxfl)" height="71.6063" id="RetirarCandidaturaController"
              style="stroke: #A80036; stroke-width: 1.2000000000000002;" width="152.8" x="254.8" y="93.6"/>
        <ellipse cx="266.8" cy="106.4" fill="#ADD1B2" rx="8.8" ry="8.8" style="stroke: #A80036; stroke-width: 0.8;"/>
        <path d="M268.4,103.6 Q268.5625,103.2 268.75,103 Q268.9375,102.8 269.15,102.8 Q269.525,102.8 269.7625,103.025 Q270,103.25 270,103.775 L270,105.025 Q270,105.55 269.775,105.775 Q269.55,106 269.2,106 Q268.8875,106 268.6875,105.8625 Q268.4875,105.725 268.4,105.3625 Q268.3625,105.1125 268.225,104.975 Q267.975,104.7125 267.525,104.5625 Q267.075,104.4 266.625,104.4 Q266.0625,104.4 265.5875,104.625 Q265.125,104.85 264.7625,105.35 Q264.4,105.85 264.4,106.5375 L264.4,107.275 Q264.4,108.1 265.075,108.65 Q265.75,109.2 266.95,109.2 Q267.6625,109.2 268.1625,109.0375 Q268.45,108.95 268.775,108.6625 Q268.9875,108.5 269.1,108.45 Q269.2125,108.4 269.35,108.4 Q269.6125,108.4 269.8,108.6125 Q270,108.8125 270,109.1 Q270,109.375 269.725,109.7 Q269.325,110.175 268.6875,110.4375 Q267.85,110.8 266.825,110.8 Q265.625,110.8 264.6625,110.325 Q263.8875,109.95 263.3375,109.1375 Q262.8,108.325 262.8,107.3625 L262.8,106.4875 Q262.8,105.4875 263.275,104.6125 Q263.7625,103.7375 264.6,103.275 Q265.45,102.8 266.4,102.8 Q266.975,102.8 267.475,103 Q267.975,103.2 268.4,103.6 Z "/>
        <text fill="#000000" font-family="sans-serif" font-size="9.6" lengthAdjust="spacingAndGlyphs" textLength="127.2"
              x="278" y="110.3281">RetirarCandidaturaController
        </text>
        <line style="stroke: #A80036; stroke-width: 1.2000000000000002;" x1="255.6" x2="406.8" y1="119.2" y2="119.2"/>
        <line style="stroke: #A80036; stroke-width: 1.2000000000000002;" x1="255.6" x2="406.8" y1="125.6" y2="125.6"/>
        <text fill="#000000" font-family="sans-serif" font-size="8.8" lengthAdjust="spacingAndGlyphs" textLength="92.8"
              x="259.6" y="137.9352">+getListaCandidaturas()
        </text>
        <text fill="#000000" font-family="sans-serif" font-size="8.8" lengthAdjust="spacingAndGlyphs" textLength="61.6"
              x="259.6" y="149.0039">+get(idAnuncio)
        </text>
        <text fill="#000000" font-family="sans-serif" font-size="8.8" lengthAdjust="spacingAndGlyphs" textLength="132"
              x="259.6" y="160.0727">+removeCandidatura(candidatura)
        </text><!--MD5=[380d12a68ed0046a60f31008a02875d0]
class AplicacaoPOT-->
        <rect fill="#FEFECE" filter="url(#fqxpnyu76pxfl)" height="60.5375" id="AplicacaoPOT"
              style="stroke: #A80036; stroke-width: 1.2000000000000002;" width="88.8" x="334.8" y="214.4"/>
        <ellipse cx="347.52" cy="227.2" fill="#ADD1B2" rx="8.8" ry="8.8" style="stroke: #A80036; stroke-width: 0.8;"/>
        <path d="M349.12,224.4 Q349.2825,224 349.47,223.8 Q349.6575,223.6 349.87,223.6 Q350.245,223.6 350.4825,223.825 Q350.72,224.05 350.72,224.575 L350.72,225.825 Q350.72,226.35 350.495,226.575 Q350.27,226.8 349.92,226.8 Q349.6075,226.8 349.4075,226.6625 Q349.2075,226.525 349.12,226.1625 Q349.0825,225.9125 348.945,225.775 Q348.695,225.5125 348.245,225.3625 Q347.795,225.2 347.345,225.2 Q346.7825,225.2 346.3075,225.425 Q345.845,225.65 345.4825,226.15 Q345.12,226.65 345.12,227.3375 L345.12,228.075 Q345.12,228.9 345.795,229.45 Q346.47,230 347.67,230 Q348.3825,230 348.8825,229.8375 Q349.17,229.75 349.495,229.4625 Q349.7075,229.3 349.82,229.25 Q349.9325,229.2 350.07,229.2 Q350.3325,229.2 350.52,229.4125 Q350.72,229.6125 350.72,229.9 Q350.72,230.175 350.445,230.5 Q350.045,230.975 349.4075,231.2375 Q348.57,231.6 347.545,231.6 Q346.345,231.6 345.3825,231.125 Q344.6075,230.75 344.0575,229.9375 Q343.52,229.125 343.52,228.1625 L343.52,227.2875 Q343.52,226.2875 343.995,225.4125 Q344.4825,224.5375 345.32,224.075 Q346.17,223.6 347.12,223.6 Q347.695,223.6 348.195,223.8 Q348.695,224 349.12,224.4 Z "/>
        <text fill="#000000" font-family="sans-serif" font-size="9.6" lengthAdjust="spacingAndGlyphs" textLength="61.6"
              x="358.88" y="231.1281">AplicacaoPOT
        </text>
        <line style="stroke: #A80036; stroke-width: 1.2000000000000002;" x1="335.6" x2="422.8" y1="240" y2="240"/>
        <line style="stroke: #A80036; stroke-width: 1.2000000000000002;" x1="335.6" x2="422.8" y1="246.4" y2="246.4"/>
        <text fill="#000000" font-family="sans-serif" font-size="8.8" lengthAdjust="spacingAndGlyphs" textLength="79.2"
              x="339.6" y="258.7352">+static getInstance()
        </text>
        <text fill="#000000" font-family="sans-serif" font-size="8.8" lengthAdjust="spacingAndGlyphs" textLength="72.8"
              x="339.6" y="269.8039">+getSessaoAtual()
        </text><!--MD5=[4469ccb08d6a888499208db1b0e350bc]
class SessaoAtual-->
        <rect fill="#FEFECE" filter="url(#fqxpnyu76pxfl)" height="49.4688" id="SessaoAtual"
              style="stroke: #A80036; stroke-width: 1.2000000000000002;" width="87.2" x="451.6" y="220"/>
        <ellipse cx="466.12" cy="232.8" fill="#ADD1B2" rx="8.8" ry="8.8" style="stroke: #A80036; stroke-width: 0.8;"/>
        <path d="M467.72,230 Q467.8825,229.6 468.07,229.4 Q468.2575,229.2 468.47,229.2 Q468.845,229.2 469.0825,229.425 Q469.32,229.65 469.32,230.175 L469.32,231.425 Q469.32,231.95 469.095,232.175 Q468.87,232.4 468.52,232.4 Q468.2075,232.4 468.0075,232.2625 Q467.8075,232.125 467.72,231.7625 Q467.6825,231.5125 467.545,231.375 Q467.295,231.1125 466.845,230.9625 Q466.395,230.8 465.945,230.8 Q465.3825,230.8 464.9075,231.025 Q464.445,231.25 464.0825,231.75 Q463.72,232.25 463.72,232.9375 L463.72,233.675 Q463.72,234.5 464.395,235.05 Q465.07,235.6 466.27,235.6 Q466.9825,235.6 467.4825,235.4375 Q467.77,235.35 468.095,235.0625 Q468.3075,234.9 468.42,234.85 Q468.5325,234.8 468.67,234.8 Q468.9325,234.8 469.12,235.0125 Q469.32,235.2125 469.32,235.5 Q469.32,235.775 469.045,236.1 Q468.645,236.575 468.0075,236.8375 Q467.17,237.2 466.145,237.2 Q464.945,237.2 463.9825,236.725 Q463.2075,236.35 462.6575,235.5375 Q462.12,234.725 462.12,233.7625 L462.12,232.8875 Q462.12,231.8875 462.595,231.0125 Q463.0825,230.1375 463.92,229.675 Q464.77,229.2 465.72,229.2 Q466.295,229.2 466.795,229.4 Q467.295,229.6 467.72,230 Z "/>
        <text fill="#000000" font-family="sans-serif" font-size="9.6" lengthAdjust="spacingAndGlyphs" textLength="56"
              x="477.88" y="236.7281">SessaoAtual
        </text>
        <line style="stroke: #A80036; stroke-width: 1.2000000000000002;" x1="452.4" x2="538" y1="245.6" y2="245.6"/>
        <line style="stroke: #A80036; stroke-width: 1.2000000000000002;" x1="452.4" x2="538" y1="252" y2="252"/>
        <text fill="#000000" font-family="sans-serif" font-size="8.8" lengthAdjust="spacingAndGlyphs" textLength="77.6"
              x="456.4" y="264.3352">+getEmailUtilizador()
        </text><!--MD5=[ecaed46f78f8cfe1e9ce18477649be18]
class Plataforma-->
        <rect fill="#FEFECE" filter="url(#fqxpnyu76pxfl)" height="60.5375" id="Plataforma"
              style="stroke: #A80036; stroke-width: 1.2000000000000002;" width="171.2" x="135.2" y="214.4"/>
        <ellipse cx="193.4" cy="227.2" fill="#ADD1B2" rx="8.8" ry="8.8" style="stroke: #A80036; stroke-width: 0.8;"/>
        <path d="M195,224.4 Q195.1625,224 195.35,223.8 Q195.5375,223.6 195.75,223.6 Q196.125,223.6 196.3625,223.825 Q196.6,224.05 196.6,224.575 L196.6,225.825 Q196.6,226.35 196.375,226.575 Q196.15,226.8 195.8,226.8 Q195.4875,226.8 195.2875,226.6625 Q195.0875,226.525 195,226.1625 Q194.9625,225.9125 194.825,225.775 Q194.575,225.5125 194.125,225.3625 Q193.675,225.2 193.225,225.2 Q192.6625,225.2 192.1875,225.425 Q191.725,225.65 191.3625,226.15 Q191,226.65 191,227.3375 L191,228.075 Q191,228.9 191.675,229.45 Q192.35,230 193.55,230 Q194.2625,230 194.7625,229.8375 Q195.05,229.75 195.375,229.4625 Q195.5875,229.3 195.7,229.25 Q195.8125,229.2 195.95,229.2 Q196.2125,229.2 196.4,229.4125 Q196.6,229.6125 196.6,229.9 Q196.6,230.175 196.325,230.5 Q195.925,230.975 195.2875,231.2375 Q194.45,231.6 193.425,231.6 Q192.225,231.6 191.2625,231.125 Q190.4875,230.75 189.9375,229.9375 Q189.4,229.125 189.4,228.1625 L189.4,227.2875 Q189.4,226.2875 189.875,225.4125 Q190.3625,224.5375 191.2,224.075 Q192.05,223.6 193,223.6 Q193.575,223.6 194.075,223.8 Q194.575,224 195,224.4 Z "/>
        <text fill="#000000" font-family="sans-serif" font-size="9.6" lengthAdjust="spacingAndGlyphs" textLength="48"
              x="209.8" y="231.1281">Plataforma
        </text>
        <line style="stroke: #A80036; stroke-width: 1.2000000000000002;" x1="136" x2="305.6" y1="240" y2="240"/>
        <text fill="#000000" font-family="sans-serif" font-size="8.8" lengthAdjust="spacingAndGlyphs" textLength="72.8"
              x="140" y="252.3352">-String designacao
        </text>
        <line style="stroke: #A80036; stroke-width: 1.2000000000000002;" x1="136" x2="305.6" y1="257.4688"
              y2="257.4688"/>
        <text fill="#000000" font-family="sans-serif" font-size="8.8" lengthAdjust="spacingAndGlyphs" textLength="161.6"
              x="140" y="269.8039">+RegistoAnuncios +getRegistoAnuncios()
        </text><!--MD5=[a7dddfa65532da486ef518ad0cedfd89]
class RegistoAnuncios-->
        <rect fill="#FEFECE" filter="url(#fqxpnyu76pxfl)" height="49.4688" id="RegistoAnuncios"
              style="stroke: #A80036; stroke-width: 1.2000000000000002;" width="100.8" x="78.4" y="337.6"/>
        <ellipse cx="90.4" cy="350.4" fill="#ADD1B2" rx="8.8" ry="8.8" style="stroke: #A80036; stroke-width: 0.8;"/>
        <path d="M92,347.6 Q92.1625,347.2 92.35,347 Q92.5375,346.8 92.75,346.8 Q93.125,346.8 93.3625,347.025 Q93.6,347.25 93.6,347.775 L93.6,349.025 Q93.6,349.55 93.375,349.775 Q93.15,350 92.8,350 Q92.4875,350 92.2875,349.8625 Q92.0875,349.725 92,349.3625 Q91.9625,349.1125 91.825,348.975 Q91.575,348.7125 91.125,348.5625 Q90.675,348.4 90.225,348.4 Q89.6625,348.4 89.1875,348.625 Q88.725,348.85 88.3625,349.35 Q88,349.85 88,350.5375 L88,351.275 Q88,352.1 88.675,352.65 Q89.35,353.2 90.55,353.2 Q91.2625,353.2 91.7625,353.0375 Q92.05,352.95 92.375,352.6625 Q92.5875,352.5 92.7,352.45 Q92.8125,352.4 92.95,352.4 Q93.2125,352.4 93.4,352.6125 Q93.6,352.8125 93.6,353.1 Q93.6,353.375 93.325,353.7 Q92.925,354.175 92.2875,354.4375 Q91.45,354.8 90.425,354.8 Q89.225,354.8 88.2625,354.325 Q87.4875,353.95 86.9375,353.1375 Q86.4,352.325 86.4,351.3625 L86.4,350.4875 Q86.4,349.4875 86.875,348.6125 Q87.3625,347.7375 88.2,347.275 Q89.05,346.8 90,346.8 Q90.575,346.8 91.075,347 Q91.575,347.2 92,347.6 Z "/>
        <text fill="#000000" font-family="sans-serif" font-size="9.6" lengthAdjust="spacingAndGlyphs" textLength="75.2"
              x="101.6" y="354.3281">RegistoAnuncios
        </text>
        <line style="stroke: #A80036; stroke-width: 1.2000000000000002;" x1="79.2" x2="178.4" y1="363.2" y2="363.2"/>
        <line style="stroke: #A80036; stroke-width: 1.2000000000000002;" x1="79.2" x2="178.4" y1="369.6" y2="369.6"/>
        <text fill="#000000" font-family="sans-serif" font-size="8.8" lengthAdjust="spacingAndGlyphs" textLength="78.4"
              x="83.2" y="381.9352">+getListaAnuncios()
        </text><!--MD5=[19db0db7353a4bf63eefc676e5ba9b80]
class Anuncio-->
        <rect fill="#FEFECE" filter="url(#fqxpnyu76pxfl)" height="126.95" id="Anuncio"
              style="stroke: #A80036; stroke-width: 1.2000000000000002;" width="174.4" x="4.8" y="449.6"/>
        <ellipse cx="71" cy="462.4" fill="#ADD1B2" rx="8.8" ry="8.8" style="stroke: #A80036; stroke-width: 0.8;"/>
        <path d="M72.6,459.6 Q72.7625,459.2 72.95,459 Q73.1375,458.8 73.35,458.8 Q73.725,458.8 73.9625,459.025 Q74.2,459.25 74.2,459.775 L74.2,461.025 Q74.2,461.55 73.975,461.775 Q73.75,462 73.4,462 Q73.0875,462 72.8875,461.8625 Q72.6875,461.725 72.6,461.3625 Q72.5625,461.1125 72.425,460.975 Q72.175,460.7125 71.725,460.5625 Q71.275,460.4 70.825,460.4 Q70.2625,460.4 69.7875,460.625 Q69.325,460.85 68.9625,461.35 Q68.6,461.85 68.6,462.5375 L68.6,463.275 Q68.6,464.1 69.275,464.65 Q69.95,465.2 71.15,465.2 Q71.8625,465.2 72.3625,465.0375 Q72.65,464.95 72.975,464.6625 Q73.1875,464.5 73.3,464.45 Q73.4125,464.4 73.55,464.4 Q73.8125,464.4 74,464.6125 Q74.2,464.8125 74.2,465.1 Q74.2,465.375 73.925,465.7 Q73.525,466.175 72.8875,466.4375 Q72.05,466.8 71.025,466.8 Q69.825,466.8 68.8625,466.325 Q68.0875,465.95 67.5375,465.1375 Q67,464.325 67,463.3625 L67,462.4875 Q67,461.4875 67.475,460.6125 Q67.9625,459.7375 68.8,459.275 Q69.65,458.8 70.6,458.8 Q71.175,458.8 71.675,459 Q72.175,459.2 72.6,459.6 Z "/>
        <text fill="#000000" font-family="sans-serif" font-size="9.6" lengthAdjust="spacingAndGlyphs" textLength="35.2"
              x="87.4" y="466.3281">Anuncio
        </text>
        <line style="stroke: #A80036; stroke-width: 1.2000000000000002;" x1="5.6" x2="178.4" y1="475.2" y2="475.2"/>
        <text fill="#000000" font-family="sans-serif" font-size="8.8" lengthAdjust="spacingAndGlyphs" textLength="95.2"
              x="9.6" y="487.5352">-Date dtInicioPublicitacao
        </text>
        <text fill="#000000" font-family="sans-serif" font-size="8.8" lengthAdjust="spacingAndGlyphs" textLength="88.8"
              x="9.6" y="498.6039">-Date dtFimPublicitacao
        </text>
        <text fill="#000000" font-family="sans-serif" font-size="8.8" lengthAdjust="spacingAndGlyphs" textLength="96"
              x="9.6" y="509.6727">-Date dtInicioCandidatura
        </text>
        <text fill="#000000" font-family="sans-serif" font-size="8.8" lengthAdjust="spacingAndGlyphs" textLength="89.6"
              x="9.6" y="520.7414">-Date dtFimCandidatura
        </text>
        <text fill="#000000" font-family="sans-serif" font-size="8.8" lengthAdjust="spacingAndGlyphs" textLength="84"
              x="9.6" y="531.8102">-Date dtInicioSeriacao
        </text>
        <text fill="#000000" font-family="sans-serif" font-size="8.8" lengthAdjust="spacingAndGlyphs" textLength="77.6"
              x="9.6" y="542.8789">-Date dtFimSeriacao
        </text>
        <line style="stroke: #A80036; stroke-width: 1.2000000000000002;" x1="5.6" x2="178.4" y1="548.0125"
              y2="548.0125"/>
        <text fill="#000000" font-family="sans-serif" font-size="8.8" lengthAdjust="spacingAndGlyphs" textLength="80.8"
              x="9.6" y="560.3477">+Date getDataCand()
        </text>
        <text fill="#000000" font-family="sans-serif" font-size="8.8" lengthAdjust="spacingAndGlyphs" textLength="164.8"
              x="9.6" y="571.4164">+ListaCandidaturas getListaCandidaturas()
        </text><!--MD5=[ced2a86ae8bdfec1c757b7c305a75b1d]
class ListaCandidaturas-->
        <rect fill="#FEFECE" filter="url(#fqxpnyu76pxfl)" height="60.5375" id="ListaCandidaturas"
              style="stroke: #A80036; stroke-width: 1.2000000000000002;" width="141.6" x="21.2" y="639.2"/>
        <ellipse cx="48.68" cy="652" fill="#ADD1B2" rx="8.8" ry="8.8" style="stroke: #A80036; stroke-width: 0.8;"/>
        <path d="M50.28,649.2 Q50.4425,648.8 50.63,648.6 Q50.8175,648.4 51.03,648.4 Q51.405,648.4 51.6425,648.625 Q51.88,648.85 51.88,649.375 L51.88,650.625 Q51.88,651.15 51.655,651.375 Q51.43,651.6 51.08,651.6 Q50.7675,651.6 50.5675,651.4625 Q50.3675,651.325 50.28,650.9625 Q50.2425,650.7125 50.105,650.575 Q49.855,650.3125 49.405,650.1625 Q48.955,650 48.505,650 Q47.9425,650 47.4675,650.225 Q47.005,650.45 46.6425,650.95 Q46.28,651.45 46.28,652.1375 L46.28,652.875 Q46.28,653.7 46.955,654.25 Q47.63,654.8 48.83,654.8 Q49.5425,654.8 50.0425,654.6375 Q50.33,654.55 50.655,654.2625 Q50.8675,654.1 50.98,654.05 Q51.0925,654 51.23,654 Q51.4925,654 51.68,654.2125 Q51.88,654.4125 51.88,654.7 Q51.88,654.975 51.605,655.3 Q51.205,655.775 50.5675,656.0375 Q49.73,656.4 48.705,656.4 Q47.505,656.4 46.5425,655.925 Q45.7675,655.55 45.2175,654.7375 Q44.68,653.925 44.68,652.9625 L44.68,652.0875 Q44.68,651.0875 45.155,650.2125 Q45.6425,649.3375 46.48,648.875 Q47.33,648.4 48.28,648.4 Q48.855,648.4 49.355,648.6 Q49.855,648.8 50.28,649.2 Z "/>
        <text fill="#000000" font-family="sans-serif" font-size="9.6" lengthAdjust="spacingAndGlyphs" textLength="81.6"
              x="63.32" y="655.9281">ListaCandidaturas
        </text>
        <line style="stroke: #A80036; stroke-width: 1.2000000000000002;" x1="22" x2="162" y1="664.8" y2="664.8"/>
        <line style="stroke: #A80036; stroke-width: 1.2000000000000002;" x1="22" x2="162" y1="671.2" y2="671.2"/>
        <text fill="#000000" font-family="sans-serif" font-size="8.8" lengthAdjust="spacingAndGlyphs" textLength="71.2"
              x="26" y="683.5352">+getCandidatura(i)
        </text>
        <text fill="#000000" font-family="sans-serif" font-size="8.8" lengthAdjust="spacingAndGlyphs" textLength="132"
              x="26" y="694.6039">+removeCandidatura(candidatura)
        </text><!--MD5=[475c5b924ed41035684e2831311827d2]
class Candidatura-->
        <rect fill="#FEFECE" filter="url(#fqxpnyu76pxfl)" height="104.8125" id="Candidatura"
              style="stroke: #A80036; stroke-width: 1.2000000000000002;" width="118.4" x="32.8" y="762.4"/>
        <ellipse cx="62.08" cy="775.2" fill="#ADD1B2" rx="8.8" ry="8.8" style="stroke: #A80036; stroke-width: 0.8;"/>
        <path d="M63.68,772.4 Q63.8425,772 64.03,771.8 Q64.2175,771.6 64.43,771.6 Q64.805,771.6 65.0425,771.825 Q65.28,772.05 65.28,772.575 L65.28,773.825 Q65.28,774.35 65.055,774.575 Q64.83,774.8 64.48,774.8 Q64.1675,774.8 63.9675,774.6625 Q63.7675,774.525 63.68,774.1625 Q63.6425,773.9125 63.505,773.775 Q63.255,773.5125 62.805,773.3625 Q62.355,773.2 61.905,773.2 Q61.3425,773.2 60.8675,773.425 Q60.405,773.65 60.0425,774.15 Q59.68,774.65 59.68,775.3375 L59.68,776.075 Q59.68,776.9 60.355,777.45 Q61.03,778 62.23,778 Q62.9425,778 63.4425,777.8375 Q63.73,777.75 64.055,777.4625 Q64.2675,777.3 64.38,777.25 Q64.4925,777.2 64.63,777.2 Q64.8925,777.2 65.08,777.4125 Q65.28,777.6125 65.28,777.9 Q65.28,778.175 65.005,778.5 Q64.605,778.975 63.9675,779.2375 Q63.13,779.6 62.105,779.6 Q60.905,779.6 59.9425,779.125 Q59.1675,778.75 58.6175,777.9375 Q58.08,777.125 58.08,776.1625 L58.08,775.2875 Q58.08,774.2875 58.555,773.4125 Q59.0425,772.5375 59.88,772.075 Q60.73,771.6 61.68,771.6 Q62.255,771.6 62.755,771.8 Q63.255,772 63.68,772.4 Z "/>
        <text fill="#000000" font-family="sans-serif" font-size="9.6" lengthAdjust="spacingAndGlyphs" textLength="54.4"
              x="77.12" y="779.1281">Candidatura
        </text>
        <line style="stroke: #A80036; stroke-width: 1.2000000000000002;" x1="33.6" x2="150.4" y1="788" y2="788"/>
        <text fill="#000000" font-family="sans-serif" font-size="8.8" lengthAdjust="spacingAndGlyphs" textLength="86.4"
              x="37.6" y="800.3352">-Date dataCandidatura
        </text>
        <text fill="#000000" font-family="sans-serif" font-size="8.8" lengthAdjust="spacingAndGlyphs" textLength="92"
              x="37.6" y="811.4039">-Double valorPretendido
        </text>
        <text fill="#000000" font-family="sans-serif" font-size="8.8" lengthAdjust="spacingAndGlyphs" textLength="56.8"
              x="37.6" y="822.4727">-Integer nrDias
        </text>
        <text fill="#000000" font-family="sans-serif" font-size="8.8" lengthAdjust="spacingAndGlyphs" textLength="92.8"
              x="37.6" y="833.5414">-String txtApresentacao
        </text>
        <text fill="#000000" font-family="sans-serif" font-size="8.8" lengthAdjust="spacingAndGlyphs" textLength="76.8"
              x="37.6" y="844.6102">-String txtMotivacao
        </text>
        <line style="stroke: #A80036; stroke-width: 1.2000000000000002;" x1="33.6" x2="150.4" y1="849.7438"
              y2="849.7438"/>
        <text fill="#000000" font-family="sans-serif" font-size="8.8" lengthAdjust="spacingAndGlyphs" textLength="108.8"
              x="37.6" y="862.0789">+Freelancer getFreelancer()
        </text><!--MD5=[1f687b5315377fe49fca59b457947463]
class Freelancer-->
        <rect fill="#FEFECE" filter="url(#fqxpnyu76pxfl)" height="93.7438" id="Freelancer"
              style="stroke: #A80036; stroke-width: 1.2000000000000002;" width="72.8" x="213.2" y="768"/>
        <ellipse cx="225.2" cy="780.8" fill="#ADD1B2" rx="8.8" ry="8.8" style="stroke: #A80036; stroke-width: 0.8;"/>
        <path d="M226.8,778 Q226.9625,777.6 227.15,777.4 Q227.3375,777.2 227.55,777.2 Q227.925,777.2 228.1625,777.425 Q228.4,777.65 228.4,778.175 L228.4,779.425 Q228.4,779.95 228.175,780.175 Q227.95,780.4 227.6,780.4 Q227.2875,780.4 227.0875,780.2625 Q226.8875,780.125 226.8,779.7625 Q226.7625,779.5125 226.625,779.375 Q226.375,779.1125 225.925,778.9625 Q225.475,778.8 225.025,778.8 Q224.4625,778.8 223.9875,779.025 Q223.525,779.25 223.1625,779.75 Q222.8,780.25 222.8,780.9375 L222.8,781.675 Q222.8,782.5 223.475,783.05 Q224.15,783.6 225.35,783.6 Q226.0625,783.6 226.5625,783.4375 Q226.85,783.35 227.175,783.0625 Q227.3875,782.9 227.5,782.85 Q227.6125,782.8 227.75,782.8 Q228.0125,782.8 228.2,783.0125 Q228.4,783.2125 228.4,783.5 Q228.4,783.775 228.125,784.1 Q227.725,784.575 227.0875,784.8375 Q226.25,785.2 225.225,785.2 Q224.025,785.2 223.0625,784.725 Q222.2875,784.35 221.7375,783.5375 Q221.2,782.725 221.2,781.7625 L221.2,780.8875 Q221.2,779.8875 221.675,779.0125 Q222.1625,778.1375 223,777.675 Q223.85,777.2 224.8,777.2 Q225.375,777.2 225.875,777.4 Q226.375,777.6 226.8,778 Z "/>
        <text fill="#000000" font-family="sans-serif" font-size="9.6" lengthAdjust="spacingAndGlyphs" textLength="47.2"
              x="236.4" y="784.7281">Freelancer
        </text>
        <line style="stroke: #A80036; stroke-width: 1.2000000000000002;" x1="214" x2="285.2" y1="793.6" y2="793.6"/>
        <text fill="#000000" font-family="sans-serif" font-size="8.8" lengthAdjust="spacingAndGlyphs" textLength="48.8"
              x="218" y="805.9352">-String nome
        </text>
        <text fill="#000000" font-family="sans-serif" font-size="8.8" lengthAdjust="spacingAndGlyphs" textLength="40"
              x="218" y="817.0039">-String NIF
        </text>
        <text fill="#000000" font-family="sans-serif" font-size="8.8" lengthAdjust="spacingAndGlyphs" textLength="59.2"
              x="218" y="828.0727">-String telefone
        </text>
        <text fill="#000000" font-family="sans-serif" font-size="8.8" lengthAdjust="spacingAndGlyphs" textLength="47.2"
              x="218" y="839.1414">-String email
        </text>
        <line style="stroke: #A80036; stroke-width: 1.2000000000000002;" x1="214" x2="285.2" y1="844.275" y2="844.275"/>
        <text fill="#000000" font-family="sans-serif" font-size="8.8" lengthAdjust="spacingAndGlyphs" textLength="42.4"
              x="218" y="856.6102">+getEmail()
        </text><!--MD5=[7b332eb27ee985acbf6d390658359090]
link RetirarCandidaturaUI to RetirarCandidaturaController-->
        <path d="M331.2,44.944 C331.2,57.272 331.2,73.9336 331.2,89.1576 " fill="none"
              id="RetirarCandidaturaUI-&gt;RetirarCandidaturaController"
              style="stroke: #A80036; stroke-width: 0.8; stroke-dasharray: 7.0,7.0;"/>
        <polygon fill="#A80036" points="331.2,93.4088,334.4,86.2088,331.2,89.4088,328,86.2088,331.2,93.4088"
                 style="stroke: #A80036; stroke-width: 0.8;"/><!--MD5=[356742bae8c8a6c1450c40d3c0f237d3]
link RetirarCandidaturaController to Plataforma-->
        <path d="M296.8736,165.7208 C282.8688,180.1328 266.7608,196.7072 252.9832,210.884 " fill="none"
              id="RetirarCandidaturaController-&gt;Plataforma"
              style="stroke: #A80036; stroke-width: 0.8; stroke-dasharray: 7.0,7.0;"/>
        <polygon fill="#A80036"
                 points="249.8984,214.0576,257.211,211.124,252.686,211.1889,252.621,206.6639,249.8984,214.0576"
                 style="stroke: #A80036; stroke-width: 0.8;"/><!--MD5=[81e3a852d3d23712cb1d283ebf545b0d]
link RetirarCandidaturaController to AplicacaoPOT-->
        <path d="M346.124,165.7208 C352.1112,179.8904 358.9824,196.1512 364.9048,210.1672 " fill="none"
              id="RetirarCandidaturaController-&gt;AplicacaoPOT"
              style="stroke: #A80036; stroke-width: 0.8; stroke-dasharray: 7.0,7.0;"/>
        <polygon fill="#A80036"
                 points="366.548,214.0576,366.6918,206.1798,364.9904,210.3733,360.7969,208.672,366.548,214.0576"
                 style="stroke: #A80036; stroke-width: 0.8;"/><!--MD5=[2af8366280a3ccea230097d2ae0d4455]
link RetirarCandidaturaController to SessaoAtual-->
        <path d="M382.192,165.7208 C406.2904,182.4136 434.5792,202.0088 456.8248,217.4184 " fill="none"
              id="RetirarCandidaturaController-&gt;SessaoAtual"
              style="stroke: #A80036; stroke-width: 0.8; stroke-dasharray: 7.0,7.0;"/>
        <polygon fill="#A80036"
                 points="460.3416,219.8544,456.2452,213.1239,457.0535,217.5766,452.6008,218.3849,460.3416,219.8544"
                 style="stroke: #A80036; stroke-width: 0.8;"/><!--MD5=[34dd8d0a314b749e9293bc206d3aa75f]
link RetirarCandidaturaController to Freelancer-->
        <path d="M407.6888,133.8208 C481.3272,141.7168 581.6,166.6664 581.6,244 C581.6,244 581.6,244 581.6,670.4 C581.6,796.0455 378.8128,813.0086 290.2112,814.4238 "
              fill="none" id="RetirarCandidaturaController-&gt;Freelancer"
              style="stroke: #A80036; stroke-width: 0.8; stroke-dasharray: 7.0,7.0;"/>
        <polygon fill="#A80036"
                 points="286.0792,814.4798,293.3224,817.5807,290.0788,814.4249,293.2346,811.1813,286.0792,814.4798"
                 style="stroke: #A80036; stroke-width: 0.8;"/><!--MD5=[e8f771fcf16db02fcc735ede0d6f5775]
link RetirarCandidaturaController to RegistoAnuncios-->
        <path d="M254.5816,139.4968 C207.464,149.4856 150.5824,170.4416 120.8,214.4 C96.8264,249.7848 107.536,301.6456 117.8792,333.428 "
              fill="none" id="RetirarCandidaturaController-&gt;RegistoAnuncios"
              style="stroke: #A80036; stroke-width: 0.8; stroke-dasharray: 7.0,7.0;"/>
        <polygon fill="#A80036"
                 points="119.2672,337.584,120.0212,329.7411,117.9999,333.7901,113.9509,331.7688,119.2672,337.584"
                 style="stroke: #A80036; stroke-width: 0.8;"/><!--MD5=[83d19bfd8536cf1e7ed89e91cb560fc2]
link RetirarCandidaturaController to Anuncio-->
        <path d="M254.7872,136.4352 C202.0672,145.0016 135.34,165.5136 100,214.4 C54.0406,277.9768 55.3872,309.2256 64,387.2 C66.1118,406.3184 69.985,426.7848 74.191,445.5152 "
              fill="none" id="RetirarCandidaturaController-&gt;Anuncio"
              style="stroke: #A80036; stroke-width: 0.8; stroke-dasharray: 7.0,7.0;"/>
        <polygon fill="#A80036"
                 points="75.093,449.484,76.6193,441.7541,74.2073,445.5833,70.3781,443.1713,75.093,449.484"
                 style="stroke: #A80036; stroke-width: 0.8;"/><!--MD5=[39c0de7668d8063a4eb96c23050b3de2]
link Plataforma to Freelancer-->
        <path d="M229.4608,275.36 C235.4704,298.6272 242.4,331.8968 242.4,361.6 C242.4,361.6 242.4,361.6 242.4,670.4 C242.4,701.448 244.1,736.2256 245.8472,763.7784 "
              fill="none" id="Plataforma-&gt;Freelancer" style="stroke: #A80036; stroke-width: 0.8;"/>
        <polygon fill="#A80036"
                 points="246.1056,767.7896,248.8362,760.3988,245.8485,763.7979,242.4494,760.8102,246.1056,767.7896"
                 style="stroke: #A80036; stroke-width: 0.8;"/>
        <text fill="#000000" font-family="sans-serif" font-size="10.4" lengthAdjust="spacingAndGlyphs" textLength="17.6"
              x="243.2" y="517.5961">tem
        </text>
        <text fill="#000000" font-family="sans-serif" font-size="10.4" lengthAdjust="spacingAndGlyphs" textLength="5.6"
              x="224.7949" y="292.0899">1
        </text>
        <text fill="#000000" font-family="sans-serif" font-size="10.4" lengthAdjust="spacingAndGlyphs" textLength="4"
              x="241.436" y="759.2847">*
        </text><!--MD5=[463821f61fd53759657c2ac769a7e835]
link Plataforma to RegistoAnuncios-->
        <path d="M197.108,275.4728 C182.7736,293.5472 164.6256,316.4288 150.6384,334.064 " fill="none"
              id="Plataforma-&gt;RegistoAnuncios" style="stroke: #A80036; stroke-width: 0.8;"/>
        <polygon fill="#A80036"
                 points="148.0776,337.2936,155.0591,333.6414,150.5634,334.1598,150.045,329.6641,148.0776,337.2936"
                 style="stroke: #A80036; stroke-width: 0.8;"/>
        <text fill="#000000" font-family="sans-serif" font-size="10.4" lengthAdjust="spacingAndGlyphs" textLength="17.6"
              x="178.4" y="310.7961">tem
        </text>
        <text fill="#000000" font-family="sans-serif" font-size="10.4" lengthAdjust="spacingAndGlyphs" textLength="5.6"
              x="187.2858" y="292.2207">1
        </text>
        <text fill="#000000" font-family="sans-serif" font-size="10.4" lengthAdjust="spacingAndGlyphs" textLength="5.6"
              x="145.8761" y="328.834">1
        </text><!--MD5=[2903b91671052adea6f5e59eb6d59b42]
link RegistoAnuncios to Anuncio-->
        <path d="M122.8056,387.504 C118.9104,403.296 113.6272,424.7168 108.536,445.3576 " fill="none"
              id="RegistoAnuncios-&gt;Anuncio" style="stroke: #A80036; stroke-width: 0.8;"/>
        <polygon fill="#A80036"
                 points="107.5208,449.4736,112.3517,443.2493,108.4786,445.59,106.1379,441.7168,107.5208,449.4736"
                 style="stroke: #A80036; stroke-width: 0.8;"/>
        <text fill="#000000" font-family="sans-serif" font-size="10.4" lengthAdjust="spacingAndGlyphs" textLength="38.4"
              x="118.4" y="422.7961">publicita
        </text>
        <text fill="#000000" font-family="sans-serif" font-size="10.4" lengthAdjust="spacingAndGlyphs" textLength="5.6"
              x="115.5292" y="404.3449">1
        </text>
        <text fill="#000000" font-family="sans-serif" font-size="10.4" lengthAdjust="spacingAndGlyphs" textLength="4"
              x="104.8095" y="440.8111">*
        </text><!--MD5=[936379bbb1fbe67f1148bc2fdcd3e3c1]
link Anuncio to ListaCandidaturas-->
        <path d="M92,576.9632 C92,596.8784 92,618.1168 92,635.1472 " fill="none" id="Anuncio-&gt;ListaCandidaturas"
              style="stroke: #A80036; stroke-width: 0.8;"/>
        <polygon fill="#A80036" points="92,639.1592,95.2,631.9592,92,635.1592,88.8,631.9592,92,639.1592"
                 style="stroke: #A80036; stroke-width: 0.8;"/>
        <text fill="#000000" font-family="sans-serif" font-size="10.4" lengthAdjust="spacingAndGlyphs" textLength="17.6"
              x="92.8" y="612.3961">tem
        </text>
        <text fill="#000000" font-family="sans-serif" font-size="10.4" lengthAdjust="spacingAndGlyphs" textLength="5.6"
              x="86.1594" y="593.8118">1
        </text>
        <text fill="#000000" font-family="sans-serif" font-size="10.4" lengthAdjust="spacingAndGlyphs" textLength="5.6"
              x="85.8838" y="630.4129">1
        </text><!--MD5=[b3c62d3bd372a34b7ee6d6af17619677]
link ListaCandidaturas to Candidatura-->
        <path d="M92,700.1544 C92,716.8736 92,738.2896 92,758.0272 " fill="none" id="ListaCandidaturas-&gt;Candidatura"
              style="stroke: #A80036; stroke-width: 0.8;"/>
        <polygon fill="#A80036" points="92,762.2112,95.2,755.0112,92,758.2112,88.8,755.0112,92,762.2112"
                 style="stroke: #A80036; stroke-width: 0.8;"/>
        <text fill="#000000" font-family="sans-serif" font-size="10.4" lengthAdjust="spacingAndGlyphs" textLength="17.6"
              x="92.8" y="735.5961">tem
        </text>
        <text fill="#000000" font-family="sans-serif" font-size="10.4" lengthAdjust="spacingAndGlyphs" textLength="5.6"
              x="85.9538" y="716.8834">1
        </text>
        <text fill="#000000" font-family="sans-serif" font-size="10.4" lengthAdjust="spacingAndGlyphs" textLength="4"
              x="87.7813" y="753.7701">*
        </text><!--MD5=[a66e767a4304f5fa76db98d7839a7a61]
link Candidatura to Freelancer-->
        <path d="M151.3784,830.9127 C164.0352,832.6884 177.3416,833.3168 189.8,831.6 C196.0816,830.7345 202.632,829.3802 208.996,827.8076 "
              fill="none" id="Candidatura-&gt;Freelancer" style="stroke: #A80036; stroke-width: 0.8;"/>
        <polygon fill="#A80036"
                 points="212.9312,826.8026,205.1629,825.4857,209.0559,827.7934,206.7482,831.6863,212.9312,826.8026"
                 style="stroke: #A80036; stroke-width: 0.8;"/>
        <text fill="#000000" font-family="sans-serif" font-size="10.4" lengthAdjust="spacingAndGlyphs" textLength="13.6"
              x="175.4" y="828.7961">faz
        </text>
        <text fill="#000000" font-family="sans-serif" font-size="10.4" lengthAdjust="spacingAndGlyphs" textLength="4"
              x="157.708" y="829.9243">*
        </text>
        <text fill="#000000" font-family="sans-serif" font-size="10.4" lengthAdjust="spacingAndGlyphs" textLength="5.6"
              x="201.2875" y="825.6671">1
        </text><!--MD5=[3e4842a9a39f581fdf016dfd12392cbc]
link Freelancer to Candidatura-->
        <path d="M213.1488,814.8 C196.0304,814.8 175.1184,814.8 155.5176,814.8 " fill="none"
              id="Freelancer-&gt;Candidatura" style="stroke: #A80036; stroke-width: 0.8;"/>
        <polygon fill="#A80036" points="151.3576,814.8,158.5576,818,155.3576,814.8,158.5576,811.6,151.3576,814.8"
                 style="stroke: #A80036; stroke-width: 0.8;"/>
        <text fill="#000000" font-family="sans-serif" font-size="10.4" lengthAdjust="spacingAndGlyphs" textLength="32.8"
              x="165.8" y="809.5961">elimina
        </text>
        <text fill="#000000" font-family="sans-serif" font-size="10.4" lengthAdjust="spacingAndGlyphs" textLength="5.6"
              x="201.2931" y="811.7871">1
        </text>
        <text fill="#000000" font-family="sans-serif" font-size="10.4" lengthAdjust="spacingAndGlyphs" textLength="5.6"
              x="157.7676" y="812.15">1
        </text><!--MD5=[4d3cfce278248710c5b86de312b7e19f]
@startuml

skinparam classAttributeIconSize 0

class RetirarCandidaturaUI{
}

class RetirarCandidaturaController{
    +getListaCandidaturas()
    +get(idAnuncio)
    +removeCandidatura(candidatura)
}

class AplicacaoPOT{
    +static getInstance()
    +getSessaoAtual()
}

class SessaoAtual{
    +getEmailUtilizador()
}

class Plataforma {
  -String designacao
  +RegistoAnuncios +getRegistoAnuncios()
}

class RegistoAnuncios {
    +getListaAnuncios()
}

class Anuncio{
    -Date dtInicioPublicitacao
    -Date dtFimPublicitacao
    -Date dtInicioCandidatura
    -Date dtFimCandidatura
    -Date dtInicioSeriacao
    -Date dtFimSeriacao
    +Date getDataCand()
    +ListaCandidaturas getListaCandidaturas()
}

class ListaCandidaturas{
    +getCandidatura(i)
    +removeCandidatura(candidatura)
}

class Candidatura{
    -Date dataCandidatura
    -Double valorPretendido
    -Integer nrDias
    -String txtApresentacao
    -String txtMotivacao
    +Freelancer getFreelancer()
}

class Freelancer {
    -String nome
    -String NIF
    -String telefone
    -String email
    +getEmail()
}

RetirarCandidaturaUI ..> RetirarCandidaturaController
RetirarCandidaturaController ..> Plataforma
RetirarCandidaturaController ..> AplicacaoPOT
RetirarCandidaturaController ..> SessaoAtual
RetirarCandidaturaController ..> Freelancer
RetirarCandidaturaController .> RegistoAnuncios
RetirarCandidaturaController .> Anuncio
Plataforma "1" - -> "*" Freelancer : tem
Plataforma "1" - -> "1" RegistoAnuncios : tem
RegistoAnuncios "1" - -> "*" Anuncio : publicita
Anuncio "1" - -> "1" ListaCandidaturas : tem
ListaCandidaturas "1" - -> "*" Candidatura : tem
Candidatura "*" -> "1" Freelancer : faz
Freelancer "1" -> "1" Candidatura : elimina

@enduml

PlantUML version 1.2020.09(Sun May 10 11:51:06 BST 2020)
(GPL source distribution)
Java Runtime: OpenJDK Runtime Environment
JVM: OpenJDK 64-Bit Server VM
Java Version: 11.0.6+8-b765.40
Operating System: Windows 10
Default Encoding: Cp1252
Language: pt
Country: PT
-->
    </g>
</svg>