@startuml

autonumber

actor "Freelancer" as fl
participant ":Sistema" as s

activate fl
fl->s: inicia o processo de eliminação de candidatura
activate s
s-->fl: apresenta as candidaturas submetidas pelo freelancer
deactivate s
fl->s: seleciona a candidatura que pretende eliminar
activate s
s-->fl: pede ao freelancer para confirmar
deactivate s
fl->s: confirma a eliminação
activate s
s-->fl: operação bem sucedida
deactivate s
deactivate fl

@enduml