@startuml

skinparam classAttributeIconSize 0
hide methods
left to right direction

class Plataforma {
  -String designacao
}

class Categoria {
  -String id
  -String descricao
}

class Tarefa {
  -String referencia
  -String designacao
  -String descInformal
  -String descTecnica
  -Integer duracaoEst
  -Double custoEst
}

class Freelancer {
    -String nome
    -String NIF
    -String telefone
    -String email
}

class Anuncio
{
    -Date dtInicioPublicitacao
    -Date dtFimPublicitacao
    -Date dtInicioCandidatura
    -Date dtFimCandidatura
    -Date dtInicioSeriacao
    -Date dtFimSeriacao
}

class Candidatura
{
    -Date dataCandidatura
    -Double valorPretendido
    -Integer nrDias
    -String txtApresentacao
    -String txtMotivacao
}

Plataforma "1" -- "*" Categoria : possui >
Plataforma "1" -- "*" Anuncio : publicita >
Plataforma "1" -- "*" Freelancer : tem >


Anuncio "0..1" -- "1" Tarefa: publicita >
Anuncio "0..1" -- "1" Tarefa: da origem <
Anuncio "1" -- "*" Candidatura: recebe >

Tarefa "*" -- "1"  Categoria: enquadra-se em >

Candidatura "*" -- "1"  Freelancer: realizada por >
Freelancer "1" -- "1_*" Candidatura: pode eliminar > 

@enduml