<?xml version="1.0" encoding="UTF-8" standalone="no"?>
<svg xmlns="http://www.w3.org/2000/svg" contentScriptType="application/ecmascript" contentStyleType="text/css"
     height="692px" preserveAspectRatio="none" style="width:888px;height:692px;" version="1.1" viewBox="0 0 888 692"
     width="888px" zoomAndPan="magnify">
    <defs>
        <filter height="300%" id="fmsmy68iziek4" width="300%" x="-1" y="-1">
            <feGaussianBlur result="blurOut" stdDeviation="2.0"/>
            <feColorMatrix in="blurOut" result="blurOut2" type="matrix"
                           values="0 0 0 0 0 0 0 0 0 0 0 0 0 0 0 0 0 0 .4 0"/>
            <feOffset dx="4.0" dy="4.0" in="blurOut2" result="blurOut3"/>
            <feBlend in="SourceGraphic" in2="blurOut3" mode="normal"/>
        </filter>
    </defs>
    <g>
        <text fill="#000000" font-family="sans-serif" font-size="18" lengthAdjust="spacingAndGlyphs" textLength="337"
              x="276" y="27.4023">UC1_SD_RegistarGestorComoUtilizador
        </text>
        <rect fill="#FFFFFF" filter="url(#fmsmy68iziek4)" height="426.1738" style="stroke: #A80036; stroke-width: 1.0;"
              width="10" x="59" y="184.1074"/>
        <rect fill="#FFFFFF" filter="url(#fmsmy68iziek4)" height="28" style="stroke: #A80036; stroke-width: 1.0;"
              width="10" x="64" y="582.2813"/>
        <rect fill="#FFFFFF" filter="url(#fmsmy68iziek4)" height="30" style="stroke: #A80036; stroke-width: 1.0;"
              width="10" x="310" y="218.418"/>
        <rect fill="#FFFFFF" filter="url(#fmsmy68iziek4)" height="30" style="stroke: #A80036; stroke-width: 1.0;"
              width="10" x="310" y="277.7285"/>
        <rect fill="#FFFFFF" filter="url(#fmsmy68iziek4)" height="30" style="stroke: #A80036; stroke-width: 1.0;"
              width="10" x="441" y="337.0391"/>
        <rect fill="#FFFFFF" filter="url(#fmsmy68iziek4)" height="30" style="stroke: #A80036; stroke-width: 1.0;"
              width="10" x="441" y="455.6602"/>
        <rect fill="#FFFFFF" filter="url(#fmsmy68iziek4)" height="30" style="stroke: #A80036; stroke-width: 1.0;"
              width="10" x="619" y="396.3496"/>
        <rect fill="#FFFFFF" filter="url(#fmsmy68iziek4)" height="30" style="stroke: #A80036; stroke-width: 1.0;"
              width="10" x="812.5" y="514.9707"/>
        <line style="stroke: #A80036; stroke-width: 1.0; stroke-dasharray: 5.0,5.0;" x1="64" x2="64" y1="90.1758"
              y2="635.2813"/>
        <line style="stroke: #A80036; stroke-width: 1.0; stroke-dasharray: 5.0,5.0;" x1="315" x2="315" y1="90.1758"
              y2="635.2813"/>
        <line style="stroke: #A80036; stroke-width: 1.0; stroke-dasharray: 5.0,5.0;" x1="446" x2="446" y1="90.1758"
              y2="635.2813"/>
        <line style="stroke: #A80036; stroke-width: 1.0; stroke-dasharray: 5.0,5.0;" x1="624" x2="624" y1="90.1758"
              y2="635.2813"/>
        <line style="stroke: #A80036; stroke-width: 1.0; stroke-dasharray: 5.0,5.0;" x1="817" x2="817" y1="90.1758"
              y2="635.2813"/>
        <rect fill="#FEFECE" filter="url(#fmsmy68iziek4)" height="46.9766" style="stroke: #A80036; stroke-width: 1.5;"
              width="108" x="8" y="38.1992"/>
        <text fill="#000000" font-family="sans-serif" font-size="14" lengthAdjust="spacingAndGlyphs" textLength="70"
              x="27" y="58.7344">ro:Registo
        </text>
        <text fill="#000000" font-family="sans-serif" font-size="14" lengthAdjust="spacingAndGlyphs" textLength="94"
              x="15" y="75.2227">Organizacoes
        </text>
        <rect fill="#FEFECE" filter="url(#fmsmy68iziek4)" height="46.9766" style="stroke: #A80036; stroke-width: 1.5;"
              width="108" x="8" y="634.2813"/>
        <text fill="#000000" font-family="sans-serif" font-size="14" lengthAdjust="spacingAndGlyphs" textLength="70"
              x="27" y="654.8164">ro:Registo
        </text>
        <text fill="#000000" font-family="sans-serif" font-size="14" lengthAdjust="spacingAndGlyphs" textLength="94"
              x="15" y="671.3047">Organizacoes
        </text>
        <rect fill="#FEFECE" filter="url(#fmsmy68iziek4)" height="30.4883" style="stroke: #A80036; stroke-width: 1.5;"
              width="142" x="242" y="54.6875"/>
        <text fill="#000000" font-family="sans-serif" font-size="14" lengthAdjust="spacingAndGlyphs" textLength="128"
              x="249" y="75.2227">colab:Colaborador
        </text>
        <rect fill="#FEFECE" filter="url(#fmsmy68iziek4)" height="30.4883" style="stroke: #A80036; stroke-width: 1.5;"
              width="142" x="242" y="634.2813"/>
        <text fill="#000000" font-family="sans-serif" font-size="14" lengthAdjust="spacingAndGlyphs" textLength="128"
              x="249" y="654.8164">colab:Colaborador
        </text>
        <rect fill="#FEFECE" filter="url(#fmsmy68iziek4)" height="30.4883" style="stroke: #A80036; stroke-width: 1.5;"
              width="92" x="398" y="54.6875"/>
        <text fill="#000000" font-family="sans-serif" font-size="14" lengthAdjust="spacingAndGlyphs" textLength="78"
              x="405" y="75.2227">:Plataforma
        </text>
        <rect fill="#FEFECE" filter="url(#fmsmy68iziek4)" height="30.4883" style="stroke: #A80036; stroke-width: 1.5;"
              width="92" x="398" y="634.2813"/>
        <text fill="#000000" font-family="sans-serif" font-size="14" lengthAdjust="spacingAndGlyphs" textLength="78"
              x="405" y="654.8164">:Plataforma
        </text>
        <rect fill="#FEFECE" filter="url(#fmsmy68iziek4)" height="46.9766" style="stroke: #A80036; stroke-width: 1.5;"
              width="236" x="504" y="38.1992"/>
        <text fill="#000000" font-family="sans-serif" font-size="14" font-style="italic" lengthAdjust="spacingAndGlyphs"
              textLength="74" x="585" y="58.7344">«interface»
        </text>
        <text fill="#000000" font-family="sans-serif" font-size="14" lengthAdjust="spacingAndGlyphs" textLength="222"
              x="511" y="75.2227">alg:AlgoritmoGeradorPasswords
        </text>
        <rect fill="#FEFECE" filter="url(#fmsmy68iziek4)" height="46.9766" style="stroke: #A80036; stroke-width: 1.5;"
              width="236" x="504" y="634.2813"/>
        <text fill="#000000" font-family="sans-serif" font-size="14" font-style="italic" lengthAdjust="spacingAndGlyphs"
              textLength="74" x="585" y="654.8164">«interface»
        </text>
        <text fill="#000000" font-family="sans-serif" font-size="14" lengthAdjust="spacingAndGlyphs" textLength="222"
              x="511" y="671.3047">alg:AlgoritmoGeradorPasswords
        </text>
        <rect fill="#FEFECE" filter="url(#fmsmy68iziek4)" height="46.9766" style="stroke: #A80036; stroke-width: 1.5;"
              width="123" x="754" y="38.1992"/>
        <text fill="#000000" font-family="sans-serif" font-size="14" lengthAdjust="spacingAndGlyphs" textLength="109"
              x="761" y="58.7344">aut:Autorizacao
        </text>
        <text fill="#000000" font-family="sans-serif" font-size="14" lengthAdjust="spacingAndGlyphs" textLength="48"
              x="791.5" y="75.2227">Facade
        </text>
        <rect fill="#FEFECE" filter="url(#fmsmy68iziek4)" height="46.9766" style="stroke: #A80036; stroke-width: 1.5;"
              width="123" x="754" y="634.2813"/>
        <text fill="#000000" font-family="sans-serif" font-size="14" lengthAdjust="spacingAndGlyphs" textLength="109"
              x="761" y="654.8164">aut:Autorizacao
        </text>
        <text fill="#000000" font-family="sans-serif" font-size="14" lengthAdjust="spacingAndGlyphs" textLength="48"
              x="791.5" y="671.3047">Facade
        </text>
        <rect fill="#FFFFFF" filter="url(#fmsmy68iziek4)" height="426.1738" style="stroke: #A80036; stroke-width: 1.0;"
              width="10" x="59" y="184.1074"/>
        <rect fill="#FFFFFF" filter="url(#fmsmy68iziek4)" height="28" style="stroke: #A80036; stroke-width: 1.0;"
              width="10" x="64" y="582.2813"/>
        <rect fill="#FFFFFF" filter="url(#fmsmy68iziek4)" height="30" style="stroke: #A80036; stroke-width: 1.0;"
              width="10" x="310" y="218.418"/>
        <rect fill="#FFFFFF" filter="url(#fmsmy68iziek4)" height="30" style="stroke: #A80036; stroke-width: 1.0;"
              width="10" x="310" y="277.7285"/>
        <rect fill="#FFFFFF" filter="url(#fmsmy68iziek4)" height="30" style="stroke: #A80036; stroke-width: 1.0;"
              width="10" x="441" y="337.0391"/>
        <rect fill="#FFFFFF" filter="url(#fmsmy68iziek4)" height="30" style="stroke: #A80036; stroke-width: 1.0;"
              width="10" x="441" y="455.6602"/>
        <rect fill="#FFFFFF" filter="url(#fmsmy68iziek4)" height="30" style="stroke: #A80036; stroke-width: 1.0;"
              width="10" x="619" y="396.3496"/>
        <rect fill="#FFFFFF" filter="url(#fmsmy68iziek4)" height="30" style="stroke: #A80036; stroke-width: 1.0;"
              width="10" x="812.5" y="514.9707"/>
        <path d="M501,105.1758 L501,145.1758 L742,145.1758 L742,115.1758 L732,105.1758 L501,105.1758 " fill="#FBFB77"
              filter="url(#fmsmy68iziek4)" style="stroke: #A80036; stroke-width: 1.0;"/>
        <path d="M732,105.1758 L732,115.1758 L742,115.1758 L732,105.1758 " fill="#FBFB77"
              style="stroke: #A80036; stroke-width: 1.0;"/>
        <text fill="#000000" font-family="sans-serif" font-size="13" lengthAdjust="spacingAndGlyphs" textLength="220"
              x="507" y="122.7441">É uma instância de qualquer classe
        </text>
        <text fill="#000000" font-family="sans-serif" font-size="13" lengthAdjust="spacingAndGlyphs" textLength="194"
              x="507" y="138.0547">que implemente esta interface.
        </text>
        <line style="stroke: #A80036; stroke-width: 1.0;" x1="64" x2="111" y1="171.1074" y2="171.1074"/>
        <line style="stroke: #A80036; stroke-width: 1.0;" x1="111" x2="111" y1="171.1074" y2="184.1074"/>
        <line style="stroke: #A80036; stroke-width: 1.0;" x1="70" x2="111" y1="184.1074" y2="184.1074"/>
        <polygon fill="#A80036" points="80,180.1074,70,184.1074,80,188.1074,76,184.1074"
                 style="stroke: #A80036; stroke-width: 1.0;"/>
        <text fill="#000000" font-family="sans-serif" font-size="13" font-weight="bold" lengthAdjust="spacingAndGlyphs"
              textLength="9" x="76" y="166.3652">1
        </text>
        <text fill="#000000" font-family="sans-serif" font-size="13" lengthAdjust="spacingAndGlyphs" textLength="224"
              x="89" y="166.3652">registaGestorComoUtilizador(colab)
        </text>
        <polygon fill="#A80036" points="298,214.418,308,218.418,298,222.418,302,218.418"
                 style="stroke: #A80036; stroke-width: 1.0;"/>
        <line style="stroke: #A80036; stroke-width: 1.0;" x1="69" x2="304" y1="218.418" y2="218.418"/>
        <text fill="#000000" font-family="sans-serif" font-size="13" font-weight="bold" lengthAdjust="spacingAndGlyphs"
              textLength="9" x="76" y="213.6758">2
        </text>
        <text fill="#000000" font-family="sans-serif" font-size="13" lengthAdjust="spacingAndGlyphs" textLength="127"
              x="89" y="213.6758">nomeG = getNome()
        </text>
        <polygon fill="#A80036" points="298,273.7285,308,277.7285,298,281.7285,302,277.7285"
                 style="stroke: #A80036; stroke-width: 1.0;"/>
        <line style="stroke: #A80036; stroke-width: 1.0;" x1="69" x2="304" y1="277.7285" y2="277.7285"/>
        <text fill="#000000" font-family="sans-serif" font-size="13" font-weight="bold" lengthAdjust="spacingAndGlyphs"
              textLength="9" x="76" y="272.9863">3
        </text>
        <text fill="#000000" font-family="sans-serif" font-size="13" lengthAdjust="spacingAndGlyphs" textLength="123"
              x="89" y="272.9863">emailG = getEmail()
        </text>
        <polygon fill="#A80036" points="429,333.0391,439,337.0391,429,341.0391,433,337.0391"
                 style="stroke: #A80036; stroke-width: 1.0;"/>
        <line style="stroke: #A80036; stroke-width: 1.0;" x1="69" x2="435" y1="337.0391" y2="337.0391"/>
        <text fill="#000000" font-family="sans-serif" font-size="13" font-weight="bold" lengthAdjust="spacingAndGlyphs"
              textLength="9" x="76" y="332.2969">4
        </text>
        <text fill="#000000" font-family="sans-serif" font-size="13" lengthAdjust="spacingAndGlyphs" textLength="194"
              x="89" y="332.2969">alg=getAlgoritmoGeradorPwd()
        </text>
        <polygon fill="#A80036" points="607,392.3496,617,396.3496,607,400.3496,611,396.3496"
                 style="stroke: #A80036; stroke-width: 1.0;"/>
        <line style="stroke: #A80036; stroke-width: 1.0;" x1="69" x2="613" y1="396.3496" y2="396.3496"/>
        <text fill="#000000" font-family="sans-serif" font-size="13" font-weight="bold" lengthAdjust="spacingAndGlyphs"
              textLength="9" x="76" y="391.6074">5
        </text>
        <text fill="#000000" font-family="sans-serif" font-size="13" lengthAdjust="spacingAndGlyphs" textLength="233"
              x="89" y="391.6074">pwd = geraPassword(nomeG, emailG)
        </text>
        <polygon fill="#A80036" points="429,451.6602,439,455.6602,429,459.6602,433,455.6602"
                 style="stroke: #A80036; stroke-width: 1.0;"/>
        <line style="stroke: #A80036; stroke-width: 1.0;" x1="69" x2="435" y1="455.6602" y2="455.6602"/>
        <text fill="#000000" font-family="sans-serif" font-size="13" font-weight="bold" lengthAdjust="spacingAndGlyphs"
              textLength="9" x="76" y="450.918">6
        </text>
        <text fill="#000000" font-family="sans-serif" font-size="13" lengthAdjust="spacingAndGlyphs" textLength="184"
              x="89" y="450.918">aut = getAutorizacaoFacade()
        </text>
        <polygon fill="#A80036" points="800.5,510.9707,810.5,514.9707,800.5,518.9707,804.5,514.9707"
                 style="stroke: #A80036; stroke-width: 1.0;"/>
        <line style="stroke: #A80036; stroke-width: 1.0;" x1="69" x2="806.5" y1="514.9707" y2="514.9707"/>
        <text fill="#000000" font-family="sans-serif" font-size="13" font-weight="bold" lengthAdjust="spacingAndGlyphs"
              textLength="9" x="76" y="510.2285">7
        </text>
        <text fill="#000000" font-family="sans-serif" font-size="13" lengthAdjust="spacingAndGlyphs" textLength="484"
              x="89" y="510.2285">registaUtilizadorComPapeis(nomeG,emailG,pwd,["GESTOR","COLABORADOR"])
        </text>
        <line style="stroke: #A80036; stroke-width: 1.0;" x1="74" x2="116" y1="574.2813" y2="574.2813"/>
        <line style="stroke: #A80036; stroke-width: 1.0;" x1="116" x2="116" y1="574.2813" y2="587.2813"/>
        <line style="stroke: #A80036; stroke-width: 1.0;" x1="75" x2="116" y1="587.2813" y2="587.2813"/>
        <polygon fill="#A80036" points="85,583.2813,75,587.2813,85,591.2813,81,587.2813"
                 style="stroke: #A80036; stroke-width: 1.0;"/>
        <text fill="#000000" font-family="sans-serif" font-size="13" font-weight="bold" lengthAdjust="spacingAndGlyphs"
              textLength="9" x="81" y="569.5391">8
        </text>
        <text fill="#000000" font-family="sans-serif" font-size="13" lengthAdjust="spacingAndGlyphs" textLength="143"
              x="94" y="569.5391">enviaPwd(emailG, pwd)
        </text><!--MD5=[b26ee0849312505162a8e1b9b454ee48]
@startuml
title UC1_SD_RegistarGestorComoUtilizador
autonumber

participant "ro:Registo\nOrganizacoes" as ORGS
participant "colab:Colaborador" as COLAB
participant ":Plataforma" as PLAT
participant "alg:AlgoritmoGeradorPasswords" as ALG << interface >>
participant "aut:Autorizacao\nFacade" as AUT

note over of ALG
 É uma instância de qualquer classe
 que implemente esta interface.
end note

ORGS -> ORGS: registaGestorComoUtilizador(colab)
activate ORGS

ORGS -> COLAB: nomeG = getNome()
activate COLAB
deactivate COLAB
ORGS -> COLAB: emailG = getEmail()
activate COLAB
deactivate COLAB

ORGS -> PLAT : alg=getAlgoritmoGeradorPwd()
activate PLAT
deactivate PLAT

ORGS -> ALG: pwd = geraPassword(nomeG, emailG)
activate ALG
deactivate ALG

ORGS -> PLAT : aut = getAutorizacaoFacade()
activate PLAT
deactivate PLAT

ORGS -> AUT: registaUtilizadorComPapeis(nomeG,emailG,pwd,["GESTOR","COLABORADOR"])
activate AUT
deactivate AUT


ORGS -> ORGS: enviaPwd(emailG, pwd)
activate ORGS
deactivate ORGS

deactivate ORGS
@enduml

PlantUML version 1.2020.03beta6(Unknown compile time)
(GPL source distribution)
Java Runtime: OpenJDK Runtime Environment
JVM: OpenJDK 64-Bit Server VM
Java Version: 11.0.5+10-b520.38
Operating System: Mac OS X
Default Encoding: UTF-8
Language: en
Country: PT
-->
    </g>
</svg>