<?xml version="1.0" encoding="UTF-8" standalone="no"?>
<svg xmlns="http://www.w3.org/2000/svg" contentScriptType="application/ecmascript" contentStyleType="text/css"
     height="817.8px" preserveAspectRatio="none" style="width:1747px;height:817px;" version="1.1" viewBox="0 0 1747 817"
     width="1747.2px" zoomAndPan="magnify">
    <defs>
        <filter height="300%" id="f1h1dzjfaycrda" width="300%" x="-1" y="-1">
            <feGaussianBlur result="blurOut" stdDeviation="1.2"/>
            <feColorMatrix in="blurOut" result="blurOut2" type="matrix"
                           values="0 0 0 0 0 0 0 0 0 0 0 0 0 0 0 0 0 0 .4 0"/>
            <feOffset dx="2.4" dy="2.4" in="blurOut2" result="blurOut3"/>
            <feBlend in="SourceGraphic" in2="blurOut3" mode="normal"/>
        </filter>
    </defs>
    <g>
        <rect fill="#FFFFFF" filter="url(#f1h1dzjfaycrda)" height="696.6305" style="stroke: #A80036; stroke-width: 0.6;"
              width="6" x="63.3" y="57.893"/>
        <rect fill="#FFFFFF" filter="url(#f1h1dzjfaycrda)" height="26.7727" style="stroke: #A80036; stroke-width: 0.6;"
              width="6" x="549.3" y="70.6793"/>
        <rect fill="#FFFFFF" filter="url(#f1h1dzjfaycrda)" height="106.3453" style="stroke: #A80036; stroke-width: 0.6;"
              width="6" x="549.3" y="115.0383"/>
        <rect fill="#FFFFFF" filter="url(#f1h1dzjfaycrda)" height="394.4355" style="stroke: #A80036; stroke-width: 0.6;"
              width="6" x="549.3" y="238.9699"/>
        <rect fill="#FFFFFF" filter="url(#f1h1dzjfaycrda)" height="103.5316" style="stroke: #A80036; stroke-width: 0.6;"
              width="6" x="549.3" y="650.9918"/>
        <rect fill="#FFFFFF" filter="url(#f1h1dzjfaycrda)" height="71.1727" style="stroke: #A80036; stroke-width: 0.6;"
              width="6" x="786.3" y="132.6246"/>
        <rect fill="#FFFFFF" filter="url(#f1h1dzjfaycrda)" height="376.8492" style="stroke: #A80036; stroke-width: 0.6;"
              width="6" x="786.3" y="256.5563"/>
        <rect fill="#FFFFFF" filter="url(#f1h1dzjfaycrda)" height="85.9453" style="stroke: #A80036; stroke-width: 0.6;"
              width="6" x="786.3" y="668.5781"/>
        <rect fill="#FFFFFF" filter="url(#f1h1dzjfaycrda)" height="18" style="stroke: #A80036; stroke-width: 0.6;"
              width="6" x="890.1" y="309.7289"/>
        <rect fill="#FFFFFF" filter="url(#f1h1dzjfaycrda)" height="18" style="stroke: #A80036; stroke-width: 0.6;"
              width="6" x="964.5" y="360.3152"/>
        <rect fill="#FFFFFF" filter="url(#f1h1dzjfaycrda)" height="18" style="stroke: #A80036; stroke-width: 0.6;"
              width="6" x="1046.1" y="410.9016"/>
        <rect fill="#FFFFFF" filter="url(#f1h1dzjfaycrda)" height="18" style="stroke: #A80036; stroke-width: 0.6;"
              width="6" x="1121.7" y="150.2109"/>
        <rect fill="#FFFFFF" filter="url(#f1h1dzjfaycrda)" height="18" style="stroke: #A80036; stroke-width: 0.6;"
              width="6" x="1121.7" y="446.4879"/>
        <rect fill="#FFFFFF" filter="url(#f1h1dzjfaycrda)" height="18" style="stroke: #A80036; stroke-width: 0.6;"
              width="6" x="1186.2" y="185.7973"/>
        <rect fill="#FFFFFF" filter="url(#f1h1dzjfaycrda)" height="18" style="stroke: #A80036; stroke-width: 0.6;"
              width="6" x="1186.2" y="274.1426"/>
        <rect fill="#FFFFFF" filter="url(#f1h1dzjfaycrda)" height="18" style="stroke: #A80036; stroke-width: 0.6;"
              width="6" x="1255.5" y="482.0742"/>
        <rect fill="#FFFFFF" filter="url(#f1h1dzjfaycrda)" height="18" style="stroke: #A80036; stroke-width: 0.6;"
              width="6" x="1327.8" y="517.6605"/>
        <rect fill="#FFFFFF" filter="url(#f1h1dzjfaycrda)" height="80.1586" style="stroke: #A80036; stroke-width: 0.6;"
              width="6" x="1397.7" y="553.2469"/>
        <rect fill="#FFFFFF" filter="url(#f1h1dzjfaycrda)" height="68.359" style="stroke: #A80036; stroke-width: 0.6;"
              width="6" x="1397.7" y="686.1645"/>
        <line style="stroke: #A80036; stroke-width: 0.6; stroke-dasharray: 5.0,5.0;" x1="66" x2="66" y1="51.893"
              y2="765.3234"/>
        <line style="stroke: #A80036; stroke-width: 0.6; stroke-dasharray: 5.0,5.0;" x1="552" x2="552" y1="51.893"
              y2="765.3234"/>
        <line style="stroke: #A80036; stroke-width: 0.6; stroke-dasharray: 5.0,5.0;" x1="789" x2="789" y1="51.893"
              y2="765.3234"/>
        <line style="stroke: #A80036; stroke-width: 0.6; stroke-dasharray: 5.0,5.0;" x1="893.1" x2="893.1" y1="51.893"
              y2="765.3234"/>
        <line style="stroke: #A80036; stroke-width: 0.6; stroke-dasharray: 5.0,5.0;" x1="967.5" x2="967.5" y1="51.893"
              y2="765.3234"/>
        <line style="stroke: #A80036; stroke-width: 0.6; stroke-dasharray: 5.0,5.0;" x1="1049.1" x2="1049.1" y1="51.893"
              y2="765.3234"/>
        <line style="stroke: #A80036; stroke-width: 0.6; stroke-dasharray: 5.0,5.0;" x1="1124.7" x2="1124.7" y1="51.893"
              y2="765.3234"/>
        <line style="stroke: #A80036; stroke-width: 0.6; stroke-dasharray: 5.0,5.0;" x1="1188.9" x2="1188.9" y1="51.893"
              y2="765.3234"/>
        <line style="stroke: #A80036; stroke-width: 0.6; stroke-dasharray: 5.0,5.0;" x1="1258.5" x2="1258.5" y1="51.893"
              y2="765.3234"/>
        <line style="stroke: #A80036; stroke-width: 0.6; stroke-dasharray: 5.0,5.0;" x1="1330.5" x2="1330.5" y1="51.893"
              y2="765.3234"/>
        <line style="stroke: #A80036; stroke-width: 0.6; stroke-dasharray: 5.0,5.0;" x1="1400.7" x2="1400.7" y1="51.893"
              y2="765.3234"/>
        <line style="stroke: #A80036; stroke-width: 0.6; stroke-dasharray: 5.0,5.0;" x1="1637.1" x2="1637.1"
              y1="582.6398" y2="765.3234"/>
        <line style="stroke: #A80036; stroke-width: 0.6; stroke-dasharray: 5.0,5.0;" x1="1703.1" x2="1703.1" y1="51.893"
              y2="765.3234"/>
        <text fill="#000000" font-family="sans-serif" font-size="8.4" lengthAdjust="spacingAndGlyphs" textLength="119.4"
              x="4.8" y="50.1211">Colaborador de Organização
        </text>
        <ellipse cx="66.3" cy="7.8" fill="#FEFECE" filter="url(#f1h1dzjfaycrda)" rx="4.8" ry="4.8"
                 style="stroke: #A80036; stroke-width: 1.2;"/>
        <path d="M66.3,12.6 L66.3,28.8 M58.5,17.4 L74.1,17.4 M66.3,28.8 L58.5,37.8 M66.3,28.8 L74.1,37.8 " fill="none"
              filter="url(#f1h1dzjfaycrda)" style="stroke: #A80036; stroke-width: 1.2;"/>
        <text fill="#000000" font-family="sans-serif" font-size="8.4" lengthAdjust="spacingAndGlyphs" textLength="119.4"
              x="4.8" y="772.8445">Colaborador de Organização
        </text>
        <ellipse cx="66.3" cy="780.6164" fill="#FEFECE" filter="url(#f1h1dzjfaycrda)" rx="4.8" ry="4.8"
                 style="stroke: #A80036; stroke-width: 1.2;"/>
        <path d="M66.3,785.4164 L66.3,801.6164 M58.5,790.2164 L74.1,790.2164 M66.3,801.6164 L58.5,810.6164 M66.3,801.6164 L74.1,810.6164 "
              fill="none" filter="url(#f1h1dzjfaycrda)" style="stroke: #A80036; stroke-width: 1.2;"/>
        <rect fill="#FEFECE" filter="url(#f1h1dzjfaycrda)" height="18.293"
              style="stroke: #A80036; stroke-width: 0.8999999999999999;" width="89.4" x="506.4" y="30.6"/>
        <text fill="#000000" font-family="sans-serif" font-size="8.4" lengthAdjust="spacingAndGlyphs" textLength="81"
              x="510.6" y="42.9211">:EspecificarTarefaUI
        </text>
        <rect fill="#FEFECE" filter="url(#f1h1dzjfaycrda)" height="18.293"
              style="stroke: #A80036; stroke-width: 0.8999999999999999;" width="89.4" x="506.4" y="764.7234"/>
        <text fill="#000000" font-family="sans-serif" font-size="8.4" lengthAdjust="spacingAndGlyphs" textLength="81"
              x="510.6" y="777.0445">:EspecificarTarefaUI
        </text>
        <rect fill="#FEFECE" filter="url(#f1h1dzjfaycrda)" height="18.293"
              style="stroke: #A80036; stroke-width: 0.8999999999999999;" width="123" x="726.6" y="30.6"/>
        <text fill="#000000" font-family="sans-serif" font-size="8.4" lengthAdjust="spacingAndGlyphs" textLength="114.6"
              x="730.8" y="42.9211">:EspecificarTarefaController
        </text>
        <rect fill="#FEFECE" filter="url(#f1h1dzjfaycrda)" height="18.293"
              style="stroke: #A80036; stroke-width: 0.8999999999999999;" width="123" x="726.6" y="764.7234"/>
        <text fill="#000000" font-family="sans-serif" font-size="8.4" lengthAdjust="spacingAndGlyphs" textLength="114.6"
              x="730.8" y="777.0445">:EspecificarTarefaController
        </text>
        <rect fill="#FEFECE" filter="url(#f1h1dzjfaycrda)" height="18.293"
              style="stroke: #A80036; stroke-width: 0.8999999999999999;" width="64.8" x="859.5" y="30.6"/>
        <text fill="#000000" font-family="sans-serif" font-size="8.4" lengthAdjust="spacingAndGlyphs" textLength="56.4"
              x="863.7" y="42.9211">AplicacaoPOT
        </text>
        <rect fill="#FEFECE" filter="url(#f1h1dzjfaycrda)" height="18.293"
              style="stroke: #A80036; stroke-width: 0.8999999999999999;" width="64.8" x="859.5" y="764.7234"/>
        <text fill="#000000" font-family="sans-serif" font-size="8.4" lengthAdjust="spacingAndGlyphs" textLength="56.4"
              x="863.7" y="777.0445">AplicacaoPOT
        </text>
        <rect fill="#FEFECE" filter="url(#f1h1dzjfaycrda)" height="28.1859"
              style="stroke: #A80036; stroke-width: 0.8999999999999999;" width="67.2" x="932.7" y="20.707"/>
        <text fill="#000000" font-family="sans-serif" font-size="8.4" lengthAdjust="spacingAndGlyphs" textLength="15.6"
              x="958.5" y="33.0281">app
        </text>
        <text fill="#000000" font-family="sans-serif" font-size="8.4" lengthAdjust="spacingAndGlyphs" textLength="58.8"
              x="936.9" y="42.9211">:AplicacaoPOT
        </text>
        <rect fill="#FEFECE" filter="url(#f1h1dzjfaycrda)" height="28.1859"
              style="stroke: #A80036; stroke-width: 0.8999999999999999;" width="67.2" x="932.7" y="764.7234"/>
        <text fill="#000000" font-family="sans-serif" font-size="8.4" lengthAdjust="spacingAndGlyphs" textLength="15.6"
              x="958.5" y="777.0445">app
        </text>
        <text fill="#000000" font-family="sans-serif" font-size="8.4" lengthAdjust="spacingAndGlyphs" textLength="58.8"
              x="936.9" y="786.9375">:AplicacaoPOT
        </text>
        <rect fill="#FEFECE" filter="url(#f1h1dzjfaycrda)" height="28.1859"
              style="stroke: #A80036; stroke-width: 0.8999999999999999;" width="79.2" x="1008.3" y="20.707"/>
        <text fill="#000000" font-family="sans-serif" font-size="8.4" lengthAdjust="spacingAndGlyphs" textLength="27.6"
              x="1034.1" y="33.0281">sessao
        </text>
        <text fill="#000000" font-family="sans-serif" font-size="8.4" lengthAdjust="spacingAndGlyphs" textLength="70.8"
              x="1012.5" y="42.9211">:SessaoUtilizador
        </text>
        <rect fill="#FEFECE" filter="url(#f1h1dzjfaycrda)" height="28.1859"
              style="stroke: #A80036; stroke-width: 0.8999999999999999;" width="79.2" x="1008.3" y="764.7234"/>
        <text fill="#000000" font-family="sans-serif" font-size="8.4" lengthAdjust="spacingAndGlyphs" textLength="27.6"
              x="1034.1" y="777.0445">sessao
        </text>
        <text fill="#000000" font-family="sans-serif" font-size="8.4" lengthAdjust="spacingAndGlyphs" textLength="70.8"
              x="1012.5" y="786.9375">:SessaoUtilizador
        </text>
        <rect fill="#FEFECE" filter="url(#f1h1dzjfaycrda)" height="18.293"
              style="stroke: #A80036; stroke-width: 0.8999999999999999;" width="55.2" x="1095.9" y="30.6"/>
        <text fill="#000000" font-family="sans-serif" font-size="8.4" lengthAdjust="spacingAndGlyphs" textLength="46.8"
              x="1100.1" y="42.9211">:Plataforma
        </text>
        <rect fill="#FEFECE" filter="url(#f1h1dzjfaycrda)" height="18.293"
              style="stroke: #A80036; stroke-width: 0.8999999999999999;" width="55.2" x="1095.9" y="764.7234"/>
        <text fill="#000000" font-family="sans-serif" font-size="8.4" lengthAdjust="spacingAndGlyphs" textLength="46.8"
              x="1100.1" y="777.0445">:Plataforma
        </text>
        <rect fill="#FEFECE" filter="url(#f1h1dzjfaycrda)" height="28.1859"
              style="stroke: #A80036; stroke-width: 0.8999999999999999;" width="57" x="1159.5" y="20.707"/>
        <text fill="#000000" font-family="sans-serif" font-size="8.4" lengthAdjust="spacingAndGlyphs" textLength="48.6"
              x="1163.7" y="33.0281">rcat:Registo
        </text>
        <text fill="#000000" font-family="sans-serif" font-size="8.4" lengthAdjust="spacingAndGlyphs" textLength="44.4"
              x="1165.8" y="42.9211">Categorias
        </text>
        <rect fill="#FEFECE" filter="url(#f1h1dzjfaycrda)" height="28.1859"
              style="stroke: #A80036; stroke-width: 0.8999999999999999;" width="57" x="1159.5" y="764.7234"/>
        <text fill="#000000" font-family="sans-serif" font-size="8.4" lengthAdjust="spacingAndGlyphs" textLength="48.6"
              x="1163.7" y="777.0445">rcat:Registo
        </text>
        <text fill="#000000" font-family="sans-serif" font-size="8.4" lengthAdjust="spacingAndGlyphs" textLength="44.4"
              x="1165.8" y="786.9375">Categorias
        </text>
        <rect fill="#FEFECE" filter="url(#f1h1dzjfaycrda)" height="28.1859"
              style="stroke: #A80036; stroke-width: 0.8999999999999999;" width="64.8" x="1224.9" y="20.707"/>
        <text fill="#000000" font-family="sans-serif" font-size="8.4" lengthAdjust="spacingAndGlyphs" textLength="55.2"
              x="1229.7" y="33.0281">rorgs:Registo
        </text>
        <text fill="#000000" font-family="sans-serif" font-size="8.4" lengthAdjust="spacingAndGlyphs" textLength="56.4"
              x="1229.1" y="42.9211">Organizacoes
        </text>
        <rect fill="#FEFECE" filter="url(#f1h1dzjfaycrda)" height="28.1859"
              style="stroke: #A80036; stroke-width: 0.8999999999999999;" width="64.8" x="1224.9" y="764.7234"/>
        <text fill="#000000" font-family="sans-serif" font-size="8.4" lengthAdjust="spacingAndGlyphs" textLength="55.2"
              x="1229.7" y="777.0445">rorgs:Registo
        </text>
        <text fill="#000000" font-family="sans-serif" font-size="8.4" lengthAdjust="spacingAndGlyphs" textLength="56.4"
              x="1229.1" y="786.9375">Organizacoes
        </text>
        <rect fill="#FEFECE" filter="url(#f1h1dzjfaycrda)" height="28.1859"
              style="stroke: #A80036; stroke-width: 0.8999999999999999;" width="63" x="1298.1" y="20.707"/>
        <text fill="#000000" font-family="sans-serif" font-size="8.4" lengthAdjust="spacingAndGlyphs" textLength="14.4"
              x="1322.4" y="33.0281">org
        </text>
        <text fill="#000000" font-family="sans-serif" font-size="8.4" lengthAdjust="spacingAndGlyphs" textLength="54.6"
              x="1302.3" y="42.9211">:Organizacao
        </text>
        <rect fill="#FEFECE" filter="url(#f1h1dzjfaycrda)" height="28.1859"
              style="stroke: #A80036; stroke-width: 0.8999999999999999;" width="63" x="1298.1" y="764.7234"/>
        <text fill="#000000" font-family="sans-serif" font-size="8.4" lengthAdjust="spacingAndGlyphs" textLength="14.4"
              x="1322.4" y="777.0445">org
        </text>
        <text fill="#000000" font-family="sans-serif" font-size="8.4" lengthAdjust="spacingAndGlyphs" textLength="54.6"
              x="1302.3" y="786.9375">:Organizacao
        </text>
        <rect fill="#FEFECE" filter="url(#f1h1dzjfaycrda)" height="28.1859"
              style="stroke: #A80036; stroke-width: 0.8999999999999999;" width="60" x="1369.5" y="20.707"/>
        <text fill="#000000" font-family="sans-serif" font-size="8.4" lengthAdjust="spacingAndGlyphs" textLength="5.4"
              x="1396.8" y="33.0281">lt
        </text>
        <text fill="#000000" font-family="sans-serif" font-size="8.4" lengthAdjust="spacingAndGlyphs" textLength="51.6"
              x="1373.7" y="42.9211">:ListaTarefas
        </text>
        <rect fill="#FEFECE" filter="url(#f1h1dzjfaycrda)" height="28.1859"
              style="stroke: #A80036; stroke-width: 0.8999999999999999;" width="60" x="1369.5" y="764.7234"/>
        <text fill="#000000" font-family="sans-serif" font-size="8.4" lengthAdjust="spacingAndGlyphs" textLength="5.4"
              x="1396.8" y="777.0445">lt
        </text>
        <text fill="#000000" font-family="sans-serif" font-size="8.4" lengthAdjust="spacingAndGlyphs" textLength="51.6"
              x="1373.7" y="786.9375">:ListaTarefas
        </text>
        <rect fill="#FEFECE" filter="url(#f1h1dzjfaycrda)" height="28.1859"
              style="stroke: #A80036; stroke-width: 0.8999999999999999;" width="37.2" x="1617.3" y="764.7234"/>
        <text fill="#000000" font-family="sans-serif" font-size="8.4" lengthAdjust="spacingAndGlyphs" textLength="24"
              x="1623.9" y="777.0445">tarefa
        </text>
        <text fill="#000000" font-family="sans-serif" font-size="8.4" lengthAdjust="spacingAndGlyphs" textLength="28.8"
              x="1621.5" y="786.9375">:Tarefa
        </text>
        <rect fill="#FEFECE" filter="url(#f1h1dzjfaycrda)" height="28.1859"
              style="stroke: #A80036; stroke-width: 0.8999999999999999;" width="78" x="1662.9" y="20.707"/>
        <text fill="#000000" font-family="sans-serif" font-size="8.4" lengthAdjust="spacingAndGlyphs" textLength="6.6"
              x="1698.6" y="33.0281">lc
        </text>
        <text fill="#000000" font-family="sans-serif" font-size="8.4" lengthAdjust="spacingAndGlyphs" textLength="69.6"
              x="1667.1" y="42.9211">:List&lt;Categoria&gt;
        </text>
        <rect fill="#FEFECE" filter="url(#f1h1dzjfaycrda)" height="28.1859"
              style="stroke: #A80036; stroke-width: 0.8999999999999999;" width="78" x="1662.9" y="764.7234"/>
        <text fill="#000000" font-family="sans-serif" font-size="8.4" lengthAdjust="spacingAndGlyphs" textLength="6.6"
              x="1698.6" y="777.0445">lc
        </text>
        <text fill="#000000" font-family="sans-serif" font-size="8.4" lengthAdjust="spacingAndGlyphs" textLength="69.6"
              x="1667.1" y="786.9375">:List&lt;Categoria&gt;
        </text>
        <rect fill="#FFFFFF" filter="url(#f1h1dzjfaycrda)" height="696.6305" style="stroke: #A80036; stroke-width: 0.6;"
              width="6" x="63.3" y="57.893"/>
        <rect fill="#FFFFFF" filter="url(#f1h1dzjfaycrda)" height="26.7727" style="stroke: #A80036; stroke-width: 0.6;"
              width="6" x="549.3" y="70.6793"/>
        <rect fill="#FFFFFF" filter="url(#f1h1dzjfaycrda)" height="106.3453" style="stroke: #A80036; stroke-width: 0.6;"
              width="6" x="549.3" y="115.0383"/>
        <rect fill="#FFFFFF" filter="url(#f1h1dzjfaycrda)" height="394.4355" style="stroke: #A80036; stroke-width: 0.6;"
              width="6" x="549.3" y="238.9699"/>
        <rect fill="#FFFFFF" filter="url(#f1h1dzjfaycrda)" height="103.5316" style="stroke: #A80036; stroke-width: 0.6;"
              width="6" x="549.3" y="650.9918"/>
        <rect fill="#FFFFFF" filter="url(#f1h1dzjfaycrda)" height="71.1727" style="stroke: #A80036; stroke-width: 0.6;"
              width="6" x="786.3" y="132.6246"/>
        <rect fill="#FFFFFF" filter="url(#f1h1dzjfaycrda)" height="376.8492" style="stroke: #A80036; stroke-width: 0.6;"
              width="6" x="786.3" y="256.5563"/>
        <rect fill="#FFFFFF" filter="url(#f1h1dzjfaycrda)" height="85.9453" style="stroke: #A80036; stroke-width: 0.6;"
              width="6" x="786.3" y="668.5781"/>
        <rect fill="#FFFFFF" filter="url(#f1h1dzjfaycrda)" height="18" style="stroke: #A80036; stroke-width: 0.6;"
              width="6" x="890.1" y="309.7289"/>
        <rect fill="#FFFFFF" filter="url(#f1h1dzjfaycrda)" height="18" style="stroke: #A80036; stroke-width: 0.6;"
              width="6" x="964.5" y="360.3152"/>
        <rect fill="#FFFFFF" filter="url(#f1h1dzjfaycrda)" height="18" style="stroke: #A80036; stroke-width: 0.6;"
              width="6" x="1046.1" y="410.9016"/>
        <rect fill="#FFFFFF" filter="url(#f1h1dzjfaycrda)" height="18" style="stroke: #A80036; stroke-width: 0.6;"
              width="6" x="1121.7" y="150.2109"/>
        <rect fill="#FFFFFF" filter="url(#f1h1dzjfaycrda)" height="18" style="stroke: #A80036; stroke-width: 0.6;"
              width="6" x="1121.7" y="446.4879"/>
        <rect fill="#FFFFFF" filter="url(#f1h1dzjfaycrda)" height="18" style="stroke: #A80036; stroke-width: 0.6;"
              width="6" x="1186.2" y="185.7973"/>
        <rect fill="#FFFFFF" filter="url(#f1h1dzjfaycrda)" height="18" style="stroke: #A80036; stroke-width: 0.6;"
              width="6" x="1186.2" y="274.1426"/>
        <rect fill="#FFFFFF" filter="url(#f1h1dzjfaycrda)" height="18" style="stroke: #A80036; stroke-width: 0.6;"
              width="6" x="1255.5" y="482.0742"/>
        <rect fill="#FFFFFF" filter="url(#f1h1dzjfaycrda)" height="18" style="stroke: #A80036; stroke-width: 0.6;"
              width="6" x="1327.8" y="517.6605"/>
        <rect fill="#FFFFFF" filter="url(#f1h1dzjfaycrda)" height="80.1586" style="stroke: #A80036; stroke-width: 0.6;"
              width="6" x="1397.7" y="553.2469"/>
        <rect fill="#FFFFFF" filter="url(#f1h1dzjfaycrda)" height="68.359" style="stroke: #A80036; stroke-width: 0.6;"
              width="6" x="1397.7" y="686.1645"/>
        <polygon fill="#A80036" points="542.1,68.2793,548.1,70.6793,542.1,73.0793,544.5,70.6793"
                 style="stroke: #A80036; stroke-width: 0.6;"/>
        <line style="stroke: #A80036; stroke-width: 0.6;" x1="69.3" x2="545.7" y1="70.6793" y2="70.6793"/>
        <text fill="#000000" font-family="sans-serif" font-size="7.8" font-weight="bold" lengthAdjust="spacingAndGlyphs"
              textLength="5.4" x="73.5" y="67.834">1
        </text>
        <text fill="#000000" font-family="sans-serif" font-size="7.8" lengthAdjust="spacingAndGlyphs" textLength="134.4"
              x="81.3" y="67.834">inicia a especificação de uma tarefa
        </text>
        <polygon fill="#A80036" points="75.9,95.052,69.9,97.452,75.9,99.852,73.5,97.452"
                 style="stroke: #A80036; stroke-width: 0.6;"/>
        <line style="stroke: #A80036; stroke-width: 0.6; stroke-dasharray: 2.0,2.0;" x1="72.3" x2="551.7" y1="97.452"
              y2="97.452"/>
        <text fill="#000000" font-family="sans-serif" font-size="7.8" font-weight="bold" lengthAdjust="spacingAndGlyphs"
              textLength="5.4" x="79.5" y="90.0135">2
        </text>
        <text fill="#000000" font-family="sans-serif" font-size="7.8" lengthAdjust="spacingAndGlyphs" textLength="64.2"
              x="87.3" y="85.4203">solicita os dados
        </text>
        <text fill="#000000" font-family="sans-serif" font-size="7.8" lengthAdjust="spacingAndGlyphs" textLength="457.8"
              x="87.3" y="94.6066">(i.e. referência única por organização, designação, descrição informal e de caráter
            técnico, estimativa de duração e custo)
        </text>
        <polygon fill="#A80036" points="542.1,112.6383,548.1,115.0383,542.1,117.4383,544.5,115.0383"
                 style="stroke: #A80036; stroke-width: 0.6;"/>
        <line style="stroke: #A80036; stroke-width: 0.6;" x1="69.3" x2="545.7" y1="115.0383" y2="115.0383"/>
        <text fill="#000000" font-family="sans-serif" font-size="7.8" font-weight="bold" lengthAdjust="spacingAndGlyphs"
              textLength="5.4" x="73.5" y="112.193">3
        </text>
        <text fill="#000000" font-family="sans-serif" font-size="7.8" lengthAdjust="spacingAndGlyphs" textLength="112.2"
              x="81.3" y="112.193">introduz os dados solicitados
        </text>
        <polygon fill="#A80036" points="779.1,130.2246,785.1,132.6246,779.1,135.0246,781.5,132.6246"
                 style="stroke: #A80036; stroke-width: 0.6;"/>
        <line style="stroke: #A80036; stroke-width: 0.6;" x1="555.3" x2="782.7" y1="132.6246" y2="132.6246"/>
        <text fill="#000000" font-family="sans-serif" font-size="7.8" font-weight="bold" lengthAdjust="spacingAndGlyphs"
              textLength="5.4" x="559.5" y="129.7793">4
        </text>
        <text fill="#000000" font-family="sans-serif" font-size="7.8" lengthAdjust="spacingAndGlyphs" textLength="69.6"
              x="567.3" y="129.7793">lc=getCategorias()
        </text>
        <polygon fill="#A80036" points="1114.5,147.8109,1120.5,150.2109,1114.5,152.6109,1116.9,150.2109"
                 style="stroke: #A80036; stroke-width: 0.6;"/>
        <line style="stroke: #A80036; stroke-width: 0.6;" x1="792.3" x2="1118.1" y1="150.2109" y2="150.2109"/>
        <text fill="#000000" font-family="sans-serif" font-size="7.8" font-weight="bold" lengthAdjust="spacingAndGlyphs"
              textLength="5.4" x="796.5" y="147.3656">5
        </text>
        <text fill="#000000" font-family="sans-serif" font-size="7.8" lengthAdjust="spacingAndGlyphs" textLength="110.4"
              x="804.3" y="147.3656">rcat = getRegistoCategorias()
        </text>
        <polygon fill="#A80036" points="1179,183.3973,1185,185.7973,1179,188.1973,1181.4,185.7973"
                 style="stroke: #A80036; stroke-width: 0.6;"/>
        <line style="stroke: #A80036; stroke-width: 0.6;" x1="792.3" x2="1182.6" y1="185.7973" y2="185.7973"/>
        <text fill="#000000" font-family="sans-serif" font-size="7.8" font-weight="bold" lengthAdjust="spacingAndGlyphs"
              textLength="5.4" x="796.5" y="182.952">6
        </text>
        <text fill="#000000" font-family="sans-serif" font-size="7.8" lengthAdjust="spacingAndGlyphs" textLength="69.6"
              x="804.3" y="182.952">lc=getCategorias()
        </text>
        <polygon fill="#A80036" points="75.9,218.9836,69.9,221.3836,75.9,223.7836,73.5,221.3836"
                 style="stroke: #A80036; stroke-width: 0.6;"/>
        <line style="stroke: #A80036; stroke-width: 0.6; stroke-dasharray: 2.0,2.0;" x1="72.3" x2="551.7" y1="221.3836"
              y2="221.3836"/>
        <text fill="#000000" font-family="sans-serif" font-size="7.8" font-weight="bold" lengthAdjust="spacingAndGlyphs"
              textLength="5.4" x="79.5" y="218.5383">7
        </text>
        <text fill="#000000" font-family="sans-serif" font-size="7.8" lengthAdjust="spacingAndGlyphs" textLength="209.4"
              x="87.3" y="218.5383">mostra a lista de categorias e pede para selecionar uma
        </text>
        <polygon fill="#A80036" points="542.1,236.5699,548.1,238.9699,542.1,241.3699,544.5,238.9699"
                 style="stroke: #A80036; stroke-width: 0.6;"/>
        <line style="stroke: #A80036; stroke-width: 0.6;" x1="69.3" x2="545.7" y1="238.9699" y2="238.9699"/>
        <text fill="#000000" font-family="sans-serif" font-size="7.8" font-weight="bold" lengthAdjust="spacingAndGlyphs"
              textLength="5.4" x="73.5" y="236.1246">8
        </text>
        <text fill="#000000" font-family="sans-serif" font-size="7.8" lengthAdjust="spacingAndGlyphs" textLength="91.2"
              x="81.3" y="236.1246">seleciona uma categoria
        </text>
        <polygon fill="#A80036" points="779.1,254.1563,785.1,256.5563,779.1,258.9563,781.5,256.5563"
                 style="stroke: #A80036; stroke-width: 0.6;"/>
        <line style="stroke: #A80036; stroke-width: 0.6;" x1="555.3" x2="782.7" y1="256.5563" y2="256.5563"/>
        <text fill="#000000" font-family="sans-serif" font-size="7.8" font-weight="bold" lengthAdjust="spacingAndGlyphs"
              textLength="5.4" x="559.5" y="253.7109">9
        </text>
        <text fill="#000000" font-family="sans-serif" font-size="7.8" lengthAdjust="spacingAndGlyphs" textLength="211.8"
              x="567.3" y="253.7109">novaTarefa(ref,dsig,dsInf,dsTec,duracEst,custoEst,catId)
        </text>
        <polygon fill="#A80036" points="1179,271.7426,1185,274.1426,1179,276.5426,1181.4,274.1426"
                 style="stroke: #A80036; stroke-width: 0.6;"/>
        <line style="stroke: #A80036; stroke-width: 0.6;" x1="792.3" x2="1182.6" y1="274.1426" y2="274.1426"/>
        <text fill="#000000" font-family="sans-serif" font-size="7.8" font-weight="bold" lengthAdjust="spacingAndGlyphs"
              textLength="10.8" x="796.5" y="271.2973">10
        </text>
        <text fill="#000000" font-family="sans-serif" font-size="7.8" lengthAdjust="spacingAndGlyphs" textLength="104.4"
              x="809.7" y="271.2973">cat=getCategoriaById(catId)
        </text>
        <polygon fill="#A80036" points="882.9,307.3289,888.9,309.7289,882.9,312.1289,885.3,309.7289"
                 style="stroke: #A80036; stroke-width: 0.6;"/>
        <line style="stroke: #A80036; stroke-width: 0.6;" x1="792.3" x2="886.5" y1="309.7289" y2="309.7289"/>
        <text fill="#000000" font-family="sans-serif" font-size="7.8" font-weight="bold" lengthAdjust="spacingAndGlyphs"
              textLength="10.8" x="796.5" y="306.8836">11
        </text>
        <text fill="#000000" font-family="sans-serif" font-size="7.8" lengthAdjust="spacingAndGlyphs" textLength="73.2"
              x="809.7" y="306.8836">app = getInstance()
        </text>
        <polygon fill="#A80036" points="957.3,357.9152,963.3,360.3152,957.3,362.7152,959.7,360.3152"
                 style="stroke: #A80036; stroke-width: 0.6;"/>
        <line style="stroke: #A80036; stroke-width: 0.6;" x1="792.3" x2="960.9" y1="360.3152" y2="360.3152"/>
        <text fill="#000000" font-family="sans-serif" font-size="7.8" font-weight="bold" lengthAdjust="spacingAndGlyphs"
              textLength="10.8" x="796.5" y="357.4699">12
        </text>
        <text fill="#000000" font-family="sans-serif" font-size="7.8" lengthAdjust="spacingAndGlyphs" textLength="99"
              x="809.7" y="357.4699">sessao = getSessaoAtual()
        </text>
        <polygon fill="#A80036" points="1038.9,408.5016,1044.9,410.9016,1038.9,413.3016,1041.3,410.9016"
                 style="stroke: #A80036; stroke-width: 0.6;"/>
        <line style="stroke: #A80036; stroke-width: 0.6;" x1="792.3" x2="1042.5" y1="410.9016" y2="410.9016"/>
        <text fill="#000000" font-family="sans-serif" font-size="7.8" font-weight="bold" lengthAdjust="spacingAndGlyphs"
              textLength="10.8" x="796.5" y="408.0563">13
        </text>
        <text fill="#000000" font-family="sans-serif" font-size="7.8" lengthAdjust="spacingAndGlyphs" textLength="105"
              x="809.7" y="408.0563">email = getEmailUtilizador()
        </text>
        <polygon fill="#A80036" points="1114.5,444.0879,1120.5,446.4879,1114.5,448.8879,1116.9,446.4879"
                 style="stroke: #A80036; stroke-width: 0.6;"/>
        <line style="stroke: #A80036; stroke-width: 0.6;" x1="792.3" x2="1118.1" y1="446.4879" y2="446.4879"/>
        <text fill="#000000" font-family="sans-serif" font-size="7.8" font-weight="bold" lengthAdjust="spacingAndGlyphs"
              textLength="10.8" x="796.5" y="443.6426">14
        </text>
        <text fill="#000000" font-family="sans-serif" font-size="7.8" lengthAdjust="spacingAndGlyphs" textLength="126.6"
              x="809.7" y="443.6426">rorgs = getRegistoOrganizacoes()
        </text>
        <polygon fill="#A80036" points="1248.3,479.6742,1254.3,482.0742,1248.3,484.4742,1250.7,482.0742"
                 style="stroke: #A80036; stroke-width: 0.6;"/>
        <line style="stroke: #A80036; stroke-width: 0.6;" x1="792.3" x2="1251.9" y1="482.0742" y2="482.0742"/>
        <text fill="#000000" font-family="sans-serif" font-size="7.8" font-weight="bold" lengthAdjust="spacingAndGlyphs"
              textLength="10.8" x="796.5" y="479.2289">15
        </text>
        <text fill="#000000" font-family="sans-serif" font-size="7.8" lengthAdjust="spacingAndGlyphs" textLength="172.8"
              x="809.7" y="479.2289">org = getOrganizacaoByEmailUtilizador(email)
        </text>
        <polygon fill="#A80036" points="1320.6,515.2605,1326.6,517.6605,1320.6,520.0605,1323,517.6605"
                 style="stroke: #A80036; stroke-width: 0.6;"/>
        <line style="stroke: #A80036; stroke-width: 0.6;" x1="792.3" x2="1324.2" y1="517.6605" y2="517.6605"/>
        <text fill="#000000" font-family="sans-serif" font-size="7.8" font-weight="bold" lengthAdjust="spacingAndGlyphs"
              textLength="10.8" x="796.5" y="514.8152">16
        </text>
        <text fill="#000000" font-family="sans-serif" font-size="7.8" lengthAdjust="spacingAndGlyphs" textLength="78.6"
              x="809.7" y="514.8152">lt = getListaTarefas()
        </text>
        <polygon fill="#A80036" points="1390.5,550.8469,1396.5,553.2469,1390.5,555.6469,1392.9,553.2469"
                 style="stroke: #A80036; stroke-width: 0.6;"/>
        <line style="stroke: #A80036; stroke-width: 0.6;" x1="792.3" x2="1394.1" y1="553.2469" y2="553.2469"/>
        <text fill="#000000" font-family="sans-serif" font-size="7.8" font-weight="bold" lengthAdjust="spacingAndGlyphs"
              textLength="10.8" x="796.5" y="550.4016">17
        </text>
        <text fill="#000000" font-family="sans-serif" font-size="7.8" lengthAdjust="spacingAndGlyphs" textLength="232.2"
              x="809.7" y="550.4016">tarefa=novaTarefa(ref,dsig,dsInf,dsTec,duracEst,custoEst,cat)
        </text>
        <polygon fill="#A80036" points="1610.1,568.4332,1616.1,570.8332,1610.1,573.2332,1612.5,570.8332"
                 style="stroke: #A80036; stroke-width: 0.6;"/>
        <line style="stroke: #A80036; stroke-width: 0.6; stroke-dasharray: 2.0,2.0;" x1="1403.7" x2="1613.7"
              y1="570.8332" y2="570.8332"/>
        <text fill="#000000" font-family="sans-serif" font-size="7.8" font-weight="bold" lengthAdjust="spacingAndGlyphs"
              textLength="10.8" x="1407.9" y="567.9879">18
        </text>
        <text fill="#000000" font-family="sans-serif" font-size="7.8" lengthAdjust="spacingAndGlyphs" textLength="186"
              x="1421.1" y="567.9879">create(ref,dsig,dsInf,dsTec,duracEst,custoEst,cat)
        </text>
        <rect fill="#FEFECE" filter="url(#f1h1dzjfaycrda)" height="28.1859"
              style="stroke: #A80036; stroke-width: 0.8999999999999999;" width="37.2" x="1617.3" y="558.0469"/>
        <text fill="#000000" font-family="sans-serif" font-size="8.4" lengthAdjust="spacingAndGlyphs" textLength="24"
              x="1623.9" y="570.368">tarefa
        </text>
        <text fill="#000000" font-family="sans-serif" font-size="8.4" lengthAdjust="spacingAndGlyphs" textLength="28.8"
              x="1621.5" y="580.2609">:Tarefa
        </text>
        <line style="stroke: #A80036; stroke-width: 0.6;" x1="1403.7" x2="1428.9" y1="608.0191" y2="608.0191"/>
        <line style="stroke: #A80036; stroke-width: 0.6;" x1="1428.9" x2="1428.9" y1="608.0191" y2="615.8191"/>
        <line style="stroke: #A80036; stroke-width: 0.6;" x1="1404.3" x2="1428.9" y1="615.8191" y2="615.8191"/>
        <polygon fill="#A80036" points="1410.3,613.4191,1404.3,615.8191,1410.3,618.2191,1407.9,615.8191"
                 style="stroke: #A80036; stroke-width: 0.6;"/>
        <text fill="#000000" font-family="sans-serif" font-size="7.8" font-weight="bold" lengthAdjust="spacingAndGlyphs"
              textLength="10.8" x="1407.9" y="605.1738">19
        </text>
        <text fill="#000000" font-family="sans-serif" font-size="7.8" lengthAdjust="spacingAndGlyphs" textLength="72"
              x="1421.1" y="605.1738">validaTarefa(tarefa)
        </text>
        <polygon fill="#A80036" points="75.9,631.0055,69.9,633.4055,75.9,635.8055,73.5,633.4055"
                 style="stroke: #A80036; stroke-width: 0.6;"/>
        <line style="stroke: #A80036; stroke-width: 0.6; stroke-dasharray: 2.0,2.0;" x1="72.3" x2="551.7" y1="633.4055"
              y2="633.4055"/>
        <text fill="#000000" font-family="sans-serif" font-size="7.8" font-weight="bold" lengthAdjust="spacingAndGlyphs"
              textLength="10.8" x="79.5" y="630.5602">20
        </text>
        <text fill="#000000" font-family="sans-serif" font-size="7.8" lengthAdjust="spacingAndGlyphs" textLength="159"
              x="92.7" y="630.5602">apresenta os dados e solicita confirmação
        </text>
        <polygon fill="#A80036" points="542.1,648.5918,548.1,650.9918,542.1,653.3918,544.5,650.9918"
                 style="stroke: #A80036; stroke-width: 0.6;"/>
        <line style="stroke: #A80036; stroke-width: 0.6;" x1="69.3" x2="545.7" y1="650.9918" y2="650.9918"/>
        <text fill="#000000" font-family="sans-serif" font-size="7.8" font-weight="bold" lengthAdjust="spacingAndGlyphs"
              textLength="10.8" x="73.5" y="648.1465">21
        </text>
        <text fill="#000000" font-family="sans-serif" font-size="7.8" lengthAdjust="spacingAndGlyphs" textLength="70.2"
              x="86.7" y="648.1465">confirma os dados
        </text>
        <polygon fill="#A80036" points="779.1,666.1781,785.1,668.5781,779.1,670.9781,781.5,668.5781"
                 style="stroke: #A80036; stroke-width: 0.6;"/>
        <line style="stroke: #A80036; stroke-width: 0.6;" x1="555.3" x2="782.7" y1="668.5781" y2="668.5781"/>
        <text fill="#000000" font-family="sans-serif" font-size="7.8" font-weight="bold" lengthAdjust="spacingAndGlyphs"
              textLength="10.8" x="559.5" y="665.7328">22
        </text>
        <text fill="#000000" font-family="sans-serif" font-size="7.8" lengthAdjust="spacingAndGlyphs" textLength="54"
              x="572.7" y="665.7328">registaTarefa()
        </text>
        <polygon fill="#A80036" points="1390.5,683.7645,1396.5,686.1645,1390.5,688.5645,1392.9,686.1645"
                 style="stroke: #A80036; stroke-width: 0.6;"/>
        <line style="stroke: #A80036; stroke-width: 0.6;" x1="792.3" x2="1394.1" y1="686.1645" y2="686.1645"/>
        <text fill="#000000" font-family="sans-serif" font-size="7.8" font-weight="bold" lengthAdjust="spacingAndGlyphs"
              textLength="10.8" x="796.5" y="683.3191">23
        </text>
        <text fill="#000000" font-family="sans-serif" font-size="7.8" lengthAdjust="spacingAndGlyphs" textLength="75.6"
              x="809.7" y="683.3191">registaTarefa(tarefa)
        </text>
        <line style="stroke: #A80036; stroke-width: 0.6;" x1="1403.7" x2="1428.9" y1="703.7508" y2="703.7508"/>
        <line style="stroke: #A80036; stroke-width: 0.6;" x1="1428.9" x2="1428.9" y1="703.7508" y2="711.5508"/>
        <line style="stroke: #A80036; stroke-width: 0.6;" x1="1404.3" x2="1428.9" y1="711.5508" y2="711.5508"/>
        <polygon fill="#A80036" points="1410.3,709.1508,1404.3,711.5508,1410.3,713.9508,1407.9,711.5508"
                 style="stroke: #A80036; stroke-width: 0.6;"/>
        <text fill="#000000" font-family="sans-serif" font-size="7.8" font-weight="bold" lengthAdjust="spacingAndGlyphs"
              textLength="10.8" x="1407.9" y="700.9055">24
        </text>
        <text fill="#000000" font-family="sans-serif" font-size="7.8" lengthAdjust="spacingAndGlyphs" textLength="72"
              x="1421.1" y="700.9055">validaTarefa(tarefa)
        </text>
        <line style="stroke: #A80036; stroke-width: 0.6;" x1="1403.7" x2="1428.9" y1="729.1371" y2="729.1371"/>
        <line style="stroke: #A80036; stroke-width: 0.6;" x1="1428.9" x2="1428.9" y1="729.1371" y2="736.9371"/>
        <line style="stroke: #A80036; stroke-width: 0.6;" x1="1404.3" x2="1428.9" y1="736.9371" y2="736.9371"/>
        <polygon fill="#A80036" points="1410.3,734.5371,1404.3,736.9371,1410.3,739.3371,1407.9,736.9371"
                 style="stroke: #A80036; stroke-width: 0.6;"/>
        <text fill="#000000" font-family="sans-serif" font-size="7.8" font-weight="bold" lengthAdjust="spacingAndGlyphs"
              textLength="10.8" x="1407.9" y="726.2918">25
        </text>
        <text fill="#000000" font-family="sans-serif" font-size="7.8" lengthAdjust="spacingAndGlyphs" textLength="63.6"
              x="1421.1" y="726.2918">addTarefa(tarefa)
        </text>
        <polygon fill="#A80036" points="72.9,752.1234,66.9,754.5234,72.9,756.9234,70.5,754.5234"
                 style="stroke: #A80036; stroke-width: 0.6;"/>
        <line style="stroke: #A80036; stroke-width: 0.6; stroke-dasharray: 2.0,2.0;" x1="69.3" x2="551.7" y1="754.5234"
              y2="754.5234"/>
        <text fill="#000000" font-family="sans-serif" font-size="7.8" font-weight="bold" lengthAdjust="spacingAndGlyphs"
              textLength="10.8" x="76.5" y="751.6781">26
        </text>
        <text fill="#000000" font-family="sans-serif" font-size="7.8" lengthAdjust="spacingAndGlyphs" textLength="122.4"
              x="89.7" y="751.6781">informa do sucesso da operação
        </text><!--MD5=[b4ade4f813872d8d3a3f3a38f77feb59]
@startuml
autonumber
actor "Colaborador de Organização" as ADM

participant ":EspecificarTarefaUI" as UI
participant ":EspecificarTarefaController" as CTRL
participant "AplicacaoPOT" as _APP
participant "app\n:AplicacaoPOT" as APP
participant "sessao\n:SessaoUtilizador" as SESSAO
participant ":Plataforma" as PLAT
participant "rcat:Registo\nCategorias" as RCAT
participant "rorgs:Registo\nOrganizacoes" as RORGS
participant "org\n:Organizacao" as ORG
participant "lt\n:ListaTarefas" as LTASKS
participant "tarefa\n:Tarefa" as TAREFA
participant "lc\n:List<Categoria>" as LIST_CAT

activate ADM
ADM -> UI : inicia a especificação de uma tarefa
activate UI
UI - -> ADM : solicita os dados \n(i.e. referência única por organização, designação, descrição informal e de caráter técnico, estimativa de duração e custo)
deactivate UI

ADM -> UI : introduz os dados solicitados
activate UI

UI -> CTRL : lc=getCategorias()
activate CTRL

CTRL -> PLAT : rcat = getRegistoCategorias()
activate PLAT
deactivate PLAT

CTRL -> RCAT : lc=getCategorias()
activate RCAT
deactivate RCAT
deactivate CTRL

UI - -> ADM : mostra a lista de categorias e pede para selecionar uma
deactivate UI

ADM -> UI : seleciona uma categoria
activate UI

UI -> CTRL : novaTarefa(ref,dsig,dsInf,dsTec,duracEst,custoEst,catId)
activate CTRL

CTRL -> RCAT : cat=getCategoriaById(catId)
activate RCAT
deactivate RCAT

CTRL -> _APP: app = getInstance()
activate _APP
|||
deactivate _APP

CTRL -> APP: sessao = getSessaoAtual()
activate APP
|||
deactivate APP

CTRL -> SESSAO: email = getEmailUtilizador()
activate SESSAO
deactivate SESSAO

CTRL -> PLAT: rorgs = getRegistoOrganizacoes()
activate PLAT
deactivate PLAT

CTRL -> RORGS: org = getOrganizacaoByEmailUtilizador(email)
activate RORGS
deactivate RORGS

CTRL -> ORG: lt = getListaTarefas()
activate ORG
deactivate ORG

CTRL -> LTASKS: tarefa=novaTarefa(ref,dsig,dsInf,dsTec,duracEst,custoEst,cat)
activate LTASKS

LTASKS - -> TAREFA**: create(ref,dsig,dsInf,dsTec,duracEst,custoEst,cat)
LTASKS -> LTASKS: validaTarefa(tarefa)

UI - -> ADM: apresenta os dados e solicita confirmação
deactivate LTASKS
deactivate CTRL
deactivate UI

ADM -> UI : confirma os dados
activate UI
UI -> CTRL : registaTarefa()
activate CTRL

CTRL -> LTASKS : registaTarefa(tarefa)
activate LTASKS

LTASKS -> LTASKS: validaTarefa(tarefa)
LTASKS -> LTASKS: addTarefa(tarefa)

UI - -> ADM : informa do sucesso da operação
deactivate LTASKS
deactivate CTRL
deactivate UI

deactivate ADM

@enduml

PlantUML version 1.2020.03beta6(Unknown compile time)
(GPL source distribution)
Java Runtime: OpenJDK Runtime Environment
JVM: OpenJDK 64-Bit Server VM
Java Version: 11.0.5+10-b520.38
Operating System: Mac OS X
Default Encoding: UTF-8
Language: en
Country: PT
-->
    </g>
</svg>