<?xml version="1.0" encoding="UTF-8" standalone="no"?>
<svg xmlns="http://www.w3.org/2000/svg" contentScriptType="application/ecmascript" contentStyleType="text/css"
     height="1023.6px" preserveAspectRatio="none" style="width:1555px;height:1023px;" version="1.1"
     viewBox="0 0 1555 1023" width="1555.8px" zoomAndPan="magnify"><defs><filter height="300%" id="f13dly8zlt2uot" width="300%" x="-1" y="-1"><feGaussianBlur result="blurOut" stdDeviation="1.2"/><feColorMatrix in="blurOut" result="blurOut2" type="matrix" values="0 0 0 0 0 0 0 0 0 0 0 0 0 0 0 0 0 0 .4 0"/><feOffset dx="2.4" dy="2.4" in="blurOut2" result="blurOut3"/><feBlend in="SourceGraphic" in2="blurOut3" mode="normal"/></filter></defs><g><rect fill="#FFFFFF" filter="url(#f13dly8zlt2uot)" height="902.707" style="stroke: #A80036; stroke-width: 0.6;" width="6" x="42.6" y="57.893"/><rect fill="#FFFFFF" filter="url(#f13dly8zlt2uot)" height="106.3453" style="stroke: #A80036; stroke-width: 0.6;" width="6" x="301.2" y="70.6793"/><rect fill="#FFFFFF" filter="url(#f13dly8zlt2uot)" height="272.2629" style="stroke: #A80036; stroke-width: 0.6;" width="6" x="301.2" y="194.6109"/><rect fill="#FFFFFF" filter="url(#f13dly8zlt2uot)" height="106.3453" style="stroke: #A80036; stroke-width: 0.6;" width="6" x="301.2" y="484.4602"/><rect fill="#FFFFFF" filter="url(#f13dly8zlt2uot)" height="231.0902" style="stroke: #A80036; stroke-width: 0.6;" width="6" x="301.2" y="608.3918"/><rect fill="#FFFFFF" filter="url(#f13dly8zlt2uot)" height="103.5316" style="stroke: #A80036; stroke-width: 0.6;" width="6" x="301.2" y="857.0684"/><rect fill="#FFFFFF" filter="url(#f13dly8zlt2uot)" height="71.1727" style="stroke: #A80036; stroke-width: 0.6;" width="6" x="460.2" y="88.2656"/><rect fill="#FFFFFF" filter="url(#f13dly8zlt2uot)" height="222.5039" style="stroke: #A80036; stroke-width: 0.6;" width="6" x="460.2" y="212.1973"/><rect fill="#FFFFFF" filter="url(#f13dly8zlt2uot)" height="71.1727" style="stroke: #A80036; stroke-width: 0.6;" width="6" x="460.2" y="502.0465"/><rect fill="#FFFFFF" filter="url(#f13dly8zlt2uot)" height="172.5176" style="stroke: #A80036; stroke-width: 0.6;" width="6" x="460.2" y="625.9781"/><rect fill="#FFFFFF" filter="url(#f13dly8zlt2uot)" height="85.9453" style="stroke: #A80036; stroke-width: 0.6;" width="6" x="460.2" y="874.6547"/><rect fill="#FFFFFF" filter="url(#f13dly8zlt2uot)" height="18" style="stroke: #A80036; stroke-width: 0.6;" width="6" x="598.8" y="105.852"/><rect fill="#FFFFFF" filter="url(#f13dly8zlt2uot)" height="18" style="stroke: #A80036; stroke-width: 0.6;" width="6" x="598.8" y="265.3699"/><rect fill="#FFFFFF" filter="url(#f13dly8zlt2uot)" height="18" style="stroke: #A80036; stroke-width: 0.6;" width="6" x="598.8" y="381.1148"/><rect fill="#FFFFFF" filter="url(#f13dly8zlt2uot)" height="18" style="stroke: #A80036; stroke-width: 0.6;" width="6" x="692.1" y="141.4383"/><rect fill="#FFFFFF" filter="url(#f13dly8zlt2uot)" height="18" style="stroke: #A80036; stroke-width: 0.6;" width="6" x="692.1" y="229.7836"/><rect fill="#FFFFFF" filter="url(#f13dly8zlt2uot)" height="18" style="stroke: #A80036; stroke-width: 0.6;" width="6" x="789.6" y="416.7012"/><rect fill="#FFFFFF" filter="url(#f13dly8zlt2uot)" height="18" style="stroke: #A80036; stroke-width: 0.6;" width="6" x="789.6" y="519.6328"/><rect fill="#FFFFFF" filter="url(#f13dly8zlt2uot)" height="18" style="stroke: #A80036; stroke-width: 0.6;" width="6" x="789.6" y="643.5645"/><rect fill="#FFFFFF" filter="url(#f13dly8zlt2uot)" height="42.9727" style="stroke: #A80036; stroke-width: 0.6;" width="6" x="880.5" y="300.9563"/><rect fill="#FFFFFF" filter="url(#f13dly8zlt2uot)" height="68.359" style="stroke: #A80036; stroke-width: 0.6;" width="6" x="880.5" y="892.241"/><rect fill="#FFFFFF" filter="url(#f13dly8zlt2uot)" height="83.7586" style="stroke: #A80036; stroke-width: 0.6;" width="6" x="1155.3" y="714.7371"/><rect fill="#FFFFFF" filter="url(#f13dly8zlt2uot)" height="18" style="stroke: #A80036; stroke-width: 0.6;" width="6" x="1375.2" y="555.2191"/><rect fill="#FFFFFF" filter="url(#f13dly8zlt2uot)" height="18" style="stroke: #A80036; stroke-width: 0.6;" width="6" x="1375.2" y="679.1508"/><rect fill="#FFFFFF" filter="url(#f13dly8zlt2uot)" height="378.7945" style="stroke: #000000; stroke-width: 1.2;" width="1485.6" x="7.8" y="443.7012"/><line style="stroke: #A80036; stroke-width: 0.6; stroke-dasharray: 5.0,5.0;" x1="45.6" x2="45.6" y1="51.893" y2="971.4"/><line style="stroke: #A80036; stroke-width: 0.6; stroke-dasharray: 5.0,5.0;" x1="303.9" x2="303.9" y1="51.893" y2="971.4"/><line style="stroke: #A80036; stroke-width: 0.6; stroke-dasharray: 5.0,5.0;" x1="463.2" x2="463.2" y1="51.893" y2="971.4"/><line style="stroke: #A80036; stroke-width: 0.6; stroke-dasharray: 5.0,5.0;" x1="601.8" x2="601.8" y1="51.893" y2="971.4"/><line style="stroke: #A80036; stroke-width: 0.6; stroke-dasharray: 5.0,5.0;" x1="694.8" x2="694.8" y1="51.893" y2="971.4"/><line style="stroke: #A80036; stroke-width: 0.6; stroke-dasharray: 5.0,5.0;" x1="792.6" x2="792.6" y1="51.893" y2="971.4"/><line style="stroke: #A80036; stroke-width: 0.6; stroke-dasharray: 5.0,5.0;" x1="883.2" x2="883.2" y1="51.893" y2="971.4"/><line style="stroke: #A80036; stroke-width: 0.6; stroke-dasharray: 5.0,5.0;" x1="999.6" x2="999.6" y1="51.893" y2="971.4"/><line style="stroke: #A80036; stroke-width: 0.6; stroke-dasharray: 5.0,5.0;" x1="1090.2" x2="1090.2" y1="51.893" y2="971.4"/><line style="stroke: #A80036; stroke-width: 0.6; stroke-dasharray: 5.0,5.0;" x1="1158" x2="1158" y1="355.7355" y2="971.4"/><line style="stroke: #A80036; stroke-width: 0.6; stroke-dasharray: 5.0,5.0;" x1="1261.2" x2="1261.2" y1="51.893" y2="971.4"/><line style="stroke: #A80036; stroke-width: 0.6; stroke-dasharray: 5.0,5.0;" x1="1378.2" x2="1378.2" y1="51.893" y2="971.4"/><line style="stroke: #A80036; stroke-width: 0.6; stroke-dasharray: 5.0,5.0;" x1="1459.8" x2="1459.8" y1="744.1301" y2="971.4"/><line style="stroke: #A80036; stroke-width: 0.6; stroke-dasharray: 5.0,5.0;" x1="1522.2" x2="1522.2" y1="51.893" y2="971.4"/><text fill="#000000" font-family="sans-serif" font-size="8.4" lengthAdjust="spacingAndGlyphs" textLength="60" x="13.8" y="50.1211">Administrativo</text><ellipse cx="45.6" cy="7.8" fill="#FEFECE" filter="url(#f13dly8zlt2uot)" rx="4.8" ry="4.8" style="stroke: #A80036; stroke-width: 1.2;"/><path d="M45.6,12.6 L45.6,28.8 M37.8,17.4 L53.4,17.4 M45.6,28.8 L37.8,37.8 M45.6,28.8 L53.4,37.8 " fill="none" filter="url(#f13dly8zlt2uot)" style="stroke: #A80036; stroke-width: 1.2;"/><text fill="#000000" font-family="sans-serif" font-size="8.4" lengthAdjust="spacingAndGlyphs" textLength="60" x="13.8" y="978.9211">Administrativo</text><ellipse cx="45.6" cy="986.693" fill="#FEFECE" filter="url(#f13dly8zlt2uot)" rx="4.8" ry="4.8" style="stroke: #A80036; stroke-width: 1.2;"/><path d="M45.6,991.493 L45.6,1007.693 M37.8,996.293 L53.4,996.293 M45.6,1007.693 L37.8,1016.693 M45.6,1007.693 L53.4,1016.693 " fill="none" filter="url(#f13dly8zlt2uot)" style="stroke: #A80036; stroke-width: 1.2;"/><rect fill="#FEFECE" filter="url(#f13dly8zlt2uot)" height="18.293" style="stroke: #A80036; stroke-width: 0.8999999999999999;" width="87" x="259.5" y="30.6"/><text fill="#000000" font-family="sans-serif" font-size="8.4" lengthAdjust="spacingAndGlyphs" textLength="78.6" x="263.7" y="42.9211">:DefinirCategoriaUI</text><rect fill="#FEFECE" filter="url(#f13dly8zlt2uot)" height="18.293" style="stroke: #A80036; stroke-width: 0.8999999999999999;" width="87" x="259.5" y="970.8"/><text fill="#000000" font-family="sans-serif" font-size="8.4" lengthAdjust="spacingAndGlyphs" textLength="78.6" x="263.7" y="983.1211">:DefinirCategoriaUI</text><rect fill="#FEFECE" filter="url(#f13dly8zlt2uot)" height="18.293" style="stroke: #A80036; stroke-width: 0.8999999999999999;" width="118.8" x="402.6" y="30.6"/><text fill="#000000" font-family="sans-serif" font-size="8.4" lengthAdjust="spacingAndGlyphs" textLength="110.4" x="406.8" y="42.9211">:DefinircategoriaController</text><rect fill="#FEFECE" filter="url(#f13dly8zlt2uot)" height="18.293" style="stroke: #A80036; stroke-width: 0.8999999999999999;" width="118.8" x="402.6" y="970.8"/><text fill="#000000" font-family="sans-serif" font-size="8.4" lengthAdjust="spacingAndGlyphs" textLength="110.4" x="406.8" y="983.1211">:DefinircategoriaController</text><rect fill="#FEFECE" filter="url(#f13dly8zlt2uot)" height="18.293" style="stroke: #A80036; stroke-width: 0.8999999999999999;" width="55.2" x="573" y="30.6"/><text fill="#000000" font-family="sans-serif" font-size="8.4" lengthAdjust="spacingAndGlyphs" textLength="46.8" x="577.2" y="42.9211">:Plataforma</text><rect fill="#FEFECE" filter="url(#f13dly8zlt2uot)" height="18.293" style="stroke: #A80036; stroke-width: 0.8999999999999999;" width="55.2" x="573" y="970.8"/><text fill="#000000" font-family="sans-serif" font-size="8.4" lengthAdjust="spacingAndGlyphs" textLength="46.8" x="577.2" y="983.1211">:Plataforma</text><rect fill="#FEFECE" filter="url(#f13dly8zlt2uot)" height="18.293" style="stroke: #A80036; stroke-width: 0.8999999999999999;" width="114.6" x="636.6" y="30.6"/><text fill="#000000" font-family="sans-serif" font-size="8.4" lengthAdjust="spacingAndGlyphs" textLength="106.2" x="640.8" y="42.9211">rat:RegistoAreasAtividade</text><rect fill="#FEFECE" filter="url(#f13dly8zlt2uot)" height="18.293" style="stroke: #A80036; stroke-width: 0.8999999999999999;" width="114.6" x="636.6" y="970.8"/><text fill="#000000" font-family="sans-serif" font-size="8.4" lengthAdjust="spacingAndGlyphs" textLength="106.2" x="640.8" y="983.1211">rat:RegistoAreasAtividade</text><rect fill="#FEFECE" filter="url(#f13dly8zlt2uot)" height="18.293" style="stroke: #A80036; stroke-width: 0.8999999999999999;" width="63.6" x="759.6" y="30.6"/><text fill="#000000" font-family="sans-serif" font-size="8.4" lengthAdjust="spacingAndGlyphs" textLength="55.2" x="763.8" y="42.9211">rct:RegistoCT</text><rect fill="#FEFECE" filter="url(#f13dly8zlt2uot)" height="18.293" style="stroke: #A80036; stroke-width: 0.8999999999999999;" width="63.6" x="759.6" y="970.8"/><text fill="#000000" font-family="sans-serif" font-size="8.4" lengthAdjust="spacingAndGlyphs" textLength="55.2" x="763.8" y="983.1211">rct:RegistoCT</text><rect fill="#FEFECE" filter="url(#f13dly8zlt2uot)" height="18.293" style="stroke: #A80036; stroke-width: 0.8999999999999999;" width="101.4" x="831.6" y="30.6"/><text fill="#000000" font-family="sans-serif" font-size="8.4" lengthAdjust="spacingAndGlyphs" textLength="93" x="835.8" y="42.9211">rcat:RegistoCategorias</text><rect fill="#FEFECE" filter="url(#f13dly8zlt2uot)" height="18.293" style="stroke: #A80036; stroke-width: 0.8999999999999999;" width="101.4" x="831.6" y="970.8"/><text fill="#000000" font-family="sans-serif" font-size="8.4" lengthAdjust="spacingAndGlyphs" textLength="93" x="835.8" y="983.1211">rcat:RegistoCategorias</text><rect fill="#FEFECE" filter="url(#f13dly8zlt2uot)" height="28.1859" style="stroke: #A80036; stroke-width: 0.8999999999999999;" width="95.4" x="951" y="20.707"/><text fill="#000000" font-family="sans-serif" font-size="8.4" lengthAdjust="spacingAndGlyphs" textLength="7.2" x="995.1" y="33.0281">la</text><text fill="#000000" font-family="sans-serif" font-size="8.4" lengthAdjust="spacingAndGlyphs" textLength="87" x="955.2" y="42.9211">:List&lt;AreaAtividade&gt;</text><rect fill="#FEFECE" filter="url(#f13dly8zlt2uot)" height="28.1859" style="stroke: #A80036; stroke-width: 0.8999999999999999;" width="95.4" x="951" y="970.8"/><text fill="#000000" font-family="sans-serif" font-size="8.4" lengthAdjust="spacingAndGlyphs" textLength="7.2" x="995.1" y="983.1211">la</text><text fill="#000000" font-family="sans-serif" font-size="8.4" lengthAdjust="spacingAndGlyphs" textLength="87" x="955.2" y="993.0141">:List&lt;AreaAtividade&gt;</text><rect fill="#FEFECE" filter="url(#f13dly8zlt2uot)" height="28.1859" style="stroke: #A80036; stroke-width: 0.8999999999999999;" width="68.4" x="1054.8" y="20.707"/><text fill="#000000" font-family="sans-serif" font-size="8.4" lengthAdjust="spacingAndGlyphs" textLength="7.8" x="1085.1" y="33.0281">at</text><text fill="#000000" font-family="sans-serif" font-size="8.4" lengthAdjust="spacingAndGlyphs" textLength="60" x="1059" y="42.9211">:AreaAtividade</text><rect fill="#FEFECE" filter="url(#f13dly8zlt2uot)" height="28.1859" style="stroke: #A80036; stroke-width: 0.8999999999999999;" width="68.4" x="1054.8" y="970.8"/><text fill="#000000" font-family="sans-serif" font-size="8.4" lengthAdjust="spacingAndGlyphs" textLength="7.8" x="1085.1" y="983.1211">at</text><text fill="#000000" font-family="sans-serif" font-size="8.4" lengthAdjust="spacingAndGlyphs" textLength="60" x="1059" y="993.0141">:AreaAtividade</text><rect fill="#FEFECE" filter="url(#f13dly8zlt2uot)" height="28.1859" style="stroke: #A80036; stroke-width: 0.8999999999999999;" width="51" x="1131.6" y="970.8"/><text fill="#000000" font-family="sans-serif" font-size="8.4" lengthAdjust="spacingAndGlyphs" textLength="12" x="1151.1" y="983.1211">cat</text><text fill="#000000" font-family="sans-serif" font-size="8.4" lengthAdjust="spacingAndGlyphs" textLength="42.6" x="1135.8" y="993.0141">:Categoria</text><rect fill="#FEFECE" filter="url(#f13dly8zlt2uot)" height="28.1859" style="stroke: #A80036; stroke-width: 0.8999999999999999;" width="123" x="1198.8" y="20.707"/><text fill="#000000" font-family="sans-serif" font-size="8.4" lengthAdjust="spacingAndGlyphs" textLength="9.6" x="1255.5" y="33.0281">lct</text><text fill="#000000" font-family="sans-serif" font-size="8.4" lengthAdjust="spacingAndGlyphs" textLength="114.6" x="1203" y="42.9211">:List&lt;CompetenciaTecnica&gt;</text><rect fill="#FEFECE" filter="url(#f13dly8zlt2uot)" height="28.1859" style="stroke: #A80036; stroke-width: 0.8999999999999999;" width="123" x="1198.8" y="970.8"/><text fill="#000000" font-family="sans-serif" font-size="8.4" lengthAdjust="spacingAndGlyphs" textLength="9.6" x="1255.5" y="983.1211">lct</text><text fill="#000000" font-family="sans-serif" font-size="8.4" lengthAdjust="spacingAndGlyphs" textLength="114.6" x="1203" y="993.0141">:List&lt;CompetenciaTecnica&gt;</text><rect fill="#FEFECE" filter="url(#f13dly8zlt2uot)" height="28.1859" style="stroke: #A80036; stroke-width: 0.8999999999999999;" width="93.6" x="1330.2" y="20.707"/><text fill="#000000" font-family="sans-serif" font-size="8.4" lengthAdjust="spacingAndGlyphs" textLength="9.6" x="1372.2" y="33.0281">ct:</text><text fill="#000000" font-family="sans-serif" font-size="8.4" lengthAdjust="spacingAndGlyphs" textLength="85.2" x="1334.4" y="42.9211">CompetenciaTecnica</text><rect fill="#FEFECE" filter="url(#f13dly8zlt2uot)" height="28.1859" style="stroke: #A80036; stroke-width: 0.8999999999999999;" width="93.6" x="1330.2" y="970.8"/><text fill="#000000" font-family="sans-serif" font-size="8.4" lengthAdjust="spacingAndGlyphs" textLength="9.6" x="1372.2" y="983.1211">ct:</text><text fill="#000000" font-family="sans-serif" font-size="8.4" lengthAdjust="spacingAndGlyphs" textLength="85.2" x="1334.4" y="993.0141">CompetenciaTecnica</text><rect fill="#FEFECE" filter="url(#f13dly8zlt2uot)" height="28.1859" style="stroke: #A80036; stroke-width: 0.8999999999999999;" width="52.8" x="1432.2" y="970.8"/><text fill="#000000" font-family="sans-serif" font-size="8.4" lengthAdjust="spacingAndGlyphs" textLength="11.4" x="1452.9" y="983.1211">cct</text><text fill="#000000" font-family="sans-serif" font-size="8.4" lengthAdjust="spacingAndGlyphs" textLength="44.4" x="1436.4" y="993.0141">:CaraterCT</text><rect fill="#FEFECE" filter="url(#f13dly8zlt2uot)" height="28.1859" style="stroke: #A80036; stroke-width: 0.8999999999999999;" width="55.8" x="1493.4" y="20.707"/><text fill="#000000" font-family="sans-serif" font-size="8.4" lengthAdjust="spacingAndGlyphs" textLength="31.2" x="1505.7" y="33.0281">gr:Grau</text><text fill="#000000" font-family="sans-serif" font-size="8.4" lengthAdjust="spacingAndGlyphs" textLength="47.4" x="1497.6" y="42.9211">Proficiencia</text><rect fill="#FEFECE" filter="url(#f13dly8zlt2uot)" height="28.1859" style="stroke: #A80036; stroke-width: 0.8999999999999999;" width="55.8" x="1493.4" y="970.8"/><text fill="#000000" font-family="sans-serif" font-size="8.4" lengthAdjust="spacingAndGlyphs" textLength="31.2" x="1505.7" y="983.1211">gr:Grau</text><text fill="#000000" font-family="sans-serif" font-size="8.4" lengthAdjust="spacingAndGlyphs" textLength="47.4" x="1497.6" y="993.0141">Proficiencia</text><rect fill="#FFFFFF" filter="url(#f13dly8zlt2uot)" height="902.707" style="stroke: #A80036; stroke-width: 0.6;" width="6" x="42.6" y="57.893"/><rect fill="#FFFFFF" filter="url(#f13dly8zlt2uot)" height="106.3453" style="stroke: #A80036; stroke-width: 0.6;" width="6" x="301.2" y="70.6793"/><rect fill="#FFFFFF" filter="url(#f13dly8zlt2uot)" height="272.2629" style="stroke: #A80036; stroke-width: 0.6;" width="6" x="301.2" y="194.6109"/><rect fill="#FFFFFF" filter="url(#f13dly8zlt2uot)" height="106.3453" style="stroke: #A80036; stroke-width: 0.6;" width="6" x="301.2" y="484.4602"/><rect fill="#FFFFFF" filter="url(#f13dly8zlt2uot)" height="231.0902" style="stroke: #A80036; stroke-width: 0.6;" width="6" x="301.2" y="608.3918"/><rect fill="#FFFFFF" filter="url(#f13dly8zlt2uot)" height="103.5316" style="stroke: #A80036; stroke-width: 0.6;" width="6" x="301.2" y="857.0684"/><rect fill="#FFFFFF" filter="url(#f13dly8zlt2uot)" height="71.1727" style="stroke: #A80036; stroke-width: 0.6;" width="6" x="460.2" y="88.2656"/><rect fill="#FFFFFF" filter="url(#f13dly8zlt2uot)" height="222.5039" style="stroke: #A80036; stroke-width: 0.6;" width="6" x="460.2" y="212.1973"/><rect fill="#FFFFFF" filter="url(#f13dly8zlt2uot)" height="71.1727" style="stroke: #A80036; stroke-width: 0.6;" width="6" x="460.2" y="502.0465"/><rect fill="#FFFFFF" filter="url(#f13dly8zlt2uot)" height="172.5176" style="stroke: #A80036; stroke-width: 0.6;" width="6" x="460.2" y="625.9781"/><rect fill="#FFFFFF" filter="url(#f13dly8zlt2uot)" height="85.9453" style="stroke: #A80036; stroke-width: 0.6;" width="6" x="460.2" y="874.6547"/><rect fill="#FFFFFF" filter="url(#f13dly8zlt2uot)" height="18" style="stroke: #A80036; stroke-width: 0.6;" width="6" x="598.8" y="105.852"/><rect fill="#FFFFFF" filter="url(#f13dly8zlt2uot)" height="18" style="stroke: #A80036; stroke-width: 0.6;" width="6" x="598.8" y="265.3699"/><rect fill="#FFFFFF" filter="url(#f13dly8zlt2uot)" height="18" style="stroke: #A80036; stroke-width: 0.6;" width="6" x="598.8" y="381.1148"/><rect fill="#FFFFFF" filter="url(#f13dly8zlt2uot)" height="18" style="stroke: #A80036; stroke-width: 0.6;" width="6" x="692.1" y="141.4383"/><rect fill="#FFFFFF" filter="url(#f13dly8zlt2uot)" height="18" style="stroke: #A80036; stroke-width: 0.6;" width="6" x="692.1" y="229.7836"/><rect fill="#FFFFFF" filter="url(#f13dly8zlt2uot)" height="18" style="stroke: #A80036; stroke-width: 0.6;" width="6" x="789.6" y="416.7012"/><rect fill="#FFFFFF" filter="url(#f13dly8zlt2uot)" height="18" style="stroke: #A80036; stroke-width: 0.6;" width="6" x="789.6" y="519.6328"/><rect fill="#FFFFFF" filter="url(#f13dly8zlt2uot)" height="18" style="stroke: #A80036; stroke-width: 0.6;" width="6" x="789.6" y="643.5645"/><rect fill="#FFFFFF" filter="url(#f13dly8zlt2uot)" height="42.9727" style="stroke: #A80036; stroke-width: 0.6;" width="6" x="880.5" y="300.9563"/><rect fill="#FFFFFF" filter="url(#f13dly8zlt2uot)" height="68.359" style="stroke: #A80036; stroke-width: 0.6;" width="6" x="880.5" y="892.241"/><rect fill="#FFFFFF" filter="url(#f13dly8zlt2uot)" height="83.7586" style="stroke: #A80036; stroke-width: 0.6;" width="6" x="1155.3" y="714.7371"/><rect fill="#FFFFFF" filter="url(#f13dly8zlt2uot)" height="18" style="stroke: #A80036; stroke-width: 0.6;" width="6" x="1375.2" y="555.2191"/><rect fill="#FFFFFF" filter="url(#f13dly8zlt2uot)" height="18" style="stroke: #A80036; stroke-width: 0.6;" width="6" x="1375.2" y="679.1508"/><polygon fill="#A80036" points="294,68.2793,300,70.6793,294,73.0793,296.4,70.6793" style="stroke: #A80036; stroke-width: 0.6;"/><line style="stroke: #A80036; stroke-width: 0.6;" x1="48.6" x2="297.6" y1="70.6793" y2="70.6793"/><text fill="#000000" font-family="sans-serif" font-size="7.8" font-weight="bold" lengthAdjust="spacingAndGlyphs" textLength="5.4" x="52.8" y="67.834">1</text><text fill="#000000" font-family="sans-serif" font-size="7.8" lengthAdjust="spacingAndGlyphs" textLength="168.6" x="60.6" y="67.834">inicia a definição de nova categoria de tarefa</text><polygon fill="#A80036" points="453,85.8656,459,88.2656,453,90.6656,455.4,88.2656" style="stroke: #A80036; stroke-width: 0.6;"/><line style="stroke: #A80036; stroke-width: 0.6;" x1="307.2" x2="456.6" y1="88.2656" y2="88.2656"/><text fill="#000000" font-family="sans-serif" font-size="7.8" font-weight="bold" lengthAdjust="spacingAndGlyphs" textLength="5.4" x="311.4" y="85.4203">2</text><text fill="#000000" font-family="sans-serif" font-size="7.8" lengthAdjust="spacingAndGlyphs" textLength="57.6" x="319.2" y="85.4203">la=getListaAT()</text><polygon fill="#A80036" points="591.6,103.452,597.6,105.852,591.6,108.252,594,105.852" style="stroke: #A80036; stroke-width: 0.6;"/><line style="stroke: #A80036; stroke-width: 0.6;" x1="466.2" x2="595.2" y1="105.852" y2="105.852"/><text fill="#000000" font-family="sans-serif" font-size="7.8" font-weight="bold" lengthAdjust="spacingAndGlyphs" textLength="5.4" x="470.4" y="103.0066">3</text><text fill="#000000" font-family="sans-serif" font-size="7.8" lengthAdjust="spacingAndGlyphs" textLength="113.4" x="478.2" y="103.0066">rat=getRegitoAreasAtividade()</text><polygon fill="#A80036" points="684.9,139.0383,690.9,141.4383,684.9,143.8383,687.3,141.4383" style="stroke: #A80036; stroke-width: 0.6;"/><line style="stroke: #A80036; stroke-width: 0.6;" x1="466.2" x2="688.5" y1="141.4383" y2="141.4383"/><text fill="#000000" font-family="sans-serif" font-size="7.8" font-weight="bold" lengthAdjust="spacingAndGlyphs" textLength="5.4" x="470.4" y="138.593">4</text><text fill="#000000" font-family="sans-serif" font-size="7.8" lengthAdjust="spacingAndGlyphs" textLength="57.6" x="478.2" y="138.593">la=getListaAT()</text><polygon fill="#A80036" points="55.2,174.6246,49.2,177.0246,55.2,179.4246,52.8,177.0246" style="stroke: #A80036; stroke-width: 0.6;"/><line style="stroke: #A80036; stroke-width: 0.6; stroke-dasharray: 2.0,2.0;" x1="51.6" x2="303.6" y1="177.0246" y2="177.0246"/><text fill="#000000" font-family="sans-serif" font-size="7.8" font-weight="bold" lengthAdjust="spacingAndGlyphs" textLength="5.4" x="58.8" y="174.1793">5</text><text fill="#000000" font-family="sans-serif" font-size="7.8" lengthAdjust="spacingAndGlyphs" textLength="214.8" x="66.6" y="174.1793">mostra a lista de áreas de atividade e solicita a descrição</text><polygon fill="#A80036" points="294,192.2109,300,194.6109,294,197.0109,296.4,194.6109" style="stroke: #A80036; stroke-width: 0.6;"/><line style="stroke: #A80036; stroke-width: 0.6;" x1="48.6" x2="297.6" y1="194.6109" y2="194.6109"/><text fill="#000000" font-family="sans-serif" font-size="7.8" font-weight="bold" lengthAdjust="spacingAndGlyphs" textLength="5.4" x="52.8" y="191.7656">6</text><text fill="#000000" font-family="sans-serif" font-size="7.8" lengthAdjust="spacingAndGlyphs" textLength="193.8" x="60.6" y="191.7656">introduz a descrição e seleciona a área de atividade</text><polygon fill="#A80036" points="453,209.7973,459,212.1973,453,214.5973,455.4,212.1973" style="stroke: #A80036; stroke-width: 0.6;"/><line style="stroke: #A80036; stroke-width: 0.6;" x1="307.2" x2="456.6" y1="212.1973" y2="212.1973"/><text fill="#000000" font-family="sans-serif" font-size="7.8" font-weight="bold" lengthAdjust="spacingAndGlyphs" textLength="5.4" x="311.4" y="209.352">7</text><text fill="#000000" font-family="sans-serif" font-size="7.8" lengthAdjust="spacingAndGlyphs" textLength="116.4" x="319.2" y="209.352">lct=novaCategoria(desc,atCod)</text><polygon fill="#A80036" points="684.9,227.3836,690.9,229.7836,684.9,232.1836,687.3,229.7836" style="stroke: #A80036; stroke-width: 0.6;"/><line style="stroke: #A80036; stroke-width: 0.6;" x1="466.2" x2="688.5" y1="229.7836" y2="229.7836"/><text fill="#000000" font-family="sans-serif" font-size="7.8" font-weight="bold" lengthAdjust="spacingAndGlyphs" textLength="5.4" x="470.4" y="226.9383">8</text><text fill="#000000" font-family="sans-serif" font-size="7.8" lengthAdjust="spacingAndGlyphs" textLength="62.4" x="478.2" y="226.9383">at=getAT(atCod)</text><polygon fill="#A80036" points="591.6,262.9699,597.6,265.3699,591.6,267.7699,594,265.3699" style="stroke: #A80036; stroke-width: 0.6;"/><line style="stroke: #A80036; stroke-width: 0.6;" x1="466.2" x2="595.2" y1="265.3699" y2="265.3699"/><text fill="#000000" font-family="sans-serif" font-size="7.8" font-weight="bold" lengthAdjust="spacingAndGlyphs" textLength="5.4" x="470.4" y="262.5246">9</text><text fill="#000000" font-family="sans-serif" font-size="7.8" lengthAdjust="spacingAndGlyphs" textLength="110.4" x="478.2" y="262.5246">rcat = getRegistoCategorias()</text><polygon fill="#A80036" points="873.3,298.5563,879.3,300.9563,873.3,303.3563,875.7,300.9563" style="stroke: #A80036; stroke-width: 0.6;"/><line style="stroke: #A80036; stroke-width: 0.6;" x1="466.2" x2="876.9" y1="300.9563" y2="300.9563"/><text fill="#000000" font-family="sans-serif" font-size="7.8" font-weight="bold" lengthAdjust="spacingAndGlyphs" textLength="10.8" x="470.4" y="298.1109">10</text><text fill="#000000" font-family="sans-serif" font-size="7.8" lengthAdjust="spacingAndGlyphs" textLength="103.2" x="483.6" y="298.1109">cat=novaCategoria(desc,at)</text><line style="stroke: #A80036; stroke-width: 0.6;" x1="886.5" x2="911.7" y1="318.5426" y2="318.5426"/><line style="stroke: #A80036; stroke-width: 0.6;" x1="911.7" x2="911.7" y1="318.5426" y2="326.3426"/><line style="stroke: #A80036; stroke-width: 0.6;" x1="887.1" x2="911.7" y1="326.3426" y2="326.3426"/><polygon fill="#A80036" points="893.1,323.9426,887.1,326.3426,893.1,328.7426,890.7,326.3426" style="stroke: #A80036; stroke-width: 0.6;"/><text fill="#000000" font-family="sans-serif" font-size="7.8" font-weight="bold" lengthAdjust="spacingAndGlyphs" textLength="10.8" x="890.7" y="315.6973">11</text><text fill="#000000" font-family="sans-serif" font-size="7.8" lengthAdjust="spacingAndGlyphs" textLength="88.8" x="903.9" y="315.6973">catId=geraCategoriaId()</text><polygon fill="#A80036" points="1124.4,341.5289,1130.4,343.9289,1124.4,346.3289,1126.8,343.9289" style="stroke: #A80036; stroke-width: 0.6;"/><line style="stroke: #A80036; stroke-width: 0.6; stroke-dasharray: 2.0,2.0;" x1="883.5" x2="1128" y1="343.9289" y2="343.9289"/><text fill="#000000" font-family="sans-serif" font-size="7.8" font-weight="bold" lengthAdjust="spacingAndGlyphs" textLength="10.8" x="887.7" y="341.0836">12</text><text fill="#000000" font-family="sans-serif" font-size="7.8" lengthAdjust="spacingAndGlyphs" textLength="75.6" x="900.9" y="341.0836">create(catId,desc,at)</text><rect fill="#FEFECE" filter="url(#f13dly8zlt2uot)" height="28.1859" style="stroke: #A80036; stroke-width: 0.8999999999999999;" width="51" x="1131.6" y="331.1426"/><text fill="#000000" font-family="sans-serif" font-size="8.4" lengthAdjust="spacingAndGlyphs" textLength="12" x="1151.1" y="343.4637">cat</text><text fill="#000000" font-family="sans-serif" font-size="8.4" lengthAdjust="spacingAndGlyphs" textLength="42.6" x="1135.8" y="353.3566">:Categoria</text><polygon fill="#A80036" points="591.6,378.7148,597.6,381.1148,591.6,383.5148,594,381.1148" style="stroke: #A80036; stroke-width: 0.6;"/><line style="stroke: #A80036; stroke-width: 0.6;" x1="466.2" x2="595.2" y1="381.1148" y2="381.1148"/><text fill="#000000" font-family="sans-serif" font-size="7.8" font-weight="bold" lengthAdjust="spacingAndGlyphs" textLength="10.8" x="470.4" y="378.2695">13</text><text fill="#000000" font-family="sans-serif" font-size="7.8" lengthAdjust="spacingAndGlyphs" textLength="76.2" x="483.6" y="378.2695">rct = getRegistoCT()</text><polygon fill="#A80036" points="782.4,414.3012,788.4,416.7012,782.4,419.1012,784.8,416.7012" style="stroke: #A80036; stroke-width: 0.6;"/><line style="stroke: #A80036; stroke-width: 0.6;" x1="466.2" x2="786" y1="416.7012" y2="416.7012"/><text fill="#000000" font-family="sans-serif" font-size="7.8" font-weight="bold" lengthAdjust="spacingAndGlyphs" textLength="10.8" x="470.4" y="413.8559">14</text><text fill="#000000" font-family="sans-serif" font-size="7.8" lengthAdjust="spacingAndGlyphs" textLength="67.8" x="483.6" y="413.8559">lct=getListaCT(at)</text><path d="M7.8,443.7012 L52.2,443.7012 L52.2,447.9012 L46.2,453.9012 L7.8,453.9012 L7.8,443.7012 " fill="#EEEEEE" style="stroke: #000000; stroke-width: 0.6;"/><rect fill="none" height="378.7945" style="stroke: #000000; stroke-width: 1.2;" width="1485.6" x="7.8" y="443.7012"/><text fill="#000000" font-family="sans-serif" font-size="7.8" font-weight="bold" lengthAdjust="spacingAndGlyphs" textLength="17.4" x="16.8" y="451.8422">loop</text><polygon fill="#A80036" points="55.2,464.4738,49.2,466.8738,55.2,469.2738,52.8,466.8738" style="stroke: #A80036; stroke-width: 0.6;"/><line style="stroke: #A80036; stroke-width: 0.6; stroke-dasharray: 2.0,2.0;" x1="51.6" x2="303.6" y1="466.8738" y2="466.8738"/><text fill="#000000" font-family="sans-serif" font-size="7.8" font-weight="bold" lengthAdjust="spacingAndGlyphs" textLength="10.8" x="58.8" y="464.0285">15</text><text fill="#000000" font-family="sans-serif" font-size="7.8" lengthAdjust="spacingAndGlyphs" textLength="160.8" x="72" y="464.0285">mostra lista de CT e solicita escolha de CT</text><polygon fill="#A80036" points="294,482.0602,300,484.4602,294,486.8602,296.4,484.4602" style="stroke: #A80036; stroke-width: 0.6;"/><line style="stroke: #A80036; stroke-width: 0.6;" x1="48.6" x2="297.6" y1="484.4602" y2="484.4602"/><text fill="#000000" font-family="sans-serif" font-size="7.8" font-weight="bold" lengthAdjust="spacingAndGlyphs" textLength="10.8" x="52.8" y="481.6148">16</text><text fill="#000000" font-family="sans-serif" font-size="7.8" lengthAdjust="spacingAndGlyphs" textLength="66.6" x="66" y="481.6148">seleciona uma CT</text><polygon fill="#A80036" points="453,499.6465,459,502.0465,453,504.4465,455.4,502.0465" style="stroke: #A80036; stroke-width: 0.6;"/><line style="stroke: #A80036; stroke-width: 0.6;" x1="307.2" x2="456.6" y1="502.0465" y2="502.0465"/><text fill="#000000" font-family="sans-serif" font-size="7.8" font-weight="bold" lengthAdjust="spacingAndGlyphs" textLength="10.8" x="311.4" y="499.2012">17</text><text fill="#000000" font-family="sans-serif" font-size="7.8" lengthAdjust="spacingAndGlyphs" textLength="100.2" x="324.6" y="499.2012">lgraus=getGrausCT(ctCod)</text><polygon fill="#A80036" points="782.4,517.2328,788.4,519.6328,782.4,522.0328,784.8,519.6328" style="stroke: #A80036; stroke-width: 0.6;"/><line style="stroke: #A80036; stroke-width: 0.6;" x1="466.2" x2="786" y1="519.6328" y2="519.6328"/><text fill="#000000" font-family="sans-serif" font-size="7.8" font-weight="bold" lengthAdjust="spacingAndGlyphs" textLength="10.8" x="470.4" y="516.7875">18</text><text fill="#000000" font-family="sans-serif" font-size="7.8" lengthAdjust="spacingAndGlyphs" textLength="67.2" x="483.6" y="516.7875">ct = getCT(ctCod)</text><polygon fill="#A80036" points="1368,552.8191,1374,555.2191,1368,557.6191,1370.4,555.2191" style="stroke: #A80036; stroke-width: 0.6;"/><line style="stroke: #A80036; stroke-width: 0.6;" x1="466.2" x2="1371.6" y1="555.2191" y2="555.2191"/><text fill="#000000" font-family="sans-serif" font-size="7.8" font-weight="bold" lengthAdjust="spacingAndGlyphs" textLength="10.8" x="470.4" y="552.3738">19</text><text fill="#000000" font-family="sans-serif" font-size="7.8" lengthAdjust="spacingAndGlyphs" textLength="72.6" x="483.6" y="552.3738">lgraus = getGraus()</text><polygon fill="#A80036" points="55.2,588.4055,49.2,590.8055,55.2,593.2055,52.8,590.8055" style="stroke: #A80036; stroke-width: 0.6;"/><line style="stroke: #A80036; stroke-width: 0.6; stroke-dasharray: 2.0,2.0;" x1="51.6" x2="303.6" y1="590.8055" y2="590.8055"/><text fill="#000000" font-family="sans-serif" font-size="7.8" font-weight="bold" lengthAdjust="spacingAndGlyphs" textLength="10.8" x="58.8" y="587.9602">20</text><text fill="#000000" font-family="sans-serif" font-size="7.8" lengthAdjust="spacingAndGlyphs" textLength="189" x="72" y="587.9602">mostra a lista de graus de proficiência associados</text><polygon fill="#A80036" points="294,605.9918,300,608.3918,294,610.7918,296.4,608.3918" style="stroke: #A80036; stroke-width: 0.6;"/><line style="stroke: #A80036; stroke-width: 0.6;" x1="48.6" x2="297.6" y1="608.3918" y2="608.3918"/><text fill="#000000" font-family="sans-serif" font-size="7.8" font-weight="bold" lengthAdjust="spacingAndGlyphs" textLength="10.8" x="52.8" y="605.5465">21</text><text fill="#000000" font-family="sans-serif" font-size="7.8" lengthAdjust="spacingAndGlyphs" textLength="228" x="66" y="605.5465">seleciona grau minimo e indica se é obrigatória ou desejável</text><polygon fill="#A80036" points="453,623.5781,459,625.9781,453,628.3781,455.4,625.9781" style="stroke: #A80036; stroke-width: 0.6;"/><line style="stroke: #A80036; stroke-width: 0.6;" x1="307.2" x2="456.6" y1="625.9781" y2="625.9781"/><text fill="#000000" font-family="sans-serif" font-size="7.8" font-weight="bold" lengthAdjust="spacingAndGlyphs" textLength="10.8" x="311.4" y="623.1328">22</text><text fill="#000000" font-family="sans-serif" font-size="7.8" lengthAdjust="spacingAndGlyphs" textLength="128.4" x="324.6" y="623.1328">addCaraterCT(ctCod,valorGrau,ob)</text><polygon fill="#A80036" points="782.4,641.1645,788.4,643.5645,782.4,645.9645,784.8,643.5645" style="stroke: #A80036; stroke-width: 0.6;"/><line style="stroke: #A80036; stroke-width: 0.6;" x1="466.2" x2="786" y1="643.5645" y2="643.5645"/><text fill="#000000" font-family="sans-serif" font-size="7.8" font-weight="bold" lengthAdjust="spacingAndGlyphs" textLength="10.8" x="470.4" y="640.7191">23</text><text fill="#000000" font-family="sans-serif" font-size="7.8" lengthAdjust="spacingAndGlyphs" textLength="62.4" x="483.6" y="640.7191">ct=getCT(ctCod)</text><polygon fill="#A80036" points="1368,676.7508,1374,679.1508,1368,681.5508,1370.4,679.1508" style="stroke: #A80036; stroke-width: 0.6;"/><line style="stroke: #A80036; stroke-width: 0.6;" x1="466.2" x2="1371.6" y1="679.1508" y2="679.1508"/><text fill="#000000" font-family="sans-serif" font-size="7.8" font-weight="bold" lengthAdjust="spacingAndGlyphs" textLength="10.8" x="470.4" y="676.3055">24</text><text fill="#000000" font-family="sans-serif" font-size="7.8" lengthAdjust="spacingAndGlyphs" textLength="132.6" x="483.6" y="676.3055">gr = getGrauProficiencia(valorGrau)</text><polygon fill="#A80036" points="1148.1,712.3371,1154.1,714.7371,1148.1,717.1371,1150.5,714.7371" style="stroke: #A80036; stroke-width: 0.6;"/><line style="stroke: #A80036; stroke-width: 0.6;" x1="466.2" x2="1151.7" y1="714.7371" y2="714.7371"/><text fill="#000000" font-family="sans-serif" font-size="7.8" font-weight="bold" lengthAdjust="spacingAndGlyphs" textLength="10.8" x="470.4" y="711.8918">25</text><text fill="#000000" font-family="sans-serif" font-size="7.8" lengthAdjust="spacingAndGlyphs" textLength="87.6" x="483.6" y="711.8918">addCaraterCT(ct,gr, ob)</text><polygon fill="#A80036" points="1425,729.9234,1431,732.3234,1425,734.7234,1427.4,732.3234" style="stroke: #A80036; stroke-width: 0.6;"/><line style="stroke: #A80036; stroke-width: 0.6; stroke-dasharray: 2.0,2.0;" x1="1161.3" x2="1428.6" y1="732.3234" y2="732.3234"/><text fill="#000000" font-family="sans-serif" font-size="7.8" font-weight="bold" lengthAdjust="spacingAndGlyphs" textLength="10.8" x="1165.5" y="729.4781">26</text><text fill="#000000" font-family="sans-serif" font-size="7.8" lengthAdjust="spacingAndGlyphs" textLength="59.4" x="1178.7" y="729.4781">create(ct,gr, ob)</text><rect fill="#FEFECE" filter="url(#f13dly8zlt2uot)" height="28.1859" style="stroke: #A80036; stroke-width: 0.8999999999999999;" width="52.8" x="1432.2" y="719.5371"/><text fill="#000000" font-family="sans-serif" font-size="8.4" lengthAdjust="spacingAndGlyphs" textLength="11.4" x="1452.9" y="731.8582">cct</text><text fill="#000000" font-family="sans-serif" font-size="8.4" lengthAdjust="spacingAndGlyphs" textLength="44.4" x="1436.4" y="741.7512">:CaraterCT</text><line style="stroke: #A80036; stroke-width: 0.6;" x1="1161.3" x2="1186.5" y1="769.5094" y2="769.5094"/><line style="stroke: #A80036; stroke-width: 0.6;" x1="1186.5" x2="1186.5" y1="769.5094" y2="777.3094"/><line style="stroke: #A80036; stroke-width: 0.6;" x1="1161.9" x2="1186.5" y1="777.3094" y2="777.3094"/><polygon fill="#A80036" points="1167.9,774.9094,1161.9,777.3094,1167.9,779.7094,1165.5,777.3094" style="stroke: #A80036; stroke-width: 0.6;"/><text fill="#000000" font-family="sans-serif" font-size="7.8" font-weight="bold" lengthAdjust="spacingAndGlyphs" textLength="10.8" x="1165.5" y="766.6641">27</text><text fill="#000000" font-family="sans-serif" font-size="7.8" lengthAdjust="spacingAndGlyphs" textLength="75.6" x="1178.7" y="766.6641">validaCaraterCT(cct)</text><line style="stroke: #A80036; stroke-width: 0.6;" x1="1161.3" x2="1186.5" y1="797.8957" y2="797.8957"/><line style="stroke: #A80036; stroke-width: 0.6;" x1="1186.5" x2="1186.5" y1="797.8957" y2="805.6957"/><line style="stroke: #A80036; stroke-width: 0.6;" x1="1158.3" x2="1186.5" y1="805.6957" y2="805.6957"/><polygon fill="#A80036" points="1164.3,803.2957,1158.3,805.6957,1164.3,808.0957,1161.9,805.6957" style="stroke: #A80036; stroke-width: 0.6;"/><text fill="#000000" font-family="sans-serif" font-size="7.8" font-weight="bold" lengthAdjust="spacingAndGlyphs" textLength="10.8" x="1165.5" y="795.0504">28</text><text fill="#000000" font-family="sans-serif" font-size="7.8" lengthAdjust="spacingAndGlyphs" textLength="67.2" x="1178.7" y="795.0504">addCaraterCT(cct)</text><polygon fill="#A80036" points="55.2,837.082,49.2,839.482,55.2,841.882,52.8,839.482" style="stroke: #A80036; stroke-width: 0.6;"/><line style="stroke: #A80036; stroke-width: 0.6; stroke-dasharray: 2.0,2.0;" x1="51.6" x2="303.6" y1="839.482" y2="839.482"/><text fill="#000000" font-family="sans-serif" font-size="7.8" font-weight="bold" lengthAdjust="spacingAndGlyphs" textLength="10.8" x="58.8" y="836.6367">29</text><text fill="#000000" font-family="sans-serif" font-size="7.8" lengthAdjust="spacingAndGlyphs" textLength="147.6" x="72" y="836.6367">apresenta dados e solicita confirmação</text><polygon fill="#A80036" points="294,854.6684,300,857.0684,294,859.4684,296.4,857.0684" style="stroke: #A80036; stroke-width: 0.6;"/><line style="stroke: #A80036; stroke-width: 0.6;" x1="48.6" x2="297.6" y1="857.0684" y2="857.0684"/><text fill="#000000" font-family="sans-serif" font-size="7.8" font-weight="bold" lengthAdjust="spacingAndGlyphs" textLength="10.8" x="52.8" y="854.223">30</text><text fill="#000000" font-family="sans-serif" font-size="7.8" lengthAdjust="spacingAndGlyphs" textLength="33.6" x="66" y="854.223">confirma</text><polygon fill="#A80036" points="453,872.2547,459,874.6547,453,877.0547,455.4,874.6547" style="stroke: #A80036; stroke-width: 0.6;"/><line style="stroke: #A80036; stroke-width: 0.6;" x1="307.2" x2="456.6" y1="874.6547" y2="874.6547"/><text fill="#000000" font-family="sans-serif" font-size="7.8" font-weight="bold" lengthAdjust="spacingAndGlyphs" textLength="10.8" x="311.4" y="871.8094">31</text><text fill="#000000" font-family="sans-serif" font-size="7.8" lengthAdjust="spacingAndGlyphs" textLength="66.6" x="324.6" y="871.8094">registaCategoria()</text><polygon fill="#A80036" points="873.3,889.841,879.3,892.241,873.3,894.641,875.7,892.241" style="stroke: #A80036; stroke-width: 0.6;"/><line style="stroke: #A80036; stroke-width: 0.6;" x1="466.2" x2="876.9" y1="892.241" y2="892.241"/><text fill="#000000" font-family="sans-serif" font-size="7.8" font-weight="bold" lengthAdjust="spacingAndGlyphs" textLength="10.8" x="470.4" y="889.3957">32</text><text fill="#000000" font-family="sans-serif" font-size="7.8" lengthAdjust="spacingAndGlyphs" textLength="78" x="483.6" y="889.3957">registaCategoria(cat)</text><line style="stroke: #A80036; stroke-width: 0.6;" x1="886.5" x2="911.7" y1="909.8273" y2="909.8273"/><line style="stroke: #A80036; stroke-width: 0.6;" x1="911.7" x2="911.7" y1="909.8273" y2="917.6273"/><line style="stroke: #A80036; stroke-width: 0.6;" x1="887.1" x2="911.7" y1="917.6273" y2="917.6273"/><polygon fill="#A80036" points="893.1,915.2273,887.1,917.6273,893.1,920.0273,890.7,917.6273" style="stroke: #A80036; stroke-width: 0.6;"/><text fill="#000000" font-family="sans-serif" font-size="7.8" font-weight="bold" lengthAdjust="spacingAndGlyphs" textLength="10.8" x="890.7" y="906.982">33</text><text fill="#000000" font-family="sans-serif" font-size="7.8" lengthAdjust="spacingAndGlyphs" textLength="74.4" x="903.9" y="906.982">validaCategoria(cat)</text><line style="stroke: #A80036; stroke-width: 0.6;" x1="886.5" x2="911.7" y1="935.2137" y2="935.2137"/><line style="stroke: #A80036; stroke-width: 0.6;" x1="911.7" x2="911.7" y1="935.2137" y2="943.0137"/><line style="stroke: #A80036; stroke-width: 0.6;" x1="887.1" x2="911.7" y1="943.0137" y2="943.0137"/><polygon fill="#A80036" points="893.1,940.6137,887.1,943.0137,893.1,945.4137,890.7,943.0137" style="stroke: #A80036; stroke-width: 0.6;"/><text fill="#000000" font-family="sans-serif" font-size="7.8" font-weight="bold" lengthAdjust="spacingAndGlyphs" textLength="10.8" x="890.7" y="932.3684">34</text><text fill="#000000" font-family="sans-serif" font-size="7.8" lengthAdjust="spacingAndGlyphs" textLength="66" x="903.9" y="932.3684">addCategoria(cat)</text><polygon fill="#A80036" points="52.2,958.2,46.2,960.6,52.2,963,49.8,960.6" style="stroke: #A80036; stroke-width: 0.6;"/><line style="stroke: #A80036; stroke-width: 0.6; stroke-dasharray: 2.0,2.0;" x1="48.6" x2="303.6" y1="960.6" y2="960.6"/><text fill="#000000" font-family="sans-serif" font-size="7.8" font-weight="bold" lengthAdjust="spacingAndGlyphs" textLength="10.8" x="55.8" y="957.7547">35</text><text fill="#000000" font-family="sans-serif" font-size="7.8" lengthAdjust="spacingAndGlyphs" textLength="110.4" x="69" y="957.7547">informa sucesso da operação</text><!--MD5=[66722f426225f191ae37b499690f22ac]
@startuml
autonumber
actor "Administrativo" as ADM

participant ":DefinirCategoriaUI" as UI
participant ":DefinircategoriaController" as CTRL
participant ":Plataforma" as PLAT
participant "rat:RegistoAreasAtividade" as RAT
participant "rct:RegistoCT" as RCT
participant "rcat:RegistoCategorias" as RCAT
participant "la\n:List<AreaAtividade>" as LIST_AT
participant "at\n:AreaAtividade" as AT
participant "cat\n:Categoria" as CAT
participant "lct\n:List<CompetenciaTecnica>" as LIST_CT
participant "ct:\nCompetenciaTecnica" as CT
participant "cct\n:CaraterCT" as CARACT_CT
participant "gr:Grau\nProficiencia" as GRAU


activate ADM

ADM -> UI : inicia a definição de nova categoria de tarefa
activate UI

UI -> CTRL : la=getListaAT()
activate CTRL
CTRL -> PLAT : rat=getRegitoAreasAtividade()
activate PLAT
deactivate PLAT
CTRL -> RAT : la=getListaAT()
activate RAT
deactivate RAT
deactivate CTRL
UI - -> ADM: mostra a lista de áreas de atividade e solicita a descrição
deactivate UI

ADM -> UI : introduz a descrição e seleciona a área de atividade
activate UI
UI -> CTRL : lct=novaCategoria(desc,atCod)
activate CTRL
CTRL -> RAT : at=getAT(atCod)
activate RAT
deactivate RAT

CTRL -> PLAT : rcat = getRegistoCategorias()
activate PLAT
deactivate PLAT

CTRL -> RCAT : cat=novaCategoria(desc,at)
activate RCAT
RCAT -> RCAT : catId=geraCategoriaId()
RCAT - -> CAT** : create(catId,desc,at)
deactivate RCAT

CTRL -> PLAT: rct = getRegistoCT()
activate PLAT
deactivate PLAT

CTRL -> RCT : lct=getListaCT(at)
activate RCT
deactivate RCT
deactivate CTRL
loop
UI - -> ADM : mostra lista de CT e solicita escolha de CT
deactivate UI

ADM -> UI : seleciona uma CT
activate UI
UI -> CTRL: lgraus=getGrausCT(ctCod)
activate CTRL
CTRL -> RCT: ct = getCT(ctCod)
activate RCT
deactivate RCT
CTRL -> CT: lgraus = getGraus()
activate CT
deactivate CT
deactivate CTRL

UI - -> ADM: mostra a lista de graus de proficiência associados
deactivate UI

ADM -> UI: seleciona grau minimo e indica se é obrigatória ou desejável

activate UI
UI -> CTRL : addCaraterCT(ctCod,valorGrau,ob)
activate CTRL
CTRL -> RCT : ct=getCT(ctCod)
activate RCT
deactivate RCT

CTRL -> CT : gr = getGrauProficiencia(valorGrau)
activate CT
deactivate CT

CTRL -> CAT : addCaraterCT(ct,gr, ob)
activate CAT
CAT - -> CARACT_CT** : create(ct,gr, ob)
CAT -> CAT : validaCaraterCT(cct)
CAT -> CAT : addCaraterCT(cct)
deactivate CAT
|||
deactivate CTRL
end loop
UI - -> ADM : apresenta dados e solicita confirmação
deactivate UI

ADM -> UI : confirma
activate UI
UI -> CTRL : registaCategoria()
activate CTRL
CTRL -> RCAT : registaCategoria(cat)
activate RCAT
RCAT -> RCAT : validaCategoria(cat)
RCAT -> RCAT : addCategoria(cat)
UI - -> ADM : informa sucesso da operação
deactivate RCAT
deactivate CTRL
deactivate UI

deactivate ADM

@enduml

PlantUML version 1.2020.07(Sun Apr 19 12:42:40 WEST 2020)
(GPL source distribution)
Java Runtime: OpenJDK Runtime Environment
JVM: OpenJDK 64-Bit Server VM
Java Version: 11.0.6+8-b765.25
Operating System: Mac OS X
Default Encoding: UTF-8
Language: en
Country: PT
--></g></svg>