@startuml
skinparam classAttributeIconSize 0
left to right direction


class SeriarCandidaturasAnuncioTask{
+create()
+run()
+SeriarCandidaturasSubmetidas()
+validaAnuncioCriterios()
}

class Timer{
+create()
+schedule(task,delay)
}


class Plataforma {

  +getDelay()
  +getIntervalo()
  +agendaSeriacao()
  +getRegistoAnuncio()
+getRegistoOrganizacao()
}


class RegistoOrganizacoes {
    +getOrganizacaoByEmailUtilizador(email)
}

class ListaCandidaturas {
getCandidaturasDoFreelancer(free);
+getCandidaturaById(candID)
}

class Anuncio {
+getMelhorCandidatura()
+getTarefa()
+getIdentification()
+getCandidaturas()
+getNovoProcessoSeriacao()
+registaProcessoSeriacao(ps)
+validaProcessoSeriacao(ps)
+setProcessoSeriacao(ps)
}

class Freelancer {
   +getEmail
}

class Candidatura {
+getNumeroDias
+getFrelancer
+getValorPretendido
}

class Atribuicao{
+create(org, tar, descInf, nrDias, anuncioID)
+validaAtribuicao()
}

class ProcessoSeriacao{
+getMelhorCandidatura()
+create(tipoRegimento)
+valida()
}

class ProcessoAtribuicao{
+create()
+addAtribuicao(atrib)
}

class Tarefa{
+getDescInf
}

class RegistoAnuncio{
+getAnunciosPorSeriarAutomaticamente()
+novoProcessoAtribuicao(anu,ps)

}

class Classificacao{
+create(cand,ordem)
+valida(class)
+addClassificacao(class)
}


Plataforma "1" --> "1" SeriarCandidaturasAnunciosTask : tem
Plataforma "1" --> "1" Timer : tem

SeriarCandidaturasTask "1" --> "*" Plataforma : tem registadas
SeriarCandidaturasTask "1" --> "*" RegistoAnuncio : tem registadas
SeriarCandidaturasTask "1" --> "*" Anuncio : tem registadas
SeriarCandidaturasTask "1" --> "*" ListaCandidaturas : tem registadas
SeriarCandidaturasTask "1" --> "*" Classificacao : tem registadas

Timer "1" --> "*" SeriarCandidaturasAnuncioTask : publicita

RegistoAnuncios "1" --> "1" ProcessoAtribuicao : tem

ProcessoAtribuicao "1" --> "*" Anuncio : tem
ProcessoAtribuicao "1" --> "*" Candidatura : tem
ProcessoAtribuicao "1" --> "*" Freelancer : tem
ProcessoAtribuicao "1" --> "*" Plataforma : tem
ProcessoAtribuicao "1" --> "*" RegistoOrganizacoes : tem
ProcessoAtribuicao "1" --> "*" Tarefa : tem


Anuncio "1" --> "1" ProcessoSeriacao : espoleta
Anuncio "1" --> "1" Atribuicao : espoleta


ProcessoSeriacao "1" --> "*" Classificacao: resulta

@enduml