@startuml

autonumber

title SD_novoProcessoAtribuicao(anu, ps)

participant "RegistoAnuncios" as RA
participant ":ProcessoAtribuicao" as PA
participant "anun\n:Anuncio" as ANUN
participant ":Plataforma" as PLAT
participant "free\n:Freelancer" as FLC
participant "ro\n:RegistoOrganizacao" as RO
participant "tar: Tarefa" as TAR
participant "cand:\nCandidatura" as CAND
participant "ps\n:ProcessoSeriacao" as PS
participant "atrib\n:Atribuicao" as ATRIB



activate RA

RA -> PA** : create()
activate PA
PA -> ANUN : getMelhorCandidatura()
activate ANUN
ANUN -> PS : cand = getMelhorCandidatura()
activate PS
deactivate PS
deactivate ANUN
PA-> CAND : freel = getFreelancer()
activate CAND
deactivate CAND
PA -> FLC : emailFree = getEmail()
activate FLC
deactivate FLC
PA -> PLAT : ro = getRegistoOrganizacao()
activate PLAT
deactivate PLAT
PA -> RO : org = getOrganizacaoByemail(emailFree)
activate RO
deactivate RO
PA -> ANUN : tar = getTarefa()
activate ANUN
deactivate ANUN
PA -> TAR : descInf = getDescInf()
activate TAR
deactivate TAR
PA -> CAND : nrDias = getNumeroDias()
activate CAND
deactivate CAND
PA -> CAND : valor = getValorPretendido()
activate CAND
deactivate CAND
PA -> ANUN : anuncioId = getId()
activate ANUN
deactivate ANUN
PA -> ANUN : atrib = novoProcessoAtribuicao(org,tar,descInf,nrDias,valor,anuncioId)
activate ANUN
ANUN -> ATRIB** : create(org,tar,descInf,nrDias,valor,anuncioId)
ANUN -> ATRIB : validaAtribuicao()
activate ATRIB
ATRIB -> ATRIB : validaAtribuicao()
deactivate ANUN
deactivate ATRIB

PA -> PA : addAtribuicao(atrib)
deactivate PA

deactivate ANUN
deactivate PA
deactivate RA
@enduml
