<?xml version="1.0" encoding="UTF-8" standalone="no"?>
<svg xmlns="http://www.w3.org/2000/svg" contentScriptType="application/ecmascript" contentStyleType="text/css"
     height="394px" preserveAspectRatio="none" style="width:519px;height:394px;" version="1.1" viewBox="0 0 519 394"
     width="519px" zoomAndPan="magnify">
    <defs>
        <filter height="300%" id="f92hajwhv8mvt" width="300%" x="-1" y="-1">
            <feGaussianBlur result="blurOut" stdDeviation="2.0"/>
            <feColorMatrix in="blurOut" result="blurOut2" type="matrix"
                           values="0 0 0 0 0 0 0 0 0 0 0 0 0 0 0 0 0 0 .4 0"/>
            <feOffset dx="4.0" dy="4.0" in="blurOut2" result="blurOut3"/>
            <feBlend in="SourceGraphic" in2="blurOut3" mode="normal"/>
        </filter>
    </defs>
    <g>
        <rect fill="#FFFFFF" filter="url(#f92hajwhv8mvt)" height="190.4609" style="stroke: #A80036; stroke-width: 1.0;"
              width="10" x="79.5" y="97.6094"/>
        <rect fill="#FFFFFF" filter="url(#f92hajwhv8mvt)" height="46.7031" style="stroke: #A80036; stroke-width: 1.0;"
              width="10" x="471.5" y="119.9609"/>
        <rect fill="#FFFFFF" filter="url(#f92hajwhv8mvt)" height="30.3516" style="stroke: #A80036; stroke-width: 1.0;"
              width="10" x="471.5" y="197.0156"/>
        <rect fill="#FFFFFF" filter="url(#f92hajwhv8mvt)" height="30.3516" style="stroke: #A80036; stroke-width: 1.0;"
              width="10" x="471.5" y="257.7188"/>
        <line style="stroke: #A80036; stroke-width: 1.0; stroke-dasharray: 5.0,5.0;" x1="84" x2="84" y1="87.6094"
              y2="306.0703"/>
        <line style="stroke: #A80036; stroke-width: 1.0; stroke-dasharray: 5.0,5.0;" x1="476.5" x2="476.5" y1="87.6094"
              y2="306.0703"/>
        <text fill="#000000" font-family="sans-serif" font-size="14" lengthAdjust="spacingAndGlyphs" textLength="147"
              x="8" y="84.5332">Gestor de Organização
        </text>
        <ellipse cx="84.5" cy="13" fill="#FEFECE" filter="url(#f92hajwhv8mvt)" rx="8" ry="8"
                 style="stroke: #A80036; stroke-width: 2.0;"/>
        <path d="M84.5,21 L84.5,48 M71.5,29 L97.5,29 M84.5,48 L71.5,63 M84.5,48 L97.5,63 " fill="none"
              filter="url(#f92hajwhv8mvt)" style="stroke: #A80036; stroke-width: 2.0;"/>
        <text fill="#000000" font-family="sans-serif" font-size="14" lengthAdjust="spacingAndGlyphs" textLength="147"
              x="8" y="319.6035">Gestor de Organização
        </text>
        <ellipse cx="84.5" cy="332.6797" fill="#FEFECE" filter="url(#f92hajwhv8mvt)" rx="8" ry="8"
                 style="stroke: #A80036; stroke-width: 2.0;"/>
        <path d="M84.5,340.6797 L84.5,367.6797 M71.5,348.6797 L97.5,348.6797 M84.5,367.6797 L71.5,382.6797 M84.5,367.6797 L97.5,382.6797 "
              fill="none" filter="url(#f92hajwhv8mvt)" style="stroke: #A80036; stroke-width: 2.0;"/>
        <rect fill="#FEFECE" filter="url(#f92hajwhv8mvt)" height="31.6094" style="stroke: #A80036; stroke-width: 1.5;"
              width="68" x="440.5" y="51"/>
        <text fill="#000000" font-family="sans-serif" font-size="14" lengthAdjust="spacingAndGlyphs" textLength="54"
              x="447.5" y="72.5332">:Sistema
        </text>
        <rect fill="#FEFECE" filter="url(#f92hajwhv8mvt)" height="31.6094" style="stroke: #A80036; stroke-width: 1.5;"
              width="68" x="440.5" y="305.0703"/>
        <text fill="#000000" font-family="sans-serif" font-size="14" lengthAdjust="spacingAndGlyphs" textLength="54"
              x="447.5" y="326.6035">:Sistema
        </text>
        <rect fill="#FFFFFF" filter="url(#f92hajwhv8mvt)" height="190.4609" style="stroke: #A80036; stroke-width: 1.0;"
              width="10" x="79.5" y="97.6094"/>
        <rect fill="#FFFFFF" filter="url(#f92hajwhv8mvt)" height="46.7031" style="stroke: #A80036; stroke-width: 1.0;"
              width="10" x="471.5" y="119.9609"/>
        <rect fill="#FFFFFF" filter="url(#f92hajwhv8mvt)" height="30.3516" style="stroke: #A80036; stroke-width: 1.0;"
              width="10" x="471.5" y="197.0156"/>
        <rect fill="#FFFFFF" filter="url(#f92hajwhv8mvt)" height="30.3516" style="stroke: #A80036; stroke-width: 1.0;"
              width="10" x="471.5" y="257.7188"/>
        <polygon fill="#A80036" points="459.5,115.9609,469.5,119.9609,459.5,123.9609,463.5,119.9609"
                 style="stroke: #A80036; stroke-width: 1.0;"/>
        <line style="stroke: #A80036; stroke-width: 1.0;" x1="89.5" x2="465.5" y1="119.9609" y2="119.9609"/>
        <text fill="#000000" font-family="sans-serif" font-size="13" font-weight="bold" lengthAdjust="spacingAndGlyphs"
              textLength="7" x="96.5" y="115.1045">1
        </text>
        <text fill="#000000" font-family="sans-serif" font-size="13" lengthAdjust="spacingAndGlyphs" textLength="352"
              x="107.5" y="115.1045">inicia a especificação de um colaborador da sua organização
        </text>
        <polygon fill="#A80036" points="100.5,162.6641,90.5,166.6641,100.5,170.6641,96.5,166.6641"
                 style="stroke: #A80036; stroke-width: 1.0;"/>
        <line style="stroke: #A80036; stroke-width: 1.0; stroke-dasharray: 2.0,2.0;" x1="94.5" x2="475.5" y1="166.6641"
              y2="166.6641"/>
        <text fill="#000000" font-family="sans-serif" font-size="13" font-weight="bold" lengthAdjust="spacingAndGlyphs"
              textLength="7" x="106.5" y="153.6318">2
        </text>
        <text fill="#000000" font-family="sans-serif" font-size="13" lengthAdjust="spacingAndGlyphs" textLength="98"
              x="117.5" y="145.4561">solicita os dados
        </text>
        <text fill="#000000" font-family="sans-serif" font-size="13" lengthAdjust="spacingAndGlyphs" textLength="317"
              x="117.5" y="161.8076">(nome, função, contacto telefónico, endereço de email)
        </text>
        <polygon fill="#A80036" points="459.5,193.0156,469.5,197.0156,459.5,201.0156,463.5,197.0156"
                 style="stroke: #A80036; stroke-width: 1.0;"/>
        <line style="stroke: #A80036; stroke-width: 1.0;" x1="89.5" x2="465.5" y1="197.0156" y2="197.0156"/>
        <text fill="#000000" font-family="sans-serif" font-size="13" font-weight="bold" lengthAdjust="spacingAndGlyphs"
              textLength="7" x="96.5" y="192.1592">3
        </text>
        <text fill="#000000" font-family="sans-serif" font-size="13" lengthAdjust="spacingAndGlyphs" textLength="169"
              x="107.5" y="192.1592">introduz os dados solicitados
        </text>
        <polygon fill="#A80036" points="100.5,223.3672,90.5,227.3672,100.5,231.3672,96.5,227.3672"
                 style="stroke: #A80036; stroke-width: 1.0;"/>
        <line style="stroke: #A80036; stroke-width: 1.0; stroke-dasharray: 2.0,2.0;" x1="94.5" x2="475.5" y1="227.3672"
              y2="227.3672"/>
        <text fill="#000000" font-family="sans-serif" font-size="13" font-weight="bold" lengthAdjust="spacingAndGlyphs"
              textLength="7" x="106.5" y="222.5107">4
        </text>
        <text fill="#000000" font-family="sans-serif" font-size="13" lengthAdjust="spacingAndGlyphs" textLength="244"
              x="117.5" y="222.5107">apresenta os dados e solicita confirmação
        </text>
        <polygon fill="#A80036" points="459.5,253.7188,469.5,257.7188,459.5,261.7188,463.5,257.7188"
                 style="stroke: #A80036; stroke-width: 1.0;"/>
        <line style="stroke: #A80036; stroke-width: 1.0;" x1="89.5" x2="465.5" y1="257.7188" y2="257.7188"/>
        <text fill="#000000" font-family="sans-serif" font-size="13" font-weight="bold" lengthAdjust="spacingAndGlyphs"
              textLength="7" x="96.5" y="252.8623">5
        </text>
        <text fill="#000000" font-family="sans-serif" font-size="13" lengthAdjust="spacingAndGlyphs" textLength="106"
              x="107.5" y="252.8623">confirma os dados
        </text>
        <polygon fill="#A80036" points="95.5,284.0703,85.5,288.0703,95.5,292.0703,91.5,288.0703"
                 style="stroke: #A80036; stroke-width: 1.0;"/>
        <line style="stroke: #A80036; stroke-width: 1.0; stroke-dasharray: 2.0,2.0;" x1="89.5" x2="475.5" y1="288.0703"
              y2="288.0703"/>
        <text fill="#000000" font-family="sans-serif" font-size="13" font-weight="bold" lengthAdjust="spacingAndGlyphs"
              textLength="7" x="101.5" y="283.2139">6
        </text>
        <text fill="#000000" font-family="sans-serif" font-size="13" lengthAdjust="spacingAndGlyphs" textLength="188"
              x="112.5" y="283.2139">informa do sucesso da operação
        </text>
        <!--MD5=[d517d4063011a5300e723b1711d60895]
@startuml
autonumber
actor "Gestor de Organização" as GES

participant ":Sistema" as SIST

activate GES
GES -> SIST : inicia a especificação de um colaborador da sua organização
activate SIST
SIST - -> GES : solicita os dados \n(nome, função, contacto telefónico, endereço de email)
deactivate SIST

GES -> SIST : introduz os dados solicitados
activate SIST
SIST - -> GES : apresenta os dados e solicita confirmação
deactivate SIST

GES -> SIST : confirma os dados
activate SIST
SIST - -> GES : informa do sucesso da operação
deactivate SIST

deactivate GES

@enduml

PlantUML version 1.2020.01(Sun Feb 16 17:40:32 WET 2020)
(GPL source distribution)
Java Runtime: Java(TM) SE Runtime Environment
JVM: Java HotSpot(TM) 64-Bit Server VM
Java Version: 13.0.2+8
Operating System: Windows 10
Default Encoding: Cp1252
Language: pt
Country: PT
-->
    </g>
</svg>