<?xml version="1.0" encoding="UTF-8" standalone="no"?>
<svg xmlns="http://www.w3.org/2000/svg" contentScriptType="application/ecmascript" contentStyleType="text/css"
     height="935.2px" preserveAspectRatio="none" style="width:1640px;height:935px;" version="1.1" viewBox="0 0 1640 935"
     width="1640.8px" zoomAndPan="magnify">
    <defs>
        <filter height="300%" id="f1pku9flcw863i" width="300%" x="-1" y="-1">
            <feGaussianBlur result="blurOut" stdDeviation="1.6"/>
            <feColorMatrix in="blurOut" result="blurOut2" type="matrix"
                           values="0 0 0 0 0 0 0 0 0 0 0 0 0 0 0 0 0 0 .4 0"/>
            <feOffset dx="3.2" dy="3.2" in="blurOut2" result="blurOut3"/>
            <feBlend in="SourceGraphic" in2="blurOut3" mode="normal"/>
        </filter>
    </defs>
    <g>
        <rect fill="#FFFFFF" filter="url(#f1pku9flcw863i)" height="781.4469" style="stroke: #A80036; stroke-width: 0.8;"
              width="8" x="67.6" y="77.1906"/>
        <rect fill="#FFFFFF" filter="url(#f1pku9flcw863i)" height="35.6969" style="stroke: #A80036; stroke-width: 0.8;"
              width="8" x="309.2" y="94.2391"/>
        <rect fill="#FFFFFF" filter="url(#f1pku9flcw863i)" height="452.0656" style="stroke: #A80036; stroke-width: 0.8;"
              width="8" x="309.2" y="153.3844"/>
        <rect fill="#FFFFFF" filter="url(#f1pku9flcw863i)" height="222.5391" style="stroke: #A80036; stroke-width: 0.8;"
              width="8" x="309.2" y="628.8984"/>
        <rect fill="#FFFFFF" filter="url(#f1pku9flcw863i)" height="428.6172" style="stroke: #A80036; stroke-width: 0.8;"
              width="8" x="546" y="176.8328"/>
        <rect fill="#FFFFFF" filter="url(#f1pku9flcw863i)" height="199.0906" style="stroke: #A80036; stroke-width: 0.8;"
              width="8" x="546" y="652.3469"/>
        <rect fill="#FFFFFF" filter="url(#f1pku9flcw863i)" height="24" style="stroke: #A80036; stroke-width: 0.8;"
              width="8" x="699.6" y="200.2813"/>
        <rect fill="#FFFFFF" filter="url(#f1pku9flcw863i)" height="24" style="stroke: #A80036; stroke-width: 0.8;"
              width="8" x="798.8" y="247.7297"/>
        <rect fill="#FFFFFF" filter="url(#f1pku9flcw863i)" height="24" style="stroke: #A80036; stroke-width: 0.8;"
              width="8" x="907.6" y="295.1781"/>
        <rect fill="#FFFFFF" filter="url(#f1pku9flcw863i)" height="24" style="stroke: #A80036; stroke-width: 0.8;"
              width="8" x="1008.4" y="342.6266"/>
        <rect fill="#00BFFF" filter="url(#f1pku9flcw863i)" height="24" style="stroke: #A80036; stroke-width: 0.8;"
              width="8" x="1121.6" y="390.075"/>
        <rect fill="#FFFFFF" filter="url(#f1pku9flcw863i)" height="24" style="stroke: #A80036; stroke-width: 0.8;"
              width="8" x="1240" y="437.5234"/>
        <rect fill="#00BFFF" filter="url(#f1pku9flcw863i)" height="23.4484" style="stroke: #A80036; stroke-width: 0.8;"
              width="8" x="1353.6" y="484.9719"/>
        <rect fill="#00BFFF" filter="url(#f1pku9flcw863i)" height="24" style="stroke: #A80036; stroke-width: 0.8;"
              width="8" x="1353.6" y="558.0016"/>
        <rect fill="#00BFFF" filter="url(#f1pku9flcw863i)" height="146.5938" style="stroke: #A80036; stroke-width: 0.8;"
              width="8" x="1353.6" y="675.7953"/>
        <rect fill="#00BFFF" filter="url(#f1pku9flcw863i)" height="22.4" style="stroke: #A80036; stroke-width: 0.8;"
              width="8" x="1357.6" y="705.6438"/>
        <rect fill="#00BFFF" filter="url(#f1pku9flcw863i)" height="22.4" style="stroke: #A80036; stroke-width: 0.8;"
              width="8" x="1357.6" y="799.9891"/>
        <line style="stroke: #A80036; stroke-width: 0.8; stroke-dasharray: 5.0,5.0;" x1="71.2" x2="71.2" y1="69.1906"
              y2="865.8375"/>
        <line style="stroke: #A80036; stroke-width: 0.8; stroke-dasharray: 5.0,5.0;" x1="313.2" x2="313.2" y1="69.1906"
              y2="865.8375"/>
        <line style="stroke: #A80036; stroke-width: 0.8; stroke-dasharray: 5.0,5.0;" x1="550" x2="550" y1="69.1906"
              y2="865.8375"/>
        <line style="stroke: #A80036; stroke-width: 0.8; stroke-dasharray: 5.0,5.0;" x1="703.6" x2="703.6" y1="69.1906"
              y2="865.8375"/>
        <line style="stroke: #A80036; stroke-width: 0.8; stroke-dasharray: 5.0,5.0;" x1="802.8" x2="802.8" y1="69.1906"
              y2="865.8375"/>
        <line style="stroke: #A80036; stroke-width: 0.8; stroke-dasharray: 5.0,5.0;" x1="911.6" x2="911.6" y1="69.1906"
              y2="865.8375"/>
        <line style="stroke: #A80036; stroke-width: 0.8; stroke-dasharray: 5.0,5.0;" x1="1012.4" x2="1012.4"
              y1="69.1906" y2="865.8375"/>
        <line style="stroke: #A80036; stroke-width: 0.8; stroke-dasharray: 5.0,5.0;" x1="1125.2" x2="1125.2"
              y1="69.1906" y2="865.8375"/>
        <line style="stroke: #A80036; stroke-width: 0.8; stroke-dasharray: 5.0,5.0;" x1="1243.6" x2="1243.6"
              y1="69.1906" y2="865.8375"/>
        <line style="stroke: #A80036; stroke-width: 0.8; stroke-dasharray: 5.0,5.0;" x1="1357.2" x2="1357.2"
              y1="69.1906" y2="865.8375"/>
        <line style="stroke: #A80036; stroke-width: 0.8; stroke-dasharray: 5.0,5.0;" x1="1588.8" x2="1588.8"
              y1="524.1625" y2="865.8375"/>
        <text fill="#000000" font-family="sans-serif" font-size="11.2" lengthAdjust="spacingAndGlyphs"
              textLength="125.6" x="6.4" y="66.8281">Gestor de Organização
        </text>
        <ellipse cx="71.6" cy="10.4" fill="#FEFECE" filter="url(#f1pku9flcw863i)" rx="6.4" ry="6.4"
                 style="stroke: #A80036; stroke-width: 1.6;"/>
        <path d="M71.6,16.8 L71.6,38.4 M61.2,23.2 L82,23.2 M71.6,38.4 L61.2,50.4 M71.6,38.4 L82,50.4 " fill="none"
              filter="url(#f1pku9flcw863i)" style="stroke: #A80036; stroke-width: 1.6;"/>
        <text fill="#000000" font-family="sans-serif" font-size="11.2" lengthAdjust="spacingAndGlyphs"
              textLength="125.6" x="6.4" y="875.8656">Gestor de Organização
        </text>
        <ellipse cx="71.6" cy="886.2281" fill="#FEFECE" filter="url(#f1pku9flcw863i)" rx="6.4" ry="6.4"
                 style="stroke: #A80036; stroke-width: 1.6;"/>
        <path d="M71.6,892.6281 L71.6,914.2281 M61.2,899.0281 L82,899.0281 M71.6,914.2281 L61.2,926.2281 M71.6,914.2281 L82,926.2281 "
              fill="none" filter="url(#f1pku9flcw863i)" style="stroke: #A80036; stroke-width: 1.6;"/>
        <rect fill="#FEFECE" filter="url(#f1pku9flcw863i)" height="24.3906"
              style="stroke: #A80036; stroke-width: 1.2000000000000002;" width="153.6" x="234.8" y="40.8"/>
        <text fill="#000000" font-family="sans-serif" font-size="11.2" lengthAdjust="spacingAndGlyphs"
              textLength="142.4" x="240.4" y="57.2281">:EspecificarColaboradorUI
        </text>
        <rect fill="#FEFECE" filter="url(#f1pku9flcw863i)" height="24.3906"
              style="stroke: #A80036; stroke-width: 1.2000000000000002;" width="153.6" x="234.8" y="865.0375"/>
        <text fill="#000000" font-family="sans-serif" font-size="11.2" lengthAdjust="spacingAndGlyphs"
              textLength="142.4" x="240.4" y="881.4656">:EspecificarColaboradorUI
        </text>
        <rect fill="#FEFECE" filter="url(#f1pku9flcw863i)" height="24.3906"
              style="stroke: #A80036; stroke-width: 1.2000000000000002;" width="198.4" x="449.2" y="40.8"/>
        <text fill="#000000" font-family="sans-serif" font-size="11.2" lengthAdjust="spacingAndGlyphs"
              textLength="187.2" x="454.8" y="57.2281">:EspecificarColaboradorController
        </text>
        <rect fill="#FEFECE" filter="url(#f1pku9flcw863i)" height="24.3906"
              style="stroke: #A80036; stroke-width: 1.2000000000000002;" width="198.4" x="449.2" y="865.0375"/>
        <text fill="#000000" font-family="sans-serif" font-size="11.2" lengthAdjust="spacingAndGlyphs"
              textLength="187.2" x="454.8" y="881.4656">:EspecificarColaboradorController
        </text>
        <rect fill="#FEFECE" filter="url(#f1pku9flcw863i)" height="24.3906"
              style="stroke: #A80036; stroke-width: 1.2000000000000002;" width="86.4" x="658.8" y="40.8"/>
        <text fill="#000000" font-family="sans-serif" font-size="11.2" lengthAdjust="spacingAndGlyphs" textLength="75.2"
              x="664.4" y="57.2281">AplicacaoPOT
        </text>
        <rect fill="#FEFECE" filter="url(#f1pku9flcw863i)" height="24.3906"
              style="stroke: #A80036; stroke-width: 1.2000000000000002;" width="86.4" x="658.8" y="865.0375"/>
        <text fill="#000000" font-family="sans-serif" font-size="11.2" lengthAdjust="spacingAndGlyphs" textLength="75.2"
              x="664.4" y="881.4656">AplicacaoPOT
        </text>
        <rect fill="#FEFECE" filter="url(#f1pku9flcw863i)" height="37.5813"
              style="stroke: #A80036; stroke-width: 1.2000000000000002;" width="89.6" x="756.4" y="27.6094"/>
        <text fill="#000000" font-family="sans-serif" font-size="11.2" lengthAdjust="spacingAndGlyphs" textLength="20.8"
              x="790.8" y="44.0375">app
        </text>
        <text fill="#000000" font-family="sans-serif" font-size="11.2" lengthAdjust="spacingAndGlyphs" textLength="78.4"
              x="762" y="57.2281">:AplicacaoPOT
        </text>
        <rect fill="#FEFECE" filter="url(#f1pku9flcw863i)" height="37.5813"
              style="stroke: #A80036; stroke-width: 1.2000000000000002;" width="89.6" x="756.4" y="865.0375"/>
        <text fill="#000000" font-family="sans-serif" font-size="11.2" lengthAdjust="spacingAndGlyphs" textLength="20.8"
              x="790.8" y="881.4656">app
        </text>
        <text fill="#000000" font-family="sans-serif" font-size="11.2" lengthAdjust="spacingAndGlyphs" textLength="78.4"
              x="762" y="894.6563">:AplicacaoPOT
        </text>
        <rect fill="#FEFECE" filter="url(#f1pku9flcw863i)" height="37.5813"
              style="stroke: #A80036; stroke-width: 1.2000000000000002;" width="105.6" x="857.2" y="27.6094"/>
        <text fill="#000000" font-family="sans-serif" font-size="11.2" lengthAdjust="spacingAndGlyphs" textLength="36.8"
              x="891.6" y="44.0375">sessao
        </text>
        <text fill="#000000" font-family="sans-serif" font-size="11.2" lengthAdjust="spacingAndGlyphs" textLength="94.4"
              x="862.8" y="57.2281">:SessaoUtilizador
        </text>
        <rect fill="#FEFECE" filter="url(#f1pku9flcw863i)" height="37.5813"
              style="stroke: #A80036; stroke-width: 1.2000000000000002;" width="105.6" x="857.2" y="865.0375"/>
        <text fill="#000000" font-family="sans-serif" font-size="11.2" lengthAdjust="spacingAndGlyphs" textLength="36.8"
              x="891.6" y="881.4656">sessao
        </text>
        <text fill="#000000" font-family="sans-serif" font-size="11.2" lengthAdjust="spacingAndGlyphs" textLength="94.4"
              x="862.8" y="894.6563">:SessaoUtilizador
        </text>
        <rect fill="#FEFECE" filter="url(#f1pku9flcw863i)" height="24.3906"
              style="stroke: #A80036; stroke-width: 1.2000000000000002;" width="73.6" x="974" y="40.8"/>
        <text fill="#000000" font-family="sans-serif" font-size="11.2" lengthAdjust="spacingAndGlyphs" textLength="62.4"
              x="979.6" y="57.2281">:Plataforma
        </text>
        <rect fill="#FEFECE" filter="url(#f1pku9flcw863i)" height="24.3906"
              style="stroke: #A80036; stroke-width: 1.2000000000000002;" width="73.6" x="974" y="865.0375"/>
        <text fill="#000000" font-family="sans-serif" font-size="11.2" lengthAdjust="spacingAndGlyphs" textLength="62.4"
              x="979.6" y="881.4656">:Plataforma
        </text>
        <rect fill="#00BFFF" filter="url(#f1pku9flcw863i)" height="37.5813"
              style="stroke: #A80036; stroke-width: 1.2000000000000002;" width="130.4" x="1058.8" y="27.6094"/>
        <text fill="#000000" font-family="sans-serif" font-size="11.2" lengthAdjust="spacingAndGlyphs" textLength="12"
              x="1118" y="44.0375">ro
        </text>
        <text fill="#000000" font-family="sans-serif" font-size="11.2" lengthAdjust="spacingAndGlyphs"
              textLength="119.2" x="1064.4" y="57.2281">:RegistoOrganizacoes
        </text>
        <rect fill="#00BFFF" filter="url(#f1pku9flcw863i)" height="37.5813"
              style="stroke: #A80036; stroke-width: 1.2000000000000002;" width="130.4" x="1058.8" y="865.0375"/>
        <text fill="#000000" font-family="sans-serif" font-size="11.2" lengthAdjust="spacingAndGlyphs" textLength="12"
              x="1118" y="881.4656">ro
        </text>
        <text fill="#000000" font-family="sans-serif" font-size="11.2" lengthAdjust="spacingAndGlyphs"
              textLength="119.2" x="1064.4" y="894.6563">:RegistoOrganizacoes
        </text>
        <rect fill="#FEFECE" filter="url(#f1pku9flcw863i)" height="37.5813"
              style="stroke: #A80036; stroke-width: 1.2000000000000002;" width="84" x="1200.4" y="27.6094"/>
        <text fill="#000000" font-family="sans-serif" font-size="11.2" lengthAdjust="spacingAndGlyphs" textLength="19.2"
              x="1232.8" y="44.0375">org
        </text>
        <text fill="#000000" font-family="sans-serif" font-size="11.2" lengthAdjust="spacingAndGlyphs" textLength="72.8"
              x="1206" y="57.2281">:Organizacao
        </text>
        <rect fill="#FEFECE" filter="url(#f1pku9flcw863i)" height="37.5813"
              style="stroke: #A80036; stroke-width: 1.2000000000000002;" width="84" x="1200.4" y="865.0375"/>
        <text fill="#000000" font-family="sans-serif" font-size="11.2" lengthAdjust="spacingAndGlyphs" textLength="19.2"
              x="1232.8" y="881.4656">org
        </text>
        <text fill="#000000" font-family="sans-serif" font-size="11.2" lengthAdjust="spacingAndGlyphs" textLength="72.8"
              x="1206" y="894.6563">:Organizacao
        </text>
        <rect fill="#00BFFF" filter="url(#f1pku9flcw863i)" height="37.5813"
              style="stroke: #A80036; stroke-width: 1.2000000000000002;" width="120.8" x="1295.6" y="27.6094"/>
        <text fill="#000000" font-family="sans-serif" font-size="11.2" lengthAdjust="spacingAndGlyphs" textLength="8.8"
              x="1351.6" y="44.0375">lc
        </text>
        <text fill="#000000" font-family="sans-serif" font-size="11.2" lengthAdjust="spacingAndGlyphs"
              textLength="109.6" x="1301.2" y="57.2281">:ListaColaboradores
        </text>
        <rect fill="#00BFFF" filter="url(#f1pku9flcw863i)" height="37.5813"
              style="stroke: #A80036; stroke-width: 1.2000000000000002;" width="120.8" x="1295.6" y="865.0375"/>
        <text fill="#000000" font-family="sans-serif" font-size="11.2" lengthAdjust="spacingAndGlyphs" textLength="8.8"
              x="1351.6" y="881.4656">lc
        </text>
        <text fill="#000000" font-family="sans-serif" font-size="11.2" lengthAdjust="spacingAndGlyphs"
              textLength="109.6" x="1301.2" y="894.6563">:ListaColaboradores
        </text>
        <rect fill="#FEFECE" filter="url(#f1pku9flcw863i)" height="37.5813"
              style="stroke: #A80036; stroke-width: 1.2000000000000002;" width="84" x="1545.6" y="865.0375"/>
        <text fill="#000000" font-family="sans-serif" font-size="11.2" lengthAdjust="spacingAndGlyphs" textLength="29.6"
              x="1572.8" y="881.4656">colab
        </text>
        <text fill="#000000" font-family="sans-serif" font-size="11.2" lengthAdjust="spacingAndGlyphs" textLength="72.8"
              x="1551.2" y="894.6563">:Colaborador
        </text>
        <rect fill="#FFFFFF" filter="url(#f1pku9flcw863i)" height="781.4469" style="stroke: #A80036; stroke-width: 0.8;"
              width="8" x="67.6" y="77.1906"/>
        <rect fill="#FFFFFF" filter="url(#f1pku9flcw863i)" height="35.6969" style="stroke: #A80036; stroke-width: 0.8;"
              width="8" x="309.2" y="94.2391"/>
        <rect fill="#FFFFFF" filter="url(#f1pku9flcw863i)" height="452.0656" style="stroke: #A80036; stroke-width: 0.8;"
              width="8" x="309.2" y="153.3844"/>
        <rect fill="#FFFFFF" filter="url(#f1pku9flcw863i)" height="222.5391" style="stroke: #A80036; stroke-width: 0.8;"
              width="8" x="309.2" y="628.8984"/>
        <rect fill="#FFFFFF" filter="url(#f1pku9flcw863i)" height="428.6172" style="stroke: #A80036; stroke-width: 0.8;"
              width="8" x="546" y="176.8328"/>
        <rect fill="#FFFFFF" filter="url(#f1pku9flcw863i)" height="199.0906" style="stroke: #A80036; stroke-width: 0.8;"
              width="8" x="546" y="652.3469"/>
        <rect fill="#FFFFFF" filter="url(#f1pku9flcw863i)" height="24" style="stroke: #A80036; stroke-width: 0.8;"
              width="8" x="699.6" y="200.2813"/>
        <rect fill="#FFFFFF" filter="url(#f1pku9flcw863i)" height="24" style="stroke: #A80036; stroke-width: 0.8;"
              width="8" x="798.8" y="247.7297"/>
        <rect fill="#FFFFFF" filter="url(#f1pku9flcw863i)" height="24" style="stroke: #A80036; stroke-width: 0.8;"
              width="8" x="907.6" y="295.1781"/>
        <rect fill="#FFFFFF" filter="url(#f1pku9flcw863i)" height="24" style="stroke: #A80036; stroke-width: 0.8;"
              width="8" x="1008.4" y="342.6266"/>
        <rect fill="#00BFFF" filter="url(#f1pku9flcw863i)" height="24" style="stroke: #A80036; stroke-width: 0.8;"
              width="8" x="1121.6" y="390.075"/>
        <rect fill="#FFFFFF" filter="url(#f1pku9flcw863i)" height="24" style="stroke: #A80036; stroke-width: 0.8;"
              width="8" x="1240" y="437.5234"/>
        <rect fill="#00BFFF" filter="url(#f1pku9flcw863i)" height="23.4484" style="stroke: #A80036; stroke-width: 0.8;"
              width="8" x="1353.6" y="484.9719"/>
        <rect fill="#00BFFF" filter="url(#f1pku9flcw863i)" height="24" style="stroke: #A80036; stroke-width: 0.8;"
              width="8" x="1353.6" y="558.0016"/>
        <rect fill="#00BFFF" filter="url(#f1pku9flcw863i)" height="146.5938" style="stroke: #A80036; stroke-width: 0.8;"
              width="8" x="1353.6" y="675.7953"/>
        <rect fill="#00BFFF" filter="url(#f1pku9flcw863i)" height="22.4" style="stroke: #A80036; stroke-width: 0.8;"
              width="8" x="1357.6" y="705.6438"/>
        <rect fill="#00BFFF" filter="url(#f1pku9flcw863i)" height="22.4" style="stroke: #A80036; stroke-width: 0.8;"
              width="8" x="1357.6" y="799.9891"/>
        <polygon fill="#A80036" points="299.6,91.0391,307.6,94.2391,299.6,97.4391,302.8,94.2391"
                 style="stroke: #A80036; stroke-width: 0.8;"/>
        <line style="stroke: #A80036; stroke-width: 0.8;" x1="75.6" x2="304.4" y1="94.2391" y2="94.2391"/>
        <text fill="#000000" font-family="sans-serif" font-size="10.4" font-weight="bold"
              lengthAdjust="spacingAndGlyphs" textLength="7.2" x="81.2" y="90.4453">1
        </text>
        <text fill="#000000" font-family="sans-serif" font-size="10.4" lengthAdjust="spacingAndGlyphs"
              textLength="176.8" x="91.6" y="90.4453">inicia especificação de colaborador
        </text>
        <polygon fill="#A80036" points="84.4,126.7359,76.4,129.9359,84.4,133.1359,81.2,129.9359"
                 style="stroke: #A80036; stroke-width: 0.8;"/>
        <line style="stroke: #A80036; stroke-width: 0.8; stroke-dasharray: 2.0,2.0;" x1="79.6" x2="312.4" y1="129.9359"
              y2="129.9359"/>
        <text fill="#000000" font-family="sans-serif" font-size="10.4" font-weight="bold"
              lengthAdjust="spacingAndGlyphs" textLength="7.2" x="89.2" y="120.018">2
        </text>
        <text fill="#000000" font-family="sans-serif" font-size="10.4" lengthAdjust="spacingAndGlyphs"
              textLength="149.6" x="99.6" y="113.8938">solicita dados do colaborador
        </text>
        <text fill="#000000" font-family="sans-serif" font-size="10.4" lengthAdjust="spacingAndGlyphs"
              textLength="116.8" x="99.6" y="126.1422">(nome,função,tlf,email)
        </text>
        <polygon fill="#A80036" points="299.6,150.1844,307.6,153.3844,299.6,156.5844,302.8,153.3844"
                 style="stroke: #A80036; stroke-width: 0.8;"/>
        <line style="stroke: #A80036; stroke-width: 0.8;" x1="75.6" x2="304.4" y1="153.3844" y2="153.3844"/>
        <text fill="#000000" font-family="sans-serif" font-size="10.4" font-weight="bold"
              lengthAdjust="spacingAndGlyphs" textLength="7.2" x="81.2" y="149.5906">3
        </text>
        <text fill="#000000" font-family="sans-serif" font-size="10.4" lengthAdjust="spacingAndGlyphs"
              textLength="149.6" x="91.6" y="149.5906">introduz os dados solicitados
        </text>
        <polygon fill="#A80036" points="536.4,173.6328,544.4,176.8328,536.4,180.0328,539.6,176.8328"
                 style="stroke: #A80036; stroke-width: 0.8;"/>
        <line style="stroke: #A80036; stroke-width: 0.8;" x1="317.2" x2="541.2" y1="176.8328" y2="176.8328"/>
        <text fill="#000000" font-family="sans-serif" font-size="10.4" font-weight="bold"
              lengthAdjust="spacingAndGlyphs" textLength="7.2" x="322.8" y="173.0391">4
        </text>
        <text fill="#000000" font-family="sans-serif" font-size="10.4" lengthAdjust="spacingAndGlyphs"
              textLength="203.2" x="333.2" y="173.0391">novoColaborador(nome,funcao,tlf,email)
        </text>
        <polygon fill="#A80036" points="690,197.0813,698,200.2813,690,203.4813,693.2,200.2813"
                 style="stroke: #A80036; stroke-width: 0.8;"/>
        <line style="stroke: #A80036; stroke-width: 0.8;" x1="554" x2="694.8" y1="200.2813" y2="200.2813"/>
        <text fill="#000000" font-family="sans-serif" font-size="10.4" font-weight="bold"
              lengthAdjust="spacingAndGlyphs" textLength="7.2" x="559.6" y="196.4875">5
        </text>
        <text fill="#000000" font-family="sans-serif" font-size="10.4" lengthAdjust="spacingAndGlyphs" textLength="97.6"
              x="570" y="196.4875">app = getInstance()
        </text>
        <polygon fill="#A80036" points="789.2,244.5297,797.2,247.7297,789.2,250.9297,792.4,247.7297"
                 style="stroke: #A80036; stroke-width: 0.8;"/>
        <line style="stroke: #A80036; stroke-width: 0.8;" x1="554" x2="794" y1="247.7297" y2="247.7297"/>
        <text fill="#000000" font-family="sans-serif" font-size="10.4" font-weight="bold"
              lengthAdjust="spacingAndGlyphs" textLength="7.2" x="559.6" y="243.9359">6
        </text>
        <text fill="#000000" font-family="sans-serif" font-size="10.4" lengthAdjust="spacingAndGlyphs" textLength="132"
              x="570" y="243.9359">sessao = getSessaoAtual()
        </text>
        <polygon fill="#A80036" points="898,291.9781,906,295.1781,898,298.3781,901.2,295.1781"
                 style="stroke: #A80036; stroke-width: 0.8;"/>
        <line style="stroke: #A80036; stroke-width: 0.8;" x1="554" x2="902.8" y1="295.1781" y2="295.1781"/>
        <text fill="#000000" font-family="sans-serif" font-size="10.4" font-weight="bold"
              lengthAdjust="spacingAndGlyphs" textLength="7.2" x="559.6" y="291.3844">7
        </text>
        <text fill="#000000" font-family="sans-serif" font-size="10.4" lengthAdjust="spacingAndGlyphs" textLength="160"
              x="570" y="291.3844">emailUtlz = getEmailUtilizador()
        </text>
        <polygon fill="#A80036" points="998.8,339.4266,1006.8,342.6266,998.8,345.8266,1002,342.6266"
                 style="stroke: #A80036; stroke-width: 0.8;"/>
        <line style="stroke: #A80036; stroke-width: 0.8;" x1="554" x2="1003.6" y1="342.6266" y2="342.6266"/>
        <text fill="#000000" font-family="sans-serif" font-size="10.4" font-weight="bold"
              lengthAdjust="spacingAndGlyphs" textLength="7.2" x="559.6" y="338.8328">8
        </text>
        <text fill="#000000" font-family="sans-serif" font-size="10.4" lengthAdjust="spacingAndGlyphs"
              textLength="147.2" x="570" y="338.8328">ro = getRegistoOrganizacao()
        </text>
        <polygon fill="#A80036" points="1112,386.875,1120,390.075,1112,393.275,1115.2,390.075"
                 style="stroke: #A80036; stroke-width: 0.8;"/>
        <line style="stroke: #A80036; stroke-width: 0.8;" x1="554" x2="1116.8" y1="390.075" y2="390.075"/>
        <text fill="#000000" font-family="sans-serif" font-size="10.4" font-weight="bold"
              lengthAdjust="spacingAndGlyphs" textLength="7.2" x="559.6" y="386.2813">9
        </text>
        <text fill="#000000" font-family="sans-serif" font-size="10.4" lengthAdjust="spacingAndGlyphs"
              textLength="250.4" x="570" y="386.2813">org = getOrganizacaoByEmailUtilizador(emailUtlz)
        </text>
        <polygon fill="#A80036" points="1230.4,434.3234,1238.4,437.5234,1230.4,440.7234,1233.6,437.5234"
                 style="stroke: #A80036; stroke-width: 0.8;"/>
        <line style="stroke: #A80036; stroke-width: 0.8;" x1="554" x2="1235.2" y1="437.5234" y2="437.5234"/>
        <text fill="#000000" font-family="sans-serif" font-size="10.4" font-weight="bold"
              lengthAdjust="spacingAndGlyphs" textLength="14.4" x="559.6" y="433.7297">10
        </text>
        <text fill="#000000" font-family="sans-serif" font-size="10.4" lengthAdjust="spacingAndGlyphs"
              textLength="142.4" x="577.2" y="433.7297">lc = getListaColaboradores()
        </text>
        <polygon fill="#A80036" points="1344,481.7719,1352,484.9719,1344,488.1719,1347.2,484.9719"
                 style="stroke: #A80036; stroke-width: 0.8;"/>
        <line style="stroke: #A80036; stroke-width: 0.8;" x1="554" x2="1348.8" y1="484.9719" y2="484.9719"/>
        <text fill="#000000" font-family="sans-serif" font-size="10.4" font-weight="bold"
              lengthAdjust="spacingAndGlyphs" textLength="14.4" x="559.6" y="481.1781">11
        </text>
        <text fill="#000000" font-family="sans-serif" font-size="10.4" lengthAdjust="spacingAndGlyphs"
              textLength="244.8" x="577.2" y="481.1781">colab = novoColaborador(nome,funcao,tlf,email)
        </text>
        <polygon fill="#A80036" points="1536,505.2203,1544,508.4203,1536,511.6203,1539.2,508.4203"
                 style="stroke: #A80036; stroke-width: 0.8;"/>
        <line style="stroke: #A80036; stroke-width: 0.8; stroke-dasharray: 2.0,2.0;" x1="1357.6" x2="1540.8"
              y1="508.4203" y2="508.4203"/>
        <text fill="#000000" font-family="sans-serif" font-size="10.4" font-weight="bold"
              lengthAdjust="spacingAndGlyphs" textLength="14.4" x="1363.2" y="504.6266">12
        </text>
        <text fill="#000000" font-family="sans-serif" font-size="10.4" lengthAdjust="spacingAndGlyphs"
              textLength="147.2" x="1380.8" y="504.6266">create(nome,funcao,tlf,email)
        </text>
        <rect fill="#FEFECE" filter="url(#f1pku9flcw863i)" height="37.5813"
              style="stroke: #A80036; stroke-width: 1.2000000000000002;" width="84" x="1545.6" y="491.3719"/>
        <text fill="#000000" font-family="sans-serif" font-size="11.2" lengthAdjust="spacingAndGlyphs" textLength="29.6"
              x="1572.8" y="507.8">colab
        </text>
        <text fill="#000000" font-family="sans-serif" font-size="11.2" lengthAdjust="spacingAndGlyphs" textLength="72.8"
              x="1551.2" y="520.9906">:Colaborador
        </text>
        <polygon fill="#A80036" points="1344,554.8016,1352,558.0016,1344,561.2016,1347.2,558.0016"
                 style="stroke: #A80036; stroke-width: 0.8;"/>
        <line style="stroke: #A80036; stroke-width: 0.8;" x1="554" x2="1348.8" y1="558.0016" y2="558.0016"/>
        <text fill="#000000" font-family="sans-serif" font-size="10.4" font-weight="bold"
              lengthAdjust="spacingAndGlyphs" textLength="14.4" x="559.6" y="554.2078">13
        </text>
        <text fill="#000000" font-family="sans-serif" font-size="10.4" lengthAdjust="spacingAndGlyphs"
              textLength="124.8" x="577.2" y="554.2078">validaColaborador(colab)
        </text>
        <polygon fill="#A80036" points="84.4,602.25,76.4,605.45,84.4,608.65,81.2,605.45"
                 style="stroke: #A80036; stroke-width: 0.8;"/>
        <line style="stroke: #A80036; stroke-width: 0.8; stroke-dasharray: 2.0,2.0;" x1="79.6" x2="312.4" y1="605.45"
              y2="605.45"/>
        <text fill="#000000" font-family="sans-serif" font-size="10.4" font-weight="bold"
              lengthAdjust="spacingAndGlyphs" textLength="14.4" x="89.2" y="601.6563">14
        </text>
        <text fill="#000000" font-family="sans-serif" font-size="10.4" lengthAdjust="spacingAndGlyphs"
              textLength="196.8" x="106.8" y="601.6563">apresenta dados e solicita confirmação
        </text>
        <polygon fill="#A80036" points="299.6,625.6984,307.6,628.8984,299.6,632.0984,302.8,628.8984"
                 style="stroke: #A80036; stroke-width: 0.8;"/>
        <line style="stroke: #A80036; stroke-width: 0.8;" x1="75.6" x2="304.4" y1="628.8984" y2="628.8984"/>
        <text fill="#000000" font-family="sans-serif" font-size="10.4" font-weight="bold"
              lengthAdjust="spacingAndGlyphs" textLength="14.4" x="81.2" y="625.1047">15
        </text>
        <text fill="#000000" font-family="sans-serif" font-size="10.4" lengthAdjust="spacingAndGlyphs" textLength="44.8"
              x="98.8" y="625.1047">confirma
        </text>
        <polygon fill="#A80036" points="536.4,649.1469,544.4,652.3469,536.4,655.5469,539.6,652.3469"
                 style="stroke: #A80036; stroke-width: 0.8;"/>
        <line style="stroke: #A80036; stroke-width: 0.8;" x1="317.2" x2="541.2" y1="652.3469" y2="652.3469"/>
        <text fill="#000000" font-family="sans-serif" font-size="10.4" font-weight="bold"
              lengthAdjust="spacingAndGlyphs" textLength="14.4" x="322.8" y="648.5531">16
        </text>
        <text fill="#000000" font-family="sans-serif" font-size="10.4" lengthAdjust="spacingAndGlyphs"
              textLength="102.4" x="340.4" y="648.5531">registaColaborador()
        </text>
        <polygon fill="#A80036" points="1344,672.5953,1352,675.7953,1344,678.9953,1347.2,675.7953"
                 style="stroke: #A80036; stroke-width: 0.8;"/>
        <line style="stroke: #A80036; stroke-width: 0.8;" x1="554" x2="1348.8" y1="675.7953" y2="675.7953"/>
        <text fill="#000000" font-family="sans-serif" font-size="10.4" font-weight="bold"
              lengthAdjust="spacingAndGlyphs" textLength="14.4" x="559.6" y="672.0016">17
        </text>
        <text fill="#000000" font-family="sans-serif" font-size="10.4" lengthAdjust="spacingAndGlyphs"
              textLength="129.6" x="577.2" y="672.0016">registaColaborador(colab)
        </text>
        <line style="stroke: #A80036; stroke-width: 0.8;" x1="1365.6" x2="1399.2" y1="699.2438" y2="699.2438"/>
        <line style="stroke: #A80036; stroke-width: 0.8;" x1="1399.2" x2="1399.2" y1="699.2438" y2="709.6438"/>
        <line style="stroke: #A80036; stroke-width: 0.8;" x1="1366.4" x2="1399.2" y1="709.6438" y2="709.6438"/>
        <polygon fill="#A80036" points="1374.4,706.4438,1366.4,709.6438,1374.4,712.8438,1371.2,709.6438"
                 style="stroke: #A80036; stroke-width: 0.8;"/>
        <text fill="#000000" font-family="sans-serif" font-size="10.4" font-weight="bold"
              lengthAdjust="spacingAndGlyphs" textLength="14.4" x="1371.2" y="695.45">18
        </text>
        <text fill="#000000" font-family="sans-serif" font-size="10.4" lengthAdjust="spacingAndGlyphs"
              textLength="124.8" x="1388.8" y="695.45">validaColaborador(colab)
        </text>
        <rect fill="#FFFFFF" filter="url(#f1pku9flcw863i)" height="32.4969" style="stroke: #000000; stroke-width: 1.6;"
              width="660.4" x="971.6" y="740.0438"/>
        <polygon fill="#EEEEEE"
                 points="971.6,740.0438,1022.8,740.0438,1022.8,745.6438,1014.8,753.6438,971.6,753.6438,971.6,740.0438"
                 style="stroke: #000000; stroke-width: 1.6;"/>
        <text fill="#000000" font-family="sans-serif" font-size="10.4" font-weight="bold"
              lengthAdjust="spacingAndGlyphs" textLength="15.2" x="982" y="751.6984">ref
        </text>
        <text fill="#000000" font-family="sans-serif" font-size="10.4" lengthAdjust="spacingAndGlyphs"
              textLength="226.4" x="1190.2" y="766.8984">UC5_SD_RegistarColaboradorComoUtilizador
        </text>
        <line style="stroke: #A80036; stroke-width: 0.8;" x1="1365.6" x2="1399.2" y1="793.5891" y2="793.5891"/>
        <line style="stroke: #A80036; stroke-width: 0.8;" x1="1399.2" x2="1399.2" y1="793.5891" y2="803.9891"/>
        <line style="stroke: #A80036; stroke-width: 0.8;" x1="1366.4" x2="1399.2" y1="803.9891" y2="803.9891"/>
        <polygon fill="#A80036" points="1374.4,800.7891,1366.4,803.9891,1374.4,807.1891,1371.2,803.9891"
                 style="stroke: #A80036; stroke-width: 0.8;"/>
        <text fill="#000000" font-family="sans-serif" font-size="10.4" font-weight="bold"
              lengthAdjust="spacingAndGlyphs" textLength="14.4" x="1371.2" y="789.7953">19
        </text>
        <text fill="#000000" font-family="sans-serif" font-size="10.4" lengthAdjust="spacingAndGlyphs"
              textLength="113.6" x="1388.8" y="789.7953">addColaborador(colab)
        </text>
        <polygon fill="#A80036" points="84.4,848.2375,76.4,851.4375,84.4,854.6375,81.2,851.4375"
                 style="stroke: #A80036; stroke-width: 0.8;"/>
        <line style="stroke: #A80036; stroke-width: 0.8; stroke-dasharray: 2.0,2.0;" x1="79.6" x2="312.4" y1="851.4375"
              y2="851.4375"/>
        <text fill="#000000" font-family="sans-serif" font-size="10.4" font-weight="bold"
              lengthAdjust="spacingAndGlyphs" textLength="14.4" x="89.2" y="847.6438">20
        </text>
        <text fill="#000000" font-family="sans-serif" font-size="10.4" lengthAdjust="spacingAndGlyphs"
              textLength="163.2" x="106.8" y="847.6438">informa do sucesso da operação
        </text><!--MD5=[309cf971a8ac76cc1e51e7e5cd715ef8]
@startuml
autonumber

actor "Gestor de Organização" as GEST
participant ":EspecificarColaboradorUI" as UI
participant ":EspecificarColaboradorController" as CTRL
participant "AplicacaoPOT" as _APP
participant "app\n:AplicacaoPOT" as APP
participant "sessao\n:SessaoUtilizador" as SESSAO
participant ":Plataforma" as PLAT
participant "ro\n:RegistoOrganizacoes" as RO #DeepSkyBlue
participant "org\n:Organizacao" as ORG
participant "lc\n:ListaColaboradores" as LC #DeepSkyBlue
participant "colab\n:Colaborador" as COLAB

activate GEST
GEST -> UI : inicia especificação de colaborador
activate UI

UI - -> GEST : solicita dados do colaborador \n(nome,função,tlf,email)
deactivate UI

GEST -> UI : introduz os dados solicitados
activate UI
UI -> CTRL : novoColaborador(nome,funcao,tlf,email)
activate CTRL
CTRL -> _APP: app = getInstance()
activate _APP
deactivate _APP
CTRL -> APP: sessao = getSessaoAtual()
activate APP
deactivate APP
CTRL -> SESSAO: emailUtlz = getEmailUtilizador()
activate SESSAO
deactivate SESSAO
CTRL -> PLAT : ro = getRegistoOrganizacao()
activate PLAT
deactivate PLAT
CTRL -> RO: org = getOrganizacaoByEmailUtilizador(emailUtlz)
activate RO #DeepSkyBlue
deactivate RO
CTRL -> ORG : lc = getListaColaboradores()
activate ORG
deactivate ORG
CTRL -> LC: colab = novoColaborador(nome,funcao,tlf,email)
activate LC #DeepSkyBlue
LC - -> COLAB **: create(nome,funcao,tlf,email)
deactivate LC
CTRL -> LC: validaColaborador(colab)
activate LC #DeepSkyBlue
deactivate LC
UI - -> GEST : apresenta dados e solicita confirmação
deactivate ORG
deactivate PLAT
deactivate UI
deactivate CTRL

GEST -> UI : confirma
activate UI

UI -> CTRL: registaColaborador()
activate CTRL
CTRL -> LC: registaColaborador(colab)
activate LC #DeepSkyBlue
LC -> LC : validaColaborador(colab)
activate LC #DeepSkyBlue
deactivate LC
ref over PLAT, COLAB : UC5_SD_RegistarColaboradorComoUtilizador
LC -> LC: addColaborador(colab)
activate LC #DeepSkyBlue
deactivate LC
deactivate LC

UI - -> GEST: informa do sucesso da operação
deactivate ORG
deactivate CTRL
deactivate UI

@enduml

PlantUML version 1.2020.03beta6(Unknown compile time)
(GPL source distribution)
Java Runtime: OpenJDK Runtime Environment
JVM: OpenJDK 64-Bit Server VM
Java Version: 11.0.5+10-b520.38
Operating System: Mac OS X
Default Encoding: UTF-8
Language: en
Country: PT
-->
    </g>
</svg>