<?xml version="1.0" encoding="UTF-8" standalone="no"?>
<svg xmlns="http://www.w3.org/2000/svg" contentScriptType="application/ecmascript" contentStyleType="text/css"
     height="1054.8px" preserveAspectRatio="none" style="width:1729px;height:1054px;" version="1.1"
     viewBox="0 0 1729 1054" width="1729.2px" zoomAndPan="magnify"><defs><filter height="300%" id="f1a2iaw37oqkkh" width="300%" x="-1" y="-1"><feGaussianBlur result="blurOut" stdDeviation="1.2"/><feColorMatrix in="blurOut" result="blurOut2" type="matrix" values="0 0 0 0 0 0 0 0 0 0 0 0 0 0 0 0 0 0 .4 0"/><feOffset dx="2.4" dy="2.4" in="blurOut2" result="blurOut3"/><feBlend in="SourceGraphic" in2="blurOut3" mode="normal"/></filter></defs><g><rect fill="#FFFFFF" filter="url(#f1a2iaw37oqkkh)" height="979.2937" style="stroke: #A80036; stroke-width: 0.6;" width="6" x="63.3" y="57.893"/><rect fill="#FFFFFF" filter="url(#f1a2iaw37oqkkh)" height="364.8633" style="stroke: #A80036; stroke-width: 0.6;" width="6" x="368.7" y="70.6793"/><rect fill="#FFFFFF" filter="url(#f1a2iaw37oqkkh)" height="89.1316" style="stroke: #A80036; stroke-width: 0.6;" width="6" x="368.7" y="453.1289"/><rect fill="#FFFFFF" filter="url(#f1a2iaw37oqkkh)" height="106.3453" style="stroke: #A80036; stroke-width: 0.6;" width="6" x="368.7" y="559.8469"/><rect fill="#FFFFFF" filter="url(#f1a2iaw37oqkkh)" height="196.7039" style="stroke: #A80036; stroke-width: 0.6;" width="6" x="368.7" y="683.7785"/><rect fill="#FFFFFF" filter="url(#f1a2iaw37oqkkh)" height="144.518" style="stroke: #A80036; stroke-width: 0.6;" width="6" x="368.7" y="898.0688"/><rect fill="#FFFFFF" filter="url(#f1a2iaw37oqkkh)" height="329.6906" style="stroke: #A80036; stroke-width: 0.6;" width="6" x="635.7" y="88.2656"/><rect fill="#FFFFFF" filter="url(#f1a2iaw37oqkkh)" height="35.5863" style="stroke: #A80036; stroke-width: 0.6;" width="6" x="635.7" y="470.7152"/><rect fill="#FFFFFF" filter="url(#f1a2iaw37oqkkh)" height="71.1727" style="stroke: #A80036; stroke-width: 0.6;" width="6" x="635.7" y="577.4332"/><rect fill="#FFFFFF" filter="url(#f1a2iaw37oqkkh)" height="161.5313" style="stroke: #A80036; stroke-width: 0.6;" width="6" x="635.7" y="701.3648"/><rect fill="#FFFFFF" filter="url(#f1a2iaw37oqkkh)" height="99.7453" style="stroke: #A80036; stroke-width: 0.6;" width="6" x="635.7" y="915.6551"/><rect fill="#FFFFFF" filter="url(#f1a2iaw37oqkkh)" height="18" style="stroke: #A80036; stroke-width: 0.6;" width="6" x="734.1" y="105.852"/><rect fill="#FFFFFF" filter="url(#f1a2iaw37oqkkh)" height="18" style="stroke: #A80036; stroke-width: 0.6;" width="6" x="808.5" y="156.4383"/><rect fill="#FFFFFF" filter="url(#f1a2iaw37oqkkh)" height="18" style="stroke: #A80036; stroke-width: 0.6;" width="6" x="890.1" y="207.0246"/><rect fill="#FFFFFF" filter="url(#f1a2iaw37oqkkh)" height="18" style="stroke: #A80036; stroke-width: 0.6;" width="6" x="965.7" y="257.6109"/><rect fill="#FFFFFF" filter="url(#f1a2iaw37oqkkh)" height="18" style="stroke: #A80036; stroke-width: 0.6;" width="6" x="965.7" y="595.0195"/><rect fill="#FFFFFF" filter="url(#f1a2iaw37oqkkh)" height="18" style="stroke: #A80036; stroke-width: 0.6;" width="6" x="965.7" y="754.5375"/><rect fill="#FFFFFF" filter="url(#f1a2iaw37oqkkh)" height="18" style="stroke: #A80036; stroke-width: 0.6;" width="6" x="1050.6" y="293.1973"/><rect fill="#FFFFFF" filter="url(#f1a2iaw37oqkkh)" height="18" style="stroke: #A80036; stroke-width: 0.6;" width="6" x="1162.2" y="630.6059"/><rect fill="#FFFFFF" filter="url(#f1a2iaw37oqkkh)" height="18" style="stroke: #A80036; stroke-width: 0.6;" width="6" x="1162.2" y="718.9512"/><rect fill="#FFFFFF" filter="url(#f1a2iaw37oqkkh)" height="18" style="stroke: #A80036; stroke-width: 0.6;" width="6" x="1256.4" y="328.7836"/><rect fill="#FFFFFF" filter="url(#f1a2iaw37oqkkh)" height="18" style="stroke: #A80036; stroke-width: 0.6;" width="6" x="1256.4" y="364.3699"/><rect fill="#FFFFFF" filter="url(#f1a2iaw37oqkkh)" height="17.5863" style="stroke: #A80036; stroke-width: 0.6;" width="6" x="1407.6" y="790.1238"/><rect fill="#FFFFFF" filter="url(#f1a2iaw37oqkkh)" height="18" style="stroke: #A80036; stroke-width: 0.6;" width="6" x="1407.6" y="844.8961"/><rect fill="#FFFFFF" filter="url(#f1a2iaw37oqkkh)" height="82.159" style="stroke: #A80036; stroke-width: 0.6;" width="6" x="1407.6" y="933.2414"/><rect fill="#FFFFFF" filter="url(#f1a2iaw37oqkkh)" height="18" style="stroke: #A80036; stroke-width: 0.6;" width="6" x="1507.2" y="399.9563"/><rect fill="#FFFFFF" filter="url(#f1a2iaw37oqkkh)" height="18" style="stroke: #A80036; stroke-width: 0.6;" width="6" x="1507.2" y="488.3016"/><rect fill="#FFFFFF" filter="url(#f1a2iaw37oqkkh)" height="18" style="stroke: #A80036; stroke-width: 0.6;" width="6" x="1564.2" y="976.2141"/><line style="stroke: #A80036; stroke-width: 0.6; stroke-dasharray: 5.0,5.0;" x1="66" x2="66" y1="51.893" y2="1047.9867"/><line style="stroke: #A80036; stroke-width: 0.6; stroke-dasharray: 5.0,5.0;" x1="371.4" x2="371.4" y1="51.893" y2="1047.9867"/><line style="stroke: #A80036; stroke-width: 0.6; stroke-dasharray: 5.0,5.0;" x1="638.4" x2="638.4" y1="51.893" y2="1047.9867"/><line style="stroke: #A80036; stroke-width: 0.6; stroke-dasharray: 5.0,5.0;" x1="737.1" x2="737.1" y1="51.893" y2="1047.9867"/><line style="stroke: #A80036; stroke-width: 0.6; stroke-dasharray: 5.0,5.0;" x1="811.5" x2="811.5" y1="51.893" y2="1047.9867"/><line style="stroke: #A80036; stroke-width: 0.6; stroke-dasharray: 5.0,5.0;" x1="893.1" x2="893.1" y1="51.893" y2="1047.9867"/><line style="stroke: #A80036; stroke-width: 0.6; stroke-dasharray: 5.0,5.0;" x1="968.7" x2="968.7" y1="51.893" y2="1047.9867"/><line style="stroke: #A80036; stroke-width: 0.6; stroke-dasharray: 5.0,5.0;" x1="1053.3" x2="1053.3" y1="51.893" y2="1047.9867"/><line style="stroke: #A80036; stroke-width: 0.6; stroke-dasharray: 5.0,5.0;" x1="1164.9" x2="1164.9" y1="51.893" y2="1047.9867"/><line style="stroke: #A80036; stroke-width: 0.6; stroke-dasharray: 5.0,5.0;" x1="1259.1" x2="1259.1" y1="51.893" y2="1047.9867"/><line style="stroke: #A80036; stroke-width: 0.6; stroke-dasharray: 5.0,5.0;" x1="1330.5" x2="1330.5" y1="51.893" y2="1047.9867"/><line style="stroke: #A80036; stroke-width: 0.6; stroke-dasharray: 5.0,5.0;" x1="1410.3" x2="1410.3" y1="51.893" y2="1047.9867"/><line style="stroke: #A80036; stroke-width: 0.6; stroke-dasharray: 5.0,5.0;" x1="1510.2" x2="1510.2" y1="51.893" y2="1047.9867"/><line style="stroke: #A80036; stroke-width: 0.6; stroke-dasharray: 5.0,5.0;" x1="1567.2" x2="1567.2" y1="51.893" y2="1047.9867"/><line style="stroke: #A80036; stroke-width: 0.6; stroke-dasharray: 5.0,5.0;" x1="1701" x2="1701" y1="819.5168" y2="1047.9867"/><text fill="#000000" font-family="sans-serif" font-size="8.4" lengthAdjust="spacingAndGlyphs" textLength="119.4" x="4.8" y="50.1211">Colaborador de Organização</text><ellipse cx="66.3" cy="7.8" fill="#FEFECE" filter="url(#f1a2iaw37oqkkh)" rx="4.8" ry="4.8" style="stroke: #A80036; stroke-width: 1.2;"/><path d="M66.3,12.6 L66.3,28.8 M58.5,17.4 L74.1,17.4 M66.3,28.8 L58.5,37.8 M66.3,28.8 L74.1,37.8 " fill="none" filter="url(#f1a2iaw37oqkkh)" style="stroke: #A80036; stroke-width: 1.2;"/><rect fill="#FEFECE" filter="url(#f1a2iaw37oqkkh)" height="18.293" style="stroke: #A80036; stroke-width: 0.8999999999999999;" width="78.6" x="331.2" y="30.6"/><text fill="#000000" font-family="sans-serif" font-size="8.4" lengthAdjust="spacingAndGlyphs" textLength="70.2" x="335.4" y="42.9211">:PublicarTarefaUI</text><rect fill="#FEFECE" filter="url(#f1a2iaw37oqkkh)" height="18.293" style="stroke: #A80036; stroke-width: 0.8999999999999999;" width="112.2" x="581.4" y="30.6"/><text fill="#000000" font-family="sans-serif" font-size="8.4" lengthAdjust="spacingAndGlyphs" textLength="103.8" x="585.6" y="42.9211">:PublicarTarefaController</text><rect fill="#FEFECE" filter="url(#f1a2iaw37oqkkh)" height="18.293" style="stroke: #A80036; stroke-width: 0.8999999999999999;" width="64.8" x="703.5" y="30.6"/><text fill="#000000" font-family="sans-serif" font-size="8.4" lengthAdjust="spacingAndGlyphs" textLength="56.4" x="707.7" y="42.9211">AplicacaoPOT</text><rect fill="#FEFECE" filter="url(#f1a2iaw37oqkkh)" height="28.1859" style="stroke: #A80036; stroke-width: 0.8999999999999999;" width="67.2" x="776.7" y="20.707"/><text fill="#000000" font-family="sans-serif" font-size="8.4" lengthAdjust="spacingAndGlyphs" textLength="15.6" x="802.5" y="33.0281">app</text><text fill="#000000" font-family="sans-serif" font-size="8.4" lengthAdjust="spacingAndGlyphs" textLength="58.8" x="780.9" y="42.9211">:AplicacaoPOT</text><rect fill="#FEFECE" filter="url(#f1a2iaw37oqkkh)" height="28.1859" style="stroke: #A80036; stroke-width: 0.8999999999999999;" width="79.2" x="852.3" y="20.707"/><text fill="#000000" font-family="sans-serif" font-size="8.4" lengthAdjust="spacingAndGlyphs" textLength="27.6" x="878.1" y="33.0281">sessao</text><text fill="#000000" font-family="sans-serif" font-size="8.4" lengthAdjust="spacingAndGlyphs" textLength="70.8" x="856.5" y="42.9211">:SessaoUtilizador</text><rect fill="#FEFECE" filter="url(#f1a2iaw37oqkkh)" height="18.293" style="stroke: #A80036; stroke-width: 0.8999999999999999;" width="55.2" x="939.9" y="30.6"/><text fill="#000000" font-family="sans-serif" font-size="8.4" lengthAdjust="spacingAndGlyphs" textLength="46.8" x="944.1" y="42.9211">:Plataforma</text><rect fill="#FEFECE" filter="url(#f1a2iaw37oqkkh)" height="28.1859" style="stroke: #A80036; stroke-width: 0.8999999999999999;" width="97.8" x="1003.5" y="20.707"/><text fill="#000000" font-family="sans-serif" font-size="8.4" lengthAdjust="spacingAndGlyphs" textLength="18" x="1043.4" y="33.0281">rorg</text><text fill="#000000" font-family="sans-serif" font-size="8.4" lengthAdjust="spacingAndGlyphs" textLength="89.4" x="1007.7" y="42.9211">:RegistoOrganizacoes</text><rect fill="#FEFECE" filter="url(#f1a2iaw37oqkkh)" height="28.1859" style="stroke: #A80036; stroke-width: 0.8999999999999999;" width="108.6" x="1109.7" y="20.707"/><text fill="#000000" font-family="sans-serif" font-size="8.4" lengthAdjust="spacingAndGlyphs" textLength="17.4" x="1155.3" y="33.0281">rreg</text><text fill="#000000" font-family="sans-serif" font-size="8.4" lengthAdjust="spacingAndGlyphs" textLength="100.2" x="1113.9" y="42.9211">:RegistoTiposRegimento</text><rect fill="#FEFECE" filter="url(#f1a2iaw37oqkkh)" height="28.1859" style="stroke: #A80036; stroke-width: 0.8999999999999999;" width="63" x="1226.7" y="20.707"/><text fill="#000000" font-family="sans-serif" font-size="8.4" lengthAdjust="spacingAndGlyphs" textLength="14.4" x="1251" y="33.0281">org</text><text fill="#000000" font-family="sans-serif" font-size="8.4" lengthAdjust="spacingAndGlyphs" textLength="54.6" x="1230.9" y="42.9211">:Organizacao</text><rect fill="#FEFECE" filter="url(#f1a2iaw37oqkkh)" height="28.1859" style="stroke: #A80036; stroke-width: 0.8999999999999999;" width="63" x="1298.1" y="20.707"/><text fill="#000000" font-family="sans-serif" font-size="8.4" lengthAdjust="spacingAndGlyphs" textLength="4.2" x="1327.5" y="33.0281">c</text><text fill="#000000" font-family="sans-serif" font-size="8.4" lengthAdjust="spacingAndGlyphs" textLength="54.6" x="1302.3" y="42.9211">:Colaborador</text><rect fill="#FEFECE" filter="url(#f1a2iaw37oqkkh)" height="28.1859" style="stroke: #A80036; stroke-width: 0.8999999999999999;" width="79.8" x="1369.5" y="20.707"/><text fill="#000000" font-family="sans-serif" font-size="8.4" lengthAdjust="spacingAndGlyphs" textLength="19.8" x="1399.5" y="33.0281">regA</text><text fill="#000000" font-family="sans-serif" font-size="8.4" lengthAdjust="spacingAndGlyphs" textLength="71.4" x="1373.7" y="42.9211">:RegistoAnuncios</text><rect fill="#FEFECE" filter="url(#f1a2iaw37oqkkh)" height="28.1859" style="stroke: #A80036; stroke-width: 0.8999999999999999;" width="60" x="1479" y="20.707"/><text fill="#000000" font-family="sans-serif" font-size="8.4" lengthAdjust="spacingAndGlyphs" textLength="30.6" x="1493.7" y="33.0281">ltarefas</text><text fill="#000000" font-family="sans-serif" font-size="8.4" lengthAdjust="spacingAndGlyphs" textLength="51.6" x="1483.2" y="42.9211">:ListaTarefas</text><rect fill="#FEFECE" filter="url(#f1a2iaw37oqkkh)" height="28.1859" style="stroke: #A80036; stroke-width: 0.8999999999999999;" width="37.2" x="1547.4" y="20.707"/><text fill="#000000" font-family="sans-serif" font-size="8.4" lengthAdjust="spacingAndGlyphs" textLength="24" x="1554" y="33.0281">tarefa</text><text fill="#000000" font-family="sans-serif" font-size="8.4" lengthAdjust="spacingAndGlyphs" textLength="28.8" x="1551.6" y="42.9211">:Tarefa</text><rect fill="#FFFFFF" filter="url(#f1a2iaw37oqkkh)" height="979.2937" style="stroke: #A80036; stroke-width: 0.6;" width="6" x="63.3" y="57.893"/><rect fill="#FFFFFF" filter="url(#f1a2iaw37oqkkh)" height="364.8633" style="stroke: #A80036; stroke-width: 0.6;" width="6" x="368.7" y="70.6793"/><rect fill="#FFFFFF" filter="url(#f1a2iaw37oqkkh)" height="89.1316" style="stroke: #A80036; stroke-width: 0.6;" width="6" x="368.7" y="453.1289"/><rect fill="#FFFFFF" filter="url(#f1a2iaw37oqkkh)" height="106.3453" style="stroke: #A80036; stroke-width: 0.6;" width="6" x="368.7" y="559.8469"/><rect fill="#FFFFFF" filter="url(#f1a2iaw37oqkkh)" height="196.7039" style="stroke: #A80036; stroke-width: 0.6;" width="6" x="368.7" y="683.7785"/><rect fill="#FFFFFF" filter="url(#f1a2iaw37oqkkh)" height="144.518" style="stroke: #A80036; stroke-width: 0.6;" width="6" x="368.7" y="898.0688"/><rect fill="#FFFFFF" filter="url(#f1a2iaw37oqkkh)" height="329.6906" style="stroke: #A80036; stroke-width: 0.6;" width="6" x="635.7" y="88.2656"/><rect fill="#FFFFFF" filter="url(#f1a2iaw37oqkkh)" height="35.5863" style="stroke: #A80036; stroke-width: 0.6;" width="6" x="635.7" y="470.7152"/><rect fill="#FFFFFF" filter="url(#f1a2iaw37oqkkh)" height="71.1727" style="stroke: #A80036; stroke-width: 0.6;" width="6" x="635.7" y="577.4332"/><rect fill="#FFFFFF" filter="url(#f1a2iaw37oqkkh)" height="161.5313" style="stroke: #A80036; stroke-width: 0.6;" width="6" x="635.7" y="701.3648"/><rect fill="#FFFFFF" filter="url(#f1a2iaw37oqkkh)" height="99.7453" style="stroke: #A80036; stroke-width: 0.6;" width="6" x="635.7" y="915.6551"/><rect fill="#FFFFFF" filter="url(#f1a2iaw37oqkkh)" height="18" style="stroke: #A80036; stroke-width: 0.6;" width="6" x="734.1" y="105.852"/><rect fill="#FFFFFF" filter="url(#f1a2iaw37oqkkh)" height="18" style="stroke: #A80036; stroke-width: 0.6;" width="6" x="808.5" y="156.4383"/><rect fill="#FFFFFF" filter="url(#f1a2iaw37oqkkh)" height="18" style="stroke: #A80036; stroke-width: 0.6;" width="6" x="890.1" y="207.0246"/><rect fill="#FFFFFF" filter="url(#f1a2iaw37oqkkh)" height="18" style="stroke: #A80036; stroke-width: 0.6;" width="6" x="965.7" y="257.6109"/><rect fill="#FFFFFF" filter="url(#f1a2iaw37oqkkh)" height="18" style="stroke: #A80036; stroke-width: 0.6;" width="6" x="965.7" y="595.0195"/><rect fill="#FFFFFF" filter="url(#f1a2iaw37oqkkh)" height="18" style="stroke: #A80036; stroke-width: 0.6;" width="6" x="965.7" y="754.5375"/><rect fill="#FFFFFF" filter="url(#f1a2iaw37oqkkh)" height="18" style="stroke: #A80036; stroke-width: 0.6;" width="6" x="1050.6" y="293.1973"/><rect fill="#FFFFFF" filter="url(#f1a2iaw37oqkkh)" height="18" style="stroke: #A80036; stroke-width: 0.6;" width="6" x="1162.2" y="630.6059"/><rect fill="#FFFFFF" filter="url(#f1a2iaw37oqkkh)" height="18" style="stroke: #A80036; stroke-width: 0.6;" width="6" x="1162.2" y="718.9512"/><rect fill="#FFFFFF" filter="url(#f1a2iaw37oqkkh)" height="18" style="stroke: #A80036; stroke-width: 0.6;" width="6" x="1256.4" y="328.7836"/><rect fill="#FFFFFF" filter="url(#f1a2iaw37oqkkh)" height="18" style="stroke: #A80036; stroke-width: 0.6;" width="6" x="1256.4" y="364.3699"/><rect fill="#FFFFFF" filter="url(#f1a2iaw37oqkkh)" height="17.5863" style="stroke: #A80036; stroke-width: 0.6;" width="6" x="1407.6" y="790.1238"/><rect fill="#FFFFFF" filter="url(#f1a2iaw37oqkkh)" height="18" style="stroke: #A80036; stroke-width: 0.6;" width="6" x="1407.6" y="844.8961"/><rect fill="#FFFFFF" filter="url(#f1a2iaw37oqkkh)" height="82.159" style="stroke: #A80036; stroke-width: 0.6;" width="6" x="1407.6" y="933.2414"/><rect fill="#FFFFFF" filter="url(#f1a2iaw37oqkkh)" height="18" style="stroke: #A80036; stroke-width: 0.6;" width="6" x="1507.2" y="399.9563"/><rect fill="#FFFFFF" filter="url(#f1a2iaw37oqkkh)" height="18" style="stroke: #A80036; stroke-width: 0.6;" width="6" x="1507.2" y="488.3016"/><rect fill="#FFFFFF" filter="url(#f1a2iaw37oqkkh)" height="18" style="stroke: #A80036; stroke-width: 0.6;" width="6" x="1564.2" y="976.2141"/><polygon fill="#A80036" points="361.5,68.2793,367.5,70.6793,361.5,73.0793,363.9,70.6793" style="stroke: #A80036; stroke-width: 0.6;"/><line style="stroke: #A80036; stroke-width: 0.6;" x1="69.3" x2="365.1" y1="70.6793" y2="70.6793"/><text fill="#000000" font-family="sans-serif" font-size="7.8" font-weight="bold" lengthAdjust="spacingAndGlyphs" textLength="5.4" x="73.5" y="67.834">1</text><text fill="#000000" font-family="sans-serif" font-size="7.8" lengthAdjust="spacingAndGlyphs" textLength="124.2" x="81.3" y="67.834">inicia a publicação de uma tarefa</text><polygon fill="#A80036" points="628.5,85.8656,634.5,88.2656,628.5,90.6656,630.9,88.2656" style="stroke: #A80036; stroke-width: 0.6;"/><line style="stroke: #A80036; stroke-width: 0.6;" x1="374.7" x2="632.1" y1="88.2656" y2="88.2656"/><text fill="#000000" font-family="sans-serif" font-size="7.8" font-weight="bold" lengthAdjust="spacingAndGlyphs" textLength="5.4" x="378.9" y="85.4203">2</text><text fill="#000000" font-family="sans-serif" font-size="7.8" lengthAdjust="spacingAndGlyphs" textLength="110.4" x="386.7" y="85.4203">lstT=getTarefasParaPublicar()</text><polygon fill="#A80036" points="726.9,103.452,732.9,105.852,726.9,108.252,729.3,105.852" style="stroke: #A80036; stroke-width: 0.6;"/><line style="stroke: #A80036; stroke-width: 0.6;" x1="641.7" x2="730.5" y1="105.852" y2="105.852"/><text fill="#000000" font-family="sans-serif" font-size="7.8" font-weight="bold" lengthAdjust="spacingAndGlyphs" textLength="5.4" x="645.9" y="103.0066">3</text><text fill="#000000" font-family="sans-serif" font-size="7.8" lengthAdjust="spacingAndGlyphs" textLength="73.2" x="653.7" y="103.0066">app = getInstance()</text><polygon fill="#A80036" points="801.3,154.0383,807.3,156.4383,801.3,158.8383,803.7,156.4383" style="stroke: #A80036; stroke-width: 0.6;"/><line style="stroke: #A80036; stroke-width: 0.6;" x1="641.7" x2="804.9" y1="156.4383" y2="156.4383"/><text fill="#000000" font-family="sans-serif" font-size="7.8" font-weight="bold" lengthAdjust="spacingAndGlyphs" textLength="5.4" x="645.9" y="153.593">4</text><text fill="#000000" font-family="sans-serif" font-size="7.8" lengthAdjust="spacingAndGlyphs" textLength="99" x="653.7" y="153.593">sessao = getSessaoAtual()</text><polygon fill="#A80036" points="882.9,204.6246,888.9,207.0246,882.9,209.4246,885.3,207.0246" style="stroke: #A80036; stroke-width: 0.6;"/><line style="stroke: #A80036; stroke-width: 0.6;" x1="641.7" x2="886.5" y1="207.0246" y2="207.0246"/><text fill="#000000" font-family="sans-serif" font-size="7.8" font-weight="bold" lengthAdjust="spacingAndGlyphs" textLength="5.4" x="645.9" y="204.1793">5</text><text fill="#000000" font-family="sans-serif" font-size="7.8" lengthAdjust="spacingAndGlyphs" textLength="105" x="653.7" y="204.1793">email = getEmailUtilizador()</text><polygon fill="#A80036" points="958.5,255.2109,964.5,257.6109,958.5,260.0109,960.9,257.6109" style="stroke: #A80036; stroke-width: 0.6;"/><line style="stroke: #A80036; stroke-width: 0.6;" x1="641.7" x2="962.1" y1="257.6109" y2="257.6109"/><text fill="#000000" font-family="sans-serif" font-size="7.8" font-weight="bold" lengthAdjust="spacingAndGlyphs" textLength="5.4" x="645.9" y="254.7656">6</text><text fill="#000000" font-family="sans-serif" font-size="7.8" lengthAdjust="spacingAndGlyphs" textLength="122.4" x="653.7" y="254.7656">rorg = getRegistoOrganizacoes()</text><polygon fill="#A80036" points="1043.4,290.7973,1049.4,293.1973,1043.4,295.5973,1045.8,293.1973" style="stroke: #A80036; stroke-width: 0.6;"/><line style="stroke: #A80036; stroke-width: 0.6;" x1="641.7" x2="1047" y1="293.1973" y2="293.1973"/><text fill="#000000" font-family="sans-serif" font-size="7.8" font-weight="bold" lengthAdjust="spacingAndGlyphs" textLength="5.4" x="645.9" y="290.352">7</text><text fill="#000000" font-family="sans-serif" font-size="7.8" lengthAdjust="spacingAndGlyphs" textLength="172.8" x="653.7" y="290.352">org = getOrganizacaoByEmailUtilizador(email)</text><polygon fill="#A80036" points="1249.2,326.3836,1255.2,328.7836,1249.2,331.1836,1251.6,328.7836" style="stroke: #A80036; stroke-width: 0.6;"/><line style="stroke: #A80036; stroke-width: 0.6;" x1="641.7" x2="1252.8" y1="328.7836" y2="328.7836"/><text fill="#000000" font-family="sans-serif" font-size="7.8" font-weight="bold" lengthAdjust="spacingAndGlyphs" textLength="5.4" x="645.9" y="325.9383">8</text><text fill="#000000" font-family="sans-serif" font-size="7.8" lengthAdjust="spacingAndGlyphs" textLength="122.4" x="653.7" y="325.9383">c=getColaboradorByEmail(email)</text><polygon fill="#A80036" points="1249.2,361.9699,1255.2,364.3699,1249.2,366.7699,1251.6,364.3699" style="stroke: #A80036; stroke-width: 0.6;"/><line style="stroke: #A80036; stroke-width: 0.6;" x1="641.7" x2="1252.8" y1="364.3699" y2="364.3699"/><text fill="#000000" font-family="sans-serif" font-size="7.8" font-weight="bold" lengthAdjust="spacingAndGlyphs" textLength="5.4" x="645.9" y="361.5246">9</text><text fill="#000000" font-family="sans-serif" font-size="7.8" lengthAdjust="spacingAndGlyphs" textLength="96.6" x="653.7" y="361.5246">ltarefas=getListaTarefas()</text><polygon fill="#A80036" points="1500,397.5563,1506,399.9563,1500,402.3563,1502.4,399.9563" style="stroke: #A80036; stroke-width: 0.6;"/><line style="stroke: #A80036; stroke-width: 0.6;" x1="641.7" x2="1503.6" y1="399.9563" y2="399.9563"/><text fill="#000000" font-family="sans-serif" font-size="7.8" font-weight="bold" lengthAdjust="spacingAndGlyphs" textLength="10.8" x="645.9" y="397.1109">10</text><text fill="#000000" font-family="sans-serif" font-size="7.8" lengthAdjust="spacingAndGlyphs" textLength="114.6" x="659.1" y="397.1109">lstT=getTarefasParaPublicar(c)</text><polygon fill="#A80036" points="75.9,433.1426,69.9,435.5426,75.9,437.9426,73.5,435.5426" style="stroke: #A80036; stroke-width: 0.6;"/><line style="stroke: #A80036; stroke-width: 0.6; stroke-dasharray: 2.0,2.0;" x1="72.3" x2="371.1" y1="435.5426" y2="435.5426"/><text fill="#000000" font-family="sans-serif" font-size="7.8" font-weight="bold" lengthAdjust="spacingAndGlyphs" textLength="10.8" x="79.5" y="432.6973">11</text><text fill="#000000" font-family="sans-serif" font-size="7.8" lengthAdjust="spacingAndGlyphs" textLength="258" x="92.7" y="432.6973">mostra a lista de tarefas para publicação e pede para selecionar uma</text><polygon fill="#A80036" points="361.5,450.7289,367.5,453.1289,361.5,455.5289,363.9,453.1289" style="stroke: #A80036; stroke-width: 0.6;"/><line style="stroke: #A80036; stroke-width: 0.6;" x1="69.3" x2="365.1" y1="453.1289" y2="453.1289"/><text fill="#000000" font-family="sans-serif" font-size="7.8" font-weight="bold" lengthAdjust="spacingAndGlyphs" textLength="10.8" x="73.5" y="450.2836">12</text><text fill="#000000" font-family="sans-serif" font-size="7.8" lengthAdjust="spacingAndGlyphs" textLength="66" x="86.7" y="450.2836">seleciona a tarefa</text><polygon fill="#A80036" points="628.5,468.3152,634.5,470.7152,628.5,473.1152,630.9,470.7152" style="stroke: #A80036; stroke-width: 0.6;"/><line style="stroke: #A80036; stroke-width: 0.6;" x1="374.7" x2="632.1" y1="470.7152" y2="470.7152"/><text fill="#000000" font-family="sans-serif" font-size="7.8" font-weight="bold" lengthAdjust="spacingAndGlyphs" textLength="10.8" x="378.9" y="467.8699">13</text><text fill="#000000" font-family="sans-serif" font-size="7.8" lengthAdjust="spacingAndGlyphs" textLength="73.8" x="392.1" y="467.8699">selecionaTarefa(ref)</text><polygon fill="#A80036" points="1500,485.9016,1506,488.3016,1500,490.7016,1502.4,488.3016" style="stroke: #A80036; stroke-width: 0.6;"/><line style="stroke: #A80036; stroke-width: 0.6;" x1="641.7" x2="1503.6" y1="488.3016" y2="488.3016"/><text fill="#000000" font-family="sans-serif" font-size="7.8" font-weight="bold" lengthAdjust="spacingAndGlyphs" textLength="10.8" x="645.9" y="485.4562">14</text><text fill="#000000" font-family="sans-serif" font-size="7.8" lengthAdjust="spacingAndGlyphs" textLength="153" x="659.1" y="485.4562">tarefa=getTarefaParaPublicarByRef(ref, c)</text><polygon fill="#A80036" points="75.9,539.8605,69.9,542.2605,75.9,544.6605,73.5,542.2605" style="stroke: #A80036; stroke-width: 0.6;"/><line style="stroke: #A80036; stroke-width: 0.6; stroke-dasharray: 2.0,2.0;" x1="72.3" x2="371.1" y1="542.2605" y2="542.2605"/><text fill="#000000" font-family="sans-serif" font-size="7.8" font-weight="bold" lengthAdjust="spacingAndGlyphs" textLength="10.8" x="79.5" y="530.2289">15</text><text fill="#000000" font-family="sans-serif" font-size="7.8" lengthAdjust="spacingAndGlyphs" textLength="64.2" x="92.7" y="521.0426">solicita os dados</text><text fill="#000000" font-family="sans-serif" font-size="7.8" lengthAdjust="spacingAndGlyphs" textLength="269.4" x="92.7" y="530.2289">((i.e. período de publicitação, período de apresentação de candidaturas,</text><text fill="#000000" font-family="sans-serif" font-size="7.8" lengthAdjust="spacingAndGlyphs" textLength="228.6" x="92.7" y="539.4152">período de seriação, período de decisão e tipo de regimento)</text><polygon fill="#A80036" points="361.5,557.4469,367.5,559.8469,361.5,562.2469,363.9,559.8469" style="stroke: #A80036; stroke-width: 0.6;"/><line style="stroke: #A80036; stroke-width: 0.6;" x1="69.3" x2="365.1" y1="559.8469" y2="559.8469"/><text fill="#000000" font-family="sans-serif" font-size="7.8" font-weight="bold" lengthAdjust="spacingAndGlyphs" textLength="10.8" x="73.5" y="557.0016">16</text><text fill="#000000" font-family="sans-serif" font-size="7.8" lengthAdjust="spacingAndGlyphs" textLength="112.2" x="86.7" y="557.0016">introduz os dados solicitados</text><polygon fill="#A80036" points="628.5,575.0332,634.5,577.4332,628.5,579.8332,630.9,577.4332" style="stroke: #A80036; stroke-width: 0.6;"/><line style="stroke: #A80036; stroke-width: 0.6;" x1="374.7" x2="632.1" y1="577.4332" y2="577.4332"/><text fill="#000000" font-family="sans-serif" font-size="7.8" font-weight="bold" lengthAdjust="spacingAndGlyphs" textLength="10.8" x="378.9" y="574.5879">17</text><text fill="#000000" font-family="sans-serif" font-size="7.8" lengthAdjust="spacingAndGlyphs" textLength="106.2" x="392.1" y="574.5879">ltreg = getTiposRegimento()</text><polygon fill="#A80036" points="958.5,592.6195,964.5,595.0195,958.5,597.4195,960.9,595.0195" style="stroke: #A80036; stroke-width: 0.6;"/><line style="stroke: #A80036; stroke-width: 0.6;" x1="641.7" x2="962.1" y1="595.0195" y2="595.0195"/><text fill="#000000" font-family="sans-serif" font-size="7.8" font-weight="bold" lengthAdjust="spacingAndGlyphs" textLength="10.8" x="645.9" y="592.1742">18</text><text fill="#000000" font-family="sans-serif" font-size="7.8" lengthAdjust="spacingAndGlyphs" textLength="132" x="659.1" y="592.1742">rreg = getRegistoTiposRegimento()</text><polygon fill="#A80036" points="1155,628.2059,1161,630.6059,1155,633.0059,1157.4,630.6059" style="stroke: #A80036; stroke-width: 0.6;"/><line style="stroke: #A80036; stroke-width: 0.6;" x1="641.7" x2="1158.6" y1="630.6059" y2="630.6059"/><text fill="#000000" font-family="sans-serif" font-size="7.8" font-weight="bold" lengthAdjust="spacingAndGlyphs" textLength="10.8" x="645.9" y="627.7605">19</text><text fill="#000000" font-family="sans-serif" font-size="7.8" lengthAdjust="spacingAndGlyphs" textLength="106.2" x="659.1" y="627.7605">ltreg = getTiposRegimento()</text><polygon fill="#A80036" points="75.9,663.7922,69.9,666.1922,75.9,668.5922,73.5,666.1922" style="stroke: #A80036; stroke-width: 0.6;"/><line style="stroke: #A80036; stroke-width: 0.6; stroke-dasharray: 2.0,2.0;" x1="72.3" x2="371.1" y1="666.1922" y2="666.1922"/><text fill="#000000" font-family="sans-serif" font-size="7.8" font-weight="bold" lengthAdjust="spacingAndGlyphs" textLength="10.8" x="79.5" y="663.3469">20</text><text fill="#000000" font-family="sans-serif" font-size="7.8" lengthAdjust="spacingAndGlyphs" textLength="193.8" x="92.7" y="663.3469">mostra tipos regimento e pede para selecionar uma</text><polygon fill="#A80036" points="361.5,681.3785,367.5,683.7785,361.5,686.1785,363.9,683.7785" style="stroke: #A80036; stroke-width: 0.6;"/><line style="stroke: #A80036; stroke-width: 0.6;" x1="69.3" x2="365.1" y1="683.7785" y2="683.7785"/><text fill="#000000" font-family="sans-serif" font-size="7.8" font-weight="bold" lengthAdjust="spacingAndGlyphs" textLength="10.8" x="73.5" y="680.9332">21</text><text fill="#000000" font-family="sans-serif" font-size="7.8" lengthAdjust="spacingAndGlyphs" textLength="93.6" x="86.7" y="680.9332">seleciona tipo regimento</text><polygon fill="#A80036" points="628.5,698.9648,634.5,701.3648,628.5,703.7648,630.9,701.3648" style="stroke: #A80036; stroke-width: 0.6;"/><line style="stroke: #A80036; stroke-width: 0.6;" x1="374.7" x2="632.1" y1="701.3648" y2="701.3648"/><text fill="#000000" font-family="sans-serif" font-size="7.8" font-weight="bold" lengthAdjust="spacingAndGlyphs" textLength="10.8" x="378.9" y="698.5195">22</text><text fill="#000000" font-family="sans-serif" font-size="7.8" lengthAdjust="spacingAndGlyphs" textLength="236.4" x="392.1" y="698.5195">novoAnuncio(dtIniP,dtFimP,dtIniC,dtFimC,dtIniS,dtFimS,desTR)</text><polygon fill="#A80036" points="1155,716.5512,1161,718.9512,1155,721.3512,1157.4,718.9512" style="stroke: #A80036; stroke-width: 0.6;"/><line style="stroke: #A80036; stroke-width: 0.6;" x1="641.7" x2="1158.6" y1="718.9512" y2="718.9512"/><text fill="#000000" font-family="sans-serif" font-size="7.8" font-weight="bold" lengthAdjust="spacingAndGlyphs" textLength="10.8" x="645.9" y="716.1059">23</text><text fill="#000000" font-family="sans-serif" font-size="7.8" lengthAdjust="spacingAndGlyphs" textLength="155.4" x="659.1" y="716.1059">regT = getTipoRegimentoByDesc(descTR)</text><polygon fill="#A80036" points="958.5,752.1375,964.5,754.5375,958.5,756.9375,960.9,754.5375" style="stroke: #A80036; stroke-width: 0.6;"/><line style="stroke: #A80036; stroke-width: 0.6;" x1="641.7" x2="962.1" y1="754.5375" y2="754.5375"/><text fill="#000000" font-family="sans-serif" font-size="7.8" font-weight="bold" lengthAdjust="spacingAndGlyphs" textLength="10.8" x="645.9" y="751.6922">24</text><text fill="#000000" font-family="sans-serif" font-size="7.8" lengthAdjust="spacingAndGlyphs" textLength="108.6" x="659.1" y="751.6922">regA = getRegistoAnuncios()</text><polygon fill="#A80036" points="1400.4,787.7238,1406.4,790.1238,1400.4,792.5238,1402.8,790.1238" style="stroke: #A80036; stroke-width: 0.6;"/><line style="stroke: #A80036; stroke-width: 0.6;" x1="641.7" x2="1404" y1="790.1238" y2="790.1238"/><text fill="#000000" font-family="sans-serif" font-size="7.8" font-weight="bold" lengthAdjust="spacingAndGlyphs" textLength="10.8" x="645.9" y="787.2785">25</text><text fill="#000000" font-family="sans-serif" font-size="7.8" lengthAdjust="spacingAndGlyphs" textLength="283.2" x="659.1" y="787.2785">anu=novoAnuncio(c, tarefa,dtIniP,dtFimP,dtIniC,dtFimC,dtIniS,dtFimS,regT)</text><polygon fill="#A80036" points="1670.4,805.3102,1676.4,807.7102,1670.4,810.1102,1672.8,807.7102" style="stroke: #A80036; stroke-width: 0.6;"/><line style="stroke: #A80036; stroke-width: 0.6; stroke-dasharray: 2.0,2.0;" x1="1410.6" x2="1674" y1="807.7102" y2="807.7102"/><text fill="#000000" font-family="sans-serif" font-size="7.8" font-weight="bold" lengthAdjust="spacingAndGlyphs" textLength="10.8" x="1414.8" y="804.8648">26</text><text fill="#000000" font-family="sans-serif" font-size="7.8" lengthAdjust="spacingAndGlyphs" textLength="236.4" x="1428" y="804.8648">create(c, tarefa,dtIniP,dtFimP,dtIniC,dtFimC,dtIniS,dtFimS,regT)</text><rect fill="#FEFECE" filter="url(#f1a2iaw37oqkkh)" height="28.1859" style="stroke: #A80036; stroke-width: 0.8999999999999999;" width="45" x="1677.6" y="794.9238"/><text fill="#000000" font-family="sans-serif" font-size="8.4" lengthAdjust="spacingAndGlyphs" textLength="15.6" x="1692.3" y="807.2449">anu</text><text fill="#000000" font-family="sans-serif" font-size="8.4" lengthAdjust="spacingAndGlyphs" textLength="36.6" x="1681.8" y="817.1379">:Anuncio</text><polygon fill="#A80036" points="1400.4,842.4961,1406.4,844.8961,1400.4,847.2961,1402.8,844.8961" style="stroke: #A80036; stroke-width: 0.6;"/><line style="stroke: #A80036; stroke-width: 0.6;" x1="641.7" x2="1404" y1="844.8961" y2="844.8961"/><text fill="#000000" font-family="sans-serif" font-size="7.8" font-weight="bold" lengthAdjust="spacingAndGlyphs" textLength="10.8" x="645.9" y="842.0508">27</text><text fill="#000000" font-family="sans-serif" font-size="7.8" lengthAdjust="spacingAndGlyphs" textLength="72" x="659.1" y="842.0508">validaAnuncio(anu)</text><polygon fill="#A80036" points="75.9,878.0824,69.9,880.4824,75.9,882.8824,73.5,880.4824" style="stroke: #A80036; stroke-width: 0.6;"/><line style="stroke: #A80036; stroke-width: 0.6; stroke-dasharray: 2.0,2.0;" x1="72.3" x2="371.1" y1="880.4824" y2="880.4824"/><text fill="#000000" font-family="sans-serif" font-size="7.8" font-weight="bold" lengthAdjust="spacingAndGlyphs" textLength="10.8" x="79.5" y="877.6371">28</text><text fill="#000000" font-family="sans-serif" font-size="7.8" lengthAdjust="spacingAndGlyphs" textLength="159" x="92.7" y="877.6371">apresenta os dados e solicita confirmação</text><polygon fill="#A80036" points="361.5,895.6687,367.5,898.0688,361.5,900.4688,363.9,898.0688" style="stroke: #A80036; stroke-width: 0.6;"/><line style="stroke: #A80036; stroke-width: 0.6;" x1="69.3" x2="365.1" y1="898.0688" y2="898.0688"/><text fill="#000000" font-family="sans-serif" font-size="7.8" font-weight="bold" lengthAdjust="spacingAndGlyphs" textLength="10.8" x="73.5" y="895.2234">29</text><text fill="#000000" font-family="sans-serif" font-size="7.8" lengthAdjust="spacingAndGlyphs" textLength="70.2" x="86.7" y="895.2234">confirma os dados</text><polygon fill="#A80036" points="628.5,913.2551,634.5,915.6551,628.5,918.0551,630.9,915.6551" style="stroke: #A80036; stroke-width: 0.6;"/><line style="stroke: #A80036; stroke-width: 0.6;" x1="374.7" x2="632.1" y1="915.6551" y2="915.6551"/><text fill="#000000" font-family="sans-serif" font-size="7.8" font-weight="bold" lengthAdjust="spacingAndGlyphs" textLength="10.8" x="378.9" y="912.8098">30</text><text fill="#000000" font-family="sans-serif" font-size="7.8" lengthAdjust="spacingAndGlyphs" textLength="61.8" x="392.1" y="912.8098">registaAnuncio()</text><polygon fill="#A80036" points="1400.4,930.8414,1406.4,933.2414,1400.4,935.6414,1402.8,933.2414" style="stroke: #A80036; stroke-width: 0.6;"/><line style="stroke: #A80036; stroke-width: 0.6;" x1="641.7" x2="1404" y1="933.2414" y2="933.2414"/><text fill="#000000" font-family="sans-serif" font-size="7.8" font-weight="bold" lengthAdjust="spacingAndGlyphs" textLength="10.8" x="645.9" y="930.3961">31</text><text fill="#000000" font-family="sans-serif" font-size="7.8" lengthAdjust="spacingAndGlyphs" textLength="75.6" x="659.1" y="930.3961">registaAnuncio(anu)</text><line style="stroke: #A80036; stroke-width: 0.6;" x1="1413.6" x2="1438.8" y1="950.8277" y2="950.8277"/><line style="stroke: #A80036; stroke-width: 0.6;" x1="1438.8" x2="1438.8" y1="950.8277" y2="958.6277"/><line style="stroke: #A80036; stroke-width: 0.6;" x1="1414.2" x2="1438.8" y1="958.6277" y2="958.6277"/><polygon fill="#A80036" points="1420.2,956.2277,1414.2,958.6277,1420.2,961.0277,1417.8,958.6277" style="stroke: #A80036; stroke-width: 0.6;"/><text fill="#000000" font-family="sans-serif" font-size="7.8" font-weight="bold" lengthAdjust="spacingAndGlyphs" textLength="10.8" x="1417.8" y="947.9824">32</text><text fill="#000000" font-family="sans-serif" font-size="7.8" lengthAdjust="spacingAndGlyphs" textLength="72" x="1431" y="947.9824">validaAnuncio(anu)</text><polygon fill="#A80036" points="1557,973.8141,1563,976.2141,1557,978.6141,1559.4,976.2141" style="stroke: #A80036; stroke-width: 0.6;"/><line style="stroke: #A80036; stroke-width: 0.6;" x1="1413.6" x2="1560.6" y1="976.2141" y2="976.2141"/><text fill="#000000" font-family="sans-serif" font-size="7.8" font-weight="bold" lengthAdjust="spacingAndGlyphs" textLength="10.8" x="1417.8" y="973.3688">33</text><text fill="#000000" font-family="sans-serif" font-size="7.8" lengthAdjust="spacingAndGlyphs" textLength="49.2" x="1431" y="973.3688">publicar(anu)</text><line style="stroke: #A80036; stroke-width: 0.6;" x1="1413.6" x2="1438.8" y1="1014.8004" y2="1014.8004"/><line style="stroke: #A80036; stroke-width: 0.6;" x1="1438.8" x2="1438.8" y1="1014.8004" y2="1022.6004"/><line style="stroke: #A80036; stroke-width: 0.6;" x1="1410.6" x2="1438.8" y1="1022.6004" y2="1022.6004"/><polygon fill="#A80036" points="1416.6,1020.2004,1410.6,1022.6004,1416.6,1025.0004,1414.2,1022.6004" style="stroke: #A80036; stroke-width: 0.6;"/><text fill="#000000" font-family="sans-serif" font-size="7.8" font-weight="bold" lengthAdjust="spacingAndGlyphs" textLength="10.8" x="1417.8" y="1011.9551">34</text><text fill="#000000" font-family="sans-serif" font-size="7.8" lengthAdjust="spacingAndGlyphs" textLength="63.6" x="1431" y="1011.9551">addAnuncio(anu)</text><polygon fill="#A80036" points="72.9,1034.7867,66.9,1037.1867,72.9,1039.5867,70.5,1037.1867" style="stroke: #A80036; stroke-width: 0.6;"/><line style="stroke: #A80036; stroke-width: 0.6; stroke-dasharray: 2.0,2.0;" x1="69.3" x2="368.1" y1="1037.1867" y2="1037.1867"/><text fill="#000000" font-family="sans-serif" font-size="7.8" font-weight="bold" lengthAdjust="spacingAndGlyphs" textLength="10.8" x="76.5" y="1034.3414">35</text><text fill="#000000" font-family="sans-serif" font-size="7.8" lengthAdjust="spacingAndGlyphs" textLength="122.4" x="89.7" y="1034.3414">informa do sucesso da operação</text><!--MD5=[63df003b758efebfdbdb405ff7f194be]
@startuml
autonumber
hide footbox
actor "Colaborador de Organização" as ADM

participant ":PublicarTarefaUI" as UI
participant ":PublicarTarefaController" as CTRL
participant "AplicacaoPOT" as _APP
participant "app\n:AplicacaoPOT" as APP
participant "sessao\n:SessaoUtilizador" as SESSAO
participant ":Plataforma" as PLAT
participant "rorg\n:RegistoOrganizacoes" as RORGS
participant "rreg\n:RegistoTiposRegimento" as RREG
participant "org\n:Organizacao" as ORG
participant "c\n:Colaborador" as COLAB
participant "regA\n:RegistoAnuncios" as REGA
participant "ltarefas\n:ListaTarefas" as LTASKS
participant "tarefa\n:Tarefa" as TAREFA
participant "anu\n:Anuncio" as ANU

activate ADM
ADM -> UI : inicia a publicação de uma tarefa
activate UI

UI -> CTRL : lstT=getTarefasParaPublicar()
activate CTRL

CTRL -> _APP: app = getInstance()
activate _APP
|||
deactivate _APP

CTRL -> APP: sessao = getSessaoAtual()
activate APP
|||
deactivate APP

CTRL -> SESSAO: email = getEmailUtilizador()
activate SESSAO
|||
deactivate SESSAO

CTRL -> PLAT: rorg = getRegistoOrganizacoes()
activate PLAT
deactivate PLAT

CTRL -> RORGS: org = getOrganizacaoByEmailUtilizador(email)
activate RORGS
deactivate RORGS

CTRL -> ORG: c=getColaboradorByEmail(email)
activate ORG
deactivate ORG

CTRL -> ORG: ltarefas=getListaTarefas()
activate ORG
deactivate ORG

CTRL -> LTASKS: lstT=getTarefasParaPublicar(c)
activate LTASKS
deactivate LTASKS
deactivate CTRL

UI - -> ADM : mostra a lista de tarefas para publicação e pede para selecionar uma
deactivate UI

ADM -> UI : seleciona a tarefa
activate UI

UI -> CTRL : selecionaTarefa(ref)
activate CTRL

CTRL -> LTASKS: tarefa=getTarefaParaPublicarByRef(ref, c)
activate LTASKS
deactivate LTASKS
deactivate CTRL

UI - -> ADM : solicita os dados \n((i.e. período de publicitação, período de apresentação de candidaturas, \nperíodo de seriação, período de decisão e tipo de regimento)
deactivate UI

ADM -> UI : introduz os dados solicitados
activate UI

UI -> CTRL: ltreg = getTiposRegimento()
activate CTRL
CTRL -> PLAT: rreg = getRegistoTiposRegimento()
activate PLAT
deactivate PLAT

CTRL -> RREG : ltreg = getTiposRegimento()
activate RREG
deactivate RREG
deactivate CTRL

UI - -> ADM: mostra tipos regimento e pede para selecionar uma
deactivate UI

ADM -> UI: seleciona tipo regimento
activate UI
UI -> CTRL : novoAnuncio(dtIniP,dtFimP,dtIniC,dtFimC,dtIniS,dtFimS,desTR)
activate CTRL

CTRL -> RREG : regT = getTipoRegimentoByDesc(descTR)
activate RREG
deactivate RREG

CTRL -> PLAT: regA = getRegistoAnuncios()
activate PLAT
deactivate PLAT

CTRL -> REGA : anu=novoAnuncio(c, tarefa,dtIniP,dtFimP,dtIniC,dtFimC,dtIniS,dtFimS,regT)
activate REGA

REGA - -> ANU ** : create(c, tarefa,dtIniP,dtFimP,dtIniC,dtFimC,dtIniS,dtFimS,regT)
deactivate REGA

CTRL -> REGA : validaAnuncio(anu)
activate REGA
deactivate REGA
deactivate CTRL

UI - -> ADM: apresenta os dados e solicita confirmação
deactivate UI

ADM -> UI : confirma os dados
activate UI

UI -> CTRL : registaAnuncio()
activate CTRL

CTRL -> REGA : registaAnuncio(anu)
activate REGA
REGA -> REGA : validaAnuncio(anu)
REGA -> TAREFA : publicar(anu)
activate TAREFA
deactivate TAREFA
REGA -> REGA: addAnuncio(anu)

deactivate REGA
deactivate CTRL

UI - -> ADM : informa do sucesso da operação
deactivate ADM

@enduml

PlantUML version 1.2020.07(Sun Apr 19 12:42:40 WEST 2020)
(GPL source distribution)
Java Runtime: OpenJDK Runtime Environment
JVM: OpenJDK 64-Bit Server VM
Java Version: 11.0.6+8-b765.25
Operating System: Mac OS X
Default Encoding: UTF-8
Language: en
Country: PT
--></g></svg>