<?xml version="1.0" encoding="UTF-8" standalone="no"?>
<svg xmlns="http://www.w3.org/2000/svg" contentScriptType="application/ecmascript" contentStyleType="text/css"
     height="1563.75px" preserveAspectRatio="none" style="width:1060px;height:1563px;" version="1.1"
     viewBox="0 0 1060 1563" width="1060px" zoomAndPan="magnify">
    <defs>
        <filter height="300%" id="fwcey5lr47nzs" width="300%" x="-1" y="-1">
            <feGaussianBlur result="blurOut" stdDeviation="2.5"/>
            <feColorMatrix in="blurOut" result="blurOut2" type="matrix"
                           values="0 0 0 0 0 0 0 0 0 0 0 0 0 0 0 0 0 0 .4 0"/>
            <feOffset dx="5.0" dy="5.0" in="blurOut2" result="blurOut3"/>
            <feBlend in="SourceGraphic" in2="blurOut3" mode="normal"/>
        </filter>
    </defs>
    <g>
        <ellipse cx="799.1811" cy="1499.0862" fill="#FEFECE" filter="url(#fwcey5lr47nzs)" rx="127.3061" ry="28.4612"
                 style="stroke: #A80036; stroke-width: 1.875;"/>
        <text fill="#000000" font-family="sans-serif" font-size="17.5" lengthAdjust="spacingAndGlyphs"
              textLength="221.25" x="688.5561" y="1505.7171">UC1 - Registar Organização
        </text>
        <ellipse cx="799.2379" cy="1066.9726" fill="#FEFECE" filter="url(#fwcey5lr47nzs)" rx="138.6129" ry="30.7226"
                 style="stroke: #A80036; stroke-width: 1.875;"/>
        <text fill="#000000" font-family="sans-serif" font-size="17.5" lengthAdjust="spacingAndGlyphs"
              textLength="246.25" x="676.1129" y="1073.6034">UC2 - Definir Área de Atividade
        </text>
        <ellipse cx="799.2203" cy="1175.5941" fill="#FEFECE" filter="url(#fwcey5lr47nzs)" rx="153.5953" ry="33.7191"
                 style="stroke: #A80036; stroke-width: 1.875;"/>
        <text fill="#000000" font-family="sans-serif" font-size="17.5" lengthAdjust="spacingAndGlyphs"
              textLength="278.75" x="659.8453" y="1182.2249">UC3 - Definir Categoria (de Tarefa)
        </text>
        <ellipse cx="799.4071" cy="1290.6314" fill="#FEFECE" filter="url(#fwcey5lr47nzs)" rx="169.4071" ry="36.8814"
                 style="stroke: #A80036; stroke-width: 1.875;"/>
        <text fill="#000000" font-family="sans-serif" font-size="17.5" lengthAdjust="spacingAndGlyphs"
              textLength="312.5" x="643.1571" y="1297.2623">UC4 - Especificar Competência Técnica
        </text>
        <ellipse cx="799.2609" cy="949.2272" fill="#FEFECE" filter="url(#fwcey5lr47nzs)" rx="196.7609" ry="42.3522"
                 style="stroke: #A80036; stroke-width: 1.875;"/>
        <text fill="#000000" font-family="sans-serif" font-size="17.5" lengthAdjust="spacingAndGlyphs" textLength="370"
              x="614.2609" y="955.858">UC5 - Especificar Colaborador de Organização
        </text>
        <ellipse cx="799.5386" cy="370.4077" fill="#FEFECE" filter="url(#fwcey5lr47nzs)" rx="115.1636" ry="26.0327"
                 style="stroke: #A80036; stroke-width: 1.875;"/>
        <text fill="#000000" font-family="sans-serif" font-size="17.5" lengthAdjust="spacingAndGlyphs"
              textLength="193.75" x="702.6636" y="377.0386">UC6 - Especificar Tarefa
        </text>
        <ellipse cx="799.3156" cy="1399.1131" fill="#FEFECE" filter="url(#fwcey5lr47nzs)" rx="121.1906" ry="27.2381"
                 style="stroke: #A80036; stroke-width: 1.875;"/>
        <text fill="#000000" font-family="sans-serif" font-size="17.5" lengthAdjust="spacingAndGlyphs"
              textLength="207.5" x="695.5656" y="1405.744">UC7 - Registar Freelancer
        </text>
        <ellipse cx="799.2834" cy="465.3567" fill="#FEFECE" filter="url(#fwcey5lr47nzs)" rx="105.5334" ry="24.1067"
                 style="stroke: #A80036; stroke-width: 1.875;"/>
        <text fill="#000000" font-family="sans-serif" font-size="17.5" lengthAdjust="spacingAndGlyphs"
              textLength="171.25" x="713.6584" y="471.9875">UC8 - Publicar Tarefa
        </text>
        <ellipse cx="799.1713" cy="38.0843" fill="#FEFECE" filter="url(#fwcey5lr47nzs)" rx="122.2963" ry="27.4593"
                 style="stroke: #A80036; stroke-width: 1.875;"/>
        <text fill="#000000" font-family="sans-serif" font-size="17.5" lengthAdjust="spacingAndGlyphs" textLength="210"
              x="694.1713" y="44.7151">UC9 - Efetuar Candidatura
        </text>
        <ellipse cx="799.5203" cy="558.2791" fill="#FEFECE" filter="url(#fwcey5lr47nzs)" rx="107.6453" ry="24.5291"
                 style="stroke: #A80036; stroke-width: 1.875;"/>
        <text fill="#000000" font-family="sans-serif" font-size="17.5" lengthAdjust="spacingAndGlyphs"
              textLength="176.25" x="711.3953" y="564.9099">UC10 - Seriar Anuncio
        </text>
        <ellipse cx="799.5382" cy="670.9076" fill="#FEFECE" filter="url(#fwcey5lr47nzs)" rx="205.1632" ry="44.0326"
                 style="stroke: #A80036; stroke-width: 1.875;"/>
        <text fill="#000000" font-family="sans-serif" font-size="17.5" lengthAdjust="spacingAndGlyphs"
              textLength="387.5" x="605.7882" y="677.5385">UC14 - Adjudicar/Atribuir (manualmente) Anúncio
        </text>
        <ellipse cx="799.2329" cy="146.8466" fill="#FEFECE" filter="url(#fwcey5lr47nzs)" rx="172.3579" ry="37.4716"
                 style="stroke: #A80036; stroke-width: 1.875;"/>
        <text fill="#000000" font-family="sans-serif" font-size="17.5" lengthAdjust="spacingAndGlyphs"
              textLength="318.75" x="639.8579" y="153.4774">UC11 - Atualizar Candidatura Submetida
        </text>
        <ellipse cx="799.6249" cy="264.3" fill="#FEFECE" filter="url(#fwcey5lr47nzs)" rx="165.8749" ry="36.175"
                 style="stroke: #A80036; stroke-width: 1.875;"/>
        <text fill="#000000" font-family="sans-serif" font-size="17.5" lengthAdjust="spacingAndGlyphs" textLength="305"
              x="647.1249" y="270.9308">UC12 - Retirar Candidatura Submetida
        </text>
        <ellipse cx="799.433" cy="810.5116" fill="#FEFECE" filter="url(#fwcey5lr47nzs)" rx="246.933" ry="52.3866"
                 style="stroke: #A80036; stroke-width: 1.875;"/>
        <text fill="#000000" font-family="sans-serif" font-size="17.5" lengthAdjust="spacingAndGlyphs"
              textLength="473.75" x="562.558" y="817.1425">UC13 - Seriar (automaticamente) Candidaturas de Anúncios
        </text><!--MD5=[2ef883c7bda54365519191918ae31df7]
entity UNR-->
        <ellipse cx="242.5" cy="1459.375" fill="#FEFECE" filter="url(#fwcey5lr47nzs)" rx="10" ry="10"
                 style="stroke: #A80036; stroke-width: 1.875;"/>
        <path d="M242.5,1469.375 L242.5,1503.125 M226.25,1479.375 L258.75,1479.375 M242.5,1503.125 L226.25,1521.875 M242.5,1503.125 L258.75,1521.875 "
              fill="none" filter="url(#fwcey5lr47nzs)" style="stroke: #A80036; stroke-width: 1.875;"/>
        <text fill="#000000" font-family="sans-serif" font-size="17.5" lengthAdjust="spacingAndGlyphs"
              textLength="192.5" x="146.25" y="1546.9165">Utilizador Não Registado
        </text><!--MD5=[5bb58f447e60c14e9d23282c6a4405f4]
entity ADM-->
        <ellipse cx="242.5" cy="1193.125" fill="#FEFECE" filter="url(#fwcey5lr47nzs)" rx="10" ry="10"
                 style="stroke: #A80036; stroke-width: 1.875;"/>
        <path d="M242.5,1203.125 L242.5,1236.875 M226.25,1213.125 L258.75,1213.125 M242.5,1236.875 L226.25,1255.625 M242.5,1236.875 L258.75,1255.625 "
              fill="none" filter="url(#fwcey5lr47nzs)" style="stroke: #A80036; stroke-width: 1.875;"/>
        <text fill="#000000" font-family="sans-serif" font-size="17.5" lengthAdjust="spacingAndGlyphs" textLength="110"
              x="187.5" y="1280.6665">Administrativo
        </text><!--MD5=[aba3a422084821251358def362bf37bd]
entity GO-->
        <ellipse cx="242.5" cy="909.375" fill="#FEFECE" filter="url(#fwcey5lr47nzs)" rx="10" ry="10"
                 style="stroke: #A80036; stroke-width: 1.875;"/>
        <path d="M242.5,919.375 L242.5,953.125 M226.25,929.375 L258.75,929.375 M242.5,953.125 L226.25,971.875 M242.5,953.125 L258.75,971.875 "
              fill="none" filter="url(#fwcey5lr47nzs)" style="stroke: #A80036; stroke-width: 1.875;"/>
        <text fill="#000000" font-family="sans-serif" font-size="17.5" lengthAdjust="spacingAndGlyphs"
              textLength="183.75" x="150.625" y="996.9165">Gestor de Organização
        </text><!--MD5=[b5af4e906b5608882632c7d969b5b8a1]
entity CO-->
        <ellipse cx="242.5" cy="518.125" fill="#FEFECE" filter="url(#fwcey5lr47nzs)" rx="10" ry="10"
                 style="stroke: #A80036; stroke-width: 1.875;"/>
        <path d="M242.5,528.125 L242.5,561.875 M226.25,538.125 L258.75,538.125 M242.5,561.875 L226.25,580.625 M242.5,561.875 L258.75,580.625 "
              fill="none" filter="url(#fwcey5lr47nzs)" style="stroke: #A80036; stroke-width: 1.875;"/>
        <text fill="#000000" font-family="sans-serif" font-size="17.5" lengthAdjust="spacingAndGlyphs"
              textLength="228.75" x="128.125" y="605.6665">Colaborador de Organização
        </text><!--MD5=[254daa4c0aa61d7f44e2a06cbfcf4906]
entity FRL-->
        <ellipse cx="242.5" cy="106.875" fill="#FEFECE" filter="url(#fwcey5lr47nzs)" rx="10" ry="10"
                 style="stroke: #A80036; stroke-width: 1.875;"/>
        <path d="M242.5,116.875 L242.5,150.625 M226.25,126.875 L258.75,126.875 M242.5,150.625 L226.25,169.375 M242.5,150.625 L258.75,169.375 "
              fill="none" filter="url(#fwcey5lr47nzs)" style="stroke: #A80036; stroke-width: 1.875;"/>
        <text fill="#000000" font-family="sans-serif" font-size="17.5" lengthAdjust="spacingAndGlyphs"
              textLength="86.25" x="199.375" y="194.4165">Freelancer
        </text>
        <path d="M7.5,794.375 L7.5,827.3145 A0,0 0 0 0 7.5,827.3145 L477.5,827.3145 A0,0 0 0 0 477.5,827.3145 L477.5,816.875 L552.325,810.625 L477.5,806.875 L477.5,806.875 L465,794.375 L7.5,794.375 A0,0 0 0 0 7.5,794.375 "
              fill="#FBFB77" filter="url(#fwcey5lr47nzs)" style="stroke: #A80036; stroke-width: 1.25;"/>
        <path d="M465,794.375 L465,806.875 L477.5,806.875 L465,794.375 " fill="#FBFB77"
              style="stroke: #A80036; stroke-width: 1.25;"/>
        <text fill="#000000" font-family="sans-serif" font-size="16.25" lengthAdjust="spacingAndGlyphs"
              textLength="443.75" x="15" y="817.4939">Realizado também pelo sistema durante um horário acordado
        </text><!--MD5=[7b21f0941fa32888f6ae813cc64547f3]
link UNR to UC1-->
        <path d="M339.05,1499.375 C428.8688,1499.375 564.3038,1499.375 664.8175,1499.375 " fill="none" id="UNR-&gt;UC1"
              style="stroke: #A80036; stroke-width: 1.25;"/>
        <polygon fill="#A80036"
                 points="671.3863,1499.375,660.1363,1494.375,665.1363,1499.375,660.1363,1504.375,671.3863,1499.375"
                 style="stroke: #A80036; stroke-width: 1.25;"/><!--MD5=[afb96f077b5aad6802be8a4e992892ce]
link ADM to UC2-->
        <path d="M297.6763,1210.9738 C358.73,1186.485 461.5488,1147.0175 552.5,1120.625 C595.8538,1108.0437 644.2638,1096.8563 686.57,1087.99 "
              fill="none" id="ADM-&gt;UC2" style="stroke: #A80036; stroke-width: 1.25;"/>
        <polygon fill="#A80036"
                 points="692.7662,1086.6988,680.7328,1084.0992,686.6477,1087.9739,682.773,1093.8888,692.7662,1086.6988"
                 style="stroke: #A80036; stroke-width: 1.25;"/><!--MD5=[db1eef6a14ce759cd1b7bb831ae99df7]
link ADM to UC3-->
        <path d="M297.915,1227.5075 C379.4713,1219.0475 536.6438,1202.7463 653.1363,1190.6638 " fill="none"
              id="ADM-&gt;UC3" style="stroke: #A80036; stroke-width: 1.25;"/>
        <polygon fill="#A80036"
                 points="659.6988,1189.9825,647.992,1186.1726,653.4823,1190.6288,649.0261,1196.119,659.6988,1189.9825"
                 style="stroke: #A80036; stroke-width: 1.25;"/><!--MD5=[75201264684ae616ead1678418b4a491]
link ADM to UC4-->
        <path d="M297.915,1238.7425 C376.2625,1246.8688 524.3925,1262.2338 639.205,1274.1413 " fill="none"
              id="ADM-&gt;UC4" style="stroke: #A80036; stroke-width: 1.25;"/>
        <polygon fill="#A80036"
                 points="645.68,1274.8138,635.0058,1268.68,639.4633,1274.169,633.9742,1278.6266,645.68,1274.8138"
                 style="stroke: #A80036; stroke-width: 1.25;"/><!--MD5=[61e2851b57f1057bb235dfe3d194050f]
link ADM to UC7-->
        <path d="M297.5225,1256.3688 C358.44,1281.9913 461.1363,1323.0575 552.5,1349.375 C598.3363,1362.5775 649.95,1373.6413 693.9913,1381.9763 "
              fill="none" id="ADM-&gt;UC7" style="stroke: #A80036; stroke-width: 1.25;"/>
        <polygon fill="#A80036"
                 points="700.4325,1383.1863,690.2986,1376.1958,694.2899,1382.0327,688.4529,1386.024,700.4325,1383.1863"
                 style="stroke: #A80036; stroke-width: 1.25;"/><!--MD5=[1877500cdd58ac1719eab615bb0e1b9e]
link GO to UC5-->
        <path d="M334.6725,949.375 C405.4675,949.375 506.4338,949.375 596.0638,949.375 " fill="none" id="GO-&gt;UC5"
              style="stroke: #A80036; stroke-width: 1.25;"/>
        <polygon fill="#A80036"
                 points="602.4963,949.375,591.2463,944.375,596.2463,949.375,591.2463,954.375,602.4963,949.375"
                 style="stroke: #A80036; stroke-width: 1.25;"/><!--MD5=[980c96a9d2d6a561803d016e26da8f75]
link CO to UC6-->
        <path d="M344.0363,506.0837 C403.3563,477.0825 480.705,442.305 552.5,419.375 C598.4862,404.6887 650.79,393.57 695.28,385.6888 "
              fill="none" id="CO-&gt;UC6" style="stroke: #A80036; stroke-width: 1.25;"/>
        <polygon fill="#A80036"
                 points="701.7863,384.5488,689.8423,381.5649,695.63,385.6272,691.5677,391.4149,701.7863,384.5488"
                 style="stroke: #A80036; stroke-width: 1.25;"/><!--MD5=[93d5ce3551d281a7b6e71a46e8ebf406]
link CO to UC8-->
        <path d="M356.9388,539.2388 C460.2825,521.995 611.1188,496.8275 706.9237,480.8425 " fill="none" id="CO-&gt;UC8"
              style="stroke: #A80036; stroke-width: 1.25;"/>
        <polygon fill="#A80036"
                 points="713.1538,479.8025,701.2342,476.7223,706.989,480.8312,702.8801,486.5859,713.1538,479.8025"
                 style="stroke: #A80036; stroke-width: 1.25;"/><!--MD5=[8c121b75bc13107d81fe560c8e6e0c52]
link CO to UC10-->
        <path d="M356.9388,558.125 C452.655,558.125 589.11,558.125 684.85,558.125 " fill="none" id="CO-&gt;UC10"
              style="stroke: #A80036; stroke-width: 1.25;"/>
        <polygon fill="#A80036"
                 points="691.6713,558.125,680.4213,553.125,685.4213,558.125,680.4213,563.125,691.6713,558.125"
                 style="stroke: #A80036; stroke-width: 1.25;"/><!--MD5=[7ac6e8dee78bbc2feb0ea2f707d64bf5]
link CO to UC14-->
        <path d="M356.9388,581.095 C439.5113,597.8512 552.4025,620.76 643.3163,639.21 " fill="none" id="CO-&gt;UC14"
              style="stroke: #A80036; stroke-width: 1.25;"/>
        <polygon fill="#A80036"
                 points="649.8238,640.53,639.7928,633.3927,643.6986,639.2871,637.8041,643.1929,649.8238,640.53"
                 style="stroke: #A80036; stroke-width: 1.25;"/><!--MD5=[076cce80958f60d1fbfc44bd6d0380c9]
link FRL to UC9-->
        <path d="M285.8738,138.6125 C373.5013,121.425 577.4338,81.4125 699.915,57.3875 " fill="none" id="FRL-&gt;UC9"
              style="stroke: #A80036; stroke-width: 1.25;"/>
        <polygon fill="#A80036" points="706.41,56.1125,694.4078,53.3721,700.2769,57.3159,696.3332,63.185,706.41,56.1125"
                 style="stroke: #A80036; stroke-width: 1.25;"/><!--MD5=[5f400686cbd9d5e585c1c3132b0d60f7]
link FRL to UC11-->
        <path d="M285.8738,146.875 C356.435,146.875 502.41,146.875 620.5438,146.875 " fill="none" id="FRL-&gt;UC11"
              style="stroke: #A80036; stroke-width: 1.25;"/>
        <polygon fill="#A80036"
                 points="626.8575,146.875,615.6075,141.875,620.6075,146.875,615.6075,151.875,626.8575,146.875"
                 style="stroke: #A80036; stroke-width: 1.25;"/><!--MD5=[094edc4e287363ae8660b7d893da846e]
link FRL to UC12-->
        <path d="M285.8738,155.8 C367.3763,173.075 549.4925,211.675 673.105,237.875 " fill="none" id="FRL-&gt;UC12"
              style="stroke: #A80036; stroke-width: 1.25;"/>
        <polygon fill="#A80036"
                 points="679.315,239.1875,669.3485,231.9604,673.2012,237.8897,667.272,241.7424,679.315,239.1875"
                 style="stroke: #A80036; stroke-width: 1.25;"/><!--MD5=[79624878788c4724c76ec0f971b9ffb0]
link CO to UC13-->
        <path d="M321.6913,610.0938 C382.5738,648.9725 470.355,701.3438 552.5,736.875 C579.2063,748.4263 608.2838,758.8863 636.7825,768.0588 "
              fill="none" id="CO-&gt;UC13" style="stroke: #A80036; stroke-width: 1.25;"/>
        <polygon fill="#A80036"
                 points="642.8538,769.9975,633.6564,761.8139,636.8996,768.0973,630.6161,771.3405,642.8538,769.9975"
                 style="stroke: #A80036; stroke-width: 1.25;"/><!--MD5=[db9648d3cb735121a21a0d694d7c9d2e]
@startuml

usecase UC1 as "UC1 - Registar Organização"
usecase UC2 as "UC2 - Definir Área de Atividade"
usecase UC3 as "UC3 - Definir Categoria (de Tarefa)"
usecase UC4 as "UC4 - Especificar Competência Técnica"
usecase UC5 as "UC5 - Especificar Colaborador de Organização"
usecase UC6 as "UC6 - Especificar Tarefa"


usecase UC7 as "UC7 - Registar Freelancer"
usecase UC8 as "UC8 - Publicar Tarefa"
usecase UC9 as "UC9 - Efetuar Candidatura"
usecase UC10 as "UC10 - Seriar Anuncio"

usecase UC14 as "UC14 - Adjudicar/Atribuir (manualmente) Anúncio"
usecase UC11 as "UC11 - Atualizar Candidatura Submetida"
usecase UC12 as "UC12 - Retirar Candidatura Submetida"

usecase UC13 as "UC13 - Seriar (automaticamente) Candidaturas de Anúncios"

actor "Utilizador Não Registado" as UNR
actor "Administrativo" as ADM
actor "Gestor de Organização" as GO
actor "Colaborador de Organização" as CO
actor "Freelancer" as FRL


left to right direction
UNR - ->(UC1)

ADM - ->(UC2)
ADM - ->(UC3)
ADM - ->(UC4)
ADM - ->(UC7)

GO - ->(UC5)

CO - -> (UC6)
CO - -> (UC8)
CO - -> (UC10)
CO - -> (UC14)

FRL - -> (UC9)
FRL - -> (UC11)
FRL - -> (UC12)

CO - ->(UC13)
note left {
Realizado também pelo sistema durante um horário acordado
}

@enduml

PlantUML version 1.2020.07(Sun Apr 19 12:42:40 BST 2020)
(GPL source distribution)
Java Runtime: OpenJDK Runtime Environment
JVM: OpenJDK 64-Bit Server VM
Java Version: 11.0.6+8-b765.40
Operating System: Windows 10
Default Encoding: Cp1252
Language: pt
Country: PT
-->
    </g>
</svg>