<?xml version="1.0" encoding="UTF-8" standalone="no"?>
<svg xmlns="http://www.w3.org/2000/svg" contentScriptType="application/ecmascript" contentStyleType="text/css"
     height="1212px" preserveAspectRatio="none" style="width:3678px;height:1212px;" version="1.1"
     viewBox="0 0 3678 1212" width="3678px" zoomAndPan="magnify"><defs><filter height="300%" id="f5f977nuen2vx" width="300%" x="-1" y="-1"><feGaussianBlur result="blurOut" stdDeviation="2.0"/><feColorMatrix in="blurOut" result="blurOut2" type="matrix" values="0 0 0 0 0 0 0 0 0 0 0 0 0 0 0 0 0 0 .4 0"/><feOffset dx="4.0" dy="4.0" in="blurOut2" result="blurOut3"/><feBlend in="SourceGraphic" in2="blurOut3" mode="normal"/></filter></defs><g><!--MD5=[ecaed46f78f8cfe1e9ce18477649be18]
class Plataforma--><rect fill="#FEFECE" filter="url(#f5f977nuen2vx)" height="52.9551" id="Plataforma" style="stroke: #A80036; stroke-width: 1.5;" width="114" x="6" y="335.5"/><ellipse cx="30" cy="351.5" fill="#ADD1B2" rx="11" ry="11" style="stroke: #A80036; stroke-width: 1.0;"/><path d="M32.4731,357.6431 Q31.8921,357.9419 31.2529,358.0913 Q30.6138,358.2407 29.9082,358.2407 Q27.4014,358.2407 26.0815,356.5889 Q24.7617,354.937 24.7617,351.8159 Q24.7617,348.6865 26.0815,347.0347 Q27.4014,345.3828 29.9082,345.3828 Q30.6138,345.3828 31.2612,345.5322 Q31.9087,345.6816 32.4731,345.9805 L32.4731,348.7031 Q31.8423,348.1221 31.2488,347.8523 Q30.6553,347.5825 30.0244,347.5825 Q28.6797,347.5825 27.9949,348.6492 Q27.3101,349.7158 27.3101,351.8159 Q27.3101,353.9077 27.9949,354.9744 Q28.6797,356.041 30.0244,356.041 Q30.6553,356.041 31.2488,355.7712 Q31.8423,355.5015 32.4731,354.9204 Z "/><text fill="#000000" font-family="sans-serif" font-size="12" lengthAdjust="spacingAndGlyphs" textLength="62" x="46" y="356.0352">Plataforma</text><line style="stroke: #A80036; stroke-width: 1.5;" x1="7" x2="119" y1="367.5" y2="367.5"/><text fill="#000000" font-family="sans-serif" font-size="11" lengthAdjust="spacingAndGlyphs" textLength="102" x="12" y="382.1348">-String designacao</text><!--MD5=[02456e6632d968d6f68141e5893c6991]
class AreaAtividade--><rect fill="#FEFECE" filter="url(#f5f977nuen2vx)" height="78.8652" id="AreaAtividade" style="stroke: #A80036; stroke-width: 1.5;" width="131" x="3350" y="135.5"/><ellipse cx="3373.1" cy="151.5" fill="#ADD1B2" rx="11" ry="11" style="stroke: #A80036; stroke-width: 1.0;"/><path d="M3375.5731,157.6431 Q3374.9921,157.9419 3374.3529,158.0913 Q3373.7138,158.2407 3373.0082,158.2407 Q3370.5014,158.2407 3369.1815,156.5889 Q3367.8617,154.937 3367.8617,151.8159 Q3367.8617,148.6865 3369.1815,147.0347 Q3370.5014,145.3828 3373.0082,145.3828 Q3373.7138,145.3828 3374.3612,145.5322 Q3375.0087,145.6816 3375.5731,145.9805 L3375.5731,148.7031 Q3374.9423,148.1221 3374.3488,147.8523 Q3373.7553,147.5825 3373.1244,147.5825 Q3371.7797,147.5825 3371.0949,148.6492 Q3370.4101,149.7158 3370.4101,151.8159 Q3370.4101,153.9077 3371.0949,154.9744 Q3371.7797,156.041 3373.1244,156.041 Q3373.7553,156.041 3374.3488,155.7712 Q3374.9423,155.5015 3375.5731,154.9204 Z "/><text fill="#000000" font-family="sans-serif" font-size="12" lengthAdjust="spacingAndGlyphs" textLength="81" x="3388.9" y="156.0352">AreaAtividade</text><line style="stroke: #A80036; stroke-width: 1.5;" x1="3351" x2="3480" y1="167.5" y2="167.5"/><text fill="#000000" font-family="sans-serif" font-size="11" lengthAdjust="spacingAndGlyphs" textLength="78" x="3356" y="182.1348">-String codigo</text><text fill="#000000" font-family="sans-serif" font-size="11" lengthAdjust="spacingAndGlyphs" textLength="95" x="3356" y="195.0898">-String descBreve</text><text fill="#000000" font-family="sans-serif" font-size="11" lengthAdjust="spacingAndGlyphs" textLength="119" x="3356" y="208.0449">-String descDetalhada</text><!--MD5=[a322db5a7ec64d2ff8f2d6cf1831dcec]
class CompetenciaTecnica--><rect fill="#FEFECE" filter="url(#f5f977nuen2vx)" height="78.8652" id="CompetenciaTecnica" style="stroke: #A80036; stroke-width: 1.5;" width="151" x="2911" y="321.5"/><ellipse cx="2926" cy="337.5" fill="#ADD1B2" rx="11" ry="11" style="stroke: #A80036; stroke-width: 1.0;"/><path d="M2928.4731,343.6431 Q2927.8921,343.9419 2927.2529,344.0913 Q2926.6138,344.2407 2925.9082,344.2407 Q2923.4014,344.2407 2922.0815,342.5889 Q2920.7617,340.937 2920.7617,337.8159 Q2920.7617,334.6865 2922.0815,333.0347 Q2923.4014,331.3828 2925.9082,331.3828 Q2926.6138,331.3828 2927.2612,331.5322 Q2927.9087,331.6816 2928.4731,331.9805 L2928.4731,334.7031 Q2927.8423,334.1221 2927.2488,333.8523 Q2926.6553,333.5825 2926.0244,333.5825 Q2924.6797,333.5825 2923.9949,334.6492 Q2923.3101,335.7158 2923.3101,337.8159 Q2923.3101,339.9077 2923.9949,340.9744 Q2924.6797,342.041 2926.0244,342.041 Q2926.6553,342.041 2927.2488,341.7712 Q2927.8423,341.5015 2928.4731,340.9204 Z "/><text fill="#000000" font-family="sans-serif" font-size="12" lengthAdjust="spacingAndGlyphs" textLength="119" x="2940" y="342.0352">CompetenciaTecnica</text><line style="stroke: #A80036; stroke-width: 1.5;" x1="2912" x2="3061" y1="353.5" y2="353.5"/><text fill="#000000" font-family="sans-serif" font-size="11" lengthAdjust="spacingAndGlyphs" textLength="78" x="2917" y="368.1348">-String codigo</text><text fill="#000000" font-family="sans-serif" font-size="11" lengthAdjust="spacingAndGlyphs" textLength="95" x="2917" y="381.0898">-String descBreve</text><text fill="#000000" font-family="sans-serif" font-size="11" lengthAdjust="spacingAndGlyphs" textLength="119" x="2917" y="394.0449">-String descDetalhada</text><!--MD5=[0d4fe674cc1d46ec0fc990086e50801a]
class GrauProficiencia--><rect fill="#FEFECE" filter="url(#f5f977nuen2vx)" height="65.9102" id="GrauProficiencia" style="stroke: #A80036; stroke-width: 1.5;" width="125" x="3542" y="350"/><ellipse cx="3557" cy="366" fill="#ADD1B2" rx="11" ry="11" style="stroke: #A80036; stroke-width: 1.0;"/><path d="M3559.4731,372.1431 Q3558.8921,372.4419 3558.2529,372.5913 Q3557.6138,372.7407 3556.9082,372.7407 Q3554.4014,372.7407 3553.0815,371.0889 Q3551.7617,369.437 3551.7617,366.3159 Q3551.7617,363.1865 3553.0815,361.5347 Q3554.4014,359.8828 3556.9082,359.8828 Q3557.6138,359.8828 3558.2612,360.0322 Q3558.9087,360.1816 3559.4731,360.4805 L3559.4731,363.2031 Q3558.8423,362.6221 3558.2488,362.3523 Q3557.6553,362.0825 3557.0244,362.0825 Q3555.6797,362.0825 3554.9949,363.1492 Q3554.3101,364.2158 3554.3101,366.3159 Q3554.3101,368.4077 3554.9949,369.4744 Q3555.6797,370.541 3557.0244,370.541 Q3557.6553,370.541 3558.2488,370.2712 Q3558.8423,370.0015 3559.4731,369.4204 Z "/><text fill="#000000" font-family="sans-serif" font-size="12" lengthAdjust="spacingAndGlyphs" textLength="93" x="3571" y="370.5352">GrauProficiencia</text><line style="stroke: #A80036; stroke-width: 1.5;" x1="3543" x2="3666" y1="382" y2="382"/><text fill="#000000" font-family="sans-serif" font-size="11" lengthAdjust="spacingAndGlyphs" textLength="74" x="3548" y="396.6348">-Integer valor</text><text fill="#000000" font-family="sans-serif" font-size="11" lengthAdjust="spacingAndGlyphs" textLength="102" x="3548" y="409.5898">-String designacao</text><!--MD5=[7e1ce8ab2bf669717f28e918f4971b9a]
class Categoria--><rect fill="#FEFECE" filter="url(#f5f977nuen2vx)" height="65.9102" id="Categoria" style="stroke: #A80036; stroke-width: 1.5;" width="105" x="1136.5" y="187"/><ellipse cx="1159.6" cy="203" fill="#ADD1B2" rx="11" ry="11" style="stroke: #A80036; stroke-width: 1.0;"/><path d="M1162.0731,209.1431 Q1161.4921,209.4419 1160.8529,209.5913 Q1160.2138,209.7407 1159.5082,209.7407 Q1157.0014,209.7407 1155.6815,208.0889 Q1154.3617,206.437 1154.3617,203.3159 Q1154.3617,200.1865 1155.6815,198.5347 Q1157.0014,196.8828 1159.5082,196.8828 Q1160.2138,196.8828 1160.8612,197.0322 Q1161.5087,197.1816 1162.0731,197.4805 L1162.0731,200.2031 Q1161.4423,199.6221 1160.8488,199.3523 Q1160.2553,199.0825 1159.6244,199.0825 Q1158.2797,199.0825 1157.5949,200.1492 Q1156.9101,201.2158 1156.9101,203.3159 Q1156.9101,205.4077 1157.5949,206.4744 Q1158.2797,207.541 1159.6244,207.541 Q1160.2553,207.541 1160.8488,207.2712 Q1161.4423,207.0015 1162.0731,206.4204 Z "/><text fill="#000000" font-family="sans-serif" font-size="12" lengthAdjust="spacingAndGlyphs" textLength="55" x="1175.4" y="207.5352">Categoria</text><line style="stroke: #A80036; stroke-width: 1.5;" x1="1137.5" x2="1240.5" y1="219" y2="219"/><text fill="#000000" font-family="sans-serif" font-size="11" lengthAdjust="spacingAndGlyphs" textLength="51" x="1142.5" y="233.6348">-String id</text><text fill="#000000" font-family="sans-serif" font-size="11" lengthAdjust="spacingAndGlyphs" textLength="93" x="1142.5" y="246.5898">-String descricao</text><!--MD5=[b0f240be72c8ea8a063442502d85fc08]
class CaraterCT--><rect fill="#FEFECE" filter="url(#f5f977nuen2vx)" height="52.9551" id="CaraterCT" style="stroke: #A80036; stroke-width: 1.5;" width="123" x="2678" y="241.5"/><ellipse cx="2707.4" cy="257.5" fill="#ADD1B2" rx="11" ry="11" style="stroke: #A80036; stroke-width: 1.0;"/><path d="M2709.8731,263.6431 Q2709.2921,263.9419 2708.6529,264.0913 Q2708.0138,264.2407 2707.3082,264.2407 Q2704.8014,264.2407 2703.4815,262.5889 Q2702.1617,260.937 2702.1617,257.8159 Q2702.1617,254.6865 2703.4815,253.0347 Q2704.8014,251.3828 2707.3082,251.3828 Q2708.0138,251.3828 2708.6612,251.5322 Q2709.3087,251.6816 2709.8731,251.9805 L2709.8731,254.7031 Q2709.2423,254.1221 2708.6488,253.8523 Q2708.0553,253.5825 2707.4244,253.5825 Q2706.0797,253.5825 2705.3949,254.6492 Q2704.7101,255.7158 2704.7101,257.8159 Q2704.7101,259.9077 2705.3949,260.9744 Q2706.0797,262.041 2707.4244,262.041 Q2708.0553,262.041 2708.6488,261.7712 Q2709.2423,261.5015 2709.8731,260.9204 Z "/><text fill="#000000" font-family="sans-serif" font-size="12" lengthAdjust="spacingAndGlyphs" textLength="59" x="2724.6" y="262.0352">CaraterCT</text><line style="stroke: #A80036; stroke-width: 1.5;" x1="2679" x2="2800" y1="273.5" y2="273.5"/><text fill="#000000" font-family="sans-serif" font-size="11" lengthAdjust="spacingAndGlyphs" textLength="111" x="2684" y="288.1348">-Boolean obrigatoria</text><!--MD5=[807977ceb130c090ed5febfb6de2bdea]
class Organizacao--><rect fill="#FEFECE" filter="url(#f5f977nuen2vx)" height="104.7754" id="Organizacao" style="stroke: #A80036; stroke-width: 1.5;" width="104" x="288" y="593.5"/><ellipse cx="303" cy="609.5" fill="#ADD1B2" rx="11" ry="11" style="stroke: #A80036; stroke-width: 1.0;"/><path d="M305.4731,615.6431 Q304.8921,615.9419 304.2529,616.0913 Q303.6138,616.2407 302.9082,616.2407 Q300.4014,616.2407 299.0815,614.5889 Q297.7617,612.937 297.7617,609.8159 Q297.7617,606.6865 299.0815,605.0347 Q300.4014,603.3828 302.9082,603.3828 Q303.6138,603.3828 304.2612,603.5322 Q304.9087,603.6816 305.4731,603.9805 L305.4731,606.7031 Q304.8423,606.1221 304.2488,605.8523 Q303.6553,605.5825 303.0244,605.5825 Q301.6797,605.5825 300.9949,606.6492 Q300.3101,607.7158 300.3101,609.8159 Q300.3101,611.9077 300.9949,612.9744 Q301.6797,614.041 303.0244,614.041 Q303.6553,614.041 304.2488,613.7712 Q304.8423,613.5015 305.4731,612.9204 Z "/><text fill="#000000" font-family="sans-serif" font-size="12" lengthAdjust="spacingAndGlyphs" textLength="72" x="317" y="614.0352">Organizacao</text><line style="stroke: #A80036; stroke-width: 1.5;" x1="289" x2="391" y1="625.5" y2="625.5"/><text fill="#000000" font-family="sans-serif" font-size="11" lengthAdjust="spacingAndGlyphs" textLength="71" x="294" y="640.1348">-String nome</text><text fill="#000000" font-family="sans-serif" font-size="11" lengthAdjust="spacingAndGlyphs" textLength="58" x="294" y="653.0898">-String NIF</text><text fill="#000000" font-family="sans-serif" font-size="11" lengthAdjust="spacingAndGlyphs" textLength="81" x="294" y="666.0449">-String website</text><text fill="#000000" font-family="sans-serif" font-size="11" lengthAdjust="spacingAndGlyphs" textLength="84" x="294" y="679">-String telefone</text><text fill="#000000" font-family="sans-serif" font-size="11" lengthAdjust="spacingAndGlyphs" textLength="69" x="294" y="691.9551">-String email</text><!--MD5=[ac8682ea5466d223e49472789fb200d2]
class Colaborador--><rect fill="#FEFECE" filter="url(#f5f977nuen2vx)" height="91.8203" id="Colaborador" style="stroke: #A80036; stroke-width: 1.5;" width="104" x="1692" y="862"/><ellipse cx="1707" cy="878" fill="#ADD1B2" rx="11" ry="11" style="stroke: #A80036; stroke-width: 1.0;"/><path d="M1709.4731,884.1431 Q1708.8921,884.4419 1708.2529,884.5913 Q1707.6138,884.7407 1706.9082,884.7407 Q1704.4014,884.7407 1703.0815,883.0889 Q1701.7617,881.437 1701.7617,878.3159 Q1701.7617,875.1865 1703.0815,873.5347 Q1704.4014,871.8828 1706.9082,871.8828 Q1707.6138,871.8828 1708.2612,872.0322 Q1708.9087,872.1816 1709.4731,872.4805 L1709.4731,875.2031 Q1708.8423,874.6221 1708.2488,874.3523 Q1707.6553,874.0825 1707.0244,874.0825 Q1705.6797,874.0825 1704.9949,875.1492 Q1704.3101,876.2158 1704.3101,878.3159 Q1704.3101,880.4077 1704.9949,881.4744 Q1705.6797,882.541 1707.0244,882.541 Q1707.6553,882.541 1708.2488,882.2712 Q1708.8423,882.0015 1709.4731,881.4204 Z "/><text fill="#000000" font-family="sans-serif" font-size="12" lengthAdjust="spacingAndGlyphs" textLength="72" x="1721" y="882.5352">Colaborador</text><line style="stroke: #A80036; stroke-width: 1.5;" x1="1693" x2="1795" y1="894" y2="894"/><text fill="#000000" font-family="sans-serif" font-size="11" lengthAdjust="spacingAndGlyphs" textLength="71" x="1698" y="908.6348">-String nome</text><text fill="#000000" font-family="sans-serif" font-size="11" lengthAdjust="spacingAndGlyphs" textLength="78" x="1698" y="921.5898">-String funcao</text><text fill="#000000" font-family="sans-serif" font-size="11" lengthAdjust="spacingAndGlyphs" textLength="84" x="1698" y="934.5449">-String telefone</text><text fill="#000000" font-family="sans-serif" font-size="11" lengthAdjust="spacingAndGlyphs" textLength="69" x="1698" y="947.5">-String email</text><!--MD5=[dcda844062f930f807532403427d3023]
class EnderecoPostal--><rect fill="#FEFECE" filter="url(#f5f977nuen2vx)" height="78.8652" id="EnderecoPostal" style="stroke: #A80036; stroke-width: 1.5;" width="120" x="2508.5" y="348.5"/><ellipse cx="2523.5" cy="364.5" fill="#ADD1B2" rx="11" ry="11" style="stroke: #A80036; stroke-width: 1.0;"/><path d="M2525.9731,370.6431 Q2525.3921,370.9419 2524.7529,371.0913 Q2524.1138,371.2407 2523.4082,371.2407 Q2520.9014,371.2407 2519.5815,369.5889 Q2518.2617,367.937 2518.2617,364.8159 Q2518.2617,361.6865 2519.5815,360.0347 Q2520.9014,358.3828 2523.4082,358.3828 Q2524.1138,358.3828 2524.7612,358.5322 Q2525.4087,358.6816 2525.9731,358.9805 L2525.9731,361.7031 Q2525.3423,361.1221 2524.7488,360.8523 Q2524.1553,360.5825 2523.5244,360.5825 Q2522.1797,360.5825 2521.4949,361.6492 Q2520.8101,362.7158 2520.8101,364.8159 Q2520.8101,366.9077 2521.4949,367.9744 Q2522.1797,369.041 2523.5244,369.041 Q2524.1553,369.041 2524.7488,368.7712 Q2525.3423,368.5015 2525.9731,367.9204 Z "/><text fill="#000000" font-family="sans-serif" font-size="12" lengthAdjust="spacingAndGlyphs" textLength="88" x="2537.5" y="369.0352">EnderecoPostal</text><line style="stroke: #A80036; stroke-width: 1.5;" x1="2509.5" x2="2627.5" y1="380.5" y2="380.5"/><text fill="#000000" font-family="sans-serif" font-size="11" lengthAdjust="spacingAndGlyphs" textLength="66" x="2514.5" y="395.1348">-String local</text><text fill="#000000" font-family="sans-serif" font-size="11" lengthAdjust="spacingAndGlyphs" textLength="93" x="2514.5" y="408.0898">-String codPostal</text><text fill="#000000" font-family="sans-serif" font-size="11" lengthAdjust="spacingAndGlyphs" textLength="95" x="2514.5" y="421.0449">-String localidade</text><!--MD5=[27c2d4bbe9f7b9d3b0ea2797cc54308a]
class Tarefa--><rect fill="#FEFECE" filter="url(#f5f977nuen2vx)" height="117.7305" id="Tarefa" style="stroke: #A80036; stroke-width: 1.5;" width="123" x="648" y="587"/><ellipse cx="686.85" cy="603" fill="#ADD1B2" rx="11" ry="11" style="stroke: #A80036; stroke-width: 1.0;"/><path d="M689.3231,609.1431 Q688.7421,609.4419 688.1029,609.5913 Q687.4638,609.7407 686.7582,609.7407 Q684.2514,609.7407 682.9315,608.0889 Q681.6117,606.437 681.6117,603.3159 Q681.6117,600.1865 682.9315,598.5347 Q684.2514,596.8828 686.7582,596.8828 Q687.4638,596.8828 688.1112,597.0322 Q688.7587,597.1816 689.3231,597.4805 L689.3231,600.2031 Q688.6923,599.6221 688.0988,599.3523 Q687.5053,599.0825 686.8744,599.0825 Q685.5297,599.0825 684.8449,600.1492 Q684.1601,601.2158 684.1601,603.3159 Q684.1601,605.4077 684.8449,606.4744 Q685.5297,607.541 686.8744,607.541 Q687.5053,607.541 688.0988,607.2712 Q688.6923,607.0015 689.3231,606.4204 Z "/><text fill="#000000" font-family="sans-serif" font-size="12" lengthAdjust="spacingAndGlyphs" textLength="38" x="706.15" y="607.5352">Tarefa</text><line style="stroke: #A80036; stroke-width: 1.5;" x1="649" x2="770" y1="619" y2="619"/><text fill="#000000" font-family="sans-serif" font-size="11" lengthAdjust="spacingAndGlyphs" textLength="95" x="654" y="633.6348">-String referencia</text><text fill="#000000" font-family="sans-serif" font-size="11" lengthAdjust="spacingAndGlyphs" textLength="102" x="654" y="646.5898">-String designacao</text><text fill="#000000" font-family="sans-serif" font-size="11" lengthAdjust="spacingAndGlyphs" textLength="111" x="654" y="659.5449">-String descInformal</text><text fill="#000000" font-family="sans-serif" font-size="11" lengthAdjust="spacingAndGlyphs" textLength="107" x="654" y="672.5">-String descTecnica</text><text fill="#000000" font-family="sans-serif" font-size="11" lengthAdjust="spacingAndGlyphs" textLength="107" x="654" y="685.4551">-Integer duracaoEst</text><text fill="#000000" font-family="sans-serif" font-size="11" lengthAdjust="spacingAndGlyphs" textLength="93" x="654" y="698.4102">-Double custoEst</text><!--MD5=[d0e9f237fb3c72e1245c36c562ad52c4]
class TipoRegimento--><rect fill="#FEFECE" filter="url(#f5f977nuen2vx)" height="65.9102" id="TipoRegimento" style="stroke: #A80036; stroke-width: 1.5;" width="142" x="1673" y="479"/><ellipse cx="1698.35" cy="495" fill="#ADD1B2" rx="11" ry="11" style="stroke: #A80036; stroke-width: 1.0;"/><path d="M1700.8231,501.1431 Q1700.2421,501.4419 1699.6029,501.5913 Q1698.9638,501.7407 1698.2582,501.7407 Q1695.7514,501.7407 1694.4315,500.0889 Q1693.1117,498.437 1693.1117,495.3159 Q1693.1117,492.1865 1694.4315,490.5347 Q1695.7514,488.8828 1698.2582,488.8828 Q1698.9638,488.8828 1699.6112,489.0322 Q1700.2587,489.1816 1700.8231,489.4805 L1700.8231,492.2031 Q1700.1923,491.6221 1699.5988,491.3523 Q1699.0053,491.0825 1698.3744,491.0825 Q1697.0297,491.0825 1696.3449,492.1492 Q1695.6601,493.2158 1695.6601,495.3159 Q1695.6601,497.4077 1696.3449,498.4744 Q1697.0297,499.541 1698.3744,499.541 Q1699.0053,499.541 1699.5988,499.2712 Q1700.1923,499.0015 1700.8231,498.4204 Z "/><text fill="#000000" font-family="sans-serif" font-size="12" lengthAdjust="spacingAndGlyphs" textLength="87" x="1714.65" y="499.5352">TipoRegimento</text><line style="stroke: #A80036; stroke-width: 1.5;" x1="1674" x2="1814" y1="511" y2="511"/><text fill="#000000" font-family="sans-serif" font-size="11" lengthAdjust="spacingAndGlyphs" textLength="102" x="1679" y="525.6348">-String designacao</text><text fill="#000000" font-family="sans-serif" font-size="11" lengthAdjust="spacingAndGlyphs" textLength="130" x="1679" y="538.5898">-String descricaoRegras</text><!--MD5=[7bb95b5cb1c5d9061d1eedf13c97b467]
class Administrativo--><rect fill="#FEFECE" filter="url(#f5f977nuen2vx)" height="40" id="Administrativo" style="stroke: #A80036; stroke-width: 1.5;" width="114" x="803" y="1161"/><ellipse cx="818" cy="1177" fill="#ADD1B2" rx="11" ry="11" style="stroke: #A80036; stroke-width: 1.0;"/><path d="M820.4731,1183.1431 Q819.8921,1183.4419 819.2529,1183.5913 Q818.6138,1183.7407 817.9082,1183.7407 Q815.4014,1183.7407 814.0815,1182.0889 Q812.7617,1180.437 812.7617,1177.3159 Q812.7617,1174.1865 814.0815,1172.5347 Q815.4014,1170.8828 817.9082,1170.8828 Q818.6138,1170.8828 819.2612,1171.0322 Q819.9087,1171.1816 820.4731,1171.4805 L820.4731,1174.2031 Q819.8423,1173.6221 819.2488,1173.3523 Q818.6553,1173.0825 818.0244,1173.0825 Q816.6797,1173.0825 815.9949,1174.1492 Q815.3101,1175.2158 815.3101,1177.3159 Q815.3101,1179.4077 815.9949,1180.4744 Q816.6797,1181.541 818.0244,1181.541 Q818.6553,1181.541 819.2488,1181.2712 Q819.8423,1181.0015 820.4731,1180.4204 Z "/><text fill="#000000" font-family="sans-serif" font-size="12" lengthAdjust="spacingAndGlyphs" textLength="82" x="832" y="1181.5352">Administrativo</text><line style="stroke: #A80036; stroke-width: 1.5;" x1="804" x2="916" y1="1193" y2="1193"/><!--MD5=[1f687b5315377fe49fca59b457947463]
class Freelancer--><rect fill="#FEFECE" filter="url(#f5f977nuen2vx)" height="91.8203" id="Freelancer" style="stroke: #A80036; stroke-width: 1.5;" width="96" x="2252" y="487"/><ellipse cx="2268.8" cy="503" fill="#ADD1B2" rx="11" ry="11" style="stroke: #A80036; stroke-width: 1.0;"/><path d="M2271.2731,509.1431 Q2270.6921,509.4419 2270.0529,509.5913 Q2269.4138,509.7407 2268.7082,509.7407 Q2266.2014,509.7407 2264.8815,508.0889 Q2263.5617,506.437 2263.5617,503.3159 Q2263.5617,500.1865 2264.8815,498.5347 Q2266.2014,496.8828 2268.7082,496.8828 Q2269.4138,496.8828 2270.0612,497.0322 Q2270.7087,497.1816 2271.2731,497.4805 L2271.2731,500.2031 Q2270.6423,499.6221 2270.0488,499.3523 Q2269.4553,499.0825 2268.8244,499.0825 Q2267.4797,499.0825 2266.7949,500.1492 Q2266.1101,501.2158 2266.1101,503.3159 Q2266.1101,505.4077 2266.7949,506.4744 Q2267.4797,507.541 2268.8244,507.541 Q2269.4553,507.541 2270.0488,507.2712 Q2270.6423,507.0015 2271.2731,506.4204 Z "/><text fill="#000000" font-family="sans-serif" font-size="12" lengthAdjust="spacingAndGlyphs" textLength="60" x="2283.2" y="507.5352">Freelancer</text><line style="stroke: #A80036; stroke-width: 1.5;" x1="2253" x2="2347" y1="519" y2="519"/><text fill="#000000" font-family="sans-serif" font-size="11" lengthAdjust="spacingAndGlyphs" textLength="71" x="2258" y="533.6348">-String nome</text><text fill="#000000" font-family="sans-serif" font-size="11" lengthAdjust="spacingAndGlyphs" textLength="58" x="2258" y="546.5898">-String NIF</text><text fill="#000000" font-family="sans-serif" font-size="11" lengthAdjust="spacingAndGlyphs" textLength="84" x="2258" y="559.5449">-String telefone</text><text fill="#000000" font-family="sans-serif" font-size="11" lengthAdjust="spacingAndGlyphs" textLength="69" x="2258" y="572.5">-String email</text><!--MD5=[df9f144f4e207f6ab4cd6fad6014a9df]
class ReconhecimentoCT--><rect fill="#FEFECE" filter="url(#f5f977nuen2vx)" height="52.9551" id="ReconhecimentoCT" style="stroke: #A80036; stroke-width: 1.5;" width="157" x="2490" y="462.5"/><ellipse cx="2511.75" cy="478.5" fill="#ADD1B2" rx="11" ry="11" style="stroke: #A80036; stroke-width: 1.0;"/><path d="M2514.2231,484.6431 Q2513.6421,484.9419 2513.0029,485.0913 Q2512.3638,485.2407 2511.6582,485.2407 Q2509.1514,485.2407 2507.8315,483.5889 Q2506.5117,481.937 2506.5117,478.8159 Q2506.5117,475.6865 2507.8315,474.0347 Q2509.1514,472.3828 2511.6582,472.3828 Q2512.3638,472.3828 2513.0112,472.5322 Q2513.6587,472.6816 2514.2231,472.9805 L2514.2231,475.7031 Q2513.5923,475.1221 2512.9988,474.8523 Q2512.4053,474.5825 2511.7744,474.5825 Q2510.4297,474.5825 2509.7449,475.6492 Q2509.0601,476.7158 2509.0601,478.8159 Q2509.0601,480.9077 2509.7449,481.9744 Q2510.4297,483.041 2511.7744,483.041 Q2512.4053,483.041 2512.9988,482.7712 Q2513.5923,482.5015 2514.2231,481.9204 Z "/><text fill="#000000" font-family="sans-serif" font-size="12" lengthAdjust="spacingAndGlyphs" textLength="110" x="2527.25" y="483.0352">ReconhecimentoCT</text><line style="stroke: #A80036; stroke-width: 1.5;" x1="2491" x2="2646" y1="494.5" y2="494.5"/><text fill="#000000" font-family="sans-serif" font-size="11" lengthAdjust="spacingAndGlyphs" textLength="145" x="2496" y="509.1348">-Date dataReconhecimento</text><!--MD5=[87602f047bdeda361e6d6669da197818]
class HabilitacaoAcademica--><rect fill="#FEFECE" filter="url(#f5f977nuen2vx)" height="91.8203" id="HabilitacaoAcademica" style="stroke: #A80036; stroke-width: 1.5;" width="159" x="2489" y="551"/><ellipse cx="2504" cy="567" fill="#ADD1B2" rx="11" ry="11" style="stroke: #A80036; stroke-width: 1.0;"/><path d="M2506.4731,573.1431 Q2505.8921,573.4419 2505.2529,573.5913 Q2504.6138,573.7407 2503.9082,573.7407 Q2501.4014,573.7407 2500.0815,572.0889 Q2498.7617,570.437 2498.7617,567.3159 Q2498.7617,564.1865 2500.0815,562.5347 Q2501.4014,560.8828 2503.9082,560.8828 Q2504.6138,560.8828 2505.2612,561.0322 Q2505.9087,561.1816 2506.4731,561.4805 L2506.4731,564.2031 Q2505.8423,563.6221 2505.2488,563.3523 Q2504.6553,563.0825 2504.0244,563.0825 Q2502.6797,563.0825 2501.9949,564.1492 Q2501.3101,565.2158 2501.3101,567.3159 Q2501.3101,569.4077 2501.9949,570.4744 Q2502.6797,571.541 2504.0244,571.541 Q2504.6553,571.541 2505.2488,571.2712 Q2505.8423,571.0015 2506.4731,570.4204 Z "/><text fill="#000000" font-family="sans-serif" font-size="12" lengthAdjust="spacingAndGlyphs" textLength="127" x="2518" y="571.5352">HabilitacaoAcademica</text><line style="stroke: #A80036; stroke-width: 1.5;" x1="2490" x2="2647" y1="583" y2="583"/><text fill="#000000" font-family="sans-serif" font-size="11" lengthAdjust="spacingAndGlyphs" textLength="66" x="2495" y="597.6348">-String grau</text><text fill="#000000" font-family="sans-serif" font-size="11" lengthAdjust="spacingAndGlyphs" textLength="135" x="2495" y="610.5898">-String designacaoCurso</text><text fill="#000000" font-family="sans-serif" font-size="11" lengthAdjust="spacingAndGlyphs" textLength="127" x="2495" y="623.5449">-String nomeInstituicao</text><text fill="#000000" font-family="sans-serif" font-size="11" lengthAdjust="spacingAndGlyphs" textLength="112" x="2495" y="636.5">-Double mediaCurso</text><path d="M2831,561.5 L2831,593 L2648.24,597 L2831,601 L2831,632.7422 A0,0 0 0 0 2831,632.7422 L3142,632.7422 A0,0 0 0 0 3142,632.7422 L3142,571.5 L3132,561.5 L2831,561.5 A0,0 0 0 0 2831,561.5 " fill="#FBFB77" filter="url(#f5f977nuen2vx)" style="stroke: #A80036; stroke-width: 1.0;"/><path d="M3132,561.5 L3132,571.5 L3142,571.5 L3132,561.5 " fill="#FBFB77" style="stroke: #A80036; stroke-width: 1.0;"/><text fill="#000000" font-family="sans-serif" font-size="13" lengthAdjust="spacingAndGlyphs" textLength="231" x="2837" y="579.0684">Por simplificação, não se considerou</text><text fill="#000000" font-family="sans-serif" font-size="13" lengthAdjust="spacingAndGlyphs" textLength="264" x="2837" y="594.3789">Instituição, Curso e Grau como conceitos.</text><text fill="#000000" font-family="sans-serif" font-size="13" lengthAdjust="spacingAndGlyphs" textLength="251" x="2837" y="609.6895">Contudo, tal poderá ser feito mais tarde</text><text fill="#000000" font-family="sans-serif" font-size="13" lengthAdjust="spacingAndGlyphs" textLength="290" x="2837" y="625">se se vier a revelar importante para o negócio.</text><!--MD5=[19db0db7353a4bf63eefc676e5ba9b80]
class Anuncio--><rect fill="#FEFECE" filter="url(#f5f977nuen2vx)" height="117.7305" id="Anuncio" style="stroke: #A80036; stroke-width: 1.5;" width="151" x="949" y="587"/><ellipse cx="997.75" cy="603" fill="#ADD1B2" rx="11" ry="11" style="stroke: #A80036; stroke-width: 1.0;"/><path d="M1000.2231,609.1431 Q999.6421,609.4419 999.0029,609.5913 Q998.3638,609.7407 997.6582,609.7407 Q995.1514,609.7407 993.8315,608.0889 Q992.5117,606.437 992.5117,603.3159 Q992.5117,600.1865 993.8315,598.5347 Q995.1514,596.8828 997.6582,596.8828 Q998.3638,596.8828 999.0112,597.0322 Q999.6587,597.1816 1000.2231,597.4805 L1000.2231,600.2031 Q999.5923,599.6221 998.9988,599.3523 Q998.4053,599.0825 997.7744,599.0825 Q996.4297,599.0825 995.7449,600.1492 Q995.0601,601.2158 995.0601,603.3159 Q995.0601,605.4077 995.7449,606.4744 Q996.4297,607.541 997.7744,607.541 Q998.4053,607.541 998.9988,607.2712 Q999.5923,607.0015 1000.2231,606.4204 Z "/><text fill="#000000" font-family="sans-serif" font-size="12" lengthAdjust="spacingAndGlyphs" textLength="45" x="1018.25" y="607.5352">Anuncio</text><line style="stroke: #A80036; stroke-width: 1.5;" x1="950" x2="1099" y1="619" y2="619"/><text fill="#000000" font-family="sans-serif" font-size="11" lengthAdjust="spacingAndGlyphs" textLength="137" x="955" y="633.6348">-Date dtInicioPublicitacao</text><text fill="#000000" font-family="sans-serif" font-size="11" lengthAdjust="spacingAndGlyphs" textLength="127" x="955" y="646.5898">-Date dtFimPublicitacao</text><text fill="#000000" font-family="sans-serif" font-size="11" lengthAdjust="spacingAndGlyphs" textLength="139" x="955" y="659.5449">-Date dtInicioCandidatura</text><text fill="#000000" font-family="sans-serif" font-size="11" lengthAdjust="spacingAndGlyphs" textLength="129" x="955" y="672.5">-Date dtFimCandidatura</text><text fill="#000000" font-family="sans-serif" font-size="11" lengthAdjust="spacingAndGlyphs" textLength="118" x="955" y="685.4551">-Date dtInicioSeriacao</text><text fill="#000000" font-family="sans-serif" font-size="11" lengthAdjust="spacingAndGlyphs" textLength="108" x="955" y="698.4102">-Date dtFimSeriacao</text><!--MD5=[475c5b924ed41035684e2831311827d2]
class Candidatura--><rect fill="#FEFECE" filter="url(#f5f977nuen2vx)" height="104.7754" id="Candidatura" style="stroke: #A80036; stroke-width: 1.5;" width="144" x="1930" y="545.5"/><ellipse cx="1963.45" cy="561.5" fill="#ADD1B2" rx="11" ry="11" style="stroke: #A80036; stroke-width: 1.0;"/><path d="M1965.9231,567.6431 Q1965.3421,567.9419 1964.7029,568.0913 Q1964.0638,568.2407 1963.3582,568.2407 Q1960.8514,568.2407 1959.5315,566.5889 Q1958.2117,564.937 1958.2117,561.8159 Q1958.2117,558.6865 1959.5315,557.0347 Q1960.8514,555.3828 1963.3582,555.3828 Q1964.0638,555.3828 1964.7112,555.5322 Q1965.3587,555.6816 1965.9231,555.9805 L1965.9231,558.7031 Q1965.2923,558.1221 1964.6988,557.8523 Q1964.1053,557.5825 1963.4744,557.5825 Q1962.1297,557.5825 1961.4449,558.6492 Q1960.7601,559.7158 1960.7601,561.8159 Q1960.7601,563.9077 1961.4449,564.9744 Q1962.1297,566.041 1963.4744,566.041 Q1964.1053,566.041 1964.6988,565.7712 Q1965.2923,565.5015 1965.9231,564.9204 Z "/><text fill="#000000" font-family="sans-serif" font-size="12" lengthAdjust="spacingAndGlyphs" textLength="71" x="1981.55" y="566.0352">Candidatura</text><line style="stroke: #A80036; stroke-width: 1.5;" x1="1931" x2="2073" y1="577.5" y2="577.5"/><text fill="#000000" font-family="sans-serif" font-size="11" lengthAdjust="spacingAndGlyphs" textLength="122" x="1936" y="592.1348">-Date dataCandidatura</text><text fill="#000000" font-family="sans-serif" font-size="11" lengthAdjust="spacingAndGlyphs" textLength="132" x="1936" y="605.0898">-Double valorPretendido</text><text fill="#000000" font-family="sans-serif" font-size="11" lengthAdjust="spacingAndGlyphs" textLength="82" x="1936" y="618.0449">-Integer nrDias</text><text fill="#000000" font-family="sans-serif" font-size="11" lengthAdjust="spacingAndGlyphs" textLength="130" x="1936" y="631">-String txtApresentacao</text><text fill="#000000" font-family="sans-serif" font-size="11" lengthAdjust="spacingAndGlyphs" textLength="110" x="1936" y="643.9551">-String txtMotivacao</text><!--MD5=[716bba0e94eea125d5a66a891f2c3c34]
class Classificacao--><rect fill="#FEFECE" filter="url(#f5f977nuen2vx)" height="52.9551" id="Classificacao" style="stroke: #A80036; stroke-width: 1.5;" width="105" x="1691.5" y="668.5"/><ellipse cx="1706.5" cy="684.5" fill="#ADD1B2" rx="11" ry="11" style="stroke: #A80036; stroke-width: 1.0;"/><path d="M1708.9731,690.6431 Q1708.3921,690.9419 1707.7529,691.0913 Q1707.1138,691.2407 1706.4082,691.2407 Q1703.9014,691.2407 1702.5815,689.5889 Q1701.2617,687.937 1701.2617,684.8159 Q1701.2617,681.6865 1702.5815,680.0347 Q1703.9014,678.3828 1706.4082,678.3828 Q1707.1138,678.3828 1707.7612,678.5322 Q1708.4087,678.6816 1708.9731,678.9805 L1708.9731,681.7031 Q1708.3423,681.1221 1707.7488,680.8523 Q1707.1553,680.5825 1706.5244,680.5825 Q1705.1797,680.5825 1704.4949,681.6492 Q1703.8101,682.7158 1703.8101,684.8159 Q1703.8101,686.9077 1704.4949,687.9744 Q1705.1797,689.041 1706.5244,689.041 Q1707.1553,689.041 1707.7488,688.7712 Q1708.3423,688.5015 1708.9731,687.9204 Z "/><text fill="#000000" font-family="sans-serif" font-size="12" lengthAdjust="spacingAndGlyphs" textLength="73" x="1720.5" y="689.0352">Classificacao</text><line style="stroke: #A80036; stroke-width: 1.5;" x1="1692.5" x2="1795.5" y1="700.5" y2="700.5"/><text fill="#000000" font-family="sans-serif" font-size="11" lengthAdjust="spacingAndGlyphs" textLength="75" x="1697.5" y="715.1348">-Integer lugar</text><!--MD5=[aca0f236260d30190baee83e33cc7802]
class ProcessoSeriacao--><rect fill="#FEFECE" filter="url(#f5f977nuen2vx)" height="52.9551" id="ProcessoSeriacao" style="stroke: #A80036; stroke-width: 1.5;" width="131" x="1278" y="679.5"/><ellipse cx="1293" cy="695.5" fill="#ADD1B2" rx="11" ry="11" style="stroke: #A80036; stroke-width: 1.0;"/><path d="M1295.4731,701.6431 Q1294.8921,701.9419 1294.2529,702.0913 Q1293.6138,702.2407 1292.9082,702.2407 Q1290.4014,702.2407 1289.0815,700.5889 Q1287.7617,698.937 1287.7617,695.8159 Q1287.7617,692.6865 1289.0815,691.0347 Q1290.4014,689.3828 1292.9082,689.3828 Q1293.6138,689.3828 1294.2612,689.5322 Q1294.9087,689.6816 1295.4731,689.9805 L1295.4731,692.7031 Q1294.8423,692.1221 1294.2488,691.8523 Q1293.6553,691.5825 1293.0244,691.5825 Q1291.6797,691.5825 1290.9949,692.6492 Q1290.3101,693.7158 1290.3101,695.8159 Q1290.3101,697.9077 1290.9949,698.9744 Q1291.6797,700.041 1293.0244,700.041 Q1293.6553,700.041 1294.2488,699.7712 Q1294.8423,699.5015 1295.4731,698.9204 Z "/><text fill="#000000" font-family="sans-serif" font-size="12" lengthAdjust="spacingAndGlyphs" textLength="99" x="1307" y="700.0352">ProcessoSeriacao</text><line style="stroke: #A80036; stroke-width: 1.5;" x1="1279" x2="1408" y1="711.5" y2="711.5"/><text fill="#000000" font-family="sans-serif" font-size="11" lengthAdjust="spacingAndGlyphs" textLength="112" x="1284" y="726.1348">-Date dataRealizacao</text><!--MD5=[5dd1d6732c071e710b9290b531f2fa3b]
class Utilizador--><rect fill="#FEFECE" filter="url(#f5f977nuen2vx)" height="78.8652" id="Utilizador" style="stroke: #A80036; stroke-width: 1.5;" width="105" x="2516" y="1008.5"/><ellipse cx="2539.1" cy="1024.5" fill="#ADD1B2" rx="11" ry="11" style="stroke: #A80036; stroke-width: 1.0;"/><path d="M2541.5731,1030.6431 Q2540.9921,1030.9419 2540.3529,1031.0913 Q2539.7138,1031.2407 2539.0082,1031.2407 Q2536.5014,1031.2407 2535.1815,1029.5889 Q2533.8617,1027.937 2533.8617,1024.8159 Q2533.8617,1021.6865 2535.1815,1020.0347 Q2536.5014,1018.3828 2539.0082,1018.3828 Q2539.7138,1018.3828 2540.3612,1018.5322 Q2541.0087,1018.6816 2541.5731,1018.9805 L2541.5731,1021.7031 Q2540.9423,1021.1221 2540.3488,1020.8523 Q2539.7553,1020.5825 2539.1244,1020.5825 Q2537.7797,1020.5825 2537.0949,1021.6492 Q2536.4101,1022.7158 2536.4101,1024.8159 Q2536.4101,1026.9077 2537.0949,1027.9744 Q2537.7797,1029.041 2539.1244,1029.041 Q2539.7553,1029.041 2540.3488,1028.7712 Q2540.9423,1028.5015 2541.5731,1027.9204 Z "/><text fill="#000000" font-family="sans-serif" font-size="12" lengthAdjust="spacingAndGlyphs" textLength="55" x="2554.9" y="1029.0352">Utilizador</text><line style="stroke: #A80036; stroke-width: 1.5;" x1="2517" x2="2620" y1="1040.5" y2="1040.5"/><text fill="#000000" font-family="sans-serif" font-size="11" lengthAdjust="spacingAndGlyphs" textLength="71" x="2522" y="1055.1348">-String nome</text><text fill="#000000" font-family="sans-serif" font-size="11" lengthAdjust="spacingAndGlyphs" textLength="69" x="2522" y="1068.0898">-String email</text><text fill="#000000" font-family="sans-serif" font-size="11" lengthAdjust="spacingAndGlyphs" textLength="93" x="2522" y="1081.0449">-String password</text><!--MD5=[37bf6c08f758502d5d1a5531d651ab43]
class AlgoritmoGeradorPasswords--><rect fill="#FEFECE" filter="url(#f5f977nuen2vx)" height="40" id="AlgoritmoGeradorPasswords" style="stroke: #A80036; stroke-width: 1.5;" width="196" x="422" y="1068"/><ellipse cx="437" cy="1084" fill="#ADD1B2" rx="11" ry="11" style="stroke: #A80036; stroke-width: 1.0;"/><path d="M439.4731,1090.1431 Q438.8921,1090.4419 438.2529,1090.5913 Q437.6138,1090.7407 436.9082,1090.7407 Q434.4014,1090.7407 433.0815,1089.0889 Q431.7617,1087.437 431.7617,1084.3159 Q431.7617,1081.1865 433.0815,1079.5347 Q434.4014,1077.8828 436.9082,1077.8828 Q437.6138,1077.8828 438.2612,1078.0322 Q438.9087,1078.1816 439.4731,1078.4805 L439.4731,1081.2031 Q438.8423,1080.6221 438.2488,1080.3523 Q437.6553,1080.0825 437.0244,1080.0825 Q435.6797,1080.0825 434.9949,1081.1492 Q434.3101,1082.2158 434.3101,1084.3159 Q434.3101,1086.4077 434.9949,1087.4744 Q435.6797,1088.541 437.0244,1088.541 Q437.6553,1088.541 438.2488,1088.2712 Q438.8423,1088.0015 439.4731,1087.4204 Z "/><text fill="#000000" font-family="sans-serif" font-size="12" lengthAdjust="spacingAndGlyphs" textLength="164" x="451" y="1088.5352">AlgoritmoGeradorPasswords</text><line style="stroke: #A80036; stroke-width: 1.5;" x1="423" x2="617" y1="1100" y2="1100"/><ellipse cx="2568.5" cy="268" fill="#000000" rx="2" ry="2" style="stroke: none; stroke-width: 1.0;"/><!--MD5=[718b46c9a1975c175f4073d63ce5ccba]
link Plataforma to AreaAtividade--><path d="M67.31,335.37 C74.48,287.9 95.41,187.74 150,125 C212.39,53.31 243.97,25 339,25 C339,25 339,25 2987.5,25 C3122.25,25 3268.09,92.32 3349.69,136.76 " fill="none" id="Plataforma-AreaAtividade" style="stroke: #A80036; stroke-width: 1.0;"/><text fill="#000000" font-family="sans-serif" font-size="13" lengthAdjust="spacingAndGlyphs" textLength="42" x="1716.5" y="21.5684">possui</text><polygon fill="#000000" points="1761.5,15.1553,1767.5,18.1553,1761.5,21.1553,1761.5,15.1553" style="stroke: #000000; stroke-width: 1.0;"/><text fill="#000000" font-family="sans-serif" font-size="13" lengthAdjust="spacingAndGlyphs" textLength="8" x="59.3856" y="324.6625">1</text><text fill="#000000" font-family="sans-serif" font-size="13" lengthAdjust="spacingAndGlyphs" textLength="6" x="3336.1639" y="145.9905">*</text><!--MD5=[a77d152358ce76c19672aacd9fb0ada1]
link Plataforma to CompetenciaTecnica--><path d="M69.96,335.24 C79.96,296.28 103.73,224.04 150,182 C216.18,121.86 249.58,113 339,113 C339,113 339,113 2569.5,113 C2730.31,113 2883.02,251.41 2949.99,321.43 " fill="none" id="Plataforma-CompetenciaTecnica" style="stroke: #A80036; stroke-width: 1.0;"/><text fill="#000000" font-family="sans-serif" font-size="13" lengthAdjust="spacingAndGlyphs" textLength="42" x="1513.5" y="109.5684">possui</text><polygon fill="#000000" points="1558.5,103.1553,1564.5,106.1553,1558.5,109.1553,1558.5,103.1553" style="stroke: #000000; stroke-width: 1.0;"/><text fill="#000000" font-family="sans-serif" font-size="13" lengthAdjust="spacingAndGlyphs" textLength="8" x="72.4945" y="324.9268">1</text><text fill="#000000" font-family="sans-serif" font-size="13" lengthAdjust="spacingAndGlyphs" textLength="6" x="2936.9523" y="310.6537">*</text><!--MD5=[cb8556493ec2c94f9603162dd119feba]
link Plataforma to Categoria--><path d="M74.01,335.38 C86.88,304.9 112.16,255.74 150,229 C220.51,179.16 252.65,184 339,184 C339,184 339,184 861,184 C958.81,184 1072.09,200.11 1136.37,210.78 " fill="none" id="Plataforma-Categoria" style="stroke: #A80036; stroke-width: 1.0;"/><text fill="#000000" font-family="sans-serif" font-size="13" lengthAdjust="spacingAndGlyphs" textLength="42" x="492.5" y="180.5684">possui</text><polygon fill="#000000" points="537.5,174.1553,543.5,177.1553,537.5,180.1553,537.5,174.1553" style="stroke: #000000; stroke-width: 1.0;"/><text fill="#000000" font-family="sans-serif" font-size="13" lengthAdjust="spacingAndGlyphs" textLength="8" x="77.6687" y="324.6749">1</text><text fill="#000000" font-family="sans-serif" font-size="13" lengthAdjust="spacingAndGlyphs" textLength="6" x="1122.547" y="223.1346">*</text><!--MD5=[1c2ad462e362697fcdc859a6327d55c7]
link Plataforma to Organizacao--><path d="M75.17,388.7 C89.31,420.35 115.98,473.51 150,511 C190.11,555.19 247.01,593.41 287.88,617.79 " fill="none" id="Plataforma-Organizacao" style="stroke: #A80036; stroke-width: 1.0;"/><text fill="#000000" font-family="sans-serif" font-size="13" lengthAdjust="spacingAndGlyphs" textLength="93" x="151" y="507.5684">tem registadas</text><polygon fill="#000000" points="193,516.3105,196,522.3105,199,516.3105,193,516.3105" style="stroke: #000000; stroke-width: 1.0;"/><text fill="#000000" font-family="sans-serif" font-size="13" lengthAdjust="spacingAndGlyphs" textLength="8" x="78.9093" y="409.2182">1</text><text fill="#000000" font-family="sans-serif" font-size="13" lengthAdjust="spacingAndGlyphs" textLength="6" x="274.1287" y="627.4836">*</text><!--MD5=[956ecced288de5de0c5f024757c210bf]
link Plataforma to TipoRegimento--><path d="M104.97,388.75 C157.11,420.15 250.99,468 339,468 C339,468 339,468 1344.5,468 C1460.04,468 1593.3,486.5 1672.71,499.51 " fill="none" id="Plataforma-TipoRegimento" style="stroke: #A80036; stroke-width: 1.0;"/><text fill="#000000" font-family="sans-serif" font-size="13" lengthAdjust="spacingAndGlyphs" textLength="48" x="829.5" y="464.5684">suporta</text><polygon fill="#000000" points="880.5,458.1553,886.5,461.1553,880.5,464.1553,880.5,458.1553" style="stroke: #000000; stroke-width: 1.0;"/><text fill="#000000" font-family="sans-serif" font-size="13" lengthAdjust="spacingAndGlyphs" textLength="8" x="105.2759" y="408.8494">1</text><text fill="#000000" font-family="sans-serif" font-size="13" lengthAdjust="spacingAndGlyphs" textLength="6" x="1659.0488" y="511.5844">*</text><!--MD5=[39c0de7668d8063a4eb96c23050b3de2]
link Plataforma to Freelancer--><path d="M104.48,335.28 C156.49,303.58 250.63,255 339,255 C339,255 339,255 861,255 C981.4,255 1010.29,274.19 1130,287 C1312.01,306.48 1356.96,326 1540,326 C1540,326 1540,326 2003,326 C2114.46,326 2213.84,425.8 2264.18,486.8 " fill="none" id="Plataforma-Freelancer" style="stroke: #A80036; stroke-width: 1.0;"/><text fill="#000000" font-family="sans-serif" font-size="13" lengthAdjust="spacingAndGlyphs" textLength="53" x="1156" y="283.5684">tem/usa</text><polygon fill="#000000" points="1212,277.1553,1218,280.1553,1212,283.1553,1212,277.1553" style="stroke: #000000; stroke-width: 1.0;"/><text fill="#000000" font-family="sans-serif" font-size="13" lengthAdjust="spacingAndGlyphs" textLength="8" x="105.6158" y="324.5506">1</text><text fill="#000000" font-family="sans-serif" font-size="13" lengthAdjust="spacingAndGlyphs" textLength="6" x="2252.2357" y="476.1831">*</text><!--MD5=[b585ec1f109bee2e6a0accf9e50b3199]
link Plataforma to Administrativo--><path d="M64.08,388.67 C65.23,465.87 75.18,694.9 150,865 C190.31,956.63 213.6,976.03 288,1043 C340.07,1089.87 355.95,1102.65 422,1126 C552.85,1172.27 717.82,1180.58 802.76,1181.49 " fill="none" id="Plataforma-Administrativo" style="stroke: #A80036; stroke-width: 1.0;"/><text fill="#000000" font-family="sans-serif" font-size="13" lengthAdjust="spacingAndGlyphs" textLength="24" x="321.5" y="1039.5684">tem</text><polygon fill="#000000" points="329,1048.3105,332,1054.3105,335,1048.3105,329,1048.3105" style="stroke: #000000; stroke-width: 1.0;"/><text fill="#000000" font-family="sans-serif" font-size="13" lengthAdjust="spacingAndGlyphs" textLength="8" x="55.4048" y="409.1813">1</text><text fill="#000000" font-family="sans-serif" font-size="13" lengthAdjust="spacingAndGlyphs" textLength="6" x="789.0418" y="1195.102">*</text><!--MD5=[49996cf4319f45f78007483382b2a228]
link Plataforma to AlgoritmoGeradorPasswords--><path d="M70.44,388.77 C82.56,437.02 111.08,541.13 150,623 C246.29,825.54 249.94,904.16 422,1048 C431.57,1056 442.97,1062.59 454.52,1067.94 " fill="none" id="Plataforma-AlgoritmoGeradorPasswords" style="stroke: #A80036; stroke-width: 1.0;"/><text fill="#000000" font-family="sans-serif" font-size="13" lengthAdjust="spacingAndGlyphs" textLength="55" x="170" y="619.5684">recorre a</text><polygon fill="#000000" points="193,628.3105,196,634.3105,199,628.3105,193,628.3105" style="stroke: #000000; stroke-width: 1.0;"/><text fill="#000000" font-family="sans-serif" font-size="13" lengthAdjust="spacingAndGlyphs" textLength="8" x="63.1925" y="408.8738">1</text><text fill="#000000" font-family="sans-serif" font-size="13" lengthAdjust="spacingAndGlyphs" textLength="8" x="425.2417" y="1057.1157">1</text><!--MD5=[567db691f9836c63f305bad1024cbc66]
link Organizacao to Colaborador--><path d="M347.77,698.53 C359.13,778.44 384.56,925.09 422,961 C515.97,1051.11 578.31,1022 708.5,1022 C708.5,1022 708.5,1022 1344.5,1022 C1479.16,1022 1517.15,1017.91 1643,970 C1659.7,963.64 1676.67,954.39 1691.77,944.96 " fill="none" id="Organizacao-Colaborador" style="stroke: #A80036; stroke-width: 1.0;"/><text fill="#000000" font-family="sans-serif" font-size="13" lengthAdjust="spacingAndGlyphs" textLength="24" x="1006" y="1018.5684">tem</text><polygon fill="#000000" points="1033,1012.1553,1039,1015.1553,1033,1018.1553,1033,1012.1553" style="stroke: #000000; stroke-width: 1.0;"/><text fill="#000000" font-family="sans-serif" font-size="13" lengthAdjust="spacingAndGlyphs" textLength="8" x="340.253" y="718.824">1</text><text fill="#000000" font-family="sans-serif" font-size="13" lengthAdjust="spacingAndGlyphs" textLength="22" x="1662.0638" y="962.9768">1..*</text><!--MD5=[567db691f9836c63f305bad1024cbc66]
link Organizacao to Colaborador--><path d="M392.04,661.83 C547.33,709.08 1028.52,848.9 1439,898 C1527.48,908.58 1631.4,909.56 1691.97,909 " fill="none" id="Organizacao-Colaborador-1" style="stroke: #A80036; stroke-width: 1.0;"/><text fill="#000000" font-family="sans-serif" font-size="13" lengthAdjust="spacingAndGlyphs" textLength="68" x="984" y="807.5684">tem gestor</text><polygon fill="#000000" points="1055,801.1553,1061,804.1553,1055,807.1553,1055,801.1553" style="stroke: #000000; stroke-width: 1.0;"/><text fill="#000000" font-family="sans-serif" font-size="13" lengthAdjust="spacingAndGlyphs" textLength="8" x="399.9206" y="677.7168">1</text><text fill="#000000" font-family="sans-serif" font-size="13" lengthAdjust="spacingAndGlyphs" textLength="8" x="1676.0908" y="922.7981">1</text><!--MD5=[ca49ec1e86bb5e8c049c02c54bfc3088]
link Organizacao to EnderecoPostal--><path d="M382,593.5 C444.1,520.44 569.59,397 708.5,397 C708.5,397 708.5,397 2301,397 C2372.29,397 2454.25,393.74 2508.24,391.15 " fill="none" id="Organizacao-EnderecoPostal" style="stroke: #A80036; stroke-width: 1.0;"/><text fill="#000000" font-family="sans-serif" font-size="13" lengthAdjust="spacingAndGlyphs" textLength="86" x="1491.5" y="393.5684">localizada em</text><polygon fill="#000000" points="1580.5,387.1553,1586.5,390.1553,1580.5,393.1553,1580.5,387.1553" style="stroke: #000000; stroke-width: 1.0;"/><text fill="#000000" font-family="sans-serif" font-size="13" lengthAdjust="spacingAndGlyphs" textLength="24" x="362.2188" y="582.6685">0..1</text><text fill="#000000" font-family="sans-serif" font-size="13" lengthAdjust="spacingAndGlyphs" textLength="8" x="2492.4083" y="405.0435">1</text><!--MD5=[cf2deab2ed1f09cef5b70f58ef028e55]
link Organizacao to Tarefa--><path d="M392.1,646 C459.06,646 576.33,646 647.76,646 " fill="none" id="Organizacao-Tarefa" style="stroke: #A80036; stroke-width: 1.0;"/><text fill="#000000" font-family="sans-serif" font-size="13" lengthAdjust="spacingAndGlyphs" textLength="42" x="492.5" y="642.5684">possui</text><polygon fill="#000000" points="537.5,636.1553,543.5,639.1553,537.5,642.1553,537.5,636.1553" style="stroke: #000000; stroke-width: 1.0;"/><text fill="#000000" font-family="sans-serif" font-size="13" lengthAdjust="spacingAndGlyphs" textLength="8" x="399.9891" y="659.6607">1</text><text fill="#000000" font-family="sans-serif" font-size="13" lengthAdjust="spacingAndGlyphs" textLength="6" x="633.8698" y="659.5178">*</text><!--MD5=[e538c9efa8de58386edc6206f3c58807]
link CompetenciaTecnica to AreaAtividade--><path d="M3062.2,361.15 C3146.83,360.03 3278.42,353.96 3320,328 C3361.44,302.12 3387.53,250.7 3401.55,214.64 " fill="none" id="CompetenciaTecnica-AreaAtividade" style="stroke: #A80036; stroke-width: 1.0;"/><text fill="#000000" font-family="sans-serif" font-size="13" lengthAdjust="spacingAndGlyphs" textLength="67" x="3206" y="324.5684">referente a</text><polygon fill="#000000" points="3276,318.1553,3282,321.1553,3276,324.1553,3276,318.1553" style="stroke: #000000; stroke-width: 1.0;"/><text fill="#000000" font-family="sans-serif" font-size="13" lengthAdjust="spacingAndGlyphs" textLength="6" x="3069.947" y="374.4933">*</text><text fill="#000000" font-family="sans-serif" font-size="13" lengthAdjust="spacingAndGlyphs" textLength="8" x="3390.577" y="235.0528">1</text><!--MD5=[0d731ff285a62a08178b23be6cceb109]
link CompetenciaTecnica to GrauProficiencia--><path d="M3062.11,363.66 C3185.11,368.06 3428.14,376.74 3541.97,380.8 " fill="none" id="CompetenciaTecnica-GrauProficiencia" style="stroke: #A80036; stroke-width: 1.0;"/><text fill="#000000" font-family="sans-serif" font-size="13" lengthAdjust="spacingAndGlyphs" textLength="37" x="3390.5" y="371.5684">aplica</text><polygon fill="#000000" points="3430.5,365.1553,3436.5,368.1553,3430.5,371.1553,3430.5,365.1553" style="stroke: #000000; stroke-width: 1.0;"/><text fill="#000000" font-family="sans-serif" font-size="13" lengthAdjust="spacingAndGlyphs" textLength="8" x="3069.9466" y="360.7738">1</text><text fill="#000000" font-family="sans-serif" font-size="13" lengthAdjust="spacingAndGlyphs" textLength="6" x="3527.9835" y="394.0387">*</text><!--MD5=[333932e5e4606ec9852f0cecc179b212]
link Categoria to AreaAtividade--><path d="M1241.72,211.33 C1309.86,200.68 1433.56,184 1540,184 C1540,184 1540,184 2987.5,184 C3115.96,184 3266.12,179.88 3349.76,177.21 " fill="none" id="Categoria-AreaAtividade" style="stroke: #A80036; stroke-width: 1.0;"/><text fill="#000000" font-family="sans-serif" font-size="13" lengthAdjust="spacingAndGlyphs" textLength="103" x="2105" y="180.5684">enquadra-se em</text><polygon fill="#000000" points="2211,174.1553,2217,177.1553,2211,180.1553,2211,174.1553" style="stroke: #000000; stroke-width: 1.0;"/><text fill="#000000" font-family="sans-serif" font-size="13" lengthAdjust="spacingAndGlyphs" textLength="6" x="1249.5556" y="223.762">*</text><text fill="#000000" font-family="sans-serif" font-size="13" lengthAdjust="spacingAndGlyphs" textLength="8" x="3334.1322" y="190.8647">1</text><!--MD5=[eb04ee5ee1d7d78b80da51b5c1e466c3]
link Categoria to apoint13088--><path d="M1241.73,228.43 C1309.88,238.78 1433.59,255 1540,255 C1540,255 1540,255 2301,255 C2413.1,255 2551.41,266.62 2566.2,267.89 " fill="none" id="Categoria-apoint13088" style="stroke: #A80036; stroke-width: 1.0;"/><text fill="#000000" font-family="sans-serif" font-size="13" lengthAdjust="spacingAndGlyphs" textLength="40" x="1846" y="251.5684">requer</text><polygon fill="#000000" points="1889,245.1553,1895,248.1553,1889,251.1553,1889,245.1553" style="stroke: #000000; stroke-width: 1.0;"/><text fill="#000000" font-family="sans-serif" font-size="13" lengthAdjust="spacingAndGlyphs" textLength="6" x="1249.567" y="243.2667">*</text><!--MD5=[bca0c5ff708c4e23cdd2fbbee58e5270]
link apoint13088 to CompetenciaTecnica--><path d="M2570.54,268.5 C2578.61,272.34 2632.02,297.43 2678,310 C2756.17,331.37 2848.11,345.19 2910.96,352.98 " fill="none" id="apoint13088-CompetenciaTecnica" style="stroke: #A80036; stroke-width: 1.0;"/><text fill="#000000" font-family="sans-serif" font-size="13" lengthAdjust="spacingAndGlyphs" textLength="6" x="2896.8606" y="365.5177">*</text><!--MD5=[4594b647011331d5dbcfbcbcf71854bd]
link apoint13088 to CaraterCT--><path d="M2570.58,268 C2578.84,268 2632.99,268 2677.59,268 " fill="none" id="apoint13088-CaraterCT" style="stroke: #A80036; stroke-width: 1.0; stroke-dasharray: 7.0,7.0;"/><!--MD5=[8c0835971d966be6a8d860f4ee2f4601]
link CaraterCT to GrauProficiencia--><path d="M2801.36,268.65 C2907.35,270.54 3132.41,277.95 3320,307 C3397.8,319.05 3484.95,344.24 3541.83,362.31 " fill="none" id="CaraterCT-GrauProficiencia" style="stroke: #A80036; stroke-width: 1.0;"/><text fill="#000000" font-family="sans-serif" font-size="13" lengthAdjust="spacingAndGlyphs" textLength="133" x="3173" y="285.5684">exige (como mínimo)</text><polygon fill="#000000" points="3309,279.1553,3315,282.1553,3309,285.1553,3309,279.1553" style="stroke: #000000; stroke-width: 1.0;"/><text fill="#000000" font-family="sans-serif" font-size="13" lengthAdjust="spacingAndGlyphs" textLength="6" x="2808.8594" y="282.1813">*</text><text fill="#000000" font-family="sans-serif" font-size="13" lengthAdjust="spacingAndGlyphs" textLength="8" x="3526.1213" y="373.3764">1</text><!--MD5=[cc2561a0285988b367253361d2d1973d]
link Tarefa to Categoria--><path d="M726.09,586.67 C739.98,542.93 763.92,484.12 801,443 C896.67,336.89 1055.1,268 1136.39,237.73 " fill="none" id="Tarefa-Categoria" style="stroke: #A80036; stroke-width: 1.0;"/><text fill="#000000" font-family="sans-serif" font-size="13" lengthAdjust="spacingAndGlyphs" textLength="103" x="802" y="345.5684">enquadra-se em</text><polygon fill="#000000" points="908,339.1553,914,342.1553,908,345.1553,908,339.1553" style="stroke: #000000; stroke-width: 1.0;"/><text fill="#000000" font-family="sans-serif" font-size="13" lengthAdjust="spacingAndGlyphs" textLength="6" x="721.7463" y="576.1288">*</text><text fill="#000000" font-family="sans-serif" font-size="13" lengthAdjust="spacingAndGlyphs" textLength="8" x="1120.4292" y="253.8745">1</text><!--MD5=[ebe0b2adceebb6ee2636cb1948c7c8a9]
link Tarefa to Colaborador--><path d="M771.24,665.74 C819.41,681.37 888.48,703.7 949,723 C1029.35,748.62 1048.62,757.87 1130,780 C1265.98,816.97 1301.06,822.23 1439,851 C1527.57,869.47 1631.25,888.32 1691.78,899.05 " fill="none" id="Tarefa-Colaborador" style="stroke: #A80036; stroke-width: 1.0;"/><text fill="#000000" font-family="sans-serif" font-size="13" lengthAdjust="spacingAndGlyphs" textLength="103" x="1131" y="776.5684">especificada por</text><polygon fill="#000000" points="1237,770.1553,1243,773.1553,1237,776.1553,1237,770.1553" style="stroke: #000000; stroke-width: 1.0;"/><text fill="#000000" font-family="sans-serif" font-size="13" lengthAdjust="spacingAndGlyphs" textLength="6" x="779.1302" y="681.6636">*</text><text fill="#000000" font-family="sans-serif" font-size="13" lengthAdjust="spacingAndGlyphs" textLength="8" x="1675.8741" y="894.3395">1</text><!--MD5=[35fae5763b5ac085aad1a803f88e2b95]
link Tarefa to Anuncio--><path d="M771.22,646 C821.98,646 894.57,646 948.87,646 " fill="none" id="Tarefa-Anuncio" style="stroke: #A80036; stroke-width: 1.0;"/><text fill="#000000" font-family="sans-serif" font-size="13" lengthAdjust="spacingAndGlyphs" textLength="63" x="822" y="642.5684">dá origem</text><polygon fill="#000000" points="888,636.1553,894,639.1553,888,642.1553,888,636.1553" style="stroke: #000000; stroke-width: 1.0;"/><text fill="#000000" font-family="sans-serif" font-size="13" lengthAdjust="spacingAndGlyphs" textLength="8" x="778.8189" y="659.4691">1</text><text fill="#000000" font-family="sans-serif" font-size="13" lengthAdjust="spacingAndGlyphs" textLength="24" x="917.0655" y="659.2622">0..1</text><!--MD5=[3fb03004f687adcfc695220fdd65ad26]
link Anuncio to TipoRegimento--><path d="M1100.22,610.21 C1110.09,606.35 1120.19,602.81 1130,600 C1321.75,545.15 1557.47,523.58 1672.76,515.87 " fill="none" id="Anuncio-TipoRegimento" style="stroke: #A80036; stroke-width: 1.0;"/><text fill="#000000" font-family="sans-serif" font-size="13" lengthAdjust="spacingAndGlyphs" textLength="74" x="1300" y="540.5684">rege-se por</text><polygon fill="#000000" points="1377,534.1553,1383,537.1553,1377,540.1553,1377,534.1553" style="stroke: #000000; stroke-width: 1.0;"/><text fill="#000000" font-family="sans-serif" font-size="13" lengthAdjust="spacingAndGlyphs" textLength="6" x="1107.969" y="620.0221">*</text><text fill="#000000" font-family="sans-serif" font-size="13" lengthAdjust="spacingAndGlyphs" textLength="8" x="1657.0009" y="529.6315">1</text><!--MD5=[0a535575571876f6213287bf563a867d]
link Anuncio to Colaborador--><path d="M1100.17,683.44 C1110.18,688.38 1120.32,693.34 1130,698 C1195.38,729.5 1209.44,743.21 1278,767 C1347.46,791.1 1367.28,788.8 1439,805 C1529.47,825.43 1556.62,815.22 1643,849 C1659.61,855.5 1676.69,864.55 1691.93,873.62 " fill="none" id="Anuncio-Colaborador" style="stroke: #A80036; stroke-width: 1.0;"/><text fill="#000000" font-family="sans-serif" font-size="13" lengthAdjust="spacingAndGlyphs" textLength="87" x="1293.5" y="763.5684">publicado por</text><polygon fill="#000000" points="1383.5,757.1553,1389.5,760.1553,1383.5,763.1553,1383.5,757.1553" style="stroke: #000000; stroke-width: 1.0;"/><text fill="#000000" font-family="sans-serif" font-size="13" lengthAdjust="spacingAndGlyphs" textLength="6" x="1107.9141" y="700.4607">*</text><text fill="#000000" font-family="sans-serif" font-size="13" lengthAdjust="spacingAndGlyphs" textLength="8" x="1676.0452" y="865.3335">1</text><!--MD5=[27b52c98fcb5387c047ce09b42fcb62d]
link Anuncio to Candidatura--><path d="M1100.02,642.33 C1282.63,633.35 1750.53,610.32 1929.72,601.51 " fill="none" id="Anuncio-Candidatura" style="stroke: #A80036; stroke-width: 1.0;"/><text fill="#000000" font-family="sans-serif" font-size="13" lengthAdjust="spacingAndGlyphs" textLength="41" x="1514" y="611.5684">recebe</text><polygon fill="#000000" points="1558,605.1553,1564,608.1553,1558,611.1553,1558,605.1553" style="stroke: #000000; stroke-width: 1.0;"/><text fill="#000000" font-family="sans-serif" font-size="13" lengthAdjust="spacingAndGlyphs" textLength="8" x="1108.2205" y="655.3232">1</text><text fill="#000000" font-family="sans-serif" font-size="13" lengthAdjust="spacingAndGlyphs" textLength="6" x="1915.9568" y="615.2414">*</text><!--MD5=[02d330b3691aaed85c2b7230cc23c1df]
link Anuncio to ProcessoSeriacao--><path d="M1100.19,662.86 C1110.2,665 1120.34,667.1 1130,669 C1179.42,678.74 1235.56,688.45 1277.73,695.49 " fill="none" id="Anuncio-ProcessoSeriacao" style="stroke: #A80036; stroke-width: 1.0;"/><text fill="#000000" font-family="sans-serif" font-size="13" lengthAdjust="spacingAndGlyphs" textLength="53" x="1156" y="665.5684">espoleta</text><polygon fill="#000000" points="1212,659.1553,1218,662.1553,1212,665.1553,1212,659.1553" style="stroke: #000000; stroke-width: 1.0;"/><text fill="#000000" font-family="sans-serif" font-size="13" lengthAdjust="spacingAndGlyphs" textLength="8" x="1108.0345" y="677.8548">1</text><text fill="#000000" font-family="sans-serif" font-size="13" lengthAdjust="spacingAndGlyphs" textLength="24" x="1246.0745" y="707.7796">0..1</text><!--MD5=[a66e767a4304f5fa76db98d7839a7a61]
link Candidatura to Freelancer--><path d="M2074.28,582.35 C2129.36,570.25 2204.04,553.85 2251.88,543.35 " fill="none" id="Candidatura-Freelancer" style="stroke: #A80036; stroke-width: 1.0;"/><text fill="#000000" font-family="sans-serif" font-size="13" lengthAdjust="spacingAndGlyphs" textLength="81" x="2116" y="547.5684">realizada por</text><polygon fill="#000000" points="2200,541.1553,2206,544.1553,2200,547.1553,2200,541.1553" style="stroke: #000000; stroke-width: 1.0;"/><text fill="#000000" font-family="sans-serif" font-size="13" lengthAdjust="spacingAndGlyphs" textLength="6" x="2082.0433" y="594.1055">*</text><text fill="#000000" font-family="sans-serif" font-size="13" lengthAdjust="spacingAndGlyphs" textLength="8" x="2235.8991" y="558.6892">1</text><!--MD5=[577fefe1351fe0f89ea5388d9641a019]
link ProcessoSeriacao to TipoRegimento--><path d="M1409.07,696.94 C1493.86,684.84 1633.18,664.23 1643,658 C1685.3,631.19 1714.27,579.33 1729.74,545.19 " fill="none" id="ProcessoSeriacao-TipoRegimento" style="stroke: #A80036; stroke-width: 1.0;"/><text fill="#000000" font-family="sans-serif" font-size="13" lengthAdjust="spacingAndGlyphs" textLength="189" x="1440" y="654.5684">decorre em concordância com</text><polygon fill="#000000" points="1632,648.1553,1638,651.1553,1632,654.1553,1632,648.1553" style="stroke: #000000; stroke-width: 1.0;"/><text fill="#000000" font-family="sans-serif" font-size="13" lengthAdjust="spacingAndGlyphs" textLength="6" x="1416.9984" y="709.3485">*</text><text fill="#000000" font-family="sans-serif" font-size="13" lengthAdjust="spacingAndGlyphs" textLength="8" x="1718.2592" y="565.5531">1</text><!--MD5=[d8cba5363504d1c2665cc78c5e9b9c32]
link ProcessoSeriacao to Colaborador--><path d="M1408.55,732.54 C1418.68,736.51 1429.09,740.46 1439,744 C1528.48,775.97 1561.73,758.76 1643,808 C1666.41,822.19 1688.4,842.98 1705.77,861.94 " fill="none" id="ProcessoSeriacao-Colaborador" style="stroke: #A80036; stroke-width: 1.0;"/><text fill="#000000" font-family="sans-serif" font-size="13" lengthAdjust="spacingAndGlyphs" textLength="82" x="1493.5" y="740.5684">realizado por</text><polygon fill="#000000" points="1578.5,734.1553,1584.5,737.1553,1578.5,740.1553,1578.5,734.1553" style="stroke: #000000; stroke-width: 1.0;"/><text fill="#000000" font-family="sans-serif" font-size="13" lengthAdjust="spacingAndGlyphs" textLength="8" x="1414.6678" y="753.0212">1</text><text fill="#000000" font-family="sans-serif" font-size="13" lengthAdjust="spacingAndGlyphs" textLength="22" x="1701.6004" y="851.3445">1..*</text><!--MD5=[52bd50d7906bad09d4dfcc260d1229dc]
link ProcessoSeriacao to Classificacao--><path d="M1409.01,712.72 C1469.57,717.9 1562.64,722.96 1643,715 C1658.86,713.43 1675.92,710.49 1691.39,707.34 " fill="none" id="ProcessoSeriacao-Classificacao" style="stroke: #A80036; stroke-width: 1.0;"/><text fill="#000000" font-family="sans-serif" font-size="13" lengthAdjust="spacingAndGlyphs" textLength="27" x="1521" y="711.5684">gera</text><polygon fill="#000000" points="1551,705.1553,1557,708.1553,1551,711.1553,1551,705.1553" style="stroke: #000000; stroke-width: 1.0;"/><text fill="#000000" font-family="sans-serif" font-size="13" lengthAdjust="spacingAndGlyphs" textLength="8" x="1417.0471" y="726.9531">1</text><text fill="#000000" font-family="sans-serif" font-size="13" lengthAdjust="spacingAndGlyphs" textLength="6" x="1677.5698" y="722.7234">*</text><!--MD5=[471b8c6ff5fcf31b4b6fb9b4f947344d]
link Classificacao to Candidatura--><path d="M1796.63,677.98 C1826.93,667.76 1865.85,654.2 1900,641 C1909.69,637.26 1919.83,633.16 1929.79,629.02 " fill="none" id="Classificacao-Candidatura" style="stroke: #A80036; stroke-width: 1.0;"/><polygon fill="#000000" points="1861,631.1553,1855,634.1553,1861,637.1553,1861,631.1553" style="stroke: #000000; stroke-width: 1.0;"/><text fill="#000000" font-family="sans-serif" font-size="13" lengthAdjust="spacingAndGlyphs" textLength="24" x="1867" y="637.5684">tem</text><text fill="#000000" font-family="sans-serif" font-size="13" lengthAdjust="spacingAndGlyphs" textLength="24" x="1804.5068" y="689.4098">0..1</text><text fill="#000000" font-family="sans-serif" font-size="13" lengthAdjust="spacingAndGlyphs" textLength="8" x="1913.9308" y="645.5883">1</text><!--MD5=[83793280d21cff2204dcf19c1386ed48]
link Administrativo to Utilizador--><path d="M917.13,1181 C982.26,1181 1092.91,1181 1188,1181 C1188,1181 1188,1181 2301,1181 C2374.01,1181 2394.22,1169.68 2459,1136 C2483.42,1123.3 2507.52,1104.57 2526.77,1087.64 " fill="none" id="Administrativo-Utilizador" style="stroke: #A80036; stroke-width: 1.0;"/><text fill="#000000" font-family="sans-serif" font-size="13" lengthAdjust="spacingAndGlyphs" textLength="66" x="1704.5" y="1177.5684">atua como</text><polygon fill="#000000" points="1773.5,1171.1553,1779.5,1174.1553,1773.5,1177.1553,1773.5,1171.1553" style="stroke: #000000; stroke-width: 1.0;"/><text fill="#000000" font-family="sans-serif" font-size="13" lengthAdjust="spacingAndGlyphs" textLength="24" x="925.1232" y="1194.4535">0..1</text><text fill="#000000" font-family="sans-serif" font-size="13" lengthAdjust="spacingAndGlyphs" textLength="8" x="2511.196" y="1108.0528">1</text><!--MD5=[bcb5794e8184ce78d304f04a5beabbc0]
link Colaborador to Utilizador--><path d="M1796.14,916.7 C1943.46,941.78 2367.67,1013.99 2515.75,1039.19 " fill="none" id="Colaborador-Utilizador" style="stroke: #A80036; stroke-width: 1.0;"/><text fill="#000000" font-family="sans-serif" font-size="13" lengthAdjust="spacingAndGlyphs" textLength="66" x="2123.5" y="965.5684">atua como</text><polygon fill="#000000" points="2192.5,959.1553,2198.5,962.1553,2192.5,965.1553,2192.5,959.1553" style="stroke: #000000; stroke-width: 1.0;"/><text fill="#000000" font-family="sans-serif" font-size="13" lengthAdjust="spacingAndGlyphs" textLength="24" x="1803.9571" y="931.2726">0..1</text><text fill="#000000" font-family="sans-serif" font-size="13" lengthAdjust="spacingAndGlyphs" textLength="8" x="2500.1242" y="1051.6122">1</text><!--MD5=[6a7c57800a31452a20aa2f5037e36afb]
link Freelancer to Utilizador--><path d="M2324.88,579.16 C2376.63,679.15 2498.32,914.31 2546.92,1008.23 " fill="none" id="Freelancer-Utilizador" style="stroke: #A80036; stroke-width: 1.0;"/><text fill="#000000" font-family="sans-serif" font-size="13" lengthAdjust="spacingAndGlyphs" textLength="66" x="2379" y="681.5684">atua como</text><polygon fill="#000000" points="2407.5,690.3105,2410.5,696.3105,2413.5,690.3105,2407.5,690.3105" style="stroke: #000000; stroke-width: 1.0;"/><text fill="#000000" font-family="sans-serif" font-size="13" lengthAdjust="spacingAndGlyphs" textLength="24" x="2302.6913" y="599.3088">0..1</text><text fill="#000000" font-family="sans-serif" font-size="13" lengthAdjust="spacingAndGlyphs" textLength="8" x="2534.5234" y="997.7121">1</text><!--MD5=[b8422db8e85907663c841d4c41f19cc1]
link Freelancer to EnderecoPostal--><path d="M2348.13,501.22 C2357.89,494.98 2368.18,488.63 2378,483 C2401.79,469.37 2462.08,439.42 2508.33,416.77 " fill="none" id="Freelancer-EnderecoPostal" style="stroke: #A80036; stroke-width: 1.0;"/><text fill="#000000" font-family="sans-serif" font-size="13" lengthAdjust="spacingAndGlyphs" textLength="24" x="2400" y="439.5684">tem</text><polygon fill="#000000" points="2427,433.1553,2433,436.1553,2427,439.1553,2427,433.1553" style="stroke: #000000; stroke-width: 1.0;"/><text fill="#000000" font-family="sans-serif" font-size="13" lengthAdjust="spacingAndGlyphs" textLength="24" x="2355.8342" y="510.7089">0..1</text><text fill="#000000" font-family="sans-serif" font-size="13" lengthAdjust="spacingAndGlyphs" textLength="8" x="2492.5093" y="433.7859">1</text><!--MD5=[7a59ad2cb29ff6e914b8672ce881fef8]
link Freelancer to HabilitacaoAcademica--><path d="M2348.03,544.29 C2386.96,553.64 2443.09,567.12 2488.84,578.11 " fill="none" id="Freelancer-HabilitacaoAcademica" style="stroke: #A80036; stroke-width: 1.0;"/><text fill="#000000" font-family="sans-serif" font-size="13" lengthAdjust="spacingAndGlyphs" textLength="24" x="2400" y="548.5684">tem</text><polygon fill="#000000" points="2427,542.1553,2433,545.1553,2427,548.1553,2427,542.1553" style="stroke: #000000; stroke-width: 1.0;"/><text fill="#000000" font-family="sans-serif" font-size="13" lengthAdjust="spacingAndGlyphs" textLength="8" x="2355.9971" y="559.7731">1</text><text fill="#000000" font-family="sans-serif" font-size="13" lengthAdjust="spacingAndGlyphs" textLength="6" x="2474.9615" y="589.6161">*</text><!--MD5=[d8cdfe47acc319ba7387450f2c7628f2]
link Freelancer to ReconhecimentoCT--><path d="M2348.03,525.23 C2387.26,518.76 2443.95,509.4 2489.89,501.81 " fill="none" id="Freelancer-ReconhecimentoCT" style="stroke: #A80036; stroke-width: 1.0;"/><text fill="#000000" font-family="sans-serif" font-size="13" lengthAdjust="spacingAndGlyphs" textLength="57" x="2383.5" y="504.5684">recebe(u)</text><polygon fill="#000000" points="2443.5,498.1553,2449.5,501.1553,2443.5,504.1553,2443.5,498.1553" style="stroke: #000000; stroke-width: 1.0;"/><text fill="#000000" font-family="sans-serif" font-size="13" lengthAdjust="spacingAndGlyphs" textLength="8" x="2355.9971" y="537.7945">1</text><text fill="#000000" font-family="sans-serif" font-size="13" lengthAdjust="spacingAndGlyphs" textLength="6" x="2476.1115" y="516.3311">*</text><!--MD5=[f49a2ed7e599b0b3feae4bc7e03654d4]
link ReconhecimentoCT to CompetenciaTecnica--><path d="M2647.26,465.07 C2722.75,441.85 2836.53,406.84 2910.92,383.95 " fill="none" id="ReconhecimentoCT-CompetenciaTecnica" style="stroke: #A80036; stroke-width: 1.0;"/><text fill="#000000" font-family="sans-serif" font-size="13" lengthAdjust="spacingAndGlyphs" textLength="57" x="2704.5" y="418.5684">relativa a</text><polygon fill="#000000" points="2764.5,412.1553,2770.5,415.1553,2764.5,418.1553,2764.5,412.1553" style="stroke: #000000; stroke-width: 1.0;"/><text fill="#000000" font-family="sans-serif" font-size="13" lengthAdjust="spacingAndGlyphs" textLength="6" x="2655.0528" y="476.0893">*</text><text fill="#000000" font-family="sans-serif" font-size="13" lengthAdjust="spacingAndGlyphs" textLength="8" x="2895.0863" y="399.5377">1</text><!--MD5=[4c83f560ef7c82f9519d7b4f6acd253e]
link ReconhecimentoCT to GrauProficiencia--><path d="M2647.22,481.03 C2844.71,460.79 3362.83,407.67 3541.71,389.33 " fill="none" id="ReconhecimentoCT-GrauProficiencia" style="stroke: #A80036; stroke-width: 1.0;"/><text fill="#000000" font-family="sans-serif" font-size="13" lengthAdjust="spacingAndGlyphs" textLength="50" x="3214.5" y="409.5684">reconhe</text><polygon fill="#000000" points="3267.5,403.1553,3273.5,406.1553,3267.5,409.1553,3267.5,403.1553" style="stroke: #000000; stroke-width: 1.0;"/><text fill="#000000" font-family="sans-serif" font-size="13" lengthAdjust="spacingAndGlyphs" textLength="6" x="2655.0089" y="493.5705">*</text><text fill="#000000" font-family="sans-serif" font-size="13" lengthAdjust="spacingAndGlyphs" textLength="8" x="3525.9874" y="403.5206">1</text><!--MD5=[4aa6a936df4ad7b844bdcf1457a2ad73]
link AlgoritmoGeradorPasswords to Utilizador--><path d="M618.14,1097.68 C685.64,1103.58 777.7,1110 859,1110 C859,1110 859,1110 2301,1110 C2377.24,1110 2462.64,1085.63 2515.74,1067.45 " fill="none" id="AlgoritmoGeradorPasswords-Utilizador" style="stroke: #A80036; stroke-width: 1.0;"/><text fill="#000000" font-family="sans-serif" font-size="13" lengthAdjust="spacingAndGlyphs" textLength="91" x="1489" y="1106.5684">gera password</text><polygon fill="#000000" points="1583,1100.1553,1589,1103.1553,1583,1106.1553,1583,1100.1553" style="stroke: #000000; stroke-width: 1.0;"/><text fill="#000000" font-family="sans-serif" font-size="13" lengthAdjust="spacingAndGlyphs" textLength="8" x="625.9601" y="1111.5756">1</text><text fill="#000000" font-family="sans-serif" font-size="13" lengthAdjust="spacingAndGlyphs" textLength="6" x="2501.8988" y="1083.8395">*</text><!--MD5=[5a778849765b220f9f4ed4a2ff5690bc]
@startuml
skinparam classAttributeIconSize 0
hide methods
left to right direction

class Plataforma {
  -String designacao
}

class AreaAtividade {
  -String codigo
  -String descBreve
  -String descDetalhada

}

class CompetenciaTecnica {
  -String codigo
  -String descBreve
  -String descDetalhada
}

class GrauProficiencia {
  -Integer valor
  -String designacao
}

class Categoria {
  -String id
  -String descricao
}

class CaraterCT {
  -Boolean obrigatoria
}

class Organizacao {
  -String nome
  -String NIF
  -String website
  -String telefone
  -String email
}

class Colaborador {
  -String nome
  -String funcao
  -String telefone
  -String email
}

class EnderecoPostal {
  -String local
  -String codPostal
  -String localidade
}

class Tarefa {
  -String referencia
  -String designacao
  -String descInformal
  -String descTecnica
  -Integer duracaoEst
  -Double custoEst
}

class TipoRegimento
{
    -String designacao
    -String descricaoRegras
}

class Administrativo {

}

class Freelancer {
    -String nome
    -String NIF
    -String telefone
    -String email
}

class ReconhecimentoCT {
    -Date dataReconhecimento
}

class HabilitacaoAcademica {
    -String grau
    -String designacaoCurso
    -String nomeInstituicao
    -Double mediaCurso
}

note right
Por simplificação, não se considerou
Instituição, Curso e Grau como conceitos.
Contudo, tal poderá ser feito mais tarde
se se vier a revelar importante para o negócio.
end note



class Anuncio
{
    -Date dtInicioPublicitacao
    -Date dtFimPublicitacao
    -Date dtInicioCandidatura
    -Date dtFimCandidatura
    -Date dtInicioSeriacao
    -Date dtFimSeriacao
}

class Candidatura
{
    -Date dataCandidatura
    -Double valorPretendido
    -Integer nrDias
    -String txtApresentacao
    -String txtMotivacao
}

class Classificacao
{
    -Integer lugar
}

class ProcessoSeriacao
{
    -Date dataRealizacao
}

class Utilizador {
  -String nome
  -String email
  -String password
}

class AlgoritmoGeradorPasswords {
}

Plataforma "1" - - "*" AreaAtividade : possui >
Plataforma "1" - - "*" CompetenciaTecnica : possui >
Plataforma "1" - - "*" Categoria : possui >
Plataforma "1" - - "*" Organizacao : tem registadas >
Plataforma "1" - - "*" TipoRegimento : suporta >
Plataforma "1" - - "*" Freelancer : tem/usa  >
Plataforma "1" - - "*" Administrativo : tem  >
Plataforma "1" - - "1" AlgoritmoGeradorPasswords : recorre a >

Organizacao "1" - - "1..*" Colaborador: tem >
Organizacao "1" - - "1" Colaborador: tem gestor >
Organizacao "0..1" - - "1" EnderecoPostal: localizada em >
Organizacao "1" - - "*" Tarefa: possui >

CompetenciaTecnica "*" - - "1" AreaAtividade : referente a >
CompetenciaTecnica "1" - - - "*" GrauProficiencia : aplica  >

Categoria "*" - - "1" AreaAtividade: enquadra-se em >
Categoria "*" - - "*" CompetenciaTecnica: requer >
(Categoria, CompetenciaTecnica) .. CaraterCT
CaraterCT "*" - - "1" GrauProficiencia: exige (como mínimo)  >

Tarefa "*" - - "1" Categoria: enquadra-se em >
Tarefa "*" - - "1" Colaborador: especificada por >
Tarefa "1" - - "0..1" Anuncio: dá origem >

Anuncio "*" - - "1" TipoRegimento: rege-se por >
Anuncio "*" - - "1" Colaborador: publicado por >
Anuncio "1" - - "*" Candidatura: recebe >
Anuncio "1" - - "0..1" ProcessoSeriacao: espoleta >

Candidatura "*" - - "1"  Freelancer: realizada por >

ProcessoSeriacao "*" - - "1" TipoRegimento: decorre em concordância com >
ProcessoSeriacao "1" - - "1..*" Colaborador: realizado por >
ProcessoSeriacao "1" - - "*" Classificacao: gera >

Classificacao "0..1" - - "1" Candidatura: tem  <

Administrativo "0..1" - - "1" Utilizador: atua como >

Colaborador "0..1" - - "1" Utilizador: atua como >

Freelancer "0..1" - - "1" Utilizador: atua como >
Freelancer "0..1" - - "1" EnderecoPostal: tem >
Freelancer "1" - - "*" HabilitacaoAcademica: tem >
Freelancer "1" - - "*" ReconhecimentoCT : recebe(u) >


ReconhecimentoCT "*" - - "1" CompetenciaTecnica: relativa a >
ReconhecimentoCT "*" - - "1" GrauProficiencia: reconhe >



AlgoritmoGeradorPasswords "1" - - "*" Utilizador : gera password >

@enduml

PlantUML version 1.2020.03beta6(Unknown compile time)
(GPL source distribution)
Java Runtime: OpenJDK Runtime Environment
JVM: OpenJDK 64-Bit Server VM
Java Version: 11.0.5+10-b520.38
Operating System: Mac OS X
Default Encoding: UTF-8
Language: en
Country: PT
--></g></svg>