@startuml
skinparam classAttributeIconSize 0
hide methods
left to right direction
+class Plataforma{
    -String designacao
}

+class Tarefa{
    -String referencia
    -String designcao
    -String descInformal
    -String descTecnica
    -int duracaoEst
    -double custoEst
}
+class Organizacao{
    -String nome
    -String NIF
    -String website
    -String telefone
    -String email
}
+class Colaborador{
    -String nome
    -String funcao
    -String telefone
    -String email
}
+class Seriacao{
    -Seriacao OPCIONAL
    -Seriacao OBRIGATORIO
    -Seriacao AUTOMATICO
}
+class Utilizador{
    -String nome
    -String email
    -String password
}
+class Anuncio{
    -int periodoDePub
    -int periodoDeCand
    -int periodoDeDec
}


class EnderecoPostal {
  -String local
  -String codPostal
  -String localidade
}
class AreaAtividade {
  -String codigo
  -String descBreve
  -String descDetalhada

}
class Categoria {
  -String id
  -String descricao
}
class CaraterCT {
  -Boolean obrigatoria
}
class CompetenciaTecnica
+class ReconhecimentoComp{
    -String data
}
+class Freelancer{
    -int nif
    -int telefone
}
+class HabilitacaoAcad{
    -String grau
    -String curso
    -String instituição
    -double média
}
+class GrauProficiencia{
    -int grauProficiencia
}

+class CompetenciaTecnica {
    -String codigo
    -String descBreve
    -String descDetalhada
 }
+class GrauProficiencia {
     -String designacao
     -Integer valor
  }

+class Endereco {
     -String local
     -String codPostal
     -String localidade
   }

+class Candidatura {
       -Integer valor
       -String duracao
       -String texto
    }
+class Reconhecimento {
     -String designacao
     -String data
  }

+class CandidaturasSeriadas{
    -Date data
    }

CompetenciaTecnica"1"--"1"GrauProficiencia: tem >
Freelancer "1"--"1..*"GrauProficiencia: possui >
ReconhecimentoComp"1"--"1..*"CompetenciaTecnica: possui >
ReconhecimentoComp "1"--"1" GrauProficiencia: requer >
Freelancer "1"--"1..*"CompetenciaTecnica: possui >
Freelancer "1" --"1" EnderecoPostal: tem >
Freelancer "1" -- "1..*"ReconhecimentoComp : tem >
Freelancer "1" -- "1..*" HabilitacaoAcad : tem >
Freelancer "1"-- "1"Utilizador: age como >
Administrativo "1" -- "*"Freelancer : regista >
Plataforma "1"--"1"AlgoritmoExterno: utiliza >
Plataforma "1"--"*"CompetenciaTecnica: possui >


Organizacao "1" -- "1.*"Colaborador : tem associado >
Organizacao "1" -- "1"Colaborador : tem gestor >
Colaborador "1" -- "1" Utilizador : age como >
Anuncio "1" -- "1"Tarefa : tem >
Anuncio "1" -- "1" Seriacao : tem >
Plataforma "1" --"*"Anuncio: tem registado >
Plataforma"1"--"*"Organizacao : tem registado >
Organizacao"1" --"*"Tarefa : tem registado >
Colaborador"1" -- "*"Anuncio : cria >
Organizacao"1" -- "1" EnderecoPostal : localizada em >
Plataforma"1" -- "*" AreaAtividade : tem registado >
Plataforma "1" -- "*" CompetenciaTecnica  : possui >
CompetenciaTecnica "*" -- "1" AreaAtividade : referente a >
Categoria "*" -- "1" AreaAtividade : enquadra-se em >
Categoria"*" -- "*" CompetenciaTecnica: requer >
Plataforma"1" -- "*"Categoria

(Categoria,CompetenciaTecnica) .. CaraterCT
Categoria -- GrauProficiencia : requer >

Administrativo "1" -- "*" CompetenciaTecnica: especifica >
Administrativo "0..1" -- "1" Utilizador: atua como >
Plataforma "1" -- "*" Administrativo : tem >

AlgoritmoExterno "1" -- "1" Utilizador: gera password >

Plataforma "1" -- "1..*" Freelancer: tem registados >
Freelancer "1" -- "*" Candidatura : efetua >
Freelancer "0..1" -- "1" Utilizador : atua como >
Freelancer "0..1" -- "*" Endereco : tem >
Reconhecimento "1" -- "*" CompetenciaTecnica : referente a >
Reconhecimento "1" -- "1" GrauProficiencia : referente a >
CompetenciaTecnica "1" -- "1" GrauProficiencia : associado a >
Anuncio "1" -- "*" Tarefa : tem >
Tarefa "1" -- "1" Categoria : enquadra-se em >
Categoria "*" -- "*" CompetenciaTecnica : requer >
(Categoria, CompetenciaTecnica) .. CaraterCT
Candidatura "1" -- "1" Anuncio : associada a >
Organizacao "1" -- "1.*"Tarefa : tem >
Organizacao "1" -- "1.*"Anuncio : publica >

Colaborador "1" -- "1_*" CandidaturasSeriadas : efetua >
CandidaturasSeriadas "1" -- "1_*" Colaborador : agrega >
Anuncio "1" -- "1" CandidaturasSeriadas : possui >
CandidaturasSeriadas "1" -- "1_*" Candidatura : requer >
@enduml