@startuml

autonumber
participant "ro:RegistoOrganizacao" as ro
participant ":List<Organizacao>" as lo
participant "org:Organizacao" as org
participant ":List<Colaborador>" as lc
participant "colab:Colaborador" as c

-> ro : getOranizacaoByEmailUtilizador(email)
activate ro
ro -> ro : orgReturn=null
loop
ro -> lo : org=get(i)
activate lo
deactivate lo
ro -> org : terColaboradorComEmail(email)
activate org
org -> org : found=false
loop
org -> lc : colab=get(i)
activate lc
deactivate lc
org -> c : found=terEmail(email)
activate c
deactivate c
end
org --> ro : found
opt
ro -> ro : orgReturn=org
end
end
<- ro : org
deactivate ro

@enduml