<?xml version="1.0" encoding="UTF-8" standalone="no"?>
<svg xmlns="http://www.w3.org/2000/svg" contentScriptType="application/ecmascript" contentStyleType="text/css"
     height="832.5px" preserveAspectRatio="none" style="width:4075px;height:832px;" version="1.1" viewBox="0 0 4075 832"
     width="4075px" zoomAndPan="magnify"><defs><filter height="300%" id="fagdfz4imd0gk" width="300%" x="-1" y="-1"><feGaussianBlur result="blurOut" stdDeviation="5.0"/><feColorMatrix in="blurOut" result="blurOut2" type="matrix" values="0 0 0 0 0 0 0 0 0 0 0 0 0 0 0 0 0 0 .4 0"/><feOffset dx="10.0" dy="10.0" in="blurOut2" result="blurOut3"/><feBlend in="SourceGraphic" in2="blurOut3" mode="normal"/></filter></defs><g><!--MD5=[ecaed46f78f8cfe1e9ce18477649be18]
class Plataforma--><rect fill="#FEFECE" filter="url(#fagdfz4imd0gk)" height="134.5898" id="Plataforma" style="stroke: #A80036; stroke-width: 3.75;" width="257.5" x="15" y="362.5"/><ellipse cx="63.75" cy="402.5" fill="#ADD1B2" rx="27.5" ry="27.5" style="stroke: #A80036; stroke-width: 2.5;"/><path d="M68.75,393.75 Q69.2578,392.5 69.8438,391.875 Q70.4297,391.25 71.0938,391.25 Q72.2656,391.25 73.0078,391.9531 Q73.75,392.6563 73.75,394.2969 L73.75,398.2031 Q73.75,399.8438 73.0469,400.5469 Q72.3438,401.25 71.25,401.25 Q70.2734,401.25 69.6484,400.8203 Q69.0234,400.3906 68.75,399.2578 Q68.6328,398.4766 68.2031,398.0469 Q67.4219,397.2266 66.0156,396.7578 Q64.6094,396.25 63.2031,396.25 Q61.4453,396.25 59.9609,396.9531 Q58.5156,397.6563 57.3828,399.2188 Q56.25,400.7813 56.25,402.9297 L56.25,405.2344 Q56.25,407.8125 58.3594,409.5313 Q60.4688,411.25 64.2188,411.25 Q66.4453,411.25 68.0078,410.7422 Q68.9063,410.4688 69.9219,409.5703 Q70.5859,409.0625 70.9375,408.9063 Q71.2891,408.75 71.7188,408.75 Q72.5391,408.75 73.125,409.4141 Q73.75,410.0391 73.75,410.9375 Q73.75,411.7969 72.8906,412.8125 Q71.6406,414.2969 69.6484,415.1172 Q67.0313,416.25 63.8281,416.25 Q60.0781,416.25 57.0703,414.7656 Q54.6484,413.5938 52.9297,411.0547 Q51.25,408.5156 51.25,405.5078 L51.25,402.7734 Q51.25,399.6484 52.7344,396.9141 Q54.2578,394.1797 56.875,392.7344 Q59.5313,391.25 62.5,391.25 Q64.2969,391.25 65.8594,391.875 Q67.4219,392.5 68.75,393.75 Z "/><ellipse cx="101.25" cy="401.25" fill="#84BE84" rx="-5" ry="-5" style="stroke: #038048; stroke-width: 2.5;"/><text fill="#000000" font-family="sans-serif" font-size="30" lengthAdjust="spacingAndGlyphs" textLength="150" x="103.75" y="414.7754">Plataforma</text><line style="stroke: #A80036; stroke-width: 3.75;" x1="17.5" x2="270" y1="442.5" y2="442.5"/><text fill="#000000" font-family="sans-serif" font-size="27.5" lengthAdjust="spacingAndGlyphs" textLength="227.5" x="30" y="481.0474">-String designacao</text><!--MD5=[807977ceb130c090ed5febfb6de2bdea]
class Organizacao--><rect fill="#FEFECE" filter="url(#fagdfz4imd0gk)" height="272.9492" id="Organizacao" style="stroke: #A80036; stroke-width: 3.75;" width="255" x="675" y="293.75"/><ellipse cx="712.5" cy="333.75" fill="#ADD1B2" rx="27.5" ry="27.5" style="stroke: #A80036; stroke-width: 2.5;"/><path d="M717.5,325 Q718.0078,323.75 718.5938,323.125 Q719.1797,322.5 719.8438,322.5 Q721.0156,322.5 721.7578,323.2031 Q722.5,323.9063 722.5,325.5469 L722.5,329.4531 Q722.5,331.0938 721.7969,331.7969 Q721.0938,332.5 720,332.5 Q719.0234,332.5 718.3984,332.0703 Q717.7734,331.6406 717.5,330.5078 Q717.3828,329.7266 716.9531,329.2969 Q716.1719,328.4766 714.7656,328.0078 Q713.3594,327.5 711.9531,327.5 Q710.1953,327.5 708.7109,328.2031 Q707.2656,328.9063 706.1328,330.4688 Q705,332.0313 705,334.1797 L705,336.4844 Q705,339.0625 707.1094,340.7813 Q709.2188,342.5 712.9688,342.5 Q715.1953,342.5 716.7578,341.9922 Q717.6563,341.7188 718.6719,340.8203 Q719.3359,340.3125 719.6875,340.1563 Q720.0391,340 720.4688,340 Q721.2891,340 721.875,340.6641 Q722.5,341.2891 722.5,342.1875 Q722.5,343.0469 721.6406,344.0625 Q720.3906,345.5469 718.3984,346.3672 Q715.7813,347.5 712.5781,347.5 Q708.8281,347.5 705.8203,346.0156 Q703.3984,344.8438 701.6797,342.3047 Q700,339.7656 700,336.7578 L700,334.0234 Q700,330.8984 701.4844,328.1641 Q703.0078,325.4297 705.625,323.9844 Q708.2813,322.5 711.25,322.5 Q713.0469,322.5 714.6094,323.125 Q716.1719,323.75 717.5,325 Z "/><ellipse cx="747.5" cy="332.5" fill="#84BE84" rx="-5" ry="-5" style="stroke: #038048; stroke-width: 2.5;"/><text fill="#000000" font-family="sans-serif" font-size="30" lengthAdjust="spacingAndGlyphs" textLength="172.5" x="750" y="346.0254">Organizacao</text><line style="stroke: #A80036; stroke-width: 3.75;" x1="677.5" x2="927.5" y1="373.75" y2="373.75"/><text fill="#000000" font-family="sans-serif" font-size="27.5" lengthAdjust="spacingAndGlyphs" textLength="152.5" x="690" y="412.2974">-String nome</text><text fill="#000000" font-family="sans-serif" font-size="27.5" lengthAdjust="spacingAndGlyphs" textLength="125" x="690" y="446.8872">-String NIF</text><text fill="#000000" font-family="sans-serif" font-size="27.5" lengthAdjust="spacingAndGlyphs" textLength="185" x="690" y="481.4771">-String website</text><text fill="#000000" font-family="sans-serif" font-size="27.5" lengthAdjust="spacingAndGlyphs" textLength="185" x="690" y="516.0669">-String telefone</text><text fill="#000000" font-family="sans-serif" font-size="27.5" lengthAdjust="spacingAndGlyphs" textLength="147.5" x="690" y="550.6567">-String email</text><!--MD5=[ac8682ea5466d223e49472789fb200d2]
class Colaborador--><rect fill="#FEFECE" filter="url(#fagdfz4imd0gk)" height="238.3594" id="Colaborador" style="stroke: #A80036; stroke-width: 3.75;" width="255" x="1335" y="476.25"/><ellipse cx="1372.5" cy="516.25" fill="#ADD1B2" rx="27.5" ry="27.5" style="stroke: #A80036; stroke-width: 2.5;"/><path d="M1377.5,507.5 Q1378.0078,506.25 1378.5938,505.625 Q1379.1797,505 1379.8438,505 Q1381.0156,505 1381.7578,505.7031 Q1382.5,506.4063 1382.5,508.0469 L1382.5,511.9531 Q1382.5,513.5938 1381.7969,514.2969 Q1381.0938,515 1380,515 Q1379.0234,515 1378.3984,514.5703 Q1377.7734,514.1406 1377.5,513.0078 Q1377.3828,512.2266 1376.9531,511.7969 Q1376.1719,510.9766 1374.7656,510.5078 Q1373.3594,510 1371.9531,510 Q1370.1953,510 1368.7109,510.7031 Q1367.2656,511.4063 1366.1328,512.9688 Q1365,514.5313 1365,516.6797 L1365,518.9844 Q1365,521.5625 1367.1094,523.2813 Q1369.2188,525 1372.9688,525 Q1375.1953,525 1376.7578,524.4922 Q1377.6563,524.2188 1378.6719,523.3203 Q1379.3359,522.8125 1379.6875,522.6563 Q1380.0391,522.5 1380.4688,522.5 Q1381.2891,522.5 1381.875,523.1641 Q1382.5,523.7891 1382.5,524.6875 Q1382.5,525.5469 1381.6406,526.5625 Q1380.3906,528.0469 1378.3984,528.8672 Q1375.7813,530 1372.5781,530 Q1368.8281,530 1365.8203,528.5156 Q1363.3984,527.3438 1361.6797,524.8047 Q1360,522.2656 1360,519.2578 L1360,516.5234 Q1360,513.3984 1361.4844,510.6641 Q1363.0078,507.9297 1365.625,506.4844 Q1368.2813,505 1371.25,505 Q1373.0469,505 1374.6094,505.625 Q1376.1719,506.25 1377.5,507.5 Z "/><ellipse cx="1407.5" cy="515" fill="#84BE84" rx="-5" ry="-5" style="stroke: #038048; stroke-width: 2.5;"/><text fill="#000000" font-family="sans-serif" font-size="30" lengthAdjust="spacingAndGlyphs" textLength="172.5" x="1410" y="528.5254">Colaborador</text><line style="stroke: #A80036; stroke-width: 3.75;" x1="1337.5" x2="1587.5" y1="556.25" y2="556.25"/><text fill="#000000" font-family="sans-serif" font-size="27.5" lengthAdjust="spacingAndGlyphs" textLength="152.5" x="1350" y="594.7974">-String nome</text><text fill="#000000" font-family="sans-serif" font-size="27.5" lengthAdjust="spacingAndGlyphs" textLength="172.5" x="1350" y="629.3872">-String funcao</text><text fill="#000000" font-family="sans-serif" font-size="27.5" lengthAdjust="spacingAndGlyphs" textLength="185" x="1350" y="663.9771">-String telefone</text><text fill="#000000" font-family="sans-serif" font-size="27.5" lengthAdjust="spacingAndGlyphs" textLength="147.5" x="1350" y="698.5669">-String email</text><!--MD5=[19db0db7353a4bf63eefc676e5ba9b80]
class Anuncio--><rect fill="#FEFECE" filter="url(#fagdfz4imd0gk)" height="203.7695" id="Anuncio" style="stroke: #A80036; stroke-width: 3.75;" width="260" x="1332.5" y="182.5"/><ellipse cx="1400.375" cy="222.5" fill="#ADD1B2" rx="27.5" ry="27.5" style="stroke: #A80036; stroke-width: 2.5;"/><path d="M1405.375,213.75 Q1405.8828,212.5 1406.4688,211.875 Q1407.0547,211.25 1407.7188,211.25 Q1408.8906,211.25 1409.6328,211.9531 Q1410.375,212.6563 1410.375,214.2969 L1410.375,218.2031 Q1410.375,219.8438 1409.6719,220.5469 Q1408.9688,221.25 1407.875,221.25 Q1406.8984,221.25 1406.2734,220.8203 Q1405.6484,220.3906 1405.375,219.2578 Q1405.2578,218.4766 1404.8281,218.0469 Q1404.0469,217.2266 1402.6406,216.7578 Q1401.2344,216.25 1399.8281,216.25 Q1398.0703,216.25 1396.5859,216.9531 Q1395.1406,217.6563 1394.0078,219.2188 Q1392.875,220.7813 1392.875,222.9297 L1392.875,225.2344 Q1392.875,227.8125 1394.9844,229.5313 Q1397.0938,231.25 1400.8438,231.25 Q1403.0703,231.25 1404.6328,230.7422 Q1405.5313,230.4688 1406.5469,229.5703 Q1407.2109,229.0625 1407.5625,228.9063 Q1407.9141,228.75 1408.3438,228.75 Q1409.1641,228.75 1409.75,229.4141 Q1410.375,230.0391 1410.375,230.9375 Q1410.375,231.7969 1409.5156,232.8125 Q1408.2656,234.2969 1406.2734,235.1172 Q1403.6563,236.25 1400.4531,236.25 Q1396.7031,236.25 1393.6953,234.7656 Q1391.2734,233.5938 1389.5547,231.0547 Q1387.875,228.5156 1387.875,225.5078 L1387.875,222.7734 Q1387.875,219.6484 1389.3594,216.9141 Q1390.8828,214.1797 1393.5,212.7344 Q1396.1563,211.25 1399.125,211.25 Q1400.9219,211.25 1402.4844,211.875 Q1404.0469,212.5 1405.375,213.75 Z "/><ellipse cx="1442.125" cy="221.25" fill="#84BE84" rx="-5" ry="-5" style="stroke: #038048; stroke-width: 2.5;"/><text fill="#000000" font-family="sans-serif" font-size="30" lengthAdjust="spacingAndGlyphs" textLength="110" x="1444.625" y="234.7754">Anuncio</text><line style="stroke: #A80036; stroke-width: 3.75;" x1="1335" x2="1590" y1="262.5" y2="262.5"/><text fill="#000000" font-family="sans-serif" font-size="27.5" lengthAdjust="spacingAndGlyphs" textLength="212.5" x="1347.5" y="301.0474">-int periodoDePub</text><text fill="#000000" font-family="sans-serif" font-size="27.5" lengthAdjust="spacingAndGlyphs" textLength="230" x="1347.5" y="335.6372">-int periodoDeCand</text><text fill="#000000" font-family="sans-serif" font-size="27.5" lengthAdjust="spacingAndGlyphs" textLength="215" x="1347.5" y="370.2271">-int periodoDeDec</text><!--MD5=[84d1b9922499e034344dac4e4526a697]
class Seriacao--><rect fill="#FEFECE" filter="url(#fagdfz4imd0gk)" height="203.7695" id="Seriacao" style="stroke: #A80036; stroke-width: 3.75;" width="332.5" x="3715" y="67.5"/><ellipse cx="3809.875" cy="107.5" fill="#ADD1B2" rx="27.5" ry="27.5" style="stroke: #A80036; stroke-width: 2.5;"/><path d="M3814.875,98.75 Q3815.3828,97.5 3815.9688,96.875 Q3816.5547,96.25 3817.2188,96.25 Q3818.3906,96.25 3819.1328,96.9531 Q3819.875,97.6563 3819.875,99.2969 L3819.875,103.2031 Q3819.875,104.8438 3819.1719,105.5469 Q3818.4688,106.25 3817.375,106.25 Q3816.3984,106.25 3815.7734,105.8203 Q3815.1484,105.3906 3814.875,104.2578 Q3814.7578,103.4766 3814.3281,103.0469 Q3813.5469,102.2266 3812.1406,101.7578 Q3810.7344,101.25 3809.3281,101.25 Q3807.5703,101.25 3806.0859,101.9531 Q3804.6406,102.6563 3803.5078,104.2188 Q3802.375,105.7813 3802.375,107.9297 L3802.375,110.2344 Q3802.375,112.8125 3804.4844,114.5313 Q3806.5938,116.25 3810.3438,116.25 Q3812.5703,116.25 3814.1328,115.7422 Q3815.0313,115.4688 3816.0469,114.5703 Q3816.7109,114.0625 3817.0625,113.9063 Q3817.4141,113.75 3817.8438,113.75 Q3818.6641,113.75 3819.25,114.4141 Q3819.875,115.0391 3819.875,115.9375 Q3819.875,116.7969 3819.0156,117.8125 Q3817.7656,119.2969 3815.7734,120.1172 Q3813.1563,121.25 3809.9531,121.25 Q3806.2031,121.25 3803.1953,119.7656 Q3800.7734,118.5938 3799.0547,116.0547 Q3797.375,113.5156 3797.375,110.5078 L3797.375,107.7734 Q3797.375,104.6484 3798.8594,101.9141 Q3800.3828,99.1797 3803,97.7344 Q3805.6563,96.25 3808.625,96.25 Q3810.4219,96.25 3811.9844,96.875 Q3813.5469,97.5 3814.875,98.75 Z "/><ellipse cx="3857.625" cy="106.25" fill="#84BE84" rx="-5" ry="-5" style="stroke: #038048; stroke-width: 2.5;"/><text fill="#000000" font-family="sans-serif" font-size="30" lengthAdjust="spacingAndGlyphs" textLength="122.5" x="3860.125" y="119.7754">Seriacao</text><line style="stroke: #A80036; stroke-width: 3.75;" x1="3717.5" x2="4045" y1="147.5" y2="147.5"/><text fill="#000000" font-family="sans-serif" font-size="27.5" lengthAdjust="spacingAndGlyphs" textLength="255" x="3730" y="186.0474">-Seriacao OPCIONAL</text><text fill="#000000" font-family="sans-serif" font-size="27.5" lengthAdjust="spacingAndGlyphs" textLength="302.5" x="3730" y="220.6372">-Seriacao OBRIGATORIO</text><text fill="#000000" font-family="sans-serif" font-size="27.5" lengthAdjust="spacingAndGlyphs" textLength="295" x="3730" y="255.2271">-Seriacao AUTOMATICO</text><!--MD5=[475c5b924ed41035684e2831311827d2]
class Candidatura--><rect fill="#FEFECE" filter="url(#fagdfz4imd0gk)" height="203.7695" id="Candidatura" style="stroke: #A80036; stroke-width: 3.75;" width="252.5" x="3185" y="277.5"/><ellipse cx="3222.5" cy="317.5" fill="#ADD1B2" rx="27.5" ry="27.5" style="stroke: #A80036; stroke-width: 2.5;"/><path d="M3227.5,308.75 Q3228.0078,307.5 3228.5938,306.875 Q3229.1797,306.25 3229.8438,306.25 Q3231.0156,306.25 3231.7578,306.9531 Q3232.5,307.6563 3232.5,309.2969 L3232.5,313.2031 Q3232.5,314.8438 3231.7969,315.5469 Q3231.0938,316.25 3230,316.25 Q3229.0234,316.25 3228.3984,315.8203 Q3227.7734,315.3906 3227.5,314.2578 Q3227.3828,313.4766 3226.9531,313.0469 Q3226.1719,312.2266 3224.7656,311.7578 Q3223.3594,311.25 3221.9531,311.25 Q3220.1953,311.25 3218.7109,311.9531 Q3217.2656,312.6563 3216.1328,314.2188 Q3215,315.7813 3215,317.9297 L3215,320.2344 Q3215,322.8125 3217.1094,324.5313 Q3219.2188,326.25 3222.9688,326.25 Q3225.1953,326.25 3226.7578,325.7422 Q3227.6563,325.4688 3228.6719,324.5703 Q3229.3359,324.0625 3229.6875,323.9063 Q3230.0391,323.75 3230.4688,323.75 Q3231.2891,323.75 3231.875,324.4141 Q3232.5,325.0391 3232.5,325.9375 Q3232.5,326.7969 3231.6406,327.8125 Q3230.3906,329.2969 3228.3984,330.1172 Q3225.7813,331.25 3222.5781,331.25 Q3218.8281,331.25 3215.8203,329.7656 Q3213.3984,328.5938 3211.6797,326.0547 Q3210,323.5156 3210,320.5078 L3210,317.7734 Q3210,314.6484 3211.4844,311.9141 Q3213.0078,309.1797 3215.625,307.7344 Q3218.2813,306.25 3221.25,306.25 Q3223.0469,306.25 3224.6094,306.875 Q3226.1719,307.5 3227.5,308.75 Z "/><ellipse cx="3257.5" cy="316.25" fill="#84BE84" rx="-5" ry="-5" style="stroke: #038048; stroke-width: 2.5;"/><text fill="#000000" font-family="sans-serif" font-size="30" lengthAdjust="spacingAndGlyphs" textLength="170" x="3260" y="329.7754">Candidatura</text><line style="stroke: #A80036; stroke-width: 3.75;" x1="3187.5" x2="3435" y1="357.5" y2="357.5"/><text fill="#000000" font-family="sans-serif" font-size="27.5" lengthAdjust="spacingAndGlyphs" textLength="160" x="3200" y="396.0474">-Integer valor</text><text fill="#000000" font-family="sans-serif" font-size="27.5" lengthAdjust="spacingAndGlyphs" textLength="187.5" x="3200" y="430.6372">-String duracao</text><text fill="#000000" font-family="sans-serif" font-size="27.5" lengthAdjust="spacingAndGlyphs" textLength="147.5" x="3200" y="465.2271">-String texto</text><!--MD5=[7dfec94ad8360530483372af56a38dab]
class CandidaturasSeriadas--><rect fill="#FEFECE" filter="url(#fagdfz4imd0gk)" height="134.5898" id="CandidaturasSeriadas" style="stroke: #A80036; stroke-width: 3.75;" width="395" x="1877.5" y="465"/><ellipse cx="1915" cy="505" fill="#ADD1B2" rx="27.5" ry="27.5" style="stroke: #A80036; stroke-width: 2.5;"/><path d="M1920,496.25 Q1920.5078,495 1921.0938,494.375 Q1921.6797,493.75 1922.3438,493.75 Q1923.5156,493.75 1924.2578,494.4531 Q1925,495.1563 1925,496.7969 L1925,500.7031 Q1925,502.3438 1924.2969,503.0469 Q1923.5938,503.75 1922.5,503.75 Q1921.5234,503.75 1920.8984,503.3203 Q1920.2734,502.8906 1920,501.7578 Q1919.8828,500.9766 1919.4531,500.5469 Q1918.6719,499.7266 1917.2656,499.2578 Q1915.8594,498.75 1914.4531,498.75 Q1912.6953,498.75 1911.2109,499.4531 Q1909.7656,500.1563 1908.6328,501.7188 Q1907.5,503.2813 1907.5,505.4297 L1907.5,507.7344 Q1907.5,510.3125 1909.6094,512.0313 Q1911.7188,513.75 1915.4688,513.75 Q1917.6953,513.75 1919.2578,513.2422 Q1920.1563,512.9688 1921.1719,512.0703 Q1921.8359,511.5625 1922.1875,511.4063 Q1922.5391,511.25 1922.9688,511.25 Q1923.7891,511.25 1924.375,511.9141 Q1925,512.5391 1925,513.4375 Q1925,514.2969 1924.1406,515.3125 Q1922.8906,516.7969 1920.8984,517.6172 Q1918.2813,518.75 1915.0781,518.75 Q1911.3281,518.75 1908.3203,517.2656 Q1905.8984,516.0938 1904.1797,513.5547 Q1902.5,511.0156 1902.5,508.0078 L1902.5,505.2734 Q1902.5,502.1484 1903.9844,499.4141 Q1905.5078,496.6797 1908.125,495.2344 Q1910.7813,493.75 1913.75,493.75 Q1915.5469,493.75 1917.1094,494.375 Q1918.6719,495 1920,496.25 Z "/><ellipse cx="1950" cy="503.75" fill="#84BE84" rx="-5" ry="-5" style="stroke: #038048; stroke-width: 2.5;"/><text fill="#000000" font-family="sans-serif" font-size="30" lengthAdjust="spacingAndGlyphs" textLength="312.5" x="1952.5" y="517.2754">CandidaturasSeriadas</text><line style="stroke: #A80036; stroke-width: 3.75;" x1="1880" x2="2270" y1="545" y2="545"/><text fill="#000000" font-family="sans-serif" font-size="27.5" lengthAdjust="spacingAndGlyphs" textLength="125" x="1892.5" y="583.5474">-Date data</text><!--MD5=[716bba0e94eea125d5a66a891f2c3c34]
class Classificacao--><rect fill="#FEFECE" filter="url(#fagdfz4imd0gk)" height="169.1797" id="Classificacao" style="stroke: #A80036; stroke-width: 3.75;" width="335" x="2555" y="637.5"/><ellipse cx="2621.75" cy="677.5" fill="#ADD1B2" rx="27.5" ry="27.5" style="stroke: #A80036; stroke-width: 2.5;"/><path d="M2626.75,668.75 Q2627.2578,667.5 2627.8438,666.875 Q2628.4297,666.25 2629.0938,666.25 Q2630.2656,666.25 2631.0078,666.9531 Q2631.75,667.6563 2631.75,669.2969 L2631.75,673.2031 Q2631.75,674.8438 2631.0469,675.5469 Q2630.3438,676.25 2629.25,676.25 Q2628.2734,676.25 2627.6484,675.8203 Q2627.0234,675.3906 2626.75,674.2578 Q2626.6328,673.4766 2626.2031,673.0469 Q2625.4219,672.2266 2624.0156,671.7578 Q2622.6094,671.25 2621.2031,671.25 Q2619.4453,671.25 2617.9609,671.9531 Q2616.5156,672.6563 2615.3828,674.2188 Q2614.25,675.7813 2614.25,677.9297 L2614.25,680.2344 Q2614.25,682.8125 2616.3594,684.5313 Q2618.4688,686.25 2622.2188,686.25 Q2624.4453,686.25 2626.0078,685.7422 Q2626.9063,685.4688 2627.9219,684.5703 Q2628.5859,684.0625 2628.9375,683.9063 Q2629.2891,683.75 2629.7188,683.75 Q2630.5391,683.75 2631.125,684.4141 Q2631.75,685.0391 2631.75,685.9375 Q2631.75,686.7969 2630.8906,687.8125 Q2629.6406,689.2969 2627.6484,690.1172 Q2625.0313,691.25 2621.8281,691.25 Q2618.0781,691.25 2615.0703,689.7656 Q2612.6484,688.5938 2610.9297,686.0547 Q2609.25,683.5156 2609.25,680.5078 L2609.25,677.7734 Q2609.25,674.6484 2610.7344,671.9141 Q2612.2578,669.1797 2614.875,667.7344 Q2617.5313,666.25 2620.5,666.25 Q2622.2969,666.25 2623.8594,666.875 Q2625.4219,667.5 2626.75,668.75 Z "/><ellipse cx="2663.25" cy="676.25" fill="#84BE84" rx="-5" ry="-5" style="stroke: #038048; stroke-width: 2.5;"/><text fill="#000000" font-family="sans-serif" font-size="30" lengthAdjust="spacingAndGlyphs" textLength="187.5" x="2665.75" y="689.7754">Classificacao</text><line style="stroke: #A80036; stroke-width: 3.75;" x1="2557.5" x2="2887.5" y1="717.5" y2="717.5"/><text fill="#000000" font-family="sans-serif" font-size="27.5" lengthAdjust="spacingAndGlyphs" textLength="305" x="2570" y="756.0474">-Candidatura candidatura</text><text fill="#000000" font-family="sans-serif" font-size="27.5" lengthAdjust="spacingAndGlyphs" textLength="105" x="2570" y="790.6372">-int lugar</text><!--MD5=[1c2ad462e362697fcdc859a6327d55c7]
link Plataforma to Organizacao--><path d="M273.075,430 C388.925,430 559.25,430 674.64,430 " fill="none" id="Plataforma-Organizacao" style="stroke: #A80036; stroke-width: 2.5;"/><text fill="#000000" font-family="sans-serif" font-size="32.5" lengthAdjust="spacingAndGlyphs" textLength="215" x="350" y="421.2378">tem registadas</text><polygon fill="#000000" points="572.5,404.1895,587.5,411.6895,572.5,419.1895,572.5,404.1895" style="stroke: #000000; stroke-width: 2.5;"/><text fill="#000000" font-family="sans-serif" font-size="32.5" lengthAdjust="spacingAndGlyphs" textLength="17.5" x="292.4918" y="466.6409">1</text><text fill="#000000" font-family="sans-serif" font-size="32.5" lengthAdjust="spacingAndGlyphs" textLength="12.5" x="642.4426" y="466.7068">*</text><!--MD5=[567db691f9836c63f305bad1024cbc66]
link Organizacao to Colaborador--><path d="M930.6475,498.4375 C954.7975,509.5125 980.2775,519.84 1005,527.5 C1113.3175,561.0587 1241.465,578.1565 1334.115,586.7295 " fill="none" id="Organizacao-Colaborador" style="stroke: #A80036; stroke-width: 2.5;"/><text fill="#000000" font-family="sans-serif" font-size="32.5" lengthAdjust="spacingAndGlyphs" textLength="215" x="1007.5" y="518.7378">tem registados</text><polygon fill="#000000" points="1230,501.6895,1245,509.1895,1230,516.6895,1230,501.6895" style="stroke: #000000; stroke-width: 2.5;"/><text fill="#000000" font-family="sans-serif" font-size="32.5" lengthAdjust="spacingAndGlyphs" textLength="17.5" x="949.8987" y="544.642">1</text><text fill="#000000" font-family="sans-serif" font-size="32.5" lengthAdjust="spacingAndGlyphs" textLength="47.5" x="1267.1227" y="621.9714">1_*</text><!--MD5=[32a129d5bc595627aea1e24e185c5fa2]
link Organizacao to Anuncio--><path d="M930.355,454.055 C1023.14,466.6625 1151.3175,473.01 1257.5,437.5 C1290.055,426.6125 1321.5725,408.2025 1349.66,387.865 " fill="none" id="Organizacao-Anuncio" style="stroke: #A80036; stroke-width: 2.5;"/><text fill="#000000" font-family="sans-serif" font-size="32.5" lengthAdjust="spacingAndGlyphs" textLength="102.5" x="1063.75" y="428.7378">publica</text><polygon fill="#000000" points="1173.75,411.6895,1188.75,419.1895,1173.75,426.6895,1173.75,411.6895" style="stroke: #000000; stroke-width: 2.5;"/><text fill="#000000" font-family="sans-serif" font-size="32.5" lengthAdjust="spacingAndGlyphs" textLength="17.5" x="950.4189" y="494.2949">1</text><text fill="#000000" font-family="sans-serif" font-size="32.5" lengthAdjust="spacingAndGlyphs" textLength="47.5" x="1282.0983" y="439.8035">1_*</text><!--MD5=[32a129d5bc595627aea1e24e185c5fa2]
link Organizacao to Anuncio--><path d="M930.795,399.6775 C955.38,393.8775 980.98,387.925 1005,382.5 C1115.3225,357.5825 1241.0575,330.76 1332.3525,311.565 " fill="none" id="Organizacao-Anuncio-1" style="stroke: #A80036; stroke-width: 2.5;"/><text fill="#000000" font-family="sans-serif" font-size="32.5" lengthAdjust="spacingAndGlyphs" textLength="95" x="1067.5" y="318.7378">possui</text><polygon fill="#000000" points="1170,301.6895,1185,309.1895,1170,316.6895,1170,301.6895" style="stroke: #000000; stroke-width: 2.5;"/><text fill="#000000" font-family="sans-serif" font-size="32.5" lengthAdjust="spacingAndGlyphs" textLength="17.5" x="950.067" y="431.9939">1</text><text fill="#000000" font-family="sans-serif" font-size="32.5" lengthAdjust="spacingAndGlyphs" textLength="47.5" x="1265.1344" y="351.4041">1_*</text><!--MD5=[22ab75f887ca251f11fce1d8db3a0e76]
link Anuncio to Seriacao--><path d="M1592.8775,209.2875 C1712.605,145.65 1898.635,65 2072.5,65 C2072.5,65 2072.5,65 3313.75,65 C3450.425,65 3602.625,95.07 3714.6,123.0275 " fill="none" id="Anuncio-Seriacao" style="stroke: #A80036; stroke-width: 2.5;"/><text fill="#000000" font-family="sans-serif" font-size="32.5" lengthAdjust="spacingAndGlyphs" textLength="117.5" x="2647.5" y="56.2378">tem tipo</text><polygon fill="#000000" points="2772.5,39.1895,2787.5,46.6895,2772.5,54.1895,2772.5,39.1895" style="stroke: #000000; stroke-width: 2.5;"/><text fill="#000000" font-family="sans-serif" font-size="32.5" lengthAdjust="spacingAndGlyphs" textLength="17.5" x="1612.4423" y="235.339">1</text><text fill="#000000" font-family="sans-serif" font-size="32.5" lengthAdjust="spacingAndGlyphs" textLength="17.5" x="3677.9156" y="153.9305">1</text><!--MD5=[27b52c98fcb5387c047ce09b42fcb62d]
link Anuncio to Candidatura--><path d="M1593.35,284.4675 C1870.82,284.505 2546.95,290.99 3110,347.5 C3134,349.91 3159.5,353.38 3183.95,357.1675 " fill="none" id="Anuncio-Candidatura" style="stroke: #A80036; stroke-width: 2.5;"/><text fill="#000000" font-family="sans-serif" font-size="32.5" lengthAdjust="spacingAndGlyphs" textLength="55" x="2370" y="288.7378">tem</text><polygon fill="#000000" points="2432.5,271.6895,2447.5,279.1895,2432.5,286.6895,2432.5,271.6895" style="stroke: #000000; stroke-width: 2.5;"/><text fill="#000000" font-family="sans-serif" font-size="32.5" lengthAdjust="spacingAndGlyphs" textLength="17.5" x="1612.1088" y="320.963">1</text><text fill="#000000" font-family="sans-serif" font-size="32.5" lengthAdjust="spacingAndGlyphs" textLength="12.5" x="3152.6695" y="390.6553">*</text><!--MD5=[d69fc416af3af6362a23031b17c97f77]
link Candidatura to Seriacao--><path d="M3437.75,333.915 C3518.95,303.73 3626,263.9425 3714.3,231.1275 " fill="none" id="Candidatura-Seriacao" style="stroke: #A80036; stroke-width: 2.5;"/><text fill="#000000" font-family="sans-serif" font-size="32.5" lengthAdjust="spacingAndGlyphs" textLength="90" x="3515" y="251.2378">requer</text><polygon fill="#000000" points="3612.5,234.1895,3627.5,241.6895,3612.5,249.1895,3612.5,234.1895" style="stroke: #000000; stroke-width: 2.5;"/><text fill="#000000" font-family="sans-serif" font-size="32.5" lengthAdjust="spacingAndGlyphs" textLength="12.5" x="3457.2477" y="363.9765">*</text><text fill="#000000" font-family="sans-serif" font-size="32.5" lengthAdjust="spacingAndGlyphs" textLength="17.5" x="3677.5828" y="273.854">1</text><!--MD5=[18ea51b8911293687af9865a8178b144]
link Colaborador to CandidaturasSeriadas--><path d="M1590.8225,660.5365 C1615.625,670.6735 1641.91,679.5693 1667.5,685 C1726.1925,697.4555 1744.4725,700.255 1802.5,685 C1866.02,668.301 1930.3175,632.8838 1980.225,600.3815 " fill="none" id="Colaborador-CandidaturasSeriadas" style="stroke: #A80036; stroke-width: 2.5;"/><text fill="#000000" font-family="sans-serif" font-size="32.5" lengthAdjust="spacingAndGlyphs" textLength="87.5" x="1675" y="676.2378">efetua</text><polygon fill="#000000" points="1770,659.1895,1785,666.6895,1770,674.1895,1770,659.1895" style="stroke: #000000; stroke-width: 2.5;"/><text fill="#000000" font-family="sans-serif" font-size="32.5" lengthAdjust="spacingAndGlyphs" textLength="17.5" x="1610.0983" y="706.3042">1</text><text fill="#000000" font-family="sans-serif" font-size="32.5" lengthAdjust="spacingAndGlyphs" textLength="47.5" x="1906.7977" y="653.4844">1_*</text><!--MD5=[3b2d664064afaf5297be41b6106d778e]
link CandidaturasSeriadas to Colaborador--><path d="M1876.95,552.6175 C1782.845,562.2997 1672.805,573.621 1590.1375,582.1258 " fill="none" id="CandidaturasSeriadas-Colaborador" style="stroke: #A80036; stroke-width: 2.5;"/><polygon fill="#000000" points="1687.5,534.1895,1672.5,541.6895,1687.5,549.1895,1687.5,534.1895" style="stroke: #000000; stroke-width: 2.5;"/><text fill="#000000" font-family="sans-serif" font-size="32.5" lengthAdjust="spacingAndGlyphs" textLength="97.5" x="1702.5" y="551.2378">agrega</text><text fill="#000000" font-family="sans-serif" font-size="32.5" lengthAdjust="spacingAndGlyphs" textLength="17.5" x="1839.7394" y="590.2404">1</text><text fill="#000000" font-family="sans-serif" font-size="32.5" lengthAdjust="spacingAndGlyphs" textLength="47.5" x="1609.534" y="616.7778">1_*</text><!--MD5=[9457b5a9540a3a3929641b75147a44dc]
link Anuncio to CandidaturasSeriadas--><path d="M1592.9925,358.77 C1617.3675,371.6 1642.9425,384.255 1667.5,395 C1734.5075,424.32 1809.9075,451.4325 1877.3225,473.6975 " fill="none" id="Anuncio-CandidaturasSeriadas" style="stroke: #A80036; stroke-width: 2.5;"/><text fill="#000000" font-family="sans-serif" font-size="32.5" lengthAdjust="spacingAndGlyphs" textLength="95" x="1671.25" y="386.2378">possui</text><polygon fill="#000000" points="1773.75,369.1895,1788.75,376.6895,1773.75,384.1895,1773.75,369.1895" style="stroke: #000000; stroke-width: 2.5;"/><text fill="#000000" font-family="sans-serif" font-size="32.5" lengthAdjust="spacingAndGlyphs" textLength="17.5" x="1612.5735" y="405.8425">1</text><text fill="#000000" font-family="sans-serif" font-size="32.5" lengthAdjust="spacingAndGlyphs" textLength="17.5" x="1840.1474" y="503.7984">1</text><!--MD5=[424efd881d0b8ba6551a9b0b1af7705e]
link CandidaturasSeriadas to Candidatura--><path d="M2272.595,508.335 C2528.575,476.63 2970.35,421.9125 3184.8,395.3525 " fill="none" id="CandidaturasSeriadas-Candidatura" style="stroke: #A80036; stroke-width: 2.5;"/><text fill="#000000" font-family="sans-serif" font-size="32.5" lengthAdjust="spacingAndGlyphs" textLength="90" x="2661.25" y="423.7378">requer</text><polygon fill="#000000" points="2758.75,406.6895,2773.75,414.1895,2758.75,421.6895,2758.75,406.6895" style="stroke: #000000; stroke-width: 2.5;"/><text fill="#000000" font-family="sans-serif" font-size="32.5" lengthAdjust="spacingAndGlyphs" textLength="17.5" x="2292.2623" y="541.7372">1</text><text fill="#000000" font-family="sans-serif" font-size="32.5" lengthAdjust="spacingAndGlyphs" textLength="47.5" x="3117.1169" y="433.9825">1_*</text><!--MD5=[4c46c2f503071b50432951a241238b49]
link CandidaturasSeriadas to Classificacao--><path d="M2272.8875,590.2803 C2362.9725,616.9195 2468.7375,648.197 2554.775,673.6418 " fill="none" id="CandidaturasSeriadas-Classificacao" style="stroke: #A80036; stroke-width: 2.5;"/><text fill="#000000" font-family="sans-serif" font-size="32.5" lengthAdjust="spacingAndGlyphs" textLength="95" x="2350" y="606.2378">possui</text><polygon fill="#000000" points="2452.5,589.1895,2467.5,596.6895,2452.5,604.1895,2452.5,589.1895" style="stroke: #000000; stroke-width: 2.5;"/><text fill="#000000" font-family="sans-serif" font-size="32.5" lengthAdjust="spacingAndGlyphs" textLength="17.5" x="2292.5826" y="631.4929">1</text><text fill="#000000" font-family="sans-serif" font-size="32.5" lengthAdjust="spacingAndGlyphs" textLength="47.5" x="2487.5374" y="704.4912">1_*</text><!--MD5=[471b8c6ff5fcf31b4b6fb9b4f947344d]
link Classificacao to Candidatura--><path d="M2890.175,674.3638 C2960.975,649.7165 3042.675,615.6935 3110,572.5 C3148.4,547.855 3185.675,514.9925 3217.375,483.405 " fill="none" id="Classificacao-Candidatura" style="stroke: #A80036; stroke-width: 2.5;"/><text fill="#000000" font-family="sans-serif" font-size="32.5" lengthAdjust="spacingAndGlyphs" textLength="107.5" x="2967.5" y="563.7378">contém</text><polygon fill="#000000" points="3082.5,546.6895,3097.5,554.1895,3082.5,561.6895,3082.5,546.6895" style="stroke: #000000; stroke-width: 2.5;"/><text fill="#000000" font-family="sans-serif" font-size="32.5" lengthAdjust="spacingAndGlyphs" textLength="17.5" x="2909.4715" y="705.1171">1</text><text fill="#000000" font-family="sans-serif" font-size="32.5" lengthAdjust="spacingAndGlyphs" textLength="17.5" x="3185.4434" y="534.6449">1</text><!--MD5=[2cb3282de28a2e579680144d910719fe]
@startuml

hide methods
left to right direction
skinparam classAttributeIconSize 0

+class Plataforma{
    -String designacao
}
+class Organizacao{
    -String nome
    -String NIF
    -String website
    -String telefone
    -String email
}
+class Colaborador{
    -String nome
    -String funcao
    -String telefone
    -String email
}
+class Anuncio{
    -int periodoDePub
    -int periodoDeCand
    -int periodoDeDec
}
+class Seriacao{
    -Seriacao OPCIONAL
    -Seriacao OBRIGATORIO
    -Seriacao AUTOMATICO
}
+class Candidatura {
    -Integer valor
    -String duracao
    -String texto
}
+class CandidaturasSeriadas{
    -Date data
}
+class Classificacao{
    -Candidatura candidatura
    -int lugar
}

Plataforma "1" - - "*" Organizacao : tem registadas >
Organizacao "1" - - "1_*" Colaborador : tem registados >
Organizacao "1" - - "1_*"Anuncio : publica >
Anuncio "1" - - "1" Seriacao : tem tipo >
Anuncio "1" - - "*" Candidatura : tem >
Organizacao "1" - - "1_*" Anuncio : possui >
Candidatura "*" - - "1" Seriacao : requer >
Colaborador "1" - - "1_*" CandidaturasSeriadas : efetua >
CandidaturasSeriadas "1" - - "1_*" Colaborador : agrega >
Anuncio "1" - - "1" CandidaturasSeriadas : possui >
CandidaturasSeriadas "1" - - "1_*" Candidatura : requer >
CandidaturasSeriadas "1" - - "1_*" Classificacao : possui >
Classificacao "1" - - "1" Candidatura : contém >

@enduml

PlantUML version 1.2020.07(Sun Apr 19 12:42:40 BST 2020)
(GPL source distribution)
Java Runtime: OpenJDK Runtime Environment
JVM: OpenJDK 64-Bit Server VM
Java Version: 11.0.6+8-b765.40
Operating System: Windows 10
Default Encoding: Cp1252
Language: pt
Country: PT
--></g></svg>