<?xml version="1.0" encoding="UTF-8" standalone="no"?>
<svg xmlns="http://www.w3.org/2000/svg" contentScriptType="application/ecmascript" contentStyleType="text/css"
     height="3894px" preserveAspectRatio="none" style="width:2290px;height:3894px;" version="1.1"
     viewBox="0 0 2290 3894" width="2290px" zoomAndPan="magnify"><defs><filter height="300%" id="f7fx87fhtsmxb" width="300%" x="-1" y="-1"><feGaussianBlur result="blurOut" stdDeviation="4.0"/><feColorMatrix in="blurOut" result="blurOut2" type="matrix" values="0 0 0 0 0 0 0 0 0 0 0 0 0 0 0 0 0 0 .4 0"/><feOffset dx="8.0" dy="8.0" in="blurOut2" result="blurOut3"/><feBlend in="SourceGraphic" in2="blurOut3" mode="normal"/></filter></defs><g><!--MD5=[45c085eda1c3f4134106f99137518c4e]
class SeriarAnuncioUI--><rect fill="#FEFECE" filter="url(#f7fx87fhtsmxb)" height="96" id="SeriarAnuncioUI" style="stroke: #A80036; stroke-width: 3.0;" width="242" x="570" y="16"/><ellipse cx="600" cy="48" fill="#ADD1B2" rx="22" ry="22" style="stroke: #A80036; stroke-width: 2.0;"/><path d="M604,41 Q604.4063,40 604.875,39.5 Q605.3438,39 605.875,39 Q606.8125,39 607.4063,39.5625 Q608,40.125 608,41.4375 L608,44.5625 Q608,45.875 607.4375,46.4375 Q606.875,47 606,47 Q605.2188,47 604.7188,46.6563 Q604.2188,46.3125 604,45.4063 Q603.9063,44.7813 603.5625,44.4375 Q602.9375,43.7813 601.8125,43.4063 Q600.6875,43 599.5625,43 Q598.1563,43 596.9688,43.5625 Q595.8125,44.125 594.9063,45.375 Q594,46.625 594,48.3438 L594,50.1875 Q594,52.25 595.6875,53.625 Q597.375,55 600.375,55 Q602.1563,55 603.4063,54.5938 Q604.125,54.375 604.9375,53.6563 Q605.4688,53.25 605.75,53.125 Q606.0313,53 606.375,53 Q607.0313,53 607.5,53.5313 Q608,54.0313 608,54.75 Q608,55.4375 607.3125,56.25 Q606.3125,57.4375 604.7188,58.0938 Q602.625,59 600.0625,59 Q597.0625,59 594.6563,57.8125 Q592.7188,56.875 591.3438,54.8438 Q590,52.8125 590,50.4063 L590,48.2188 Q590,45.7188 591.1875,43.5313 Q592.4063,41.3438 594.5,40.1875 Q596.625,39 599,39 Q600.4375,39 601.6875,39.5 Q602.9375,40 604,41 Z "/><text fill="#000000" font-family="sans-serif" font-size="24" lengthAdjust="spacingAndGlyphs" textLength="178" x="628" y="57.8203">SeriarAnuncioUI</text><line style="stroke: #A80036; stroke-width: 3.0;" x1="572" x2="810" y1="80" y2="80"/><line style="stroke: #A80036; stroke-width: 3.0;" x1="572" x2="810" y1="96" y2="96"/><!--MD5=[275fa48f777b95aba21c758391a58e25]
class SeriarAnuncioController--><rect fill="#FEFECE" filter="url(#f7fx87fhtsmxb)" height="428.0625" id="SeriarAnuncioController" style="stroke: #A80036; stroke-width: 3.0;" width="496" x="443" y="234"/><ellipse cx="551.5" cy="266" fill="#ADD1B2" rx="22" ry="22" style="stroke: #A80036; stroke-width: 2.0;"/><path d="M555.5,259 Q555.9063,258 556.375,257.5 Q556.8438,257 557.375,257 Q558.3125,257 558.9063,257.5625 Q559.5,258.125 559.5,259.4375 L559.5,262.5625 Q559.5,263.875 558.9375,264.4375 Q558.375,265 557.5,265 Q556.7188,265 556.2188,264.6563 Q555.7188,264.3125 555.5,263.4063 Q555.4063,262.7813 555.0625,262.4375 Q554.4375,261.7813 553.3125,261.4063 Q552.1875,261 551.0625,261 Q549.6563,261 548.4688,261.5625 Q547.3125,262.125 546.4063,263.375 Q545.5,264.625 545.5,266.3438 L545.5,268.1875 Q545.5,270.25 547.1875,271.625 Q548.875,273 551.875,273 Q553.6563,273 554.9063,272.5938 Q555.625,272.375 556.4375,271.6563 Q556.9688,271.25 557.25,271.125 Q557.5313,271 557.875,271 Q558.5313,271 559,271.5313 Q559.5,272.0313 559.5,272.75 Q559.5,273.4375 558.8125,274.25 Q557.8125,275.4375 556.2188,276.0938 Q554.125,277 551.5625,277 Q548.5625,277 546.1563,275.8125 Q544.2188,274.875 542.8438,272.8438 Q541.5,270.8125 541.5,268.4063 L541.5,266.2188 Q541.5,263.7188 542.6875,261.5313 Q543.9063,259.3438 546,258.1875 Q548.125,257 550.5,257 Q551.9375,257 553.1875,257.5 Q554.4375,258 555.5,259 Z "/><text fill="#000000" font-family="sans-serif" font-size="24" lengthAdjust="spacingAndGlyphs" textLength="262" x="592.5" y="275.8203">SeriarAnuncioController</text><line style="stroke: #A80036; stroke-width: 3.0;" x1="445" x2="937" y1="298" y2="298"/><line style="stroke: #A80036; stroke-width: 3.0;" x1="445" x2="937" y1="314" y2="314"/><text fill="#000000" font-family="sans-serif" font-size="22" lengthAdjust="spacingAndGlyphs" textLength="246" x="455" y="344.8379">+getListaColaboradores()</text><text fill="#000000" font-family="sans-serif" font-size="22" lengthAdjust="spacingAndGlyphs" textLength="472" x="455" y="372.5098">+addColParticipanteByID(idColParticipante, listaC)</text><text fill="#000000" font-family="sans-serif" font-size="22" lengthAdjust="spacingAndGlyphs" textLength="348" x="455" y="400.1816">removerCol(idColParticipante, listaC)</text><text fill="#000000" font-family="sans-serif" font-size="22" lengthAdjust="spacingAndGlyphs" textLength="184" x="455" y="427.8535">+getListaAnuncio()</text><text fill="#000000" font-family="sans-serif" font-size="22" lengthAdjust="spacingAndGlyphs" textLength="278" x="455" y="455.5254">+getAnuncioByID(idAnuncio)</text><text fill="#000000" font-family="sans-serif" font-size="22" lengthAdjust="spacingAndGlyphs" textLength="216" x="455" y="483.1973">+verificacaoAnuncio()</text><text fill="#000000" font-family="sans-serif" font-size="22" lengthAdjust="spacingAndGlyphs" textLength="366" x="455" y="510.8691">+novaCandidaturasSeriadas(anuncio)</text><text fill="#000000" font-family="sans-serif" font-size="22" lengthAdjust="spacingAndGlyphs" textLength="418" x="455" y="538.541">+seriarListaCandidaturas(idCandidatura, lc)</text><text fill="#000000" font-family="sans-serif" font-size="22" lengthAdjust="spacingAndGlyphs" textLength="396" x="455" y="566.2129">+removerCandidaturas(idCandidatura, lc)</text><text fill="#000000" font-family="sans-serif" font-size="22" lengthAdjust="spacingAndGlyphs" textLength="108" x="455" y="593.8848">+addData()</text><text fill="#000000" font-family="sans-serif" font-size="22" lengthAdjust="spacingAndGlyphs" textLength="298" x="455" y="621.5566">+validaCandidaturasSeriadas()</text><text fill="#000000" font-family="sans-serif" font-size="22" lengthAdjust="spacingAndGlyphs" textLength="308" x="455" y="649.2285">+registaCandidaturasSeriadas()</text><!--MD5=[807977ceb130c090ed5febfb6de2bdea]
class Organizacao--><rect fill="#FEFECE" filter="url(#f7fx87fhtsmxb)" height="289.7031" id="Organizacao" style="stroke: #A80036; stroke-width: 3.0;" width="278" x="1208" y="1372"/><ellipse cx="1272.2" cy="1404" fill="#ADD1B2" rx="22" ry="22" style="stroke: #A80036; stroke-width: 2.0;"/><path d="M1276.2,1397 Q1276.6063,1396 1277.075,1395.5 Q1277.5438,1395 1278.075,1395 Q1279.0125,1395 1279.6063,1395.5625 Q1280.2,1396.125 1280.2,1397.4375 L1280.2,1400.5625 Q1280.2,1401.875 1279.6375,1402.4375 Q1279.075,1403 1278.2,1403 Q1277.4188,1403 1276.9188,1402.6563 Q1276.4188,1402.3125 1276.2,1401.4063 Q1276.1063,1400.7813 1275.7625,1400.4375 Q1275.1375,1399.7813 1274.0125,1399.4063 Q1272.8875,1399 1271.7625,1399 Q1270.3563,1399 1269.1688,1399.5625 Q1268.0125,1400.125 1267.1063,1401.375 Q1266.2,1402.625 1266.2,1404.3438 L1266.2,1406.1875 Q1266.2,1408.25 1267.8875,1409.625 Q1269.575,1411 1272.575,1411 Q1274.3563,1411 1275.6063,1410.5938 Q1276.325,1410.375 1277.1375,1409.6563 Q1277.6688,1409.25 1277.95,1409.125 Q1278.2313,1409 1278.575,1409 Q1279.2313,1409 1279.7,1409.5313 Q1280.2,1410.0313 1280.2,1410.75 Q1280.2,1411.4375 1279.5125,1412.25 Q1278.5125,1413.4375 1276.9188,1414.0938 Q1274.825,1415 1272.2625,1415 Q1269.2625,1415 1266.8563,1413.8125 Q1264.9188,1412.875 1263.5438,1410.8438 Q1262.2,1408.8125 1262.2,1406.4063 L1262.2,1404.2188 Q1262.2,1401.7188 1263.3875,1399.5313 Q1264.6063,1397.3438 1266.7,1396.1875 Q1268.825,1395 1271.2,1395 Q1272.6375,1395 1273.8875,1395.5 Q1275.1375,1396 1276.2,1397 Z "/><text fill="#000000" font-family="sans-serif" font-size="24" lengthAdjust="spacingAndGlyphs" textLength="138" x="1307.8" y="1413.8203">Organizacao</text><line style="stroke: #A80036; stroke-width: 3.0;" x1="1210" x2="1484" y1="1436" y2="1436"/><text fill="#000000" font-family="sans-serif" font-size="22" lengthAdjust="spacingAndGlyphs" textLength="122" x="1220" y="1466.8379">-String nome</text><text fill="#000000" font-family="sans-serif" font-size="22" lengthAdjust="spacingAndGlyphs" textLength="100" x="1220" y="1494.5098">-String NIF</text><text fill="#000000" font-family="sans-serif" font-size="22" lengthAdjust="spacingAndGlyphs" textLength="148" x="1220" y="1522.1816">-String website</text><text fill="#000000" font-family="sans-serif" font-size="22" lengthAdjust="spacingAndGlyphs" textLength="148" x="1220" y="1549.8535">-String telefone</text><text fill="#000000" font-family="sans-serif" font-size="22" lengthAdjust="spacingAndGlyphs" textLength="118" x="1220" y="1577.5254">-String email</text><line style="stroke: #A80036; stroke-width: 3.0;" x1="1210" x2="1484" y1="1590.3594" y2="1590.3594"/><text fill="#000000" font-family="sans-serif" font-size="22" lengthAdjust="spacingAndGlyphs" textLength="254" x="1220" y="1621.1973">+getRegistoOrganizacao()</text><text fill="#000000" font-family="sans-serif" font-size="22" lengthAdjust="spacingAndGlyphs" textLength="210" x="1220" y="1648.8691">+getRegistoAnuncio()</text><!--MD5=[4476efc2fe514bb05e1beb3b8cb55476]
class RegistoCandidaturasSeriadas--><rect fill="#FEFECE" filter="url(#f7fx87fhtsmxb)" height="179.0156" id="RegistoCandidaturasSeriadas" style="stroke: #A80036; stroke-width: 3.0;" width="454" x="1156" y="2058"/><ellipse cx="1210.3" cy="2090" fill="#ADD1B2" rx="22" ry="22" style="stroke: #A80036; stroke-width: 2.0;"/><path d="M1214.3,2083 Q1214.7063,2082 1215.175,2081.5 Q1215.6438,2081 1216.175,2081 Q1217.1125,2081 1217.7063,2081.5625 Q1218.3,2082.125 1218.3,2083.4375 L1218.3,2086.5625 Q1218.3,2087.875 1217.7375,2088.4375 Q1217.175,2089 1216.3,2089 Q1215.5188,2089 1215.0188,2088.6563 Q1214.5188,2088.3125 1214.3,2087.4063 Q1214.2063,2086.7813 1213.8625,2086.4375 Q1213.2375,2085.7813 1212.1125,2085.4063 Q1210.9875,2085 1209.8625,2085 Q1208.4563,2085 1207.2688,2085.5625 Q1206.1125,2086.125 1205.2063,2087.375 Q1204.3,2088.625 1204.3,2090.3438 L1204.3,2092.1875 Q1204.3,2094.25 1205.9875,2095.625 Q1207.675,2097 1210.675,2097 Q1212.4563,2097 1213.7063,2096.5938 Q1214.425,2096.375 1215.2375,2095.6563 Q1215.7688,2095.25 1216.05,2095.125 Q1216.3313,2095 1216.675,2095 Q1217.3313,2095 1217.8,2095.5313 Q1218.3,2096.0313 1218.3,2096.75 Q1218.3,2097.4375 1217.6125,2098.25 Q1216.6125,2099.4375 1215.0188,2100.0938 Q1212.925,2101 1210.3625,2101 Q1207.3625,2101 1204.9563,2099.8125 Q1203.0188,2098.875 1201.6438,2096.8438 Q1200.3,2094.8125 1200.3,2092.4063 L1200.3,2090.2188 Q1200.3,2087.7188 1201.4875,2085.5313 Q1202.7063,2083.3438 1204.8,2082.1875 Q1206.925,2081 1209.3,2081 Q1210.7375,2081 1211.9875,2081.5 Q1213.2375,2082 1214.3,2083 Z "/><text fill="#000000" font-family="sans-serif" font-size="24" lengthAdjust="spacingAndGlyphs" textLength="336" x="1243.7" y="2099.8203">RegistoCandidaturasSeriadas</text><line style="stroke: #A80036; stroke-width: 3.0;" x1="1158" x2="1608" y1="2122" y2="2122"/><line style="stroke: #A80036; stroke-width: 3.0;" x1="1158" x2="1608" y1="2138" y2="2138"/><text fill="#000000" font-family="sans-serif" font-size="22" lengthAdjust="spacingAndGlyphs" textLength="430" x="1168" y="2168.8379">+novaCandidaturasSeriadas(anuncio, listaC)</text><text fill="#000000" font-family="sans-serif" font-size="22" lengthAdjust="spacingAndGlyphs" textLength="382" x="1168" y="2196.5098">+validaCandidaturasSeriadas(seriacao)</text><text fill="#000000" font-family="sans-serif" font-size="22" lengthAdjust="spacingAndGlyphs" textLength="400" x="1168" y="2224.1816">+registarCandidaturasSeriadas(seriacao)</text><!--MD5=[d04b607798738b5a80618641aa4c1381]
class RegistoAnuncio--><rect fill="#FEFECE" filter="url(#f7fx87fhtsmxb)" height="179.0156" id="RegistoAnuncio" style="stroke: #A80036; stroke-width: 3.0;" width="326" x="1018" y="1818"/><ellipse cx="1087.6" cy="1850" fill="#ADD1B2" rx="22" ry="22" style="stroke: #A80036; stroke-width: 2.0;"/><path d="M1091.6,1843 Q1092.0063,1842 1092.475,1841.5 Q1092.9438,1841 1093.475,1841 Q1094.4125,1841 1095.0063,1841.5625 Q1095.6,1842.125 1095.6,1843.4375 L1095.6,1846.5625 Q1095.6,1847.875 1095.0375,1848.4375 Q1094.475,1849 1093.6,1849 Q1092.8188,1849 1092.3188,1848.6563 Q1091.8188,1848.3125 1091.6,1847.4063 Q1091.5063,1846.7813 1091.1625,1846.4375 Q1090.5375,1845.7813 1089.4125,1845.4063 Q1088.2875,1845 1087.1625,1845 Q1085.7563,1845 1084.5688,1845.5625 Q1083.4125,1846.125 1082.5063,1847.375 Q1081.6,1848.625 1081.6,1850.3438 L1081.6,1852.1875 Q1081.6,1854.25 1083.2875,1855.625 Q1084.975,1857 1087.975,1857 Q1089.7563,1857 1091.0063,1856.5938 Q1091.725,1856.375 1092.5375,1855.6563 Q1093.0688,1855.25 1093.35,1855.125 Q1093.6313,1855 1093.975,1855 Q1094.6313,1855 1095.1,1855.5313 Q1095.6,1856.0313 1095.6,1856.75 Q1095.6,1857.4375 1094.9125,1858.25 Q1093.9125,1859.4375 1092.3188,1860.0938 Q1090.225,1861 1087.6625,1861 Q1084.6625,1861 1082.2563,1859.8125 Q1080.3188,1858.875 1078.9438,1856.8438 Q1077.6,1854.8125 1077.6,1852.4063 L1077.6,1850.2188 Q1077.6,1847.7188 1078.7875,1845.5313 Q1080.0063,1843.3438 1082.1,1842.1875 Q1084.225,1841 1086.6,1841 Q1088.0375,1841 1089.2875,1841.5 Q1090.5375,1842 1091.6,1843 Z "/><text fill="#000000" font-family="sans-serif" font-size="24" lengthAdjust="spacingAndGlyphs" textLength="174" x="1124.4" y="1859.8203">RegistoAnuncio</text><line style="stroke: #A80036; stroke-width: 3.0;" x1="1020" x2="1342" y1="1882" y2="1882"/><line style="stroke: #A80036; stroke-width: 3.0;" x1="1020" x2="1342" y1="1898" y2="1898"/><text fill="#000000" font-family="sans-serif" font-size="22" lengthAdjust="spacingAndGlyphs" textLength="184" x="1030" y="1928.8379">+getListaAnuncio()</text><text fill="#000000" font-family="sans-serif" font-size="22" lengthAdjust="spacingAndGlyphs" textLength="278" x="1030" y="1956.5098">+getAnuncioByID(idAnuncio)</text><text fill="#000000" font-family="sans-serif" font-size="22" lengthAdjust="spacingAndGlyphs" textLength="302" x="1030" y="1984.1816">+getRegistoCandidaturasByID()</text><!--MD5=[fc070331499534e06f56ea3fbbe0e889]
class RegistoColaborador--><rect fill="#FEFECE" filter="url(#f7fx87fhtsmxb)" height="123.6719" id="RegistoColaborador" style="stroke: #A80036; stroke-width: 3.0;" width="288" x="1873" y="1846"/><ellipse cx="1903" cy="1878" fill="#ADD1B2" rx="22" ry="22" style="stroke: #A80036; stroke-width: 2.0;"/><path d="M1907,1871 Q1907.4063,1870 1907.875,1869.5 Q1908.3438,1869 1908.875,1869 Q1909.8125,1869 1910.4063,1869.5625 Q1911,1870.125 1911,1871.4375 L1911,1874.5625 Q1911,1875.875 1910.4375,1876.4375 Q1909.875,1877 1909,1877 Q1908.2188,1877 1907.7188,1876.6563 Q1907.2188,1876.3125 1907,1875.4063 Q1906.9063,1874.7813 1906.5625,1874.4375 Q1905.9375,1873.7813 1904.8125,1873.4063 Q1903.6875,1873 1902.5625,1873 Q1901.1563,1873 1899.9688,1873.5625 Q1898.8125,1874.125 1897.9063,1875.375 Q1897,1876.625 1897,1878.3438 L1897,1880.1875 Q1897,1882.25 1898.6875,1883.625 Q1900.375,1885 1903.375,1885 Q1905.1563,1885 1906.4063,1884.5938 Q1907.125,1884.375 1907.9375,1883.6563 Q1908.4688,1883.25 1908.75,1883.125 Q1909.0313,1883 1909.375,1883 Q1910.0313,1883 1910.5,1883.5313 Q1911,1884.0313 1911,1884.75 Q1911,1885.4375 1910.3125,1886.25 Q1909.3125,1887.4375 1907.7188,1888.0938 Q1905.625,1889 1903.0625,1889 Q1900.0625,1889 1897.6563,1887.8125 Q1895.7188,1886.875 1894.3438,1884.8438 Q1893,1882.8125 1893,1880.4063 L1893,1878.2188 Q1893,1875.7188 1894.1875,1873.5313 Q1895.4063,1871.3438 1897.5,1870.1875 Q1899.625,1869 1902,1869 Q1903.4375,1869 1904.6875,1869.5 Q1905.9375,1870 1907,1871 Z "/><text fill="#000000" font-family="sans-serif" font-size="24" lengthAdjust="spacingAndGlyphs" textLength="224" x="1931" y="1887.8203">RegistoColaborador</text><line style="stroke: #A80036; stroke-width: 3.0;" x1="1875" x2="2159" y1="1910" y2="1910"/><line style="stroke: #A80036; stroke-width: 3.0;" x1="1875" x2="2159" y1="1926" y2="1926"/><text fill="#000000" font-family="sans-serif" font-size="22" lengthAdjust="spacingAndGlyphs" textLength="246" x="1885" y="1956.8379">+getListaColaboradores()</text><!--MD5=[380d12a68ed0046a60f31008a02875d0]
class AplicacaoPOT--><rect fill="#FEFECE" filter="url(#f7fx87fhtsmxb)" height="151.3438" id="AplicacaoPOT" style="stroke: #A80036; stroke-width: 3.0;" width="222" x="12" y="784"/><ellipse cx="43.8" cy="816" fill="#ADD1B2" rx="22" ry="22" style="stroke: #A80036; stroke-width: 2.0;"/><path d="M47.8,809 Q48.2063,808 48.675,807.5 Q49.1438,807 49.675,807 Q50.6125,807 51.2063,807.5625 Q51.8,808.125 51.8,809.4375 L51.8,812.5625 Q51.8,813.875 51.2375,814.4375 Q50.675,815 49.8,815 Q49.0188,815 48.5188,814.6563 Q48.0188,814.3125 47.8,813.4063 Q47.7063,812.7813 47.3625,812.4375 Q46.7375,811.7813 45.6125,811.4063 Q44.4875,811 43.3625,811 Q41.9563,811 40.7688,811.5625 Q39.6125,812.125 38.7063,813.375 Q37.8,814.625 37.8,816.3438 L37.8,818.1875 Q37.8,820.25 39.4875,821.625 Q41.175,823 44.175,823 Q45.9563,823 47.2063,822.5938 Q47.925,822.375 48.7375,821.6563 Q49.2688,821.25 49.55,821.125 Q49.8313,821 50.175,821 Q50.8313,821 51.3,821.5313 Q51.8,822.0313 51.8,822.75 Q51.8,823.4375 51.1125,824.25 Q50.1125,825.4375 48.5188,826.0938 Q46.425,827 43.8625,827 Q40.8625,827 38.4563,825.8125 Q36.5188,824.875 35.1438,822.8438 Q33.8,820.8125 33.8,818.4063 L33.8,816.2188 Q33.8,813.7188 34.9875,811.5313 Q36.2063,809.3438 38.3,808.1875 Q40.425,807 42.8,807 Q44.2375,807 45.4875,807.5 Q46.7375,808 47.8,809 Z "/><text fill="#000000" font-family="sans-serif" font-size="24" lengthAdjust="spacingAndGlyphs" textLength="154" x="72.2" y="825.8203">AplicacaoPOT</text><line style="stroke: #A80036; stroke-width: 3.0;" x1="14" x2="232" y1="848" y2="848"/><line style="stroke: #A80036; stroke-width: 3.0;" x1="14" x2="232" y1="864" y2="864"/><text fill="#000000" font-family="sans-serif" font-size="22" lengthAdjust="spacingAndGlyphs" textLength="198" x="24" y="894.8379">+static getInstance()</text><text fill="#000000" font-family="sans-serif" font-size="22" lengthAdjust="spacingAndGlyphs" textLength="182" x="24" y="922.5098">+getSessaoAtual()</text><!--MD5=[4469ccb08d6a888499208db1b0e350bc]
class SessaoAtual--><rect fill="#FEFECE" filter="url(#f7fx87fhtsmxb)" height="123.6719" id="SessaoAtual" style="stroke: #A80036; stroke-width: 3.0;" width="280" x="305" y="798"/><ellipse cx="369.2" cy="830" fill="#ADD1B2" rx="22" ry="22" style="stroke: #A80036; stroke-width: 2.0;"/><path d="M373.2,823 Q373.6063,822 374.075,821.5 Q374.5438,821 375.075,821 Q376.0125,821 376.6063,821.5625 Q377.2,822.125 377.2,823.4375 L377.2,826.5625 Q377.2,827.875 376.6375,828.4375 Q376.075,829 375.2,829 Q374.4188,829 373.9188,828.6563 Q373.4188,828.3125 373.2,827.4063 Q373.1063,826.7813 372.7625,826.4375 Q372.1375,825.7813 371.0125,825.4063 Q369.8875,825 368.7625,825 Q367.3563,825 366.1688,825.5625 Q365.0125,826.125 364.1063,827.375 Q363.2,828.625 363.2,830.3438 L363.2,832.1875 Q363.2,834.25 364.8875,835.625 Q366.575,837 369.575,837 Q371.3563,837 372.6063,836.5938 Q373.325,836.375 374.1375,835.6563 Q374.6688,835.25 374.95,835.125 Q375.2313,835 375.575,835 Q376.2313,835 376.7,835.5313 Q377.2,836.0313 377.2,836.75 Q377.2,837.4375 376.5125,838.25 Q375.5125,839.4375 373.9188,840.0938 Q371.825,841 369.2625,841 Q366.2625,841 363.8563,839.8125 Q361.9188,838.875 360.5438,836.8438 Q359.2,834.8125 359.2,832.4063 L359.2,830.2188 Q359.2,827.7188 360.3875,825.5313 Q361.6063,823.3438 363.7,822.1875 Q365.825,821 368.2,821 Q369.6375,821 370.8875,821.5 Q372.1375,822 373.2,823 Z "/><text fill="#000000" font-family="sans-serif" font-size="24" lengthAdjust="spacingAndGlyphs" textLength="140" x="404.8" y="839.8203">SessaoAtual</text><line style="stroke: #A80036; stroke-width: 3.0;" x1="307" x2="583" y1="862" y2="862"/><line style="stroke: #A80036; stroke-width: 3.0;" x1="307" x2="583" y1="878" y2="878"/><text fill="#000000" font-family="sans-serif" font-size="22" lengthAdjust="spacingAndGlyphs" textLength="256" x="317" y="908.8379">+String getEmailUtilizador()</text><!--MD5=[19db0db7353a4bf63eefc676e5ba9b80]
class Anuncio--><rect fill="#FEFECE" filter="url(#f7fx87fhtsmxb)" height="206.6875" id="Anuncio" style="stroke: #A80036; stroke-width: 3.0;" width="208" x="811" y="2298"/><ellipse cx="866.2" cy="2330" fill="#ADD1B2" rx="22" ry="22" style="stroke: #A80036; stroke-width: 2.0;"/><path d="M870.2,2323 Q870.6063,2322 871.075,2321.5 Q871.5438,2321 872.075,2321 Q873.0125,2321 873.6063,2321.5625 Q874.2,2322.125 874.2,2323.4375 L874.2,2326.5625 Q874.2,2327.875 873.6375,2328.4375 Q873.075,2329 872.2,2329 Q871.4188,2329 870.9188,2328.6563 Q870.4188,2328.3125 870.2,2327.4063 Q870.1063,2326.7813 869.7625,2326.4375 Q869.1375,2325.7813 868.0125,2325.4063 Q866.8875,2325 865.7625,2325 Q864.3563,2325 863.1688,2325.5625 Q862.0125,2326.125 861.1063,2327.375 Q860.2,2328.625 860.2,2330.3438 L860.2,2332.1875 Q860.2,2334.25 861.8875,2335.625 Q863.575,2337 866.575,2337 Q868.3563,2337 869.6063,2336.5938 Q870.325,2336.375 871.1375,2335.6563 Q871.6688,2335.25 871.95,2335.125 Q872.2313,2335 872.575,2335 Q873.2313,2335 873.7,2335.5313 Q874.2,2336.0313 874.2,2336.75 Q874.2,2337.4375 873.5125,2338.25 Q872.5125,2339.4375 870.9188,2340.0938 Q868.825,2341 866.2625,2341 Q863.2625,2341 860.8563,2339.8125 Q858.9188,2338.875 857.5438,2336.8438 Q856.2,2334.8125 856.2,2332.4063 L856.2,2330.2188 Q856.2,2327.7188 857.3875,2325.5313 Q858.6063,2323.3438 860.7,2322.1875 Q862.825,2321 865.2,2321 Q866.6375,2321 867.8875,2321.5 Q869.1375,2322 870.2,2323 Z "/><text fill="#000000" font-family="sans-serif" font-size="24" lengthAdjust="spacingAndGlyphs" textLength="88" x="899.8" y="2339.8203">Anuncio</text><line style="stroke: #A80036; stroke-width: 3.0;" x1="813" x2="1017" y1="2362" y2="2362"/><text fill="#000000" font-family="sans-serif" font-size="22" lengthAdjust="spacingAndGlyphs" textLength="170" x="823" y="2392.8379">-int periodoDePub</text><text fill="#000000" font-family="sans-serif" font-size="22" lengthAdjust="spacingAndGlyphs" textLength="184" x="823" y="2420.5098">-int periodoDeCand</text><text fill="#000000" font-family="sans-serif" font-size="22" lengthAdjust="spacingAndGlyphs" textLength="172" x="823" y="2448.1816">-int periodoDeDec</text><line style="stroke: #A80036; stroke-width: 3.0;" x1="813" x2="1017" y1="2461.0156" y2="2461.0156"/><text fill="#000000" font-family="sans-serif" font-size="22" lengthAdjust="spacingAndGlyphs" textLength="184" x="823" y="2491.8535">+getTipoSeriacao()</text><!--MD5=[ecaed46f78f8cfe1e9ce18477649be18]
class Plataforma--><rect fill="#FEFECE" filter="url(#f7fx87fhtsmxb)" height="151.3438" id="Plataforma" style="stroke: #A80036; stroke-width: 3.0;" width="278" x="834" y="784"/><ellipse cx="906.3" cy="816" fill="#ADD1B2" rx="22" ry="22" style="stroke: #A80036; stroke-width: 2.0;"/><path d="M910.3,809 Q910.7063,808 911.175,807.5 Q911.6438,807 912.175,807 Q913.1125,807 913.7063,807.5625 Q914.3,808.125 914.3,809.4375 L914.3,812.5625 Q914.3,813.875 913.7375,814.4375 Q913.175,815 912.3,815 Q911.5188,815 911.0188,814.6563 Q910.5188,814.3125 910.3,813.4063 Q910.2063,812.7813 909.8625,812.4375 Q909.2375,811.7813 908.1125,811.4063 Q906.9875,811 905.8625,811 Q904.4563,811 903.2688,811.5625 Q902.1125,812.125 901.2063,813.375 Q900.3,814.625 900.3,816.3438 L900.3,818.1875 Q900.3,820.25 901.9875,821.625 Q903.675,823 906.675,823 Q908.4563,823 909.7063,822.5938 Q910.425,822.375 911.2375,821.6563 Q911.7688,821.25 912.05,821.125 Q912.3313,821 912.675,821 Q913.3313,821 913.8,821.5313 Q914.3,822.0313 914.3,822.75 Q914.3,823.4375 913.6125,824.25 Q912.6125,825.4375 911.0188,826.0938 Q908.925,827 906.3625,827 Q903.3625,827 900.9563,825.8125 Q899.0188,824.875 897.6438,822.8438 Q896.3,820.8125 896.3,818.4063 L896.3,816.2188 Q896.3,813.7188 897.4875,811.5313 Q898.7063,809.3438 900.8,808.1875 Q902.925,807 905.3,807 Q906.7375,807 907.9875,807.5 Q909.2375,808 910.3,809 Z "/><text fill="#000000" font-family="sans-serif" font-size="24" lengthAdjust="spacingAndGlyphs" textLength="120" x="943.7" y="825.8203">Plataforma</text><line style="stroke: #A80036; stroke-width: 3.0;" x1="836" x2="1110" y1="848" y2="848"/><text fill="#000000" font-family="sans-serif" font-size="22" lengthAdjust="spacingAndGlyphs" textLength="182" x="846" y="878.8379">-String designacao</text><line style="stroke: #A80036; stroke-width: 3.0;" x1="836" x2="1110" y1="891.6719" y2="891.6719"/><text fill="#000000" font-family="sans-serif" font-size="22" lengthAdjust="spacingAndGlyphs" textLength="254" x="846" y="922.5098">+getRegistoOrganizacao()</text><!--MD5=[1aaa5955991d65c243342aa4a3ca2868]
class RegistoOrganizacao--><rect fill="#FEFECE" filter="url(#f7fx87fhtsmxb)" height="123.6719" id="RegistoOrganizacao" style="stroke: #A80036; stroke-width: 3.0;" width="380" x="887" y="1092"/><ellipse cx="958.4" cy="1124" fill="#ADD1B2" rx="22" ry="22" style="stroke: #A80036; stroke-width: 2.0;"/><path d="M962.4,1117 Q962.8063,1116 963.275,1115.5 Q963.7438,1115 964.275,1115 Q965.2125,1115 965.8063,1115.5625 Q966.4,1116.125 966.4,1117.4375 L966.4,1120.5625 Q966.4,1121.875 965.8375,1122.4375 Q965.275,1123 964.4,1123 Q963.6188,1123 963.1188,1122.6563 Q962.6188,1122.3125 962.4,1121.4063 Q962.3063,1120.7813 961.9625,1120.4375 Q961.3375,1119.7813 960.2125,1119.4063 Q959.0875,1119 957.9625,1119 Q956.5563,1119 955.3688,1119.5625 Q954.2125,1120.125 953.3063,1121.375 Q952.4,1122.625 952.4,1124.3438 L952.4,1126.1875 Q952.4,1128.25 954.0875,1129.625 Q955.775,1131 958.775,1131 Q960.5563,1131 961.8063,1130.5938 Q962.525,1130.375 963.3375,1129.6563 Q963.8688,1129.25 964.15,1129.125 Q964.4313,1129 964.775,1129 Q965.4313,1129 965.9,1129.5313 Q966.4,1130.0313 966.4,1130.75 Q966.4,1131.4375 965.7125,1132.25 Q964.7125,1133.4375 963.1188,1134.0938 Q961.025,1135 958.4625,1135 Q955.4625,1135 953.0563,1133.8125 Q951.1188,1132.875 949.7438,1130.8438 Q948.4,1128.8125 948.4,1126.4063 L948.4,1124.2188 Q948.4,1121.7188 949.5875,1119.5313 Q950.8063,1117.3438 952.9,1116.1875 Q955.025,1115 957.4,1115 Q958.8375,1115 960.0875,1115.5 Q961.3375,1116 962.4,1117 Z "/><text fill="#000000" font-family="sans-serif" font-size="24" lengthAdjust="spacingAndGlyphs" textLength="224" x="995.6" y="1133.8203">RegistoOrganizacao</text><line style="stroke: #A80036; stroke-width: 3.0;" x1="889" x2="1265" y1="1156" y2="1156"/><line style="stroke: #A80036; stroke-width: 3.0;" x1="889" x2="1265" y1="1172" y2="1172"/><text fill="#000000" font-family="sans-serif" font-size="22" lengthAdjust="spacingAndGlyphs" textLength="356" x="899" y="1202.8379">+getUtilizadorByEmailUtilizador(email)</text><!--MD5=[ac8682ea5466d223e49472789fb200d2]
class Colaborador--><rect fill="#FEFECE" filter="url(#f7fx87fhtsmxb)" height="206.6875" id="Colaborador" style="stroke: #A80036; stroke-width: 3.0;" width="204" x="1555" y="2298"/><ellipse cx="1585" cy="2330" fill="#ADD1B2" rx="22" ry="22" style="stroke: #A80036; stroke-width: 2.0;"/><path d="M1589,2323 Q1589.4063,2322 1589.875,2321.5 Q1590.3438,2321 1590.875,2321 Q1591.8125,2321 1592.4063,2321.5625 Q1593,2322.125 1593,2323.4375 L1593,2326.5625 Q1593,2327.875 1592.4375,2328.4375 Q1591.875,2329 1591,2329 Q1590.2188,2329 1589.7188,2328.6563 Q1589.2188,2328.3125 1589,2327.4063 Q1588.9063,2326.7813 1588.5625,2326.4375 Q1587.9375,2325.7813 1586.8125,2325.4063 Q1585.6875,2325 1584.5625,2325 Q1583.1563,2325 1581.9688,2325.5625 Q1580.8125,2326.125 1579.9063,2327.375 Q1579,2328.625 1579,2330.3438 L1579,2332.1875 Q1579,2334.25 1580.6875,2335.625 Q1582.375,2337 1585.375,2337 Q1587.1563,2337 1588.4063,2336.5938 Q1589.125,2336.375 1589.9375,2335.6563 Q1590.4688,2335.25 1590.75,2335.125 Q1591.0313,2335 1591.375,2335 Q1592.0313,2335 1592.5,2335.5313 Q1593,2336.0313 1593,2336.75 Q1593,2337.4375 1592.3125,2338.25 Q1591.3125,2339.4375 1589.7188,2340.0938 Q1587.625,2341 1585.0625,2341 Q1582.0625,2341 1579.6563,2339.8125 Q1577.7188,2338.875 1576.3438,2336.8438 Q1575,2334.8125 1575,2332.4063 L1575,2330.2188 Q1575,2327.7188 1576.1875,2325.5313 Q1577.4063,2323.3438 1579.5,2322.1875 Q1581.625,2321 1584,2321 Q1585.4375,2321 1586.6875,2321.5 Q1587.9375,2322 1589,2323 Z "/><ellipse cx="1613" cy="2329" fill="#84BE84" rx="-4" ry="-4" style="stroke: #038048; stroke-width: 2.0;"/><text fill="#000000" font-family="sans-serif" font-size="24" lengthAdjust="spacingAndGlyphs" textLength="138" x="1615" y="2339.8203">Colaborador</text><line style="stroke: #A80036; stroke-width: 3.0;" x1="1557" x2="1757" y1="2362" y2="2362"/><text fill="#000000" font-family="sans-serif" font-size="22" lengthAdjust="spacingAndGlyphs" textLength="122" x="1567" y="2392.8379">-String nome</text><text fill="#000000" font-family="sans-serif" font-size="22" lengthAdjust="spacingAndGlyphs" textLength="138" x="1567" y="2420.5098">-String funcao</text><text fill="#000000" font-family="sans-serif" font-size="22" lengthAdjust="spacingAndGlyphs" textLength="148" x="1567" y="2448.1816">-String telefone</text><text fill="#000000" font-family="sans-serif" font-size="22" lengthAdjust="spacingAndGlyphs" textLength="118" x="1567" y="2475.8535">-String email</text><line style="stroke: #A80036; stroke-width: 3.0;" x1="1557" x2="1757" y1="2488.6875" y2="2488.6875"/><!--MD5=[84d1b9922499e034344dac4e4526a697]
class Seriacao--><rect fill="#FEFECE" filter="url(#f7fx87fhtsmxb)" height="179.0156" id="Seriacao" style="stroke: #A80036; stroke-width: 3.0;" width="266" x="844" y="3694"/><ellipse cx="919.9" cy="3726" fill="#ADD1B2" rx="22" ry="22" style="stroke: #A80036; stroke-width: 2.0;"/><path d="M923.9,3719 Q924.3063,3718 924.775,3717.5 Q925.2438,3717 925.775,3717 Q926.7125,3717 927.3063,3717.5625 Q927.9,3718.125 927.9,3719.4375 L927.9,3722.5625 Q927.9,3723.875 927.3375,3724.4375 Q926.775,3725 925.9,3725 Q925.1188,3725 924.6188,3724.6563 Q924.1188,3724.3125 923.9,3723.4063 Q923.8063,3722.7813 923.4625,3722.4375 Q922.8375,3721.7813 921.7125,3721.4063 Q920.5875,3721 919.4625,3721 Q918.0563,3721 916.8688,3721.5625 Q915.7125,3722.125 914.8063,3723.375 Q913.9,3724.625 913.9,3726.3438 L913.9,3728.1875 Q913.9,3730.25 915.5875,3731.625 Q917.275,3733 920.275,3733 Q922.0563,3733 923.3063,3732.5938 Q924.025,3732.375 924.8375,3731.6563 Q925.3688,3731.25 925.65,3731.125 Q925.9313,3731 926.275,3731 Q926.9313,3731 927.4,3731.5313 Q927.9,3732.0313 927.9,3732.75 Q927.9,3733.4375 927.2125,3734.25 Q926.2125,3735.4375 924.6188,3736.0938 Q922.525,3737 919.9625,3737 Q916.9625,3737 914.5563,3735.8125 Q912.6188,3734.875 911.2438,3732.8438 Q909.9,3730.8125 909.9,3728.4063 L909.9,3726.2188 Q909.9,3723.7188 911.0875,3721.5313 Q912.3063,3719.3438 914.4,3718.1875 Q916.525,3717 918.9,3717 Q920.3375,3717 921.5875,3717.5 Q922.8375,3718 923.9,3719 Z "/><ellipse cx="958.1" cy="3725" fill="#84BE84" rx="-4" ry="-4" style="stroke: #038048; stroke-width: 2.0;"/><text fill="#000000" font-family="sans-serif" font-size="24" lengthAdjust="spacingAndGlyphs" textLength="98" x="960.1" y="3735.8203">Seriacao</text><line style="stroke: #A80036; stroke-width: 3.0;" x1="846" x2="1108" y1="3758" y2="3758"/><text fill="#000000" font-family="sans-serif" font-size="22" lengthAdjust="spacingAndGlyphs" textLength="204" x="856" y="3788.8379">-Seriacao OPCIONAL</text><text fill="#000000" font-family="sans-serif" font-size="22" lengthAdjust="spacingAndGlyphs" textLength="242" x="856" y="3816.5098">-Seriacao OBRIGATORIO</text><text fill="#000000" font-family="sans-serif" font-size="22" lengthAdjust="spacingAndGlyphs" textLength="236" x="856" y="3844.1816">-Seriacao AUTOMATICO</text><line style="stroke: #A80036; stroke-width: 3.0;" x1="846" x2="1108" y1="3857.0156" y2="3857.0156"/><!--MD5=[475c5b924ed41035684e2831311827d2]
class Candidatura--><rect fill="#FEFECE" filter="url(#f7fx87fhtsmxb)" height="179.0156" id="Candidatura" style="stroke: #A80036; stroke-width: 3.0;" width="202" x="1068" y="3358"/><ellipse cx="1098" cy="3390" fill="#ADD1B2" rx="22" ry="22" style="stroke: #A80036; stroke-width: 2.0;"/><path d="M1102,3383 Q1102.4063,3382 1102.875,3381.5 Q1103.3438,3381 1103.875,3381 Q1104.8125,3381 1105.4063,3381.5625 Q1106,3382.125 1106,3383.4375 L1106,3386.5625 Q1106,3387.875 1105.4375,3388.4375 Q1104.875,3389 1104,3389 Q1103.2188,3389 1102.7188,3388.6563 Q1102.2188,3388.3125 1102,3387.4063 Q1101.9063,3386.7813 1101.5625,3386.4375 Q1100.9375,3385.7813 1099.8125,3385.4063 Q1098.6875,3385 1097.5625,3385 Q1096.1563,3385 1094.9688,3385.5625 Q1093.8125,3386.125 1092.9063,3387.375 Q1092,3388.625 1092,3390.3438 L1092,3392.1875 Q1092,3394.25 1093.6875,3395.625 Q1095.375,3397 1098.375,3397 Q1100.1563,3397 1101.4063,3396.5938 Q1102.125,3396.375 1102.9375,3395.6563 Q1103.4688,3395.25 1103.75,3395.125 Q1104.0313,3395 1104.375,3395 Q1105.0313,3395 1105.5,3395.5313 Q1106,3396.0313 1106,3396.75 Q1106,3397.4375 1105.3125,3398.25 Q1104.3125,3399.4375 1102.7188,3400.0938 Q1100.625,3401 1098.0625,3401 Q1095.0625,3401 1092.6563,3399.8125 Q1090.7188,3398.875 1089.3438,3396.8438 Q1088,3394.8125 1088,3392.4063 L1088,3390.2188 Q1088,3387.7188 1089.1875,3385.5313 Q1090.4063,3383.3438 1092.5,3382.1875 Q1094.625,3381 1097,3381 Q1098.4375,3381 1099.6875,3381.5 Q1100.9375,3382 1102,3383 Z "/><ellipse cx="1126" cy="3389" fill="#84BE84" rx="-4" ry="-4" style="stroke: #038048; stroke-width: 2.0;"/><text fill="#000000" font-family="sans-serif" font-size="24" lengthAdjust="spacingAndGlyphs" textLength="136" x="1128" y="3399.8203">Candidatura</text><line style="stroke: #A80036; stroke-width: 3.0;" x1="1070" x2="1268" y1="3422" y2="3422"/><text fill="#000000" font-family="sans-serif" font-size="22" lengthAdjust="spacingAndGlyphs" textLength="128" x="1080" y="3452.8379">-Integer valor</text><text fill="#000000" font-family="sans-serif" font-size="22" lengthAdjust="spacingAndGlyphs" textLength="150" x="1080" y="3480.5098">-String duracao</text><text fill="#000000" font-family="sans-serif" font-size="22" lengthAdjust="spacingAndGlyphs" textLength="118" x="1080" y="3508.1816">-String texto</text><line style="stroke: #A80036; stroke-width: 3.0;" x1="1070" x2="1268" y1="3521.0156" y2="3521.0156"/><!--MD5=[7dfec94ad8360530483372af56a38dab]
class CandidaturasSeriadas--><rect fill="#FEFECE" filter="url(#f7fx87fhtsmxb)" height="234.3594" id="CandidaturasSeriadas" style="stroke: #A80036; stroke-width: 3.0;" width="408" x="1233" y="2660"/><ellipse cx="1304.4" cy="2692" fill="#ADD1B2" rx="22" ry="22" style="stroke: #A80036; stroke-width: 2.0;"/><path d="M1308.4,2685 Q1308.8063,2684 1309.275,2683.5 Q1309.7438,2683 1310.275,2683 Q1311.2125,2683 1311.8063,2683.5625 Q1312.4,2684.125 1312.4,2685.4375 L1312.4,2688.5625 Q1312.4,2689.875 1311.8375,2690.4375 Q1311.275,2691 1310.4,2691 Q1309.6188,2691 1309.1188,2690.6563 Q1308.6188,2690.3125 1308.4,2689.4063 Q1308.3063,2688.7813 1307.9625,2688.4375 Q1307.3375,2687.7813 1306.2125,2687.4063 Q1305.0875,2687 1303.9625,2687 Q1302.5563,2687 1301.3688,2687.5625 Q1300.2125,2688.125 1299.3063,2689.375 Q1298.4,2690.625 1298.4,2692.3438 L1298.4,2694.1875 Q1298.4,2696.25 1300.0875,2697.625 Q1301.775,2699 1304.775,2699 Q1306.5563,2699 1307.8063,2698.5938 Q1308.525,2698.375 1309.3375,2697.6563 Q1309.8688,2697.25 1310.15,2697.125 Q1310.4313,2697 1310.775,2697 Q1311.4313,2697 1311.9,2697.5313 Q1312.4,2698.0313 1312.4,2698.75 Q1312.4,2699.4375 1311.7125,2700.25 Q1310.7125,2701.4375 1309.1188,2702.0938 Q1307.025,2703 1304.4625,2703 Q1301.4625,2703 1299.0563,2701.8125 Q1297.1188,2700.875 1295.7438,2698.8438 Q1294.4,2696.8125 1294.4,2694.4063 L1294.4,2692.2188 Q1294.4,2689.7188 1295.5875,2687.5313 Q1296.8063,2685.3438 1298.9,2684.1875 Q1301.025,2683 1303.4,2683 Q1304.8375,2683 1306.0875,2683.5 Q1307.3375,2684 1308.4,2685 Z "/><ellipse cx="1341.6" cy="2691" fill="#84BE84" rx="-4" ry="-4" style="stroke: #038048; stroke-width: 2.0;"/><text fill="#000000" font-family="sans-serif" font-size="24" lengthAdjust="spacingAndGlyphs" textLength="250" x="1343.6" y="2701.8203">CandidaturasSeriadas</text><line style="stroke: #A80036; stroke-width: 3.0;" x1="1235" x2="1639" y1="2724" y2="2724"/><text fill="#000000" font-family="sans-serif" font-size="22" lengthAdjust="spacingAndGlyphs" textLength="100" x="1245" y="2754.8379">-Date data</text><line style="stroke: #A80036; stroke-width: 3.0;" x1="1235" x2="1639" y1="2767.6719" y2="2767.6719"/><text fill="#000000" font-family="sans-serif" font-size="22" lengthAdjust="spacingAndGlyphs" textLength="382" x="1245" y="2798.5098">+CandidaturasSeriadas(anuncio, listaC)</text><text fill="#000000" font-family="sans-serif" font-size="22" lengthAdjust="spacingAndGlyphs" textLength="384" x="1245" y="2826.1816">+addCandidaturaByID(idCandidatura, lc)</text><text fill="#000000" font-family="sans-serif" font-size="22" lengthAdjust="spacingAndGlyphs" textLength="378" x="1245" y="2853.8535">+addClassificacao(idAnuncio, lc, lugar)</text><text fill="#000000" font-family="sans-serif" font-size="22" lengthAdjust="spacingAndGlyphs" textLength="150" x="1245" y="2881.5254">+addData(data)</text><!--MD5=[716bba0e94eea125d5a66a891f2c3c34]
class Classificacao--><rect fill="#FEFECE" filter="url(#f7fx87fhtsmxb)" height="151.3438" id="Classificacao" style="stroke: #A80036; stroke-width: 3.0;" width="268" x="1401" y="3050"/><ellipse cx="1454.4" cy="3082" fill="#ADD1B2" rx="22" ry="22" style="stroke: #A80036; stroke-width: 2.0;"/><path d="M1458.4,3075 Q1458.8063,3074 1459.275,3073.5 Q1459.7438,3073 1460.275,3073 Q1461.2125,3073 1461.8063,3073.5625 Q1462.4,3074.125 1462.4,3075.4375 L1462.4,3078.5625 Q1462.4,3079.875 1461.8375,3080.4375 Q1461.275,3081 1460.4,3081 Q1459.6188,3081 1459.1188,3080.6563 Q1458.6188,3080.3125 1458.4,3079.4063 Q1458.3063,3078.7813 1457.9625,3078.4375 Q1457.3375,3077.7813 1456.2125,3077.4063 Q1455.0875,3077 1453.9625,3077 Q1452.5563,3077 1451.3688,3077.5625 Q1450.2125,3078.125 1449.3063,3079.375 Q1448.4,3080.625 1448.4,3082.3438 L1448.4,3084.1875 Q1448.4,3086.25 1450.0875,3087.625 Q1451.775,3089 1454.775,3089 Q1456.5563,3089 1457.8063,3088.5938 Q1458.525,3088.375 1459.3375,3087.6563 Q1459.8688,3087.25 1460.15,3087.125 Q1460.4313,3087 1460.775,3087 Q1461.4313,3087 1461.9,3087.5313 Q1462.4,3088.0313 1462.4,3088.75 Q1462.4,3089.4375 1461.7125,3090.25 Q1460.7125,3091.4375 1459.1188,3092.0938 Q1457.025,3093 1454.4625,3093 Q1451.4625,3093 1449.0563,3091.8125 Q1447.1188,3090.875 1445.7438,3088.8438 Q1444.4,3086.8125 1444.4,3084.4063 L1444.4,3082.2188 Q1444.4,3079.7188 1445.5875,3077.5313 Q1446.8063,3075.3438 1448.9,3074.1875 Q1451.025,3073 1453.4,3073 Q1454.8375,3073 1456.0875,3073.5 Q1457.3375,3074 1458.4,3075 Z "/><ellipse cx="1487.6" cy="3081" fill="#84BE84" rx="-4" ry="-4" style="stroke: #038048; stroke-width: 2.0;"/><text fill="#000000" font-family="sans-serif" font-size="24" lengthAdjust="spacingAndGlyphs" textLength="150" x="1489.6" y="3091.8203">Classificacao</text><line style="stroke: #A80036; stroke-width: 3.0;" x1="1403" x2="1667" y1="3114" y2="3114"/><text fill="#000000" font-family="sans-serif" font-size="22" lengthAdjust="spacingAndGlyphs" textLength="244" x="1413" y="3144.8379">-Candidatura candidatura</text><text fill="#000000" font-family="sans-serif" font-size="22" lengthAdjust="spacingAndGlyphs" textLength="84" x="1413" y="3172.5098">-int lugar</text><line style="stroke: #A80036; stroke-width: 3.0;" x1="1403" x2="1667" y1="3185.3438" y2="3185.3438"/><!--MD5=[b83c3f10011fabf06242fbd8b132b538]
link SeriarAnuncioUI to SeriarAnuncioController--><path d="M691,112.6 C691,141.58 691,181.22 691,223.06 " fill="none" id="SeriarAnuncioUI-&gt;SeriarAnuncioController" style="stroke: #A80036; stroke-width: 2.0; stroke-dasharray: 7.0,7.0;"/><polygon fill="#A80036" points="691,233.16,699,215.16,691,223.16,683,215.16,691,233.16" style="stroke: #A80036; stroke-width: 2.0;"/><!--MD5=[32f0d5beb7aa7986a0551d9177e7d40e]
link SeriarAnuncioController to Plataforma--><path d="M837.782,662.36 C865.418,702.34 892.756,741.9 915.544,774.88 " fill="none" id="SeriarAnuncioController-&gt;Plataforma" style="stroke: #A80036; stroke-width: 2.0; stroke-dasharray: 7.0,7.0;"/><polygon fill="#A80036" points="921.236,783.1,917.5852,763.7436,915.5513,774.8729,904.4219,772.839,921.236,783.1" style="stroke: #A80036; stroke-width: 2.0;"/><!--MD5=[16f895ff33c58794e0c8ff97c36872ed]
link SeriarAnuncioController to AplicacaoPOT--><path d="M442.694,628.36 C370.14,680.48 294.428,734.86 234.908,777.62 " fill="none" id="SeriarAnuncioController-&gt;AplicacaoPOT" style="stroke: #A80036; stroke-width: 2.0; stroke-dasharray: 7.0,7.0;"/><polygon fill="#A80036" points="226.246,783.84,245.5316,779.8318,234.3665,778.0041,236.1942,766.839,226.246,783.84" style="stroke: #A80036; stroke-width: 2.0;"/><!--MD5=[f823fef0d4950d355eb58465f09ea3ae]
link SeriarAnuncioController to SessaoAtual--><path d="M562.956,662.36 C535.404,708.06 508.19,753.2 486.856,788.58 " fill="none" id="SeriarAnuncioController-&gt;SessaoAtual" style="stroke: #A80036; stroke-width: 2.0; stroke-dasharray: 7.0,7.0;"/><polygon fill="#A80036" points="481.564,797.36,497.7175,786.0877,486.7337,788.8,484.0215,777.8162,481.564,797.36" style="stroke: #A80036; stroke-width: 2.0;"/><!--MD5=[04f3952ba6c205007353378d0c72aa57]
link Plataforma to RegistoOrganizacao--><path d="M999.782,936.68 C1015.786,981.3 1035.992,1037.64 1051.72,1081.5 " fill="none" id="Plataforma-&gt;RegistoOrganizacao" style="stroke: #A80036; stroke-width: 2.0;"/><polygon fill="#A80036" points="1055.208,1091.24,1056.669,1071.5965,1051.8356,1081.8258,1041.6063,1076.9924,1055.208,1091.24" style="stroke: #A80036; stroke-width: 2.0;"/><text fill="#000000" font-family="sans-serif" font-size="26" lengthAdjust="spacingAndGlyphs" textLength="172" x="1033" y="1024.9902">tem registadas</text><text fill="#000000" font-family="sans-serif" font-size="26" lengthAdjust="spacingAndGlyphs" textLength="14" x="988.9348" y="978.5494">1</text><text fill="#000000" font-family="sans-serif" font-size="26" lengthAdjust="spacingAndGlyphs" textLength="14" x="1035.2697" y="1070.0923">1</text><!--MD5=[369fb901dcbcaa1e6bfb1c490a81dd1e]
link RegistoOrganizacao to Organizacao--><path d="M1122.192,1216.08 C1152.544,1256.44 1193.98,1311.54 1233.014,1363.44 " fill="none" id="RegistoOrganizacao-&gt;Organizacao" style="stroke: #A80036; stroke-width: 2.0;"/><polygon fill="#A80036" points="1239.256,1371.74,1234.8056,1352.5516,1233.235,1363.7558,1222.0309,1362.1852,1239.256,1371.74" style="stroke: #A80036; stroke-width: 2.0;"/><text fill="#000000" font-family="sans-serif" font-size="26" lengthAdjust="spacingAndGlyphs" textLength="158" x="1189" y="1304.9902">tem registado</text><text fill="#000000" font-family="sans-serif" font-size="26" lengthAdjust="spacingAndGlyphs" textLength="14" x="1115.7111" y="1258.5437">1</text><text fill="#000000" font-family="sans-serif" font-size="26" lengthAdjust="spacingAndGlyphs" textLength="10" x="1217.6293" y="1350.1519">*</text><!--MD5=[0e5ef7140fec91707d06b672000f2862]
link Organizacao to RegistoColaborador--><path d="M1486.638,1599.66 C1610.358,1671.12 1788.72,1774.14 1903.754,1840.58 " fill="none" id="Organizacao-&gt;RegistoColaborador" style="stroke: #A80036; stroke-width: 2.0;"/><polygon fill="#A80036" points="1912.612,1845.7,1901.03,1829.7671,1903.9538,1840.6965,1893.0244,1843.6203,1912.612,1845.7" style="stroke: #A80036; stroke-width: 2.0;"/><!--MD5=[1b181b8a25d2388b602feb55ba6b7ac0]
link Organizacao to RegistoCandidaturasSeriadas--><path d="M1394.81,1662.02 C1399.846,1681.98 1404.158,1702.36 1407,1722 C1423.03,1832.78 1411.604,1961.302 1399.65,2047.548 " fill="none" id="Organizacao-&gt;RegistoCandidaturasSeriadas" style="stroke: #A80036; stroke-width: 2.0;"/><polygon fill="#A80036" points="1398.192,2057.852,1408.6376,2041.152,1399.5946,2047.9509,1392.7958,2038.9078,1398.192,2057.852" style="stroke: #A80036; stroke-width: 2.0;"/><!--MD5=[fbaac35933480661f4d902d32e85ca14]
link RegistoCandidaturasSeriadas to CandidaturasSeriadas--><path d="M1390.622,2238.222 C1399.898,2345.572 1415.62,2527.552 1426.154,2649.476 " fill="none" id="RegistoCandidaturasSeriadas-&gt;CandidaturasSeriadas" style="stroke: #A80036; stroke-width: 2.0; stroke-dasharray: 7.0,7.0;"/><polygon fill="#A80036" points="1427.03,2659.614,1433.4523,2640.9927,1426.17,2649.651,1417.5116,2642.3687,1427.03,2659.614" style="stroke: #A80036; stroke-width: 2.0;"/><!--MD5=[b811d3993ee0037141ac6394bf224c74]
link RegistoColaborador to Colaborador--><path d="M1972.134,1970.944 C1913.652,2050.382 1810.318,2190.742 1737.972,2289.012 " fill="none" id="RegistoColaborador-&gt;Colaborador" style="stroke: #A80036; stroke-width: 2.0;"/><polygon fill="#A80036" points="1731.946,2297.198,1749.0592,2287.4441,1737.874,2289.1445,1736.1736,2277.9593,1731.946,2297.198" style="stroke: #A80036; stroke-width: 2.0;"/><!--MD5=[567db691f9836c63f305bad1024cbc66]
link Organizacao to Colaborador--><path d="M1427.876,1662.46 C1438.574,1682.34 1449.216,1702.6 1459,1722 C1532.952,1868.68 1567.754,1900.082 1613,2058 C1634.38,2132.622 1645.394,2219.424 1651.054,2286.776 " fill="none" id="Organizacao-&gt;Colaborador" style="stroke: #A80036; stroke-width: 2.0;"/><polygon fill="#A80036" points="1651.918,2297.414,1658.4366,2278.8261,1651.1095,2287.4467,1642.4889,2280.1197,1651.918,2297.414" style="stroke: #A80036; stroke-width: 2.0;"/><text fill="#000000" font-family="sans-serif" font-size="26" lengthAdjust="spacingAndGlyphs" textLength="172" x="1595" y="1918.9902">tem registados</text><text fill="#000000" font-family="sans-serif" font-size="26" lengthAdjust="spacingAndGlyphs" textLength="14" x="1420.9173" y="1704.887">1</text><text fill="#000000" font-family="sans-serif" font-size="26" lengthAdjust="spacingAndGlyphs" textLength="38" x="1610.682" y="2276.3359">1_*</text><!--MD5=[18ea51b8911293687af9865a8178b144]
link Colaborador to CandidaturasSeriadas--><path d="M1596.884,2504.65 C1570.176,2549.812 1538.49,2603.39 1510.398,2650.89 " fill="none" id="Colaborador-&gt;CandidaturasSeriadas" style="stroke: #A80036; stroke-width: 2.0;"/><polygon fill="#A80036" points="1505.196,2659.686,1521.245,2648.2654,1510.2867,2651.0787,1507.4734,2640.1204,1505.196,2659.686" style="stroke: #A80036; stroke-width: 2.0;"/><text fill="#000000" font-family="sans-serif" font-size="26" lengthAdjust="spacingAndGlyphs" textLength="70" x="1561" y="2592.9902">efetua</text><text fill="#000000" font-family="sans-serif" font-size="26" lengthAdjust="spacingAndGlyphs" textLength="14" x="1573.8653" y="2547.7193">1</text><text fill="#000000" font-family="sans-serif" font-size="26" lengthAdjust="spacingAndGlyphs" textLength="38" x="1473.1918" y="2638.4495">1_*</text><!--MD5=[27b52c98fcb5387c047ce09b42fcb62d]
link Anuncio to Candidatura--><path d="M939.818,2504.906 C988.736,2705.782 1097.034,3150.484 1145.154,3348.084 " fill="none" id="Anuncio-&gt;Candidatura" style="stroke: #A80036; stroke-width: 2.0;"/><polygon fill="#A80036" points="1147.54,3357.876,1151.0497,3338.4935,1145.1718,3348.1605,1135.5048,3342.2826,1147.54,3357.876" style="stroke: #A80036; stroke-width: 2.0;"/><text fill="#000000" font-family="sans-serif" font-size="26" lengthAdjust="spacingAndGlyphs" textLength="44" x="1057" y="2982.9902">tem</text><text fill="#000000" font-family="sans-serif" font-size="26" lengthAdjust="spacingAndGlyphs" textLength="14" x="928.2123" y="2548.0097">1</text><text fill="#000000" font-family="sans-serif" font-size="26" lengthAdjust="spacingAndGlyphs" textLength="10" x="1133.3229" y="3336.0872">*</text><!--MD5=[424efd881d0b8ba6551a9b0b1af7705e]
link CandidaturasSeriadas to Candidatura--><path d="M1368.27,2894.606 C1341.942,2941.78 1312.98,2997.5 1291,3050 C1249.62,3148.836 1215.092,3266.714 1193.452,3348.018 " fill="none" id="CandidaturasSeriadas-&gt;Candidatura" style="stroke: #A80036; stroke-width: 2.0;"/><polygon fill="#A80036" points="1190.876,3357.748,1203.2136,3342.3927,1193.4336,3348.0806,1187.7457,3338.3006,1190.876,3357.748" style="stroke: #A80036; stroke-width: 2.0;"/><text fill="#000000" font-family="sans-serif" font-size="26" lengthAdjust="spacingAndGlyphs" textLength="72" x="1293" y="3136.9902">requer</text><text fill="#000000" font-family="sans-serif" font-size="26" lengthAdjust="spacingAndGlyphs" textLength="14" x="1345.5137" y="2937.0643">1</text><text fill="#000000" font-family="sans-serif" font-size="26" lengthAdjust="spacingAndGlyphs" textLength="38" x="1153.3164" y="3336.5976">1_*</text><!--MD5=[4c46c2f503071b50432951a241238b49]
link CandidaturasSeriadas to Classificacao--><path d="M1469.906,2894.84 C1483.398,2942.34 1498.722,2996.286 1511.112,3039.902 " fill="none" id="CandidaturasSeriadas-&gt;Classificacao" style="stroke: #A80036; stroke-width: 2.0;"/><polygon fill="#A80036" points="1513.87,3049.612,1516.6494,3030.1114,1511.1386,3039.9922,1501.2578,3034.4815,1513.87,3049.612" style="stroke: #A80036; stroke-width: 2.0;"/><text fill="#000000" font-family="sans-serif" font-size="26" lengthAdjust="spacingAndGlyphs" textLength="76" x="1495" y="2982.9902">possui</text><text fill="#000000" font-family="sans-serif" font-size="26" lengthAdjust="spacingAndGlyphs" textLength="14" x="1458.9014" y="2937.3254">1</text><text fill="#000000" font-family="sans-serif" font-size="26" lengthAdjust="spacingAndGlyphs" textLength="38" x="1468.7218" y="3028.2667">1_*</text><!--MD5=[471b8c6ff5fcf31b4b6fb9b4f947344d]
link Classificacao to Candidatura--><path d="M1449.19,3202.556 C1398.24,3246.824 1333.13,3303.394 1278.502,3350.86 " fill="none" id="Classificacao-&gt;Candidatura" style="stroke: #A80036; stroke-width: 2.0;"/><polygon fill="#A80036" points="1270.52,3357.794,1289.3564,3352.0329,1278.0707,3351.2375,1278.866,3339.9518,1270.52,3357.794" style="stroke: #A80036; stroke-width: 2.0;"/><text fill="#000000" font-family="sans-serif" font-size="26" lengthAdjust="spacingAndGlyphs" textLength="86" x="1375" y="3290.9902">contém</text><text fill="#000000" font-family="sans-serif" font-size="26" lengthAdjust="spacingAndGlyphs" textLength="14" x="1420.3984" y="3244.4057">1</text><text fill="#000000" font-family="sans-serif" font-size="26" lengthAdjust="spacingAndGlyphs" textLength="14" x="1271.5841" y="3335.9921">1</text><!--MD5=[9457b5a9540a3a3929641b75147a44dc]
link Anuncio to CandidaturasSeriadas--><path d="M1019.38,2477.386 C1089.998,2527.712 1184.89,2595.336 1266.374,2653.406 " fill="none" id="Anuncio-&gt;CandidaturasSeriadas" style="stroke: #A80036; stroke-width: 2.0;"/><polygon fill="#A80036" points="1275.226,2659.714,1265.2101,2642.7528,1267.0823,2653.9105,1255.9246,2655.7827,1275.226,2659.714" style="stroke: #A80036; stroke-width: 2.0;"/><text fill="#000000" font-family="sans-serif" font-size="26" lengthAdjust="spacingAndGlyphs" textLength="76" x="1177" y="2592.9902">possui</text><text fill="#000000" font-family="sans-serif" font-size="26" lengthAdjust="spacingAndGlyphs" textLength="14" x="1035.0428" y="2480.8691">1</text><text fill="#000000" font-family="sans-serif" font-size="26" lengthAdjust="spacingAndGlyphs" textLength="14" x="1240.6567" y="2638.481">1</text><!--MD5=[05aecb5e61ff9af9d0ff125c4d0d8272]
link SeriarAnuncioController to CandidaturasSeriadas--><path d="M939.852,463.06 C1383.96,493.2 2267,587.2 2267,858 C2267,858 2267,858 2267,2403 C2267,2672.836 1897.182,2748.188 1651.258,2768.464 " fill="none" id="SeriarAnuncioController-&gt;CandidaturasSeriadas" style="stroke: #A80036; stroke-width: 2.0; stroke-dasharray: 7.0,7.0;"/><polygon fill="#A80036" points="1641.104,2769.276,1659.6844,2775.8157,1651.0722,2768.4789,1658.409,2759.8667,1641.104,2769.276" style="stroke: #A80036; stroke-width: 2.0;"/><!--MD5=[984e219f6a0d002e01dee9fdc077733f]
link SeriarAnuncioController to Anuncio--><path d="M691,662.28 C691,725.28 691,794.42 691,858 C691,858 691,858 691,1910 C691,2050.044 767.878,2193.828 831.558,2288.908 " fill="none" id="SeriarAnuncioController-&gt;Anuncio" style="stroke: #A80036; stroke-width: 2.0; stroke-dasharray: 7.0,7.0;"/><polygon fill="#A80036" points="837.284,2297.382,833.8328,2277.989,831.6844,2289.0968,820.5765,2286.9484,837.284,2297.382" style="stroke: #A80036; stroke-width: 2.0;"/><!--MD5=[bf52cf4b45c35d027c2b3baa3b3b6e60]
link Organizacao to RegistoAnuncio--><path d="M1264.652,1662.52 C1254.712,1682.22 1245.196,1702.4 1237,1722 C1225.644,1749.16 1215.466,1779.44 1207.004,1807.46 " fill="none" id="Organizacao-&gt;RegistoAnuncio" style="stroke: #A80036; stroke-width: 2.0;"/><polygon fill="#A80036" points="1203.964,1817.68,1216.7723,1802.7151,1206.8204,1808.0966,1201.4389,1798.1448,1203.964,1817.68" style="stroke: #A80036; stroke-width: 2.0;"/><text fill="#000000" font-family="sans-serif" font-size="26" lengthAdjust="spacingAndGlyphs" textLength="158" x="1239" y="1750.9902">tem registado</text><text fill="#000000" font-family="sans-serif" font-size="26" lengthAdjust="spacingAndGlyphs" textLength="14" x="1242.4152" y="1704.4465">1</text><text fill="#000000" font-family="sans-serif" font-size="26" lengthAdjust="spacingAndGlyphs" textLength="38" x="1166.571" y="1796.5192">1_*</text><!--MD5=[55f954b55e54745b7c08c873f2d7d50c]
link RegistoAnuncio to Anuncio--><path d="M1017.852,1994.124 C994.978,2012.338 974.148,2033.6 959,2058 C916.69,2126.156 906.676,2216.728 906.71,2287.398 " fill="none" id="RegistoAnuncio-&gt;Anuncio" style="stroke: #A80036; stroke-width: 2.0;"/><polygon fill="#A80036" points="906.786,2297.676,914.6521,2279.6171,906.7117,2287.6763,898.6525,2279.7359,906.786,2297.676" style="stroke: #A80036; stroke-width: 2.0;"/><text fill="#000000" font-family="sans-serif" font-size="26" lengthAdjust="spacingAndGlyphs" textLength="158" x="961" y="2158.9902">tem registado</text><text fill="#000000" font-family="sans-serif" font-size="26" lengthAdjust="spacingAndGlyphs" textLength="14" x="988.1665" y="1995.6566">1</text><text fill="#000000" font-family="sans-serif" font-size="26" lengthAdjust="spacingAndGlyphs" textLength="10" x="895.0104" y="2276.6331">*</text><!--MD5=[32a129d5bc595627aea1e24e185c5fa2]
link Organizacao to Anuncio--><path d="M1207.9,1570.34 C1103.122,1617.26 966.962,1697.82 903,1818 C824.626,1965.266 852.504,2164.682 882.072,2287.44 " fill="none" id="Organizacao-&gt;Anuncio" style="stroke: #A80036; stroke-width: 2.0;"/><polygon fill="#A80036" points="884.566,2297.61,888.0462,2278.2222,882.183,2287.8981,872.5071,2282.0349,884.566,2297.61" style="stroke: #A80036; stroke-width: 2.0;"/><text fill="#000000" font-family="sans-serif" font-size="26" lengthAdjust="spacingAndGlyphs" textLength="76" x="905" y="1918.9902">possui</text><text fill="#000000" font-family="sans-serif" font-size="26" lengthAdjust="spacingAndGlyphs" textLength="14" x="1177.9203" y="1569.469">1</text><text fill="#000000" font-family="sans-serif" font-size="26" lengthAdjust="spacingAndGlyphs" textLength="38" x="839.9233" y="2276.5583">1_*</text><!--MD5=[22ab75f887ca251f11fce1d8db3a0e76]
link Anuncio to Seriacao--><path d="M898.152,2504.524 C887.22,2579.13 875,2683.088 875,2775 C875,2775 875,2775 875,3450 C875,3531.322 903.31,3619.104 930.1,3683.9686 " fill="none" id="Anuncio-&gt;Seriacao" style="stroke: #A80036; stroke-width: 2.0;"/><polygon fill="#A80036" points="934.038,3693.3692,934.4611,3673.676,930.1738,3684.146,919.7039,3679.8587,934.038,3693.3692" style="stroke: #A80036; stroke-width: 2.0;"/><text fill="#000000" font-family="sans-serif" font-size="26" lengthAdjust="spacingAndGlyphs" textLength="94" x="877" y="3136.9902">tem tipo</text><text fill="#000000" font-family="sans-serif" font-size="26" lengthAdjust="spacingAndGlyphs" textLength="14" x="880.9474" y="2547.5763">1</text><text fill="#000000" font-family="sans-serif" font-size="26" lengthAdjust="spacingAndGlyphs" textLength="14" x="912.3876" y="3672.1617">1</text><!--MD5=[d69fc416af3af6362a23031b17c97f77]
link Candidatura to Seriacao--><path d="M1118.052,3538.098 C1092.014,3583.122 1060.258,3638.034 1033.474,3684.3476 " fill="none" id="Candidatura-&gt;Seriacao" style="stroke: #A80036; stroke-width: 2.0;"/><polygon fill="#A80036" points="1028.186,3693.49,1044.1223,3681.9127,1033.1921,3684.8332,1030.2715,3673.903,1028.186,3693.49" style="stroke: #A80036; stroke-width: 2.0;"/><text fill="#000000" font-family="sans-serif" font-size="26" lengthAdjust="spacingAndGlyphs" textLength="72" x="1079" y="3626.9902">requer</text><text fill="#000000" font-family="sans-serif" font-size="26" lengthAdjust="spacingAndGlyphs" textLength="10" x="1100.1843" y="3580.1269">*</text><text fill="#000000" font-family="sans-serif" font-size="26" lengthAdjust="spacingAndGlyphs" textLength="14" x="1020.952" y="3672.3001">1</text><!--MD5=[3157e8c016f7721f7a4cff8676908365]
@startuml

skinparam classAttributeIconSize 0

class SeriarAnuncioUI{
}
class SeriarAnuncioController{
    +getListaColaboradores()
    +addColParticipanteByID(idColParticipante, listaC)
    removerCol(idColParticipante, listaC)
    +getListaAnuncio()
    +getAnuncioByID(idAnuncio)
    +verificacaoAnuncio()
    +novaCandidaturasSeriadas(anuncio)
    +seriarListaCandidaturas(idCandidatura, lc)
    +removerCandidaturas(idCandidatura, lc)
    +addData()
    +validaCandidaturasSeriadas()
    +registaCandidaturasSeriadas()
}
class Organizacao{
    -String nome
    -String NIF
    -String website
    -String telefone
    -String email
    +getRegistoOrganizacao()
    +getRegistoAnuncio()
}
class RegistoCandidaturasSeriadas{
    +novaCandidaturasSeriadas(anuncio, listaC)
    +validaCandidaturasSeriadas(seriacao)
    +registarCandidaturasSeriadas(seriacao)
}
class RegistoAnuncio{
    +getListaAnuncio()
    +getAnuncioByID(idAnuncio)
    +getRegistoCandidaturasByID()
}
class RegistoColaborador{
    +getListaColaboradores()
}
class AplicacaoPOT{
    +static getInstance()
    +getSessaoAtual()
}
class SessaoAtual{
    +String getEmailUtilizador()
}
class Anuncio{
    -int periodoDePub
    -int periodoDeCand
    -int periodoDeDec
    +getTipoSeriacao()
}
class Plataforma{
    -String designacao
    +getRegistoOrganizacao()
}
class RegistoOrganizacao{
    +getUtilizadorByEmailUtilizador(email)
}
+class Colaborador{
    -String nome
    -String funcao
    -String telefone
    -String email
}
+class Seriacao{
    -Seriacao OPCIONAL
    -Seriacao OBRIGATORIO
    -Seriacao AUTOMATICO
}
+class Candidatura {
    -Integer valor
    -String duracao
    -String texto
}
+class CandidaturasSeriadas{
    -Date data
    +CandidaturasSeriadas(anuncio, listaC)
    +addCandidaturaByID(idCandidatura, lc)
    +addClassificacao(idAnuncio, lc, lugar)
    +addData(data) 
}
+class Classificacao{
    -Candidatura candidatura
    -int lugar
}

SeriarAnuncioUI ..> SeriarAnuncioController
SeriarAnuncioController ..> Plataforma
SeriarAnuncioController ..> AplicacaoPOT
SeriarAnuncioController ..> SessaoAtual
Plataforma "1" - -> "1" RegistoOrganizacao : tem registadas
RegistoOrganizacao "1" - -> "*" Organizacao : tem registado
Organizacao - -> RegistoColaborador
Organizacao - -> RegistoCandidaturasSeriadas
RegistoCandidaturasSeriadas ..> CandidaturasSeriadas
RegistoColaborador - -> Colaborador
Organizacao "1" - -> "1_*" Colaborador : tem registados
Colaborador "1" - -> "1_*" CandidaturasSeriadas : efetua
Anuncio "1" - -> "*" Candidatura : tem
CandidaturasSeriadas "1" - -> "1_*" Candidatura : requer
CandidaturasSeriadas "1" - -> "1_*" Classificacao : possui
Classificacao "1" - -> "1" Candidatura : contém
Anuncio "1" - -> "1" CandidaturasSeriadas : possui
SeriarAnuncioController ..> CandidaturasSeriadas
SeriarAnuncioController ..> Anuncio
Organizacao "1" - -> "1_*" RegistoAnuncio : tem registado
RegistoAnuncio "1" - -> "*" Anuncio : tem registado
Organizacao "1" - -> "1_*" Anuncio : possui
Anuncio "1" - -> "1" Seriacao : tem tipo
Candidatura "*" - -> "1" Seriacao : requer


















@enduml

PlantUML version 1.2020.07(Sun Apr 19 12:42:40 BST 2020)
(GPL source distribution)
Java Runtime: OpenJDK Runtime Environment
JVM: OpenJDK 64-Bit Server VM
Java Version: 11.0.6+8-b765.40
Operating System: Windows 10
Default Encoding: Cp1252
Language: pt
Country: PT
--></g></svg>