@startuml
autonumber

actor "Utilizador Não Registado" as UNR
participant ":Registo\nOrganizacaoUI" as UI
participant ":RegistoOrganizacao\nController" as CTRL
participant ":Plataforma" as PLAT
participant "ro:RegistoOrganizacao" as RO
participant "Organizacao" as _ORG
participant "org:Organizacao" as ORG
participant "end:EnderecoPostal" as END
participant "rcb:RegistoColaborador" as RCB
participant "colab:Colaborador" as COLAB
participant ":Autorizacao\nFacade" as AUT
participant "<<Interface>> alg:AlgoritmoGeradorPasswords" as ALG



activate UNR
UNR -> UI : Registo organização
activate UI
UI --> UNR : solicita dados organização \n(nome,NIF,endereço,tlf,site,email)\n e sobre o gestor (nomeG,função,tlfG, emailG)
deactivate UI

UNR -> UI : introduz os dados solicitados
activate UI

UI -> CTRL : novaOrganizacao(nome,NIF,endLocal,endCodPostal,\nendLocalidade,tlf,site,email,nomeG,função,tlfG, emailG)
activate CTRL

CTRL -> PLAT : ro=getRegistoOrganizacao()
activate PLAT
deactivate PLAT

CTRL -> RO: org = novaOrganizacao(nome,NIF,endLocal,endCodPostal,\nendLocalidade,tlf,site,email,nomeG,função,tlfG, emailG)
activate RO

RO -> _ORG: end=novoEndereco(endLocal,endCodPostal,endLocalidade)
activate _ORG
_ORG --> END ** : create(endLocal,endCodPostal,endLocalidade)
deactivate _ORG

RO ->_ORG: rcb=getRegistoColaborador()
activate _ORG
deactivate _ORG

RO -> RCB: colab=novoColaborador(nomeG,função,tlfG, emailG)
activate RCB
RCB --> COLAB ** : create(nomeG,função,tlfG, emailG)
deactivate RCB

RO --> ORG ** : create(nome,NIF,end,tlf,site,email,colab)
deactivate RO

CTRL -> PLAT: alg=getAlgoritmoGeradorPwd()
activate PLAT
deactivate PLAT

CTRL -> ALG: pwd=geraPassword(nomeG, emailG)
activate ALG
deactivate ALG

CTRL -> RO : validaOrganizacao(org, pwd)
activate RO
deactivate RO

deactivate CTRL
UI --> UNR : apresenta dados e solicita confirmação
deactivate UI

UNR -> UI : confirma
activate UI

UI -> CTRL: registaOrganizacao()
activate CTRL
CTRL -> RO: registaOrganizacao(org, pwd)
activate RO

RO -> RO: validaOrganizao(org, pwd)
RO -> COLAB: nomeG = getNome()
activate COLAB
deactivate COLAB
RO -> COLAB: emailG = getEmail()
activate COLAB
deactivate COLAB
RO -> AUT: registaUtilizadorComPapeis(nomeG,emailG,pwd,["GESTOR","COLABORADOR"])
activate AUT
deactivate AUT
RO -> RO: addOrganizao(org)


deactivate RO
deactivate CTRL
UI --> UNR : operação bem sucedida
deactivate UI

deactivate UNR
@enduml