<?xml version="1.0" encoding="UTF-8" standalone="no"?>
<svg xmlns="http://www.w3.org/2000/svg" contentScriptType="application/ecmascript" contentStyleType="text/css"
     height="1710px" preserveAspectRatio="none" style="width:2838px;height:1710px;" version="1.1"
     viewBox="0 0 2838 1710" width="2838px" zoomAndPan="magnify">
    <defs>
        <filter height="300%" id="f1gxdynivq1uhx" width="300%" x="-1" y="-1">
            <feGaussianBlur result="blurOut" stdDeviation="4.0"/>
            <feColorMatrix in="blurOut" result="blurOut2" type="matrix"
                           values="0 0 0 0 0 0 0 0 0 0 0 0 0 0 0 0 0 0 .4 0"/>
            <feOffset dx="8.0" dy="8.0" in="blurOut2" result="blurOut3"/>
            <feBlend in="SourceGraphic" in2="blurOut3" mode="normal"/>
        </filter>
    </defs>
    <g><!--MD5=[ac8682ea5466d223e49472789fb200d2]
class Colaborador-->
        <rect fill="#FEFECE" filter="url(#f1gxdynivq1uhx)" height="289.7031" id="Colaborador"
              style="stroke: #A80036; stroke-width: 3.0;" width="380" x="1092" y="1400"/>
        <ellipse cx="1204.5" cy="1432" fill="#ADD1B2" rx="22" ry="22" style="stroke: #A80036; stroke-width: 2.0;"/>
        <path d="M1208.5,1425 Q1208.9063,1424 1209.375,1423.5 Q1209.8438,1423 1210.375,1423 Q1211.3125,1423 1211.9063,1423.5625 Q1212.5,1424.125 1212.5,1425.4375 L1212.5,1428.5625 Q1212.5,1429.875 1211.9375,1430.4375 Q1211.375,1431 1210.5,1431 Q1209.7188,1431 1209.2188,1430.6563 Q1208.7188,1430.3125 1208.5,1429.4063 Q1208.4063,1428.7813 1208.0625,1428.4375 Q1207.4375,1427.7813 1206.3125,1427.4063 Q1205.1875,1427 1204.0625,1427 Q1202.6563,1427 1201.4688,1427.5625 Q1200.3125,1428.125 1199.4063,1429.375 Q1198.5,1430.625 1198.5,1432.3438 L1198.5,1434.1875 Q1198.5,1436.25 1200.1875,1437.625 Q1201.875,1439 1204.875,1439 Q1206.6563,1439 1207.9063,1438.5938 Q1208.625,1438.375 1209.4375,1437.6563 Q1209.9688,1437.25 1210.25,1437.125 Q1210.5313,1437 1210.875,1437 Q1211.5313,1437 1212,1437.5313 Q1212.5,1438.0313 1212.5,1438.75 Q1212.5,1439.4375 1211.8125,1440.25 Q1210.8125,1441.4375 1209.2188,1442.0938 Q1207.125,1443 1204.5625,1443 Q1201.5625,1443 1199.1563,1441.8125 Q1197.2188,1440.875 1195.8438,1438.8438 Q1194.5,1436.8125 1194.5,1434.4063 L1194.5,1432.2188 Q1194.5,1429.7188 1195.6875,1427.5313 Q1196.9063,1425.3438 1199,1424.1875 Q1201.125,1423 1203.5,1423 Q1204.9375,1423 1206.1875,1423.5 Q1207.4375,1424 1208.5,1425 Z "/>
        <text fill="#000000" font-family="sans-serif" font-size="24" lengthAdjust="spacingAndGlyphs" textLength="138"
              x="1245.5" y="1441.8203">Colaborador
        </text>
        <line style="stroke: #A80036; stroke-width: 3.0;" x1="1094" x2="1470" y1="1464" y2="1464"/>
        <text fill="#000000" font-family="sans-serif" font-size="22" lengthAdjust="spacingAndGlyphs" textLength="122"
              x="1104" y="1494.8379">-String nome
        </text>
        <text fill="#000000" font-family="sans-serif" font-size="22" lengthAdjust="spacingAndGlyphs" textLength="138"
              x="1104" y="1522.5098">-String funcao
        </text>
        <text fill="#000000" font-family="sans-serif" font-size="22" lengthAdjust="spacingAndGlyphs" textLength="148"
              x="1104" y="1550.1816">-String telefone
        </text>
        <text fill="#000000" font-family="sans-serif" font-size="22" lengthAdjust="spacingAndGlyphs" textLength="118"
              x="1104" y="1577.8535">-String email
        </text>
        <line style="stroke: #A80036; stroke-width: 3.0;" x1="1094" x2="1470" y1="1590.6875" y2="1590.6875"/>
        <text fill="#000000" font-family="sans-serif" font-size="22" lengthAdjust="spacingAndGlyphs" textLength="356"
              x="1104" y="1621.5254">+Colaborador(nome,função,tlf, email)
        </text>
        <text fill="#000000" font-family="sans-serif" font-size="22" lengthAdjust="spacingAndGlyphs" textLength="174"
              x="1104" y="1649.1973">+String getNome()
        </text>
        <text fill="#000000" font-family="sans-serif" font-size="22" lengthAdjust="spacingAndGlyphs" textLength="168"
              x="1104" y="1676.8691">+String getEmail()
        </text><!--MD5=[fc070331499534e06f56ea3fbbe0e889]
class RegistoColaborador-->
        <rect fill="#FEFECE" filter="url(#f1gxdynivq1uhx)" height="123.6719" id="RegistoColaborador"
              style="stroke: #A80036; stroke-width: 3.0;" width="552" x="820" y="1023"/>
        <ellipse cx="975.5" cy="1055" fill="#ADD1B2" rx="22" ry="22" style="stroke: #A80036; stroke-width: 2.0;"/>
        <path d="M979.5,1048 Q979.9063,1047 980.375,1046.5 Q980.8438,1046 981.375,1046 Q982.3125,1046 982.9063,1046.5625 Q983.5,1047.125 983.5,1048.4375 L983.5,1051.5625 Q983.5,1052.875 982.9375,1053.4375 Q982.375,1054 981.5,1054 Q980.7188,1054 980.2188,1053.6563 Q979.7188,1053.3125 979.5,1052.4063 Q979.4063,1051.7813 979.0625,1051.4375 Q978.4375,1050.7813 977.3125,1050.4063 Q976.1875,1050 975.0625,1050 Q973.6563,1050 972.4688,1050.5625 Q971.3125,1051.125 970.4063,1052.375 Q969.5,1053.625 969.5,1055.3438 L969.5,1057.1875 Q969.5,1059.25 971.1875,1060.625 Q972.875,1062 975.875,1062 Q977.6563,1062 978.9063,1061.5938 Q979.625,1061.375 980.4375,1060.6563 Q980.9688,1060.25 981.25,1060.125 Q981.5313,1060 981.875,1060 Q982.5313,1060 983,1060.5313 Q983.5,1061.0313 983.5,1061.75 Q983.5,1062.4375 982.8125,1063.25 Q981.8125,1064.4375 980.2188,1065.0938 Q978.125,1066 975.5625,1066 Q972.5625,1066 970.1563,1064.8125 Q968.2188,1063.875 966.8438,1061.8438 Q965.5,1059.8125 965.5,1057.4063 L965.5,1055.2188 Q965.5,1052.7188 966.6875,1050.5313 Q967.9063,1048.3438 970,1047.1875 Q972.125,1046 974.5,1046 Q975.9375,1046 977.1875,1046.5 Q978.4375,1047 979.5,1048 Z "/>
        <text fill="#000000" font-family="sans-serif" font-size="24" lengthAdjust="spacingAndGlyphs" textLength="224"
              x="1016.5" y="1064.8203">RegistoColaborador
        </text>
        <line style="stroke: #A80036; stroke-width: 3.0;" x1="822" x2="1370" y1="1087" y2="1087"/>
        <line style="stroke: #A80036; stroke-width: 3.0;" x1="822" x2="1370" y1="1103" y2="1103"/>
        <text fill="#000000" font-family="sans-serif" font-size="22" lengthAdjust="spacingAndGlyphs" textLength="528"
              x="832" y="1133.8379">+Colaborador novoColaborador(nome,funcao,tlf, email)
        </text><!--MD5=[dcda844062f930f807532403427d3023]
class EnderecoPostal-->
        <rect fill="#FEFECE" filter="url(#f1gxdynivq1uhx)" height="206.6875" id="EnderecoPostal"
              style="stroke: #A80036; stroke-width: 3.0;" width="448" x="1908" y="1442"/>
        <ellipse cx="2035.5" cy="1474" fill="#ADD1B2" rx="22" ry="22" style="stroke: #A80036; stroke-width: 2.0;"/>
        <path d="M2039.5,1467 Q2039.9063,1466 2040.375,1465.5 Q2040.8438,1465 2041.375,1465 Q2042.3125,1465 2042.9063,1465.5625 Q2043.5,1466.125 2043.5,1467.4375 L2043.5,1470.5625 Q2043.5,1471.875 2042.9375,1472.4375 Q2042.375,1473 2041.5,1473 Q2040.7188,1473 2040.2188,1472.6563 Q2039.7188,1472.3125 2039.5,1471.4063 Q2039.4063,1470.7813 2039.0625,1470.4375 Q2038.4375,1469.7813 2037.3125,1469.4063 Q2036.1875,1469 2035.0625,1469 Q2033.6563,1469 2032.4688,1469.5625 Q2031.3125,1470.125 2030.4063,1471.375 Q2029.5,1472.625 2029.5,1474.3438 L2029.5,1476.1875 Q2029.5,1478.25 2031.1875,1479.625 Q2032.875,1481 2035.875,1481 Q2037.6563,1481 2038.9063,1480.5938 Q2039.625,1480.375 2040.4375,1479.6563 Q2040.9688,1479.25 2041.25,1479.125 Q2041.5313,1479 2041.875,1479 Q2042.5313,1479 2043,1479.5313 Q2043.5,1480.0313 2043.5,1480.75 Q2043.5,1481.4375 2042.8125,1482.25 Q2041.8125,1483.4375 2040.2188,1484.0938 Q2038.125,1485 2035.5625,1485 Q2032.5625,1485 2030.1563,1483.8125 Q2028.2188,1482.875 2026.8438,1480.8438 Q2025.5,1478.8125 2025.5,1476.4063 L2025.5,1474.2188 Q2025.5,1471.7188 2026.6875,1469.5313 Q2027.9063,1467.3438 2030,1466.1875 Q2032.125,1465 2034.5,1465 Q2035.9375,1465 2037.1875,1465.5 Q2038.4375,1466 2039.5,1467 Z "/>
        <text fill="#000000" font-family="sans-serif" font-size="24" lengthAdjust="spacingAndGlyphs" textLength="176"
              x="2076.5" y="1483.8203">EnderecoPostal
        </text>
        <line style="stroke: #A80036; stroke-width: 3.0;" x1="1910" x2="2354" y1="1506" y2="1506"/>
        <text fill="#000000" font-family="sans-serif" font-size="22" lengthAdjust="spacingAndGlyphs" textLength="114"
              x="1920" y="1536.8379">-String local
        </text>
        <text fill="#000000" font-family="sans-serif" font-size="22" lengthAdjust="spacingAndGlyphs" textLength="164"
              x="1920" y="1564.5098">-String codPostal
        </text>
        <text fill="#000000" font-family="sans-serif" font-size="22" lengthAdjust="spacingAndGlyphs" textLength="166"
              x="1920" y="1592.1816">-String localidade
        </text>
        <line style="stroke: #A80036; stroke-width: 3.0;" x1="1910" x2="2354" y1="1605.0156" y2="1605.0156"/>
        <text fill="#000000" font-family="sans-serif" font-size="22" lengthAdjust="spacingAndGlyphs" textLength="424"
              x="1920" y="1635.8535">+EnderecoPostal(local,codPostal,localidade)
        </text><!--MD5=[807977ceb130c090ed5febfb6de2bdea]
class Organizacao-->
        <rect fill="#FEFECE" filter="url(#f1gxdynivq1uhx)" height="317.375" id="Organizacao"
              style="stroke: #A80036; stroke-width: 3.0;" width="784" x="1442" y="926"/>
        <ellipse cx="1756.5" cy="958" fill="#ADD1B2" rx="22" ry="22" style="stroke: #A80036; stroke-width: 2.0;"/>
        <path d="M1760.5,951 Q1760.9063,950 1761.375,949.5 Q1761.8438,949 1762.375,949 Q1763.3125,949 1763.9063,949.5625 Q1764.5,950.125 1764.5,951.4375 L1764.5,954.5625 Q1764.5,955.875 1763.9375,956.4375 Q1763.375,957 1762.5,957 Q1761.7188,957 1761.2188,956.6563 Q1760.7188,956.3125 1760.5,955.4063 Q1760.4063,954.7813 1760.0625,954.4375 Q1759.4375,953.7813 1758.3125,953.4063 Q1757.1875,953 1756.0625,953 Q1754.6563,953 1753.4688,953.5625 Q1752.3125,954.125 1751.4063,955.375 Q1750.5,956.625 1750.5,958.3438 L1750.5,960.1875 Q1750.5,962.25 1752.1875,963.625 Q1753.875,965 1756.875,965 Q1758.6563,965 1759.9063,964.5938 Q1760.625,964.375 1761.4375,963.6563 Q1761.9688,963.25 1762.25,963.125 Q1762.5313,963 1762.875,963 Q1763.5313,963 1764,963.5313 Q1764.5,964.0313 1764.5,964.75 Q1764.5,965.4375 1763.8125,966.25 Q1762.8125,967.4375 1761.2188,968.0938 Q1759.125,969 1756.5625,969 Q1753.5625,969 1751.1563,967.8125 Q1749.2188,966.875 1747.8438,964.8438 Q1746.5,962.8125 1746.5,960.4063 L1746.5,958.2188 Q1746.5,955.7188 1747.6875,953.5313 Q1748.9063,951.3438 1751,950.1875 Q1753.125,949 1755.5,949 Q1756.9375,949 1758.1875,949.5 Q1759.4375,950 1760.5,951 Z "/>
        <text fill="#000000" font-family="sans-serif" font-size="24" lengthAdjust="spacingAndGlyphs" textLength="138"
              x="1797.5" y="967.8203">Organizacao
        </text>
        <line style="stroke: #A80036; stroke-width: 3.0;" x1="1444" x2="2224" y1="990" y2="990"/>
        <text fill="#000000" font-family="sans-serif" font-size="22" lengthAdjust="spacingAndGlyphs" textLength="122"
              x="1454" y="1020.8379">-String nome
        </text>
        <text fill="#000000" font-family="sans-serif" font-size="22" lengthAdjust="spacingAndGlyphs" textLength="100"
              x="1454" y="1048.5098">-String NIF
        </text>
        <text fill="#000000" font-family="sans-serif" font-size="22" lengthAdjust="spacingAndGlyphs" textLength="148"
              x="1454" y="1076.1816">-String website
        </text>
        <text fill="#000000" font-family="sans-serif" font-size="22" lengthAdjust="spacingAndGlyphs" textLength="148"
              x="1454" y="1103.8535">-String telefone
        </text>
        <text fill="#000000" font-family="sans-serif" font-size="22" lengthAdjust="spacingAndGlyphs" textLength="118"
              x="1454" y="1131.5254">-String email
        </text>
        <line style="stroke: #A80036; stroke-width: 3.0;" x1="1444" x2="2224" y1="1144.3594" y2="1144.3594"/>
        <text fill="#000000" font-family="sans-serif" font-size="22" lengthAdjust="spacingAndGlyphs" textLength="760"
              x="1454" y="1175.1973">+Organizacao(nome, NIF,webSite,telefone, email,endereco,gestorColaborador)
        </text>
        <text fill="#000000" font-family="sans-serif" font-size="22" lengthAdjust="spacingAndGlyphs"
              text-decoration="underline" textLength="570" x="1454" y="1202.8691">+EnderecoPostal
            novoEndereco(local,codPostal,localidade)
        </text>
        <text fill="#000000" font-family="sans-serif" font-size="22" lengthAdjust="spacingAndGlyphs"
              text-decoration="underline" textLength="444" x="1454" y="1230.541">+RegistoColaborador
            getRegistoColaborador()
        </text><!--MD5=[1aaa5955991d65c243342aa4a3ca2868]
class RegistoOrganizacao-->
        <rect fill="#FEFECE" filter="url(#f1gxdynivq1uhx)" height="262.0313" id="RegistoOrganizacao"
              style="stroke: #A80036; stroke-width: 3.0;" width="672" x="760" y="508"/>
        <ellipse cx="975.5" cy="540" fill="#ADD1B2" rx="22" ry="22" style="stroke: #A80036; stroke-width: 2.0;"/>
        <path d="M979.5,533 Q979.9063,532 980.375,531.5 Q980.8438,531 981.375,531 Q982.3125,531 982.9063,531.5625 Q983.5,532.125 983.5,533.4375 L983.5,536.5625 Q983.5,537.875 982.9375,538.4375 Q982.375,539 981.5,539 Q980.7188,539 980.2188,538.6563 Q979.7188,538.3125 979.5,537.4063 Q979.4063,536.7813 979.0625,536.4375 Q978.4375,535.7813 977.3125,535.4063 Q976.1875,535 975.0625,535 Q973.6563,535 972.4688,535.5625 Q971.3125,536.125 970.4063,537.375 Q969.5,538.625 969.5,540.3438 L969.5,542.1875 Q969.5,544.25 971.1875,545.625 Q972.875,547 975.875,547 Q977.6563,547 978.9063,546.5938 Q979.625,546.375 980.4375,545.6563 Q980.9688,545.25 981.25,545.125 Q981.5313,545 981.875,545 Q982.5313,545 983,545.5313 Q983.5,546.0313 983.5,546.75 Q983.5,547.4375 982.8125,548.25 Q981.8125,549.4375 980.2188,550.0938 Q978.125,551 975.5625,551 Q972.5625,551 970.1563,549.8125 Q968.2188,548.875 966.8438,546.8438 Q965.5,544.8125 965.5,542.4063 L965.5,540.2188 Q965.5,537.7188 966.6875,535.5313 Q967.9063,533.3438 970,532.1875 Q972.125,531 974.5,531 Q975.9375,531 977.1875,531.5 Q978.4375,532 979.5,533 Z "/>
        <text fill="#000000" font-family="sans-serif" font-size="24" lengthAdjust="spacingAndGlyphs" textLength="224"
              x="1016.5" y="549.8203">RegistoOrganizacao
        </text>
        <line style="stroke: #A80036; stroke-width: 3.0;" x1="762" x2="1430" y1="572" y2="572"/>
        <line style="stroke: #A80036; stroke-width: 3.0;" x1="762" x2="1430" y1="588" y2="588"/>
        <text fill="#000000" font-family="sans-serif" font-size="22" lengthAdjust="spacingAndGlyphs" textLength="648"
              x="772" y="618.8379">+Organizacao novaOrganizacao(nome,NIF,endLocal,endCodPostal,
        </text>
        <text fill="#000000" font-family="sans-serif" font-size="22" lengthAdjust="spacingAndGlyphs" textLength="530"
              x="772" y="646.5098">endLocalidade,tlf,site,email,nomeG,função,tlfG, emailG)
        </text>
        <text fill="#000000" font-family="sans-serif" font-size="22" lengthAdjust="spacingAndGlyphs" textLength="272"
              x="772" y="674.1816">+getAlgoritmoGeradorPwd()
        </text>
        <text fill="#000000" font-family="sans-serif" font-size="22" lengthAdjust="spacingAndGlyphs" textLength="426"
              x="772" y="701.8535">+validaOrganizacao(Organizacao org, pwd)
        </text>
        <text fill="#000000" font-family="sans-serif" font-size="22" lengthAdjust="spacingAndGlyphs" textLength="450"
              x="772" y="729.5254">+registaAreaAtividade(Organizacao org, pwd)
        </text>
        <text fill="#000000" font-family="sans-serif" font-size="22" lengthAdjust="spacingAndGlyphs" textLength="346"
              x="772" y="757.1973">-addOrganizacao(Organizacao org)
        </text><!--MD5=[ecaed46f78f8cfe1e9ce18477649be18]
class Plataforma-->
        <rect fill="#FEFECE" filter="url(#f1gxdynivq1uhx)" height="179.0156" id="Plataforma"
              style="stroke: #A80036; stroke-width: 3.0;" width="296" x="2226" y="549"/>
        <ellipse cx="2306.4" cy="581" fill="#ADD1B2" rx="22" ry="22" style="stroke: #A80036; stroke-width: 2.0;"/>
        <path d="M2310.4,574 Q2310.8063,573 2311.275,572.5 Q2311.7438,572 2312.275,572 Q2313.2125,572 2313.8063,572.5625 Q2314.4,573.125 2314.4,574.4375 L2314.4,577.5625 Q2314.4,578.875 2313.8375,579.4375 Q2313.275,580 2312.4,580 Q2311.6188,580 2311.1188,579.6563 Q2310.6188,579.3125 2310.4,578.4063 Q2310.3063,577.7813 2309.9625,577.4375 Q2309.3375,576.7813 2308.2125,576.4063 Q2307.0875,576 2305.9625,576 Q2304.5563,576 2303.3688,576.5625 Q2302.2125,577.125 2301.3063,578.375 Q2300.4,579.625 2300.4,581.3438 L2300.4,583.1875 Q2300.4,585.25 2302.0875,586.625 Q2303.775,588 2306.775,588 Q2308.5563,588 2309.8063,587.5938 Q2310.525,587.375 2311.3375,586.6563 Q2311.8688,586.25 2312.15,586.125 Q2312.4313,586 2312.775,586 Q2313.4313,586 2313.9,586.5313 Q2314.4,587.0313 2314.4,587.75 Q2314.4,588.4375 2313.7125,589.25 Q2312.7125,590.4375 2311.1188,591.0938 Q2309.025,592 2306.4625,592 Q2303.4625,592 2301.0563,590.8125 Q2299.1188,589.875 2297.7438,587.8438 Q2296.4,585.8125 2296.4,583.4063 L2296.4,581.2188 Q2296.4,578.7188 2297.5875,576.5313 Q2298.8063,574.3438 2300.9,573.1875 Q2303.025,572 2305.4,572 Q2306.8375,572 2308.0875,572.5 Q2309.3375,573 2310.4,574 Z "/>
        <text fill="#000000" font-family="sans-serif" font-size="24" lengthAdjust="spacingAndGlyphs" textLength="120"
              x="2345.6" y="590.8203">Plataforma
        </text>
        <line style="stroke: #A80036; stroke-width: 3.0;" x1="2228" x2="2520" y1="613" y2="613"/>
        <text fill="#000000" font-family="sans-serif" font-size="22" lengthAdjust="spacingAndGlyphs" textLength="182"
              x="2238" y="643.8379">-String designacao
        </text>
        <line style="stroke: #A80036; stroke-width: 3.0;" x1="2228" x2="2520" y1="656.6719" y2="656.6719"/>
        <text fill="#000000" font-family="sans-serif" font-size="22" lengthAdjust="spacingAndGlyphs" textLength="254"
              x="2238" y="687.5098">+getRegistoOrganizacao()
        </text>
        <text fill="#000000" font-family="sans-serif" font-size="22" lengthAdjust="spacingAndGlyphs" textLength="272"
              x="2238" y="715.1816">+getAlgoritmoGeradorPwd()
        </text><!--MD5=[ed5c6b4e01c9b1c9efc043b411d08420]
class AutorizacaoFacade-->
        <rect fill="#FEFECE" filter="url(#f1gxdynivq1uhx)" height="123.6719" id="AutorizacaoFacade"
              style="stroke: #A80036; stroke-width: 3.0;" width="596" x="12" y="1023"/>
        <ellipse cx="197.5" cy="1055" fill="#ADD1B2" rx="22" ry="22" style="stroke: #A80036; stroke-width: 2.0;"/>
        <path d="M201.5,1048 Q201.9063,1047 202.375,1046.5 Q202.8438,1046 203.375,1046 Q204.3125,1046 204.9063,1046.5625 Q205.5,1047.125 205.5,1048.4375 L205.5,1051.5625 Q205.5,1052.875 204.9375,1053.4375 Q204.375,1054 203.5,1054 Q202.7188,1054 202.2188,1053.6563 Q201.7188,1053.3125 201.5,1052.4063 Q201.4063,1051.7813 201.0625,1051.4375 Q200.4375,1050.7813 199.3125,1050.4063 Q198.1875,1050 197.0625,1050 Q195.6563,1050 194.4688,1050.5625 Q193.3125,1051.125 192.4063,1052.375 Q191.5,1053.625 191.5,1055.3438 L191.5,1057.1875 Q191.5,1059.25 193.1875,1060.625 Q194.875,1062 197.875,1062 Q199.6563,1062 200.9063,1061.5938 Q201.625,1061.375 202.4375,1060.6563 Q202.9688,1060.25 203.25,1060.125 Q203.5313,1060 203.875,1060 Q204.5313,1060 205,1060.5313 Q205.5,1061.0313 205.5,1061.75 Q205.5,1062.4375 204.8125,1063.25 Q203.8125,1064.4375 202.2188,1065.0938 Q200.125,1066 197.5625,1066 Q194.5625,1066 192.1563,1064.8125 Q190.2188,1063.875 188.8438,1061.8438 Q187.5,1059.8125 187.5,1057.4063 L187.5,1055.2188 Q187.5,1052.7188 188.6875,1050.5313 Q189.9063,1048.3438 192,1047.1875 Q194.125,1046 196.5,1046 Q197.9375,1046 199.1875,1046.5 Q200.4375,1047 201.5,1048 Z "/>
        <text fill="#000000" font-family="sans-serif" font-size="24" lengthAdjust="spacingAndGlyphs" textLength="208"
              x="238.5" y="1064.8203">AutorizacaoFacade
        </text>
        <line style="stroke: #A80036; stroke-width: 3.0;" x1="14" x2="606" y1="1087" y2="1087"/>
        <line style="stroke: #A80036; stroke-width: 3.0;" x1="14" x2="606" y1="1103" y2="1103"/>
        <text fill="#000000" font-family="sans-serif" font-size="22" lengthAdjust="spacingAndGlyphs" textLength="572"
              x="24" y="1133.8379">+registaUtilizadorComPapeis(nomeG,emailG,pwd,listaPapel)
        </text><!--MD5=[dd5ad71b12dabe0adbc098c60a8c9669]
class RegistoOrganizacaoController-->
        <rect fill="#FEFECE" filter="url(#f1gxdynivq1uhx)" height="151.3438" id="RegistoOrganizacaoController"
              style="stroke: #A80036; stroke-width: 3.0;" width="1122" x="1559" y="234"/>
        <ellipse cx="1941.5" cy="266" fill="#ADD1B2" rx="22" ry="22" style="stroke: #A80036; stroke-width: 2.0;"/>
        <path d="M1945.5,259 Q1945.9063,258 1946.375,257.5 Q1946.8438,257 1947.375,257 Q1948.3125,257 1948.9063,257.5625 Q1949.5,258.125 1949.5,259.4375 L1949.5,262.5625 Q1949.5,263.875 1948.9375,264.4375 Q1948.375,265 1947.5,265 Q1946.7188,265 1946.2188,264.6563 Q1945.7188,264.3125 1945.5,263.4063 Q1945.4063,262.7813 1945.0625,262.4375 Q1944.4375,261.7813 1943.3125,261.4063 Q1942.1875,261 1941.0625,261 Q1939.6563,261 1938.4688,261.5625 Q1937.3125,262.125 1936.4063,263.375 Q1935.5,264.625 1935.5,266.3438 L1935.5,268.1875 Q1935.5,270.25 1937.1875,271.625 Q1938.875,273 1941.875,273 Q1943.6563,273 1944.9063,272.5938 Q1945.625,272.375 1946.4375,271.6563 Q1946.9688,271.25 1947.25,271.125 Q1947.5313,271 1947.875,271 Q1948.5313,271 1949,271.5313 Q1949.5,272.0313 1949.5,272.75 Q1949.5,273.4375 1948.8125,274.25 Q1947.8125,275.4375 1946.2188,276.0938 Q1944.125,277 1941.5625,277 Q1938.5625,277 1936.1563,275.8125 Q1934.2188,274.875 1932.8438,272.8438 Q1931.5,270.8125 1931.5,268.4063 L1931.5,266.2188 Q1931.5,263.7188 1932.6875,261.5313 Q1933.9063,259.3438 1936,258.1875 Q1938.125,257 1940.5,257 Q1941.9375,257 1943.1875,257.5 Q1944.4375,258 1945.5,259 Z "/>
        <text fill="#000000" font-family="sans-serif" font-size="24" lengthAdjust="spacingAndGlyphs" textLength="340"
              x="1982.5" y="275.8203">RegistoOrganizacaoController
        </text>
        <line style="stroke: #A80036; stroke-width: 3.0;" x1="1561" x2="2679" y1="298" y2="298"/>
        <line style="stroke: #A80036; stroke-width: 3.0;" x1="1561" x2="2679" y1="314" y2="314"/>
        <text fill="#000000" font-family="sans-serif" font-size="22" lengthAdjust="spacingAndGlyphs" textLength="1098"
              x="1571" y="344.8379">
            +novaOrganizacao(nome,NIF,endLocal,endCodPostal,endLocalidade,tlf,site,email,nomeG,função,tlfG, emailG,pwd)
        </text>
        <text fill="#000000" font-family="sans-serif" font-size="22" lengthAdjust="spacingAndGlyphs" textLength="218"
              x="1571" y="372.5098">+registaOrganizacao()
        </text><!--MD5=[26c5f3be5170126d62449270b7dc8f97]
class RegistoOrganizacaoUI-->
        <rect fill="#FEFECE" filter="url(#f1gxdynivq1uhx)" height="96" id="RegistoOrganizacaoUI"
              style="stroke: #A80036; stroke-width: 3.0;" width="320" x="1960" y="16"/>
        <ellipse cx="1990" cy="48" fill="#ADD1B2" rx="22" ry="22" style="stroke: #A80036; stroke-width: 2.0;"/>
        <path d="M1994,41 Q1994.4063,40 1994.875,39.5 Q1995.3438,39 1995.875,39 Q1996.8125,39 1997.4063,39.5625 Q1998,40.125 1998,41.4375 L1998,44.5625 Q1998,45.875 1997.4375,46.4375 Q1996.875,47 1996,47 Q1995.2188,47 1994.7188,46.6563 Q1994.2188,46.3125 1994,45.4063 Q1993.9063,44.7813 1993.5625,44.4375 Q1992.9375,43.7813 1991.8125,43.4063 Q1990.6875,43 1989.5625,43 Q1988.1563,43 1986.9688,43.5625 Q1985.8125,44.125 1984.9063,45.375 Q1984,46.625 1984,48.3438 L1984,50.1875 Q1984,52.25 1985.6875,53.625 Q1987.375,55 1990.375,55 Q1992.1563,55 1993.4063,54.5938 Q1994.125,54.375 1994.9375,53.6563 Q1995.4688,53.25 1995.75,53.125 Q1996.0313,53 1996.375,53 Q1997.0313,53 1997.5,53.5313 Q1998,54.0313 1998,54.75 Q1998,55.4375 1997.3125,56.25 Q1996.3125,57.4375 1994.7188,58.0938 Q1992.625,59 1990.0625,59 Q1987.0625,59 1984.6563,57.8125 Q1982.7188,56.875 1981.3438,54.8438 Q1980,52.8125 1980,50.4063 L1980,48.2188 Q1980,45.7188 1981.1875,43.5313 Q1982.4063,41.3438 1984.5,40.1875 Q1986.625,39 1989,39 Q1990.4375,39 1991.6875,39.5 Q1992.9375,40 1994,41 Z "/>
        <text fill="#000000" font-family="sans-serif" font-size="24" lengthAdjust="spacingAndGlyphs" textLength="256"
              x="2018" y="57.8203">RegistoOrganizacaoUI
        </text>
        <line style="stroke: #A80036; stroke-width: 3.0;" x1="1962" x2="2278" y1="80" y2="80"/>
        <line style="stroke: #A80036; stroke-width: 3.0;" x1="1962" x2="2278" y1="96" y2="96"/><!--MD5=[37bf6c08f758502d5d1a5531d651ab43]
class AlgoritmoGeradorPasswords-->
        <rect fill="#FEFECE" filter="url(#f1gxdynivq1uhx)" height="123.6719" id="AlgoritmoGeradorPasswords"
              style="stroke: #A80036; stroke-width: 3.0;" width="378" x="2439" y="1023"/>
        <ellipse cx="2469" cy="1055" fill="#B4A7E5" rx="22" ry="22" style="stroke: #A80036; stroke-width: 2.0;"/>
        <path d="M2471,1049 L2471,1061 L2475,1061 L2475.9688,1061 L2477,1062.25 L2477,1063 L2477,1063.75 L2475.9688,1065 L2475,1065 L2463,1065 L2462.0313,1065 L2461,1063.75 L2461,1063 L2461,1062.25 L2462.0313,1061 L2463,1061 L2467,1061 L2467,1049 L2463,1049 L2462.0313,1049 L2461,1047.75 L2461,1047 L2461,1046.25 L2462.0313,1045 L2463,1045 L2475,1045 L2475.9688,1045 L2477,1046.25 L2477,1047 L2477,1047.75 L2475.9688,1049 L2475,1049 L2471,1049 Z "/>
        <text fill="#000000" font-family="sans-serif" font-size="24" font-style="italic" lengthAdjust="spacingAndGlyphs"
              textLength="314" x="2497" y="1064.8203">AlgoritmoGeradorPasswords
        </text>
        <line style="stroke: #A80036; stroke-width: 3.0;" x1="2441" x2="2815" y1="1087" y2="1087"/>
        <line style="stroke: #A80036; stroke-width: 3.0;" x1="2441" x2="2815" y1="1103" y2="1103"/>
        <text fill="#000000" font-family="sans-serif" font-size="22" lengthAdjust="spacingAndGlyphs" textLength="284"
              x="2451" y="1133.8379">+geraPassword(nome, email)
        </text><!--MD5=[5968e6aa320025ed2619ac26e0f01233]
link RegistoOrganizacaoUI to RegistoOrganizacaoController-->
        <path d="M2120,112.088 C2120,143.426 2120,185.816 2120,223.15 " fill="none"
              id="RegistoOrganizacaoUI-&gt;RegistoOrganizacaoController"
              style="stroke: #A80036; stroke-width: 2.0; stroke-dasharray: 7.0,7.0;"/>
        <polygon fill="#A80036" points="2120,233.534,2128,215.534,2120,223.534,2112,215.534,2120,233.534"
                 style="stroke: #A80036; stroke-width: 2.0;"/><!--MD5=[070ebfe6f744f37053d6e1e171d02a8b]
link RegistoOrganizacaoController to Plataforma-->
        <path d="M2178.28,386.562 C2214,432.268 2260.1,491.256 2298.58,540.502 " fill="none"
              id="RegistoOrganizacaoController-&gt;Plataforma"
              style="stroke: #A80036; stroke-width: 2.0; stroke-dasharray: 7.0,7.0;"/>
        <polygon fill="#A80036"
                 points="2305.18,548.946,2300.408,529.8351,2299.0258,541.064,2287.7968,539.6818,2305.18,548.946"
                 style="stroke: #A80036; stroke-width: 2.0;"/><!--MD5=[4b0b220202188300b6ba290103f1dde2]
link RegistoOrganizacaoController to RegistoOrganizacao-->
        <path d="M1885.042,386.16 C1823.518,405.604 1757.262,426.568 1696,446 C1613.726,472.096 1525.126,500.264 1441.93,526.744 "
              fill="none" id="RegistoOrganizacaoController-&gt;RegistoOrganizacao"
              style="stroke: #A80036; stroke-width: 2.0; stroke-dasharray: 7.0,7.0;"/>
        <polygon fill="#A80036"
                 points="1432.336,529.796,1451.9142,531.9625,1441.8654,526.7643,1447.0635,516.7155,1432.336,529.796"
                 style="stroke: #A80036; stroke-width: 2.0;"/><!--MD5=[989fd8e1df01efc14a26ec70914d6dfa]
link RegistoOrganizacaoController to Organizacao-->
        <path d="M2092.32,386.628 C2047.24,508.162 1956.874,751.758 1895.9,916.132 " fill="none"
              id="RegistoOrganizacaoController-&gt;Organizacao"
              style="stroke: #A80036; stroke-width: 2.0; stroke-dasharray: 7.0,7.0;"/>
        <polygon fill="#A80036"
                 points="1892.292,925.858,1906.0525,911.7637,1895.7697,916.4822,1891.0512,906.1994,1892.292,925.858"
                 style="stroke: #A80036; stroke-width: 2.0;"/><!--MD5=[8796375aa27360afaf28e58a913b5acd]
link RegistoOrganizacaoController to RegistoColaborador-->
        <path d="M2020.88,386.628 C1821.324,536.882 1373.976,873.702 1184.014,1016.732 " fill="none"
              id="RegistoOrganizacaoController-&gt;RegistoColaborador"
              style="stroke: #A80036; stroke-width: 2.0; stroke-dasharray: 7.0,7.0;"/>
        <polygon fill="#A80036"
                 points="1175.714,1022.98,1194.9059,1018.5449,1183.703,1016.9654,1185.2825,1005.7625,1175.714,1022.98"
                 style="stroke: #A80036; stroke-width: 2.0;"/><!--MD5=[144b262e2631b8fd287b90400cd0f947]
link RegistoOrganizacaoController to AlgoritmoGeradorPasswords-->
        <path d="M2399.74,386.224 C2460.46,414.87 2518.32,454.2 2558,508 C2669.26,658.826 2655.62,894.804 2639.98,1012.008 "
              fill="none" id="RegistoOrganizacaoController-&gt;AlgoritmoGeradorPasswords"
              style="stroke: #A80036; stroke-width: 2.0; stroke-dasharray: 7.0,7.0;"/>
        <polygon fill="#A80036"
                 points="2638.56,1022.29,2648.9528,1005.5571,2639.9313,1012.3845,2633.1039,1003.363,2638.56,1022.29"
                 style="stroke: #A80036; stroke-width: 2.0;"/><!--MD5=[34ee50fb22fdb8c2a67ba0322cb8cdfd]
link RegistoOrganizacao to Colaborador-->
        <path d="M904.54,770.34 C856.08,813.608 810.344,866.256 784,926 C726.978,1055.32 714.384,1121.002 784,1244 C847.768,1356.666 972.812,1431.524 1081.642,1478.162 "
              fill="none" id="RegistoOrganizacao-&gt;Colaborador"
              style="stroke: #A80036; stroke-width: 2.0; stroke-dasharray: 7.0,7.0;"/>
        <polygon fill="#A80036"
                 points="1091.448,1482.308,1077.9801,1467.9338,1082.2363,1478.4164,1071.7537,1482.6726,1091.448,1482.308"
                 style="stroke: #A80036; stroke-width: 2.0;"/><!--MD5=[80ccff321652434b8e444bf5092bab32]
link RegistoOrganizacao to EnderecoPostal-->
        <path d="M1432.604,701.492 C1758.2,763.416 2209.96,859.716 2262,926 C2377.58,1073.24 2280.76,1299.062 2203.72,1432.796 "
              fill="none" id="RegistoOrganizacao-&gt;EnderecoPostal"
              style="stroke: #A80036; stroke-width: 2.0; stroke-dasharray: 7.0,7.0;"/>
        <polygon fill="#A80036"
                 points="2198.66,1441.47,2214.6323,1429.9424,2203.693,1432.8289,2200.8065,1421.8896,2198.66,1441.47"
                 style="stroke: #A80036; stroke-width: 2.0;"/><!--MD5=[2b1a3528b5983eb32803277bbea896ba]
link RegistoOrganizacao to AutorizacaoFacade-->
        <path d="M778.062,770.086 C738.346,788.932 698.794,809.082 662,830 C564.554,885.402 461.344,961.98 392.062,1016.338 "
              fill="none" id="RegistoOrganizacao-&gt;AutorizacaoFacade"
              style="stroke: #A80036; stroke-width: 2.0; stroke-dasharray: 7.0,7.0;"/>
        <polygon fill="#A80036"
                 points="383.784,1022.854,402.8756,1018.0054,391.6412,1016.6682,392.9784,1005.4338,383.784,1022.854"
                 style="stroke: #A80036; stroke-width: 2.0;"/><!--MD5=[4cb7a373da59d3a5da197420540cce12]
link RegistoOrganizacao to RegistoColaborador-->
        <path d="M1096,770.032 C1096,849.124 1096,947.342 1096,1012.428 " fill="none"
              id="RegistoOrganizacao-&gt;RegistoColaborador"
              style="stroke: #A80036; stroke-width: 2.0; stroke-dasharray: 7.0,7.0;"/>
        <polygon fill="#A80036" points="1096,1022.582,1104,1004.582,1096,1012.582,1088,1004.582,1096,1022.582"
                 style="stroke: #A80036; stroke-width: 2.0;"/><!--MD5=[b811d3993ee0037141ac6394bf224c74]
link RegistoColaborador to Colaborador-->
        <path d="M1120.7,1147.554 C1145.82,1209.138 1185.756,1307.05 1219.606,1390.034 " fill="none"
              id="RegistoColaborador-&gt;Colaborador"
              style="stroke: #A80036; stroke-width: 2.0; stroke-dasharray: 7.0,7.0;"/>
        <polygon fill="#A80036"
                 points="1223.492,1399.56,1224.1011,1379.8717,1219.7151,1390.3007,1209.2862,1385.9147,1223.492,1399.56"
                 style="stroke: #A80036; stroke-width: 2.0;"/><!--MD5=[49996cf4319f45f78007483382b2a228]
link Plataforma to AlgoritmoGeradorPasswords-->
        <path d="M2424.8,729.382 C2467.72,804.076 2529.06,910.84 2573.12,987.486 " fill="none"
              id="Plataforma-&gt;AlgoritmoGeradorPasswords"
              style="stroke: #A80036; stroke-width: 2.0; stroke-dasharray: 7.0,7.0;"/>
        <polygon fill="none" points="2585.4,980.762,2593.18,1022.42,2561.12,994.714,2585.4,980.762"
                 style="stroke: #A80036; stroke-width: 2.0;"/>
        <text fill="#000000" font-family="sans-serif" font-size="26" lengthAdjust="spacingAndGlyphs" textLength="44"
              x="2502" y="858.9902">tem
        </text><!--MD5=[1c2ad462e362697fcdc859a6327d55c7]
link Plataforma to Organizacao-->
        <path d="M2304.16,729.47 C2267.36,773.19 2219.98,825.178 2172,866 C2150.28,884.472 2126.9,902.578 2102.9,919.964 "
              fill="none" id="Plataforma-&gt;Organizacao" style="stroke: #A80036; stroke-width: 2.0;"/>
        <polygon fill="#A80036"
                 points="2094.74,925.832,2114.0272,921.8315,2102.8628,919.9994,2104.695,908.835,2094.74,925.832"
                 style="stroke: #A80036; stroke-width: 2.0;"/>
        <text fill="#000000" font-family="sans-serif" font-size="26" lengthAdjust="spacingAndGlyphs" textLength="172"
              x="2210" y="858.9902">tem registadas
        </text>
        <text fill="#000000" font-family="sans-serif" font-size="26" lengthAdjust="spacingAndGlyphs" textLength="14"
              x="2279.8346" y="770.8805">1
        </text>
        <text fill="#000000" font-family="sans-serif" font-size="26" lengthAdjust="spacingAndGlyphs" textLength="10"
              x="2109.1152" y="904.1898">*
        </text><!--MD5=[567db691f9836c63f305bad1024cbc66]
link Organizacao to Colaborador-->
        <path d="M1643.858,1244.256 C1605.506,1275.962 1565.468,1309.052 1528,1340 C1507.088,1357.274 1485.172,1375.37 1463.402,1393.34 "
              fill="none" id="Organizacao-&gt;Colaborador" style="stroke: #A80036; stroke-width: 2.0;"/>
        <polygon fill="#A80036"
                 points="1455.39,1399.952,1474.3642,1394.6626,1463.1019,1393.5859,1464.1785,1382.3236,1455.39,1399.952"
                 style="stroke: #A80036; stroke-width: 2.0;"/>
        <text fill="#000000" font-family="sans-serif" font-size="26" lengthAdjust="spacingAndGlyphs" textLength="44"
              x="1570" y="1332.9902">tem
        </text>
        <text fill="#000000" font-family="sans-serif" font-size="26" lengthAdjust="spacingAndGlyphs" textLength="14"
              x="1612.9161" y="1286.3644">1
        </text>
        <text fill="#000000" font-family="sans-serif" font-size="26" lengthAdjust="spacingAndGlyphs" textLength="40"
              x="1431.2083" y="1378.3857">1..*
        </text><!--MD5=[567db691f9836c63f305bad1024cbc66]
link Organizacao to Colaborador-->
        <path d="M1453.272,1244.248 C1428.274,1262.326 1404.818,1282.204 1384,1304 C1360.704,1328.392 1342.314,1358.922 1327.954,1389.924 "
              fill="none" id="Organizacao-&gt;Colaborador-1" style="stroke: #A80036; stroke-width: 2.0;"/>
        <polygon fill="#A80036"
                 points="1323.626,1399.554,1338.3016,1386.4153,1327.7253,1390.4328,1323.7077,1379.8565,1323.626,1399.554"
                 style="stroke: #A80036; stroke-width: 2.0;"/>
        <text fill="#000000" font-family="sans-serif" font-size="26" lengthAdjust="spacingAndGlyphs" textLength="124"
              x="1386" y="1332.9902">tem gestor
        </text>
        <text fill="#000000" font-family="sans-serif" font-size="26" lengthAdjust="spacingAndGlyphs" textLength="14"
              x="1412.0099" y="1283.6071">1
        </text>
        <text fill="#000000" font-family="sans-serif" font-size="26" lengthAdjust="spacingAndGlyphs" textLength="14"
              x="1313.1968" y="1377.9467">1
        </text><!--MD5=[ca49ec1e86bb5e8c049c02c54bfc3088]
link Organizacao to EnderecoPostal-->
        <path d="M1936.972,1244.568 C1977.534,1306.634 2023.14,1376.424 2060.04,1432.898 " fill="none"
              id="Organizacao-&gt;EnderecoPostal" style="stroke: #A80036; stroke-width: 2.0;"/>
        <polygon fill="#A80036"
                 points="2065.9,1441.846,2062.7535,1422.4012,2060.431,1433.474,2049.3583,1431.1515,2065.9,1441.846"
                 style="stroke: #A80036; stroke-width: 2.0;"/>
        <text fill="#000000" font-family="sans-serif" font-size="26" lengthAdjust="spacingAndGlyphs" textLength="160"
              x="1992" y="1332.9902">localizada em
        </text>
        <text fill="#000000" font-family="sans-serif" font-size="26" lengthAdjust="spacingAndGlyphs" textLength="14"
              x="1930.9197" y="1286.1525">1
        </text>
        <text fill="#000000" font-family="sans-serif" font-size="26" lengthAdjust="spacingAndGlyphs" textLength="14"
              x="2041.6203" y="1420.0813">1
        </text><!--MD5=[bbfb53c48adbb2c680409061c72eb888]
@startuml
skinparam classAttributeIconSize 0

class Colaborador {
  -String nome
  -String funcao
  -String telefone
  -String email
  +Colaborador(nome,função,tlf, email)
  +String getNome()
  +String getEmail()
}

Class RegistoColaborador {
    +Colaborador novoColaborador(nome,funcao,tlf, email)
}

class EnderecoPostal {
  -String local
  -String codPostal
  -String localidade
  +EnderecoPostal(local,codPostal,localidade)
}

class Organizacao {
  -String nome
  -String NIF
  -String website
  -String telefone
  -String email
  +Organizacao(nome, NIF,webSite,telefone, email,endereco,gestorColaborador)
  +{static} EnderecoPostal novoEndereco(local,codPostal,localidade)
  +{static} RegistoColaborador getRegistoColaborador()
}

class RegistoOrganizacao {
  +Organizacao novaOrganizacao(nome,NIF,endLocal,endCodPostal,\nendLocalidade,tlf,site,email,nomeG,função,tlfG, emailG)
  +getAlgoritmoGeradorPwd()
  +validaOrganizacao(Organizacao org, pwd)
  +registaAreaAtividade(Organizacao org, pwd)
  -addOrganizacao(Organizacao org)
}

Class Plataforma {
  -String designacao
  +getRegistoOrganizacao()
  +getAlgoritmoGeradorPwd()
}

class AutorizacaoFacade {
   +registaUtilizadorComPapeis(nomeG,emailG,pwd,listaPapel)
}

class RegistoOrganizacaoController {
    +novaOrganizacao(nome,NIF,endLocal,endCodPostal,endLocalidade,tlf,site,email,nomeG,função,tlfG, emailG,pwd)
    +registaOrganizacao()
}

class RegistoOrganizacaoUI {
}

Interface AlgoritmoGeradorPasswords {
  +geraPassword(nome, email)
}

RegistoOrganizacaoUI ..> RegistoOrganizacaoController
RegistoOrganizacaoController ..> Plataforma
RegistoOrganizacaoController ..> RegistoOrganizacao
RegistoOrganizacaoController ..> Organizacao
RegistoOrganizacaoController ..> RegistoColaborador
RegistoOrganizacaoController ..> AlgoritmoGeradorPasswords
RegistoOrganizacao ..> Colaborador
RegistoOrganizacao ..> EnderecoPostal
RegistoOrganizacao ..> AutorizacaoFacade
RegistoOrganizacao ..> RegistoColaborador
RegistoColaborador ..> Colaborador
Plataforma ..|> AlgoritmoGeradorPasswords : tem
Plataforma "1" - -> "*" Organizacao : tem registadas
Organizacao "1" - -> "1..*" Colaborador: tem
Organizacao "1" - -> "1" Colaborador: tem gestor
Organizacao "1" - -> "1" EnderecoPostal: localizada em


@enduml

PlantUML version 1.2020.07(Sun Apr 19 12:42:40 BST 2020)
(GPL source distribution)
Java Runtime: OpenJDK Runtime Environment
JVM: OpenJDK 64-Bit Server VM
Java Version: 11.0.6+8-b765.40
Operating System: Windows 10
Default Encoding: Cp1252
Language: pt
Country: PT
--></g></svg>