<?xml version="1.0" encoding="UTF-8" standalone="no"?>
<svg xmlns="http://www.w3.org/2000/svg" contentScriptType="application/ecmascript" contentStyleType="text/css"
     height="1312.5px" preserveAspectRatio="none" style="width:1280px;height:1312px;" version="1.1"
     viewBox="0 0 1280 1312" width="1280px" zoomAndPan="magnify">
    <defs>
        <filter height="300%" id="f58i1jcsw05ny" width="300%" x="-1" y="-1">
            <feGaussianBlur result="blurOut" stdDeviation="2.5"/>
            <feColorMatrix in="blurOut" result="blurOut2" type="matrix"
                           values="0 0 0 0 0 0 0 0 0 0 0 0 0 0 0 0 0 0 .4 0"/>
            <feOffset dx="5.0" dy="5.0" in="blurOut2" result="blurOut3"/>
            <feBlend in="SourceGraphic" in2="blurOut3" mode="normal"/>
        </filter>
    </defs>
    <g><!--MD5=[d797b55806609526f9424c3f5fca1db9]
class DefinirCategoriaUI-->
        <rect fill="#FEFECE" filter="url(#f58i1jcsw05ny)" height="60" id="DefinirCategoriaUI"
              style="stroke: #A80036; stroke-width: 1.875;" width="167.5" x="443.75" y="10"/>
        <ellipse cx="462.5" cy="30" fill="#ADD1B2" rx="13.75" ry="13.75" style="stroke: #A80036; stroke-width: 1.25;"/>
        <path d="M465,25.625 Q465.2539,25 465.5469,24.6875 Q465.8398,24.375 466.1719,24.375 Q466.7578,24.375 467.1289,24.7266 Q467.5,25.0781 467.5,25.8984 L467.5,27.8516 Q467.5,28.6719 467.1484,29.0234 Q466.7969,29.375 466.25,29.375 Q465.7617,29.375 465.4492,29.1602 Q465.1367,28.9453 465,28.3789 Q464.9414,27.9883 464.7266,27.7734 Q464.3359,27.3633 463.6328,27.1289 Q462.9297,26.875 462.2266,26.875 Q461.3477,26.875 460.6055,27.2266 Q459.8828,27.5781 459.3164,28.3594 Q458.75,29.1406 458.75,30.2148 L458.75,31.3672 Q458.75,32.6563 459.8047,33.5156 Q460.8594,34.375 462.7344,34.375 Q463.8477,34.375 464.6289,34.1211 Q465.0781,33.9844 465.5859,33.5352 Q465.918,33.2813 466.0938,33.2031 Q466.2695,33.125 466.4844,33.125 Q466.8945,33.125 467.1875,33.457 Q467.5,33.7695 467.5,34.2188 Q467.5,34.6484 467.0703,35.1563 Q466.4453,35.8984 465.4492,36.3086 Q464.1406,36.875 462.5391,36.875 Q460.6641,36.875 459.1602,36.1328 Q457.9492,35.5469 457.0898,34.2773 Q456.25,33.0078 456.25,31.5039 L456.25,30.1367 Q456.25,28.5742 456.9922,27.207 Q457.7539,25.8398 459.0625,25.1172 Q460.3906,24.375 461.875,24.375 Q462.7734,24.375 463.5547,24.6875 Q464.3359,25 465,25.625 Z "/>
        <text fill="#000000" font-family="sans-serif" font-size="15" lengthAdjust="spacingAndGlyphs" textLength="127.5"
              x="480" y="36.1377">DefinirCategoriaUI
        </text>
        <line style="stroke: #A80036; stroke-width: 1.875;" x1="445" x2="610" y1="50" y2="50"/>
        <line style="stroke: #A80036; stroke-width: 1.875;" x1="445" x2="610" y1="60" y2="60"/><!--MD5=[a80139b28afc2c06ab4e607adcf43583]
class GrauDeProficiencia-->
        <rect fill="#FFFFFF" filter="url(#f58i1jcsw05ny)" height="94.5898" id="GrauDeProficiencia"
              style="stroke: #A80036; stroke-width: 1.875;" width="282.5" x="983.75" y="1196.25"/>
        <ellipse cx="1052.8125" cy="1216.25" fill="#ADD1B2" rx="13.75" ry="13.75"
                 style="stroke: #A80036; stroke-width: 1.25;"/>
        <path d="M1055.3125,1211.875 Q1055.5664,1211.25 1055.8594,1210.9375 Q1056.1523,1210.625 1056.4844,1210.625 Q1057.0703,1210.625 1057.4414,1210.9766 Q1057.8125,1211.3281 1057.8125,1212.1484 L1057.8125,1214.1016 Q1057.8125,1214.9219 1057.4609,1215.2734 Q1057.1094,1215.625 1056.5625,1215.625 Q1056.0742,1215.625 1055.7617,1215.4102 Q1055.4492,1215.1953 1055.3125,1214.6289 Q1055.2539,1214.2383 1055.0391,1214.0234 Q1054.6484,1213.6133 1053.9453,1213.3789 Q1053.2422,1213.125 1052.5391,1213.125 Q1051.6602,1213.125 1050.918,1213.4766 Q1050.1953,1213.8281 1049.6289,1214.6094 Q1049.0625,1215.3906 1049.0625,1216.4648 L1049.0625,1217.6172 Q1049.0625,1218.9063 1050.1172,1219.7656 Q1051.1719,1220.625 1053.0469,1220.625 Q1054.1602,1220.625 1054.9414,1220.3711 Q1055.3906,1220.2344 1055.8984,1219.7852 Q1056.2305,1219.5313 1056.4063,1219.4531 Q1056.582,1219.375 1056.7969,1219.375 Q1057.207,1219.375 1057.5,1219.707 Q1057.8125,1220.0195 1057.8125,1220.4688 Q1057.8125,1220.8984 1057.3828,1221.4063 Q1056.7578,1222.1484 1055.7617,1222.5586 Q1054.4531,1223.125 1052.8516,1223.125 Q1050.9766,1223.125 1049.4727,1222.3828 Q1048.2617,1221.7969 1047.4023,1220.5273 Q1046.5625,1219.2578 1046.5625,1217.7539 L1046.5625,1216.3867 Q1046.5625,1214.8242 1047.3047,1213.457 Q1048.0664,1212.0898 1049.375,1211.3672 Q1050.7031,1210.625 1052.1875,1210.625 Q1053.0859,1210.625 1053.8672,1210.9375 Q1054.6484,1211.25 1055.3125,1211.875 Z "/>
        <text fill="#000000" font-family="sans-serif" font-size="15" lengthAdjust="spacingAndGlyphs" textLength="133.75"
              x="1078.4375" y="1222.3877">GrauDeProficiencia
        </text>
        <line style="stroke: #A80036; stroke-width: 1.875;" x1="985" x2="1265" y1="1236.25" y2="1236.25"/>
        <text fill="#000000" font-family="sans-serif" font-size="13.75" lengthAdjust="spacingAndGlyphs"
              textLength="158.75" x="991.25" y="1255.5237">-int grauDeProficiencencia
        </text>
        <line style="stroke: #A80036; stroke-width: 1.875;" x1="985" x2="1265" y1="1263.5449" y2="1263.5449"/>
        <text fill="#000000" font-family="sans-serif" font-size="13.75" lengthAdjust="spacingAndGlyphs"
              textLength="267.5" x="991.25" y="1282.8186">+GrauDeProficiencia(int GrauDeProficiencia)
        </text><!--MD5=[8153b488a8cbc44b7e7be39538dbc4fa]
class DefinirCategoriaController-->
        <rect fill="#FEFECE" filter="url(#f58i1jcsw05ny)" height="129.1797" id="DefinirCategoriaController"
              style="stroke: #A80036; stroke-width: 1.875;" width="220" x="417.5" y="146.25"/>
        <ellipse cx="436.25" cy="166.25" fill="#ADD1B2" rx="13.75" ry="13.75"
                 style="stroke: #A80036; stroke-width: 1.25;"/>
        <path d="M438.75,161.875 Q439.0039,161.25 439.2969,160.9375 Q439.5898,160.625 439.9219,160.625 Q440.5078,160.625 440.8789,160.9766 Q441.25,161.3281 441.25,162.1484 L441.25,164.1016 Q441.25,164.9219 440.8984,165.2734 Q440.5469,165.625 440,165.625 Q439.5117,165.625 439.1992,165.4102 Q438.8867,165.1953 438.75,164.6289 Q438.6914,164.2383 438.4766,164.0234 Q438.0859,163.6133 437.3828,163.3789 Q436.6797,163.125 435.9766,163.125 Q435.0977,163.125 434.3555,163.4766 Q433.6328,163.8281 433.0664,164.6094 Q432.5,165.3906 432.5,166.4648 L432.5,167.6172 Q432.5,168.9063 433.5547,169.7656 Q434.6094,170.625 436.4844,170.625 Q437.5977,170.625 438.3789,170.3711 Q438.8281,170.2344 439.3359,169.7852 Q439.668,169.5313 439.8438,169.4531 Q440.0195,169.375 440.2344,169.375 Q440.6445,169.375 440.9375,169.707 Q441.25,170.0195 441.25,170.4688 Q441.25,170.8984 440.8203,171.4063 Q440.1953,172.1484 439.1992,172.5586 Q437.8906,173.125 436.2891,173.125 Q434.4141,173.125 432.9102,172.3828 Q431.6992,171.7969 430.8398,170.5273 Q430,169.2578 430,167.7539 L430,166.3867 Q430,164.8242 430.7422,163.457 Q431.5039,162.0898 432.8125,161.3672 Q434.1406,160.625 435.625,160.625 Q436.5234,160.625 437.3047,160.9375 Q438.0859,161.25 438.75,161.875 Z "/>
        <text fill="#000000" font-family="sans-serif" font-size="15" lengthAdjust="spacingAndGlyphs" textLength="180"
              x="453.75" y="172.3877">DefinirCategoriaController
        </text>
        <line style="stroke: #A80036; stroke-width: 1.875;" x1="418.75" x2="636.25" y1="186.25" y2="186.25"/>
        <line style="stroke: #A80036; stroke-width: 1.875;" x1="418.75" x2="636.25" y1="196.25" y2="196.25"/>
        <text fill="#000000" font-family="sans-serif" font-size="13.75" lengthAdjust="spacingAndGlyphs" textLength="135"
              x="425" y="215.5237">+novaCategoria(desc)
        </text>
        <text fill="#000000" font-family="sans-serif" font-size="13.75" lengthAdjust="spacingAndGlyphs"
              textLength="88.75" x="425" y="232.8186">+setAT(atCod)
        </text>
        <text fill="#000000" font-family="sans-serif" font-size="13.75" lengthAdjust="spacingAndGlyphs" textLength="155"
              x="425" y="250.1135">+addCaraterCT(ctCod,ob)
        </text>
        <text fill="#000000" font-family="sans-serif" font-size="13.75" lengthAdjust="spacingAndGlyphs"
              textLength="116.25" x="425" y="267.4084">+registaCategoria()
        </text><!--MD5=[0a01f29de70a5b53372ddb1e190bcc70]
class RegistoCategoria-->
        <rect fill="#FFFFFF" filter="url(#f58i1jcsw05ny)" height="111.8848" id="RegistoCategoria"
              style="stroke: #A80036; stroke-width: 1.875;" width="236.25" x="710.625" y="681.25"/>
        <ellipse cx="760.875" cy="701.25" fill="#ADD1B2" rx="13.75" ry="13.75"
                 style="stroke: #A80036; stroke-width: 1.25;"/>
        <path d="M763.375,696.875 Q763.6289,696.25 763.9219,695.9375 Q764.2148,695.625 764.5469,695.625 Q765.1328,695.625 765.5039,695.9766 Q765.875,696.3281 765.875,697.1484 L765.875,699.1016 Q765.875,699.9219 765.5234,700.2734 Q765.1719,700.625 764.625,700.625 Q764.1367,700.625 763.8242,700.4102 Q763.5117,700.1953 763.375,699.6289 Q763.3164,699.2383 763.1016,699.0234 Q762.7109,698.6133 762.0078,698.3789 Q761.3047,698.125 760.6016,698.125 Q759.7227,698.125 758.9805,698.4766 Q758.2578,698.8281 757.6914,699.6094 Q757.125,700.3906 757.125,701.4648 L757.125,702.6172 Q757.125,703.9063 758.1797,704.7656 Q759.2344,705.625 761.1094,705.625 Q762.2227,705.625 763.0039,705.3711 Q763.4531,705.2344 763.9609,704.7852 Q764.293,704.5313 764.4688,704.4531 Q764.6445,704.375 764.8594,704.375 Q765.2695,704.375 765.5625,704.707 Q765.875,705.0195 765.875,705.4688 Q765.875,705.8984 765.4453,706.4063 Q764.8203,707.1484 763.8242,707.5586 Q762.5156,708.125 760.9141,708.125 Q759.0391,708.125 757.5352,707.3828 Q756.3242,706.7969 755.4648,705.5273 Q754.625,704.2578 754.625,702.7539 L754.625,701.3867 Q754.625,699.8242 755.3672,698.457 Q756.1289,697.0898 757.4375,696.3672 Q758.7656,695.625 760.25,695.625 Q761.1484,695.625 761.9297,695.9375 Q762.7109,696.25 763.375,696.875 Z "/>
        <text fill="#000000" font-family="sans-serif" font-size="15" lengthAdjust="spacingAndGlyphs" textLength="126.25"
              x="785.375" y="707.3877">RegistoCategoria
        </text>
        <line style="stroke: #A80036; stroke-width: 1.875;" x1="711.875" x2="945.625" y1="721.25" y2="721.25"/>
        <line style="stroke: #A80036; stroke-width: 1.875;" x1="711.875" x2="945.625" y1="731.25" y2="731.25"/>
        <text fill="#000000" font-family="sans-serif" font-size="13.75" font-weight="bold"
              lengthAdjust="spacingAndGlyphs" textLength="207.5" x="718.125" y="750.5237">+addCategoria(Categoria catg)
        </text>
        <text fill="#000000" font-family="sans-serif" font-size="13.75" font-weight="bold"
              lengthAdjust="spacingAndGlyphs" textLength="221.25" x="718.125" y="767.8186">+validaCategoria(Categoria
            catg)
        </text>
        <text fill="#000000" font-family="sans-serif" font-size="13.75" font-weight="bold"
              lengthAdjust="spacingAndGlyphs" textLength="148.75" x="718.125" y="785.1135">+getListaCategorias()
        </text><!--MD5=[4efd3eb19a4454626aa8fa1dc7e583ff]
class RegistoAreaDeAtividade-->
        <rect fill="#FFFFFF" filter="url(#f58i1jcsw05ny)" height="77.2949" id="RegistoAreaDeAtividade"
              style="stroke: #A80036; stroke-width: 1.875;" width="213.75" x="74.375" y="698.75"/>
        <ellipse cx="94.25" cy="718.75" fill="#ADD1B2" rx="13.75" ry="13.75"
                 style="stroke: #A80036; stroke-width: 1.25;"/>
        <path d="M96.75,714.375 Q97.0039,713.75 97.2969,713.4375 Q97.5898,713.125 97.9219,713.125 Q98.5078,713.125 98.8789,713.4766 Q99.25,713.8281 99.25,714.6484 L99.25,716.6016 Q99.25,717.4219 98.8984,717.7734 Q98.5469,718.125 98,718.125 Q97.5117,718.125 97.1992,717.9102 Q96.8867,717.6953 96.75,717.1289 Q96.6914,716.7383 96.4766,716.5234 Q96.0859,716.1133 95.3828,715.8789 Q94.6797,715.625 93.9766,715.625 Q93.0977,715.625 92.3555,715.9766 Q91.6328,716.3281 91.0664,717.1094 Q90.5,717.8906 90.5,718.9648 L90.5,720.1172 Q90.5,721.4063 91.5547,722.2656 Q92.6094,723.125 94.4844,723.125 Q95.5977,723.125 96.3789,722.8711 Q96.8281,722.7344 97.3359,722.2852 Q97.668,722.0313 97.8438,721.9531 Q98.0195,721.875 98.2344,721.875 Q98.6445,721.875 98.9375,722.207 Q99.25,722.5195 99.25,722.9688 Q99.25,723.3984 98.8203,723.9063 Q98.1953,724.6484 97.1992,725.0586 Q95.8906,725.625 94.2891,725.625 Q92.4141,725.625 90.9102,724.8828 Q89.6992,724.2969 88.8398,723.0273 Q88,721.7578 88,720.2539 L88,718.8867 Q88,717.3242 88.7422,715.957 Q89.5039,714.5898 90.8125,713.8672 Q92.1406,713.125 93.625,713.125 Q94.5234,713.125 95.3047,713.4375 Q96.0859,713.75 96.75,714.375 Z "/>
        <text fill="#000000" font-family="sans-serif" font-size="15" lengthAdjust="spacingAndGlyphs" textLength="171.25"
              x="112" y="724.8877">RegistoAreaDeAtividade
        </text>
        <line style="stroke: #A80036; stroke-width: 1.875;" x1="75.625" x2="286.875" y1="738.75" y2="738.75"/>
        <line style="stroke: #A80036; stroke-width: 1.875;" x1="75.625" x2="286.875" y1="748.75" y2="748.75"/>
        <text fill="#000000" font-family="sans-serif" font-size="13.75" font-weight="bold"
              lengthAdjust="spacingAndGlyphs" textLength="198.75" x="81.875" y="768.0237">+AreaAtividade getAT(atCod)
        </text><!--MD5=[fb029eb2611b752dc0b83fd164b422ce]
class RegistoCompetenciaTecnica-->
        <rect fill="#FFFFFF" filter="url(#f58i1jcsw05ny)" height="60" id="RegistoCompetenciaTecnica"
              style="stroke: #A80036; stroke-width: 1.875;" width="245" x="421.25" y="707.5"/>
        <ellipse cx="440" cy="727.5" fill="#ADD1B2" rx="13.75" ry="13.75" style="stroke: #A80036; stroke-width: 1.25;"/>
        <path d="M442.5,723.125 Q442.7539,722.5 443.0469,722.1875 Q443.3398,721.875 443.6719,721.875 Q444.2578,721.875 444.6289,722.2266 Q445,722.5781 445,723.3984 L445,725.3516 Q445,726.1719 444.6484,726.5234 Q444.2969,726.875 443.75,726.875 Q443.2617,726.875 442.9492,726.6602 Q442.6367,726.4453 442.5,725.8789 Q442.4414,725.4883 442.2266,725.2734 Q441.8359,724.8633 441.1328,724.6289 Q440.4297,724.375 439.7266,724.375 Q438.8477,724.375 438.1055,724.7266 Q437.3828,725.0781 436.8164,725.8594 Q436.25,726.6406 436.25,727.7148 L436.25,728.8672 Q436.25,730.1563 437.3047,731.0156 Q438.3594,731.875 440.2344,731.875 Q441.3477,731.875 442.1289,731.6211 Q442.5781,731.4844 443.0859,731.0352 Q443.418,730.7813 443.5938,730.7031 Q443.7695,730.625 443.9844,730.625 Q444.3945,730.625 444.6875,730.957 Q445,731.2695 445,731.7188 Q445,732.1484 444.5703,732.6563 Q443.9453,733.3984 442.9492,733.8086 Q441.6406,734.375 440.0391,734.375 Q438.1641,734.375 436.6602,733.6328 Q435.4492,733.0469 434.5898,731.7773 Q433.75,730.5078 433.75,729.0039 L433.75,727.6367 Q433.75,726.0742 434.4922,724.707 Q435.2539,723.3398 436.5625,722.6172 Q437.8906,721.875 439.375,721.875 Q440.2734,721.875 441.0547,722.1875 Q441.8359,722.5 442.5,723.125 Z "/>
        <text fill="#000000" font-family="sans-serif" font-size="15" lengthAdjust="spacingAndGlyphs" textLength="205"
              x="457.5" y="733.6377">RegistoCompetenciaTecnica
        </text>
        <line style="stroke: #A80036; stroke-width: 1.875;" x1="422.5" x2="665" y1="747.5" y2="747.5"/>
        <line style="stroke: #A80036; stroke-width: 1.875;" x1="422.5" x2="665" y1="757.5" y2="757.5"/><!--MD5=[ecaed46f78f8cfe1e9ce18477649be18]
class Plataforma-->
        <rect fill="#FEFECE" filter="url(#f58i1jcsw05ny)" height="232.9492" id="Plataforma"
              style="stroke: #A80036; stroke-width: 1.875;" width="150" x="452.5" y="351.25"/>
        <ellipse cx="487" cy="371.25" fill="#ADD1B2" rx="13.75" ry="13.75"
                 style="stroke: #A80036; stroke-width: 1.25;"/>
        <path d="M489.5,366.875 Q489.7539,366.25 490.0469,365.9375 Q490.3398,365.625 490.6719,365.625 Q491.2578,365.625 491.6289,365.9766 Q492,366.3281 492,367.1484 L492,369.1016 Q492,369.9219 491.6484,370.2734 Q491.2969,370.625 490.75,370.625 Q490.2617,370.625 489.9492,370.4102 Q489.6367,370.1953 489.5,369.6289 Q489.4414,369.2383 489.2266,369.0234 Q488.8359,368.6133 488.1328,368.3789 Q487.4297,368.125 486.7266,368.125 Q485.8477,368.125 485.1055,368.4766 Q484.3828,368.8281 483.8164,369.6094 Q483.25,370.3906 483.25,371.4648 L483.25,372.6172 Q483.25,373.9063 484.3047,374.7656 Q485.3594,375.625 487.2344,375.625 Q488.3477,375.625 489.1289,375.3711 Q489.5781,375.2344 490.0859,374.7852 Q490.418,374.5313 490.5938,374.4531 Q490.7695,374.375 490.9844,374.375 Q491.3945,374.375 491.6875,374.707 Q492,375.0195 492,375.4688 Q492,375.8984 491.5703,376.4063 Q490.9453,377.1484 489.9492,377.5586 Q488.6406,378.125 487.0391,378.125 Q485.1641,378.125 483.6602,377.3828 Q482.4492,376.7969 481.5898,375.5273 Q480.75,374.2578 480.75,372.7539 L480.75,371.3867 Q480.75,369.8242 481.4922,368.457 Q482.2539,367.0898 483.5625,366.3672 Q484.8906,365.625 486.375,365.625 Q487.2734,365.625 488.0547,365.9375 Q488.8359,366.25 489.5,366.875 Z "/>
        <text fill="#000000" font-family="sans-serif" font-size="15" lengthAdjust="spacingAndGlyphs" textLength="75"
              x="508" y="377.3877">Plataforma
        </text>
        <line style="stroke: #A80036; stroke-width: 1.875;" x1="453.75" x2="601.25" y1="391.25" y2="391.25"/>
        <text fill="#000000" font-family="sans-serif" font-size="13.75" lengthAdjust="spacingAndGlyphs" textLength="75"
              x="460" y="410.5237">-designacao
        </text>
        <line style="stroke: #A80036; stroke-width: 1.875;" x1="453.75" x2="601.25" y1="418.5449" y2="418.5449"/>
        <text fill="#000000" font-family="sans-serif" font-size="13.75" lengthAdjust="spacingAndGlyphs"
              textLength="88.75" x="460" y="437.8186">+getAT(atCod)
        </text>
        <text fill="#000000" font-family="sans-serif" font-size="13.75" lengthAdjust="spacingAndGlyphs" textLength="95"
              x="460" y="455.1135">+getCT(catCod)
        </text>
        <text fill="#000000" font-family="sans-serif" font-size="13.75" lengthAdjust="spacingAndGlyphs"
              textLength="81.25" x="460" y="472.4084">+getListaCT()
        </text>
        <text fill="#000000" font-family="sans-serif" font-size="13.75" lengthAdjust="spacingAndGlyphs"
              textLength="82.5" x="460" y="489.7034">+getListaAT()
        </text>
        <text fill="#000000" font-family="sans-serif" font-size="13.75" lengthAdjust="spacingAndGlyphs" textLength="135"
              x="460" y="506.9983">+novaCategoria(desc)
        </text>
        <text fill="#000000" font-family="sans-serif" font-size="13.75" lengthAdjust="spacingAndGlyphs" textLength="135"
              x="460" y="524.2932">+registaCategoria(cat)
        </text>
        <text fill="#000000" font-family="sans-serif" font-size="13.75" lengthAdjust="spacingAndGlyphs"
              textLength="126.25" x="460" y="541.5881">-validaCategoria(cat)
        </text>
        <text fill="#000000" font-family="sans-serif" font-size="13.75" lengthAdjust="spacingAndGlyphs" textLength="110"
              x="460" y="558.8831">-geraCategoriaId()
        </text>
        <text fill="#000000" font-family="sans-serif" font-size="13.75" lengthAdjust="spacingAndGlyphs"
              textLength="113.75" x="460" y="576.178">-addCategoria(cat)
        </text><!--MD5=[a322db5a7ec64d2ff8f2d6cf1831dcec]
class CompetenciaTecnica-->
        <rect fill="#FEFECE" filter="url(#f58i1jcsw05ny)" height="111.8848" id="CompetenciaTecnica"
              style="stroke: #A80036; stroke-width: 1.875;" width="186.25" x="275.625" y="934.375"/>
        <ellipse cx="294.375" cy="954.375" fill="#ADD1B2" rx="13.75" ry="13.75"
                 style="stroke: #A80036; stroke-width: 1.25;"/>
        <path d="M296.875,950 Q297.1289,949.375 297.4219,949.0625 Q297.7148,948.75 298.0469,948.75 Q298.6328,948.75 299.0039,949.1016 Q299.375,949.4531 299.375,950.2734 L299.375,952.2266 Q299.375,953.0469 299.0234,953.3984 Q298.6719,953.75 298.125,953.75 Q297.6367,953.75 297.3242,953.5352 Q297.0117,953.3203 296.875,952.7539 Q296.8164,952.3633 296.6016,952.1484 Q296.2109,951.7383 295.5078,951.5039 Q294.8047,951.25 294.1016,951.25 Q293.2227,951.25 292.4805,951.6016 Q291.7578,951.9531 291.1914,952.7344 Q290.625,953.5156 290.625,954.5898 L290.625,955.7422 Q290.625,957.0313 291.6797,957.8906 Q292.7344,958.75 294.6094,958.75 Q295.7227,958.75 296.5039,958.4961 Q296.9531,958.3594 297.4609,957.9102 Q297.793,957.6563 297.9688,957.5781 Q298.1445,957.5 298.3594,957.5 Q298.7695,957.5 299.0625,957.832 Q299.375,958.1445 299.375,958.5938 Q299.375,959.0234 298.9453,959.5313 Q298.3203,960.2734 297.3242,960.6836 Q296.0156,961.25 294.4141,961.25 Q292.5391,961.25 291.0352,960.5078 Q289.8242,959.9219 288.9648,958.6523 Q288.125,957.3828 288.125,955.8789 L288.125,954.5117 Q288.125,952.9492 288.8672,951.582 Q289.6289,950.2148 290.9375,949.4922 Q292.2656,948.75 293.75,948.75 Q294.6484,948.75 295.4297,949.0625 Q296.2109,949.375 296.875,950 Z "/>
        <text fill="#000000" font-family="sans-serif" font-size="15" lengthAdjust="spacingAndGlyphs" textLength="146.25"
              x="311.875" y="960.5127">CompetenciaTecnica
        </text>
        <line style="stroke: #A80036; stroke-width: 1.875;" x1="276.875" x2="460.625" y1="974.375" y2="974.375"/>
        <text fill="#000000" font-family="sans-serif" font-size="13.75" lengthAdjust="spacingAndGlyphs" textLength="45"
              x="283.125" y="993.6487">-codigo
        </text>
        <text fill="#000000" font-family="sans-serif" font-size="13.75" lengthAdjust="spacingAndGlyphs"
              textLength="71.25" x="283.125" y="1010.9436">-descBreve
        </text>
        <text fill="#000000" font-family="sans-serif" font-size="13.75" lengthAdjust="spacingAndGlyphs" textLength="95"
              x="283.125" y="1028.2385">-descDetalhada
        </text>
        <line style="stroke: #A80036; stroke-width: 1.875;" x1="276.875" x2="460.625" y1="1036.2598" y2="1036.2598"/><!--MD5=[b0f240be72c8ea8a063442502d85fc08]
class CaraterCT-->
        <rect fill="#FEFECE" filter="url(#f58i1jcsw05ny)" height="94.5898" id="CaraterCT"
              style="stroke: #A80036; stroke-width: 1.875;" width="123.75" x="766.875" y="1196.25"/>
        <ellipse cx="791.25" cy="1216.25" fill="#ADD1B2" rx="13.75" ry="13.75"
                 style="stroke: #A80036; stroke-width: 1.25;"/>
        <path d="M793.75,1211.875 Q794.0039,1211.25 794.2969,1210.9375 Q794.5898,1210.625 794.9219,1210.625 Q795.5078,1210.625 795.8789,1210.9766 Q796.25,1211.3281 796.25,1212.1484 L796.25,1214.1016 Q796.25,1214.9219 795.8984,1215.2734 Q795.5469,1215.625 795,1215.625 Q794.5117,1215.625 794.1992,1215.4102 Q793.8867,1215.1953 793.75,1214.6289 Q793.6914,1214.2383 793.4766,1214.0234 Q793.0859,1213.6133 792.3828,1213.3789 Q791.6797,1213.125 790.9766,1213.125 Q790.0977,1213.125 789.3555,1213.4766 Q788.6328,1213.8281 788.0664,1214.6094 Q787.5,1215.3906 787.5,1216.4648 L787.5,1217.6172 Q787.5,1218.9063 788.5547,1219.7656 Q789.6094,1220.625 791.4844,1220.625 Q792.5977,1220.625 793.3789,1220.3711 Q793.8281,1220.2344 794.3359,1219.7852 Q794.668,1219.5313 794.8438,1219.4531 Q795.0195,1219.375 795.2344,1219.375 Q795.6445,1219.375 795.9375,1219.707 Q796.25,1220.0195 796.25,1220.4688 Q796.25,1220.8984 795.8203,1221.4063 Q795.1953,1222.1484 794.1992,1222.5586 Q792.8906,1223.125 791.2891,1223.125 Q789.4141,1223.125 787.9102,1222.3828 Q786.6992,1221.7969 785.8398,1220.5273 Q785,1219.2578 785,1217.7539 L785,1216.3867 Q785,1214.8242 785.7422,1213.457 Q786.5039,1212.0898 787.8125,1211.3672 Q789.1406,1210.625 790.625,1210.625 Q791.5234,1210.625 792.3047,1210.9375 Q793.0859,1211.25 793.75,1211.875 Z "/>
        <text fill="#000000" font-family="sans-serif" font-size="15" lengthAdjust="spacingAndGlyphs" textLength="71.25"
              x="810" y="1222.3877">CaraterCT
        </text>
        <line style="stroke: #A80036; stroke-width: 1.875;" x1="768.125" x2="889.375" y1="1236.25" y2="1236.25"/>
        <text fill="#000000" font-family="sans-serif" font-size="13.75" lengthAdjust="spacingAndGlyphs"
              textLength="68.75" x="774.375" y="1255.5237">-obrigatoria
        </text>
        <line style="stroke: #A80036; stroke-width: 1.875;" x1="768.125" x2="889.375" y1="1263.5449" y2="1263.5449"/>
        <text fill="#000000" font-family="sans-serif" font-size="13.75" lengthAdjust="spacingAndGlyphs"
              textLength="108.75" x="774.375" y="1282.8186">+CaraterCT(ct,ob)
        </text><!--MD5=[7e1ce8ab2bf669717f28e918f4971b9a]
class Categoria-->
        <rect fill="#FEFECE" filter="url(#f58i1jcsw05ny)" height="198.3594" id="Categoria"
              style="stroke: #A80036; stroke-width: 1.875;" width="146.25" x="755.625" y="891.25"/>
        <ellipse cx="791.8125" cy="911.25" fill="#ADD1B2" rx="13.75" ry="13.75"
                 style="stroke: #A80036; stroke-width: 1.25;"/>
        <path d="M794.3125,906.875 Q794.5664,906.25 794.8594,905.9375 Q795.1523,905.625 795.4844,905.625 Q796.0703,905.625 796.4414,905.9766 Q796.8125,906.3281 796.8125,907.1484 L796.8125,909.1016 Q796.8125,909.9219 796.4609,910.2734 Q796.1094,910.625 795.5625,910.625 Q795.0742,910.625 794.7617,910.4102 Q794.4492,910.1953 794.3125,909.6289 Q794.2539,909.2383 794.0391,909.0234 Q793.6484,908.6133 792.9453,908.3789 Q792.2422,908.125 791.5391,908.125 Q790.6602,908.125 789.918,908.4766 Q789.1953,908.8281 788.6289,909.6094 Q788.0625,910.3906 788.0625,911.4648 L788.0625,912.6172 Q788.0625,913.9063 789.1172,914.7656 Q790.1719,915.625 792.0469,915.625 Q793.1602,915.625 793.9414,915.3711 Q794.3906,915.2344 794.8984,914.7852 Q795.2305,914.5313 795.4063,914.4531 Q795.582,914.375 795.7969,914.375 Q796.207,914.375 796.5,914.707 Q796.8125,915.0195 796.8125,915.4688 Q796.8125,915.8984 796.3828,916.4063 Q795.7578,917.1484 794.7617,917.5586 Q793.4531,918.125 791.8516,918.125 Q789.9766,918.125 788.4727,917.3828 Q787.2617,916.7969 786.4023,915.5273 Q785.5625,914.2578 785.5625,912.7539 L785.5625,911.3867 Q785.5625,909.8242 786.3047,908.457 Q787.0664,907.0898 788.375,906.3672 Q789.7031,905.625 791.1875,905.625 Q792.0859,905.625 792.8672,905.9375 Q793.6484,906.25 794.3125,906.875 Z "/>
        <text fill="#000000" font-family="sans-serif" font-size="15" lengthAdjust="spacingAndGlyphs" textLength="67.5"
              x="813.1875" y="917.3877">Categoria
        </text>
        <line style="stroke: #A80036; stroke-width: 1.875;" x1="756.875" x2="900.625" y1="931.25" y2="931.25"/>
        <text fill="#000000" font-family="sans-serif" font-size="13.75" lengthAdjust="spacingAndGlyphs" textLength="15"
              x="763.125" y="950.5237">-id
        </text>
        <text fill="#000000" font-family="sans-serif" font-size="13.75" lengthAdjust="spacingAndGlyphs" textLength="65"
              x="763.125" y="967.8186">-descricao
        </text>
        <line style="stroke: #A80036; stroke-width: 1.875;" x1="756.875" x2="900.625" y1="975.8398" y2="975.8398"/>
        <text fill="#000000" font-family="sans-serif" font-size="13.75" lengthAdjust="spacingAndGlyphs"
              textLength="118.75" x="763.125" y="995.1135">+Categoria(id,desc)
        </text>
        <text fill="#000000" font-family="sans-serif" font-size="13.75" lengthAdjust="spacingAndGlyphs" textLength="65"
              x="763.125" y="1012.4084">+setAT(at)
        </text>
        <text fill="#000000" font-family="sans-serif" font-size="13.75" lengthAdjust="spacingAndGlyphs"
              textLength="131.25" x="763.125" y="1029.7034">+addCaraterCT(ct,ob)
        </text>
        <text fill="#000000" font-family="sans-serif" font-size="13.75" lengthAdjust="spacingAndGlyphs"
              textLength="52.5" x="763.125" y="1046.9983">+valida()
        </text>
        <text fill="#000000" font-family="sans-serif" font-size="13.75" lengthAdjust="spacingAndGlyphs" textLength="130"
              x="763.125" y="1064.2932">-validaCaraterCT(cct)
        </text>
        <text fill="#000000" font-family="sans-serif" font-size="13.75" lengthAdjust="spacingAndGlyphs"
              textLength="117.5" x="763.125" y="1081.5881">-addCaraterCT(cct)
        </text><!--MD5=[02456e6632d968d6f68141e5893c6991]
class AreaAtividade-->
        <rect fill="#FEFECE" filter="url(#f58i1jcsw05ny)" height="111.8848" id="AreaAtividade"
              style="stroke: #A80036; stroke-width: 1.875;" width="132.5" x="180" y="1187.5"/>
        <ellipse cx="198.75" cy="1207.5" fill="#ADD1B2" rx="13.75" ry="13.75"
                 style="stroke: #A80036; stroke-width: 1.25;"/>
        <path d="M201.25,1203.125 Q201.5039,1202.5 201.7969,1202.1875 Q202.0898,1201.875 202.4219,1201.875 Q203.0078,1201.875 203.3789,1202.2266 Q203.75,1202.5781 203.75,1203.3984 L203.75,1205.3516 Q203.75,1206.1719 203.3984,1206.5234 Q203.0469,1206.875 202.5,1206.875 Q202.0117,1206.875 201.6992,1206.6602 Q201.3867,1206.4453 201.25,1205.8789 Q201.1914,1205.4883 200.9766,1205.2734 Q200.5859,1204.8633 199.8828,1204.6289 Q199.1797,1204.375 198.4766,1204.375 Q197.5977,1204.375 196.8555,1204.7266 Q196.1328,1205.0781 195.5664,1205.8594 Q195,1206.6406 195,1207.7148 L195,1208.8672 Q195,1210.1563 196.0547,1211.0156 Q197.1094,1211.875 198.9844,1211.875 Q200.0977,1211.875 200.8789,1211.6211 Q201.3281,1211.4844 201.8359,1211.0352 Q202.168,1210.7813 202.3438,1210.7031 Q202.5195,1210.625 202.7344,1210.625 Q203.1445,1210.625 203.4375,1210.957 Q203.75,1211.2695 203.75,1211.7188 Q203.75,1212.1484 203.3203,1212.6563 Q202.6953,1213.3984 201.6992,1213.8086 Q200.3906,1214.375 198.7891,1214.375 Q196.9141,1214.375 195.4102,1213.6328 Q194.1992,1213.0469 193.3398,1211.7773 Q192.5,1210.5078 192.5,1209.0039 L192.5,1207.6367 Q192.5,1206.0742 193.2422,1204.707 Q194.0039,1203.3398 195.3125,1202.6172 Q196.6406,1201.875 198.125,1201.875 Q199.0234,1201.875 199.8047,1202.1875 Q200.5859,1202.5 201.25,1203.125 Z "/>
        <text fill="#000000" font-family="sans-serif" font-size="15" lengthAdjust="spacingAndGlyphs" textLength="92.5"
              x="216.25" y="1213.6377">AreaAtividade
        </text>
        <line style="stroke: #A80036; stroke-width: 1.875;" x1="181.25" x2="311.25" y1="1227.5" y2="1227.5"/>
        <text fill="#000000" font-family="sans-serif" font-size="13.75" lengthAdjust="spacingAndGlyphs" textLength="45"
              x="187.5" y="1246.7737">-codigo
        </text>
        <text fill="#000000" font-family="sans-serif" font-size="13.75" lengthAdjust="spacingAndGlyphs"
              textLength="71.25" x="187.5" y="1264.0686">-descBreve
        </text>
        <text fill="#000000" font-family="sans-serif" font-size="13.75" lengthAdjust="spacingAndGlyphs" textLength="95"
              x="187.5" y="1281.3635">-descDetalhada
        </text>
        <line style="stroke: #A80036; stroke-width: 1.875;" x1="181.25" x2="311.25" y1="1289.3848" y2="1289.3848"/><!--MD5=[512502001ccce49054c9400db8cbc860]
link DefinirCategoriaUI to DefinirCategoriaController-->
        <path d="M527.5,70.1512 C527.5,89.2038 527.5,115.0225 527.5,139.2525 " fill="none"
              id="DefinirCategoriaUI-&gt;DefinirCategoriaController"
              style="stroke: #A80036; stroke-width: 1.25; stroke-dasharray: 7.0,7.0;"/>
        <polygon fill="#A80036" points="527.5,146.0375,532.5,134.7875,527.5,139.7875,522.5,134.7875,527.5,146.0375"
                 style="stroke: #A80036; stroke-width: 1.25;"/><!--MD5=[0fe5c28e463b2014fef6d172a2d489ec]
link DefinirCategoriaController to Plataforma-->
        <path d="M527.5,275.0813 C527.5,296.0625 527.5,320.185 527.5,344.0712 " fill="none"
              id="DefinirCategoriaController-&gt;Plataforma"
              style="stroke: #A80036; stroke-width: 1.25; stroke-dasharray: 7.0,7.0;"/>
        <polygon fill="#A80036" points="527.5,350.8,532.5,339.55,527.5,344.55,522.5,339.55,527.5,350.8"
                 style="stroke: #A80036; stroke-width: 1.25;"/><!--MD5=[666a00fbd91b646ca611c9d5fcd09542]
link DefinirCategoriaController to AreaAtividade-->
        <path d="M417.2213,217.99 C264.58,233.0813 7.5,285.3488 7.5,466.25 C7.5,466.25 7.5,466.25 7.5,991.875 C7.5,1089.6838 104.0068,1164.43 174.3062,1205.9025 "
              fill="none" id="DefinirCategoriaController-&gt;AreaAtividade"
              style="stroke: #A80036; stroke-width: 1.25; stroke-dasharray: 7.0,7.0;"/>
        <polygon fill="#A80036"
                 points="179.745,1209.076,172.5483,1199.0875,174.3468,1205.926,167.5083,1207.7246,179.745,1209.076"
                 style="stroke: #A80036; stroke-width: 1.25;"/><!--MD5=[bc75f439354c126562bc3903d6ab3dcd]
link DefinirCategoriaController to CompetenciaTecnica-->
        <path d="M474.5687,275.055 C457.945,297.8163 441.0638,324.5087 430,351.25 C348.0488,549.33 354.7425,810.5725 363.0825,927.8063 "
              fill="none" id="DefinirCategoriaController-&gt;CompetenciaTecnica"
              style="stroke: #A80036; stroke-width: 1.25; stroke-dasharray: 7.0,7.0;"/>
        <polygon fill="#A80036"
                 points="363.5563,934.3,367.7234,922.7156,363.1009,928.0666,357.75,923.4441,363.5563,934.3"
                 style="stroke: #A80036; stroke-width: 1.25;"/><!--MD5=[22a0c411e8298196ee56fe1fb1fc231a]
link DefinirCategoriaController to Categoria-->
        <path d="M637.5225,260.475 C681.7512,283.6188 731.0788,314.3613 768.75,351.25 C891.285,471.24 922.6038,516.075 968.75,681.25 C982.2038,729.4063 984.03,746.1425 968.75,793.75 C955.7863,834.1387 931.0725,873.2725 905.9725,905.7887 "
              fill="none" id="DefinirCategoriaController-&gt;Categoria"
              style="stroke: #A80036; stroke-width: 1.25; stroke-dasharray: 7.0,7.0;"/>
        <polygon fill="#A80036"
                 points="901.9425,910.95,912.8067,905.1594,905.7886,906.0236,904.9244,899.0055,901.9425,910.95"
                 style="stroke: #A80036; stroke-width: 1.25;"/><!--MD5=[403c8dc6a3447e30f6b80821dc30d45d]
link Plataforma to RegistoCategoria-->
        <path d="M602.7413,535.5613 C651.5038,578.8613 714.4675,634.7713 761.5488,676.5775 " fill="none"
              id="Plataforma-&gt;RegistoCategoria" style="stroke: #A80036; stroke-width: 1.25;"/>
        <polygon fill="#A80036"
                 points="766.63,681.09,761.536,669.8822,761.9559,676.9408,754.8973,677.3607,766.63,681.09"
                 style="stroke: #A80036; stroke-width: 1.25;"/>
        <text fill="#000000" font-family="sans-serif" font-size="16.25" lengthAdjust="spacingAndGlyphs"
              textLength="47.5" x="725" y="639.3689">possui
        </text>
        <text fill="#000000" font-family="sans-serif" font-size="16.25" lengthAdjust="spacingAndGlyphs"
              textLength="8.75" x="612.4445" y="539.5058">1
        </text>
        <text fill="#000000" font-family="sans-serif" font-size="16.25" lengthAdjust="spacingAndGlyphs"
              textLength="8.75" x="747.698" y="667.8706">1
        </text><!--MD5=[a066decb8bb90afcd4f01d426daff2d6]
link RegistoCategoria to Categoria-->
        <path d="M828.75,793.7513 C828.75,820.3863 828.75,853.2887 828.75,884.46 " fill="none"
              id="RegistoCategoria-&gt;Categoria" style="stroke: #A80036; stroke-width: 1.25;"/>
        <polygon fill="#A80036" points="828.75,891.0825,833.75,879.8325,828.75,884.8325,823.75,879.8325,828.75,891.0825"
                 style="stroke: #A80036; stroke-width: 1.25;"/>
        <text fill="#000000" font-family="sans-serif" font-size="16.25" lengthAdjust="spacingAndGlyphs"
              textLength="47.5" x="830" y="849.3689">possui
        </text>
        <text fill="#000000" font-family="sans-serif" font-size="16.25" lengthAdjust="spacingAndGlyphs"
              textLength="8.75" x="819.3848" y="820.0109">1
        </text>
        <text fill="#000000" font-family="sans-serif" font-size="16.25" lengthAdjust="spacingAndGlyphs"
              textLength="6.25" x="822.2021" y="877.5502">*
        </text><!--MD5=[e0ea4acabb20935f491233f20ac3e1b7]
link Plataforma to RegistoAreaDeAtividade-->
        <path d="M452.3688,526.7937 C386.9188,577.3587 293.6063,649.4475 235.2825,694.5063 " fill="none"
              id="Plataforma-&gt;RegistoAreaDeAtividade" style="stroke: #A80036; stroke-width: 1.25;"/>
        <polygon fill="#A80036"
                 points="230.0988,698.5113,242.0582,695.5901,235.0447,694.6902,235.9446,687.6766,230.0988,698.5113"
                 style="stroke: #A80036; stroke-width: 1.25;"/>
        <text fill="#000000" font-family="sans-serif" font-size="16.25" lengthAdjust="spacingAndGlyphs"
              textLength="47.5" x="325" y="639.3689">possui
        </text>
        <text fill="#000000" font-family="sans-serif" font-size="16.25" lengthAdjust="spacingAndGlyphs"
              textLength="8.75" x="433.9289" y="529.6697">1
        </text>
        <text fill="#000000" font-family="sans-serif" font-size="16.25" lengthAdjust="spacingAndGlyphs"
              textLength="8.75" x="230.5215" y="685.3427">1
        </text><!--MD5=[a8bd9c3e1586a19e20bd35223a58691c]
link RegistoAreaDeAtividade to AreaAtividade-->
        <path d="M181.1088,776.4738 C181.435,841.1225 184.605,977.0375 203.75,1090 C208.9163,1120.4837 217.7488,1153.6238 226.0275,1181.1986 "
              fill="none" id="RegistoAreaDeAtividade-&gt;AreaAtividade" style="stroke: #A80036; stroke-width: 1.25;"/>
        <polygon fill="#A80036"
                 points="227.895,1187.3563,229.415,1175.1394,226.0812,1181.3752,219.8454,1178.0414,227.895,1187.3563"
                 style="stroke: #A80036; stroke-width: 1.25;"/>
        <text fill="#000000" font-family="sans-serif" font-size="16.25" lengthAdjust="spacingAndGlyphs"
              textLength="47.5" x="205" y="997.4939">possui
        </text>
        <text fill="#000000" font-family="sans-serif" font-size="16.25" lengthAdjust="spacingAndGlyphs"
              textLength="8.75" x="171.4696" y="803.0478">1
        </text>
        <text fill="#000000" font-family="sans-serif" font-size="16.25" lengthAdjust="spacingAndGlyphs"
              textLength="6.25" x="218.2216" y="1173.7277">*
        </text><!--MD5=[0b3152a099d2e5868be3b20f8e492719]
link Plataforma to RegistoCompetenciaTecnica-->
        <path d="M520.8488,583.7725 C520.8838,603.8038 521.6837,624.4113 523.75,643.75 C525.8025,662.9563 530.1875,684.03 534.33,701.205 "
              fill="none" id="Plataforma-&gt;RegistoCompetenciaTecnica" style="stroke: #A80036; stroke-width: 1.25;"/>
        <polygon fill="#A80036"
                 points="535.8413,707.3462,538.0096,695.2276,534.3485,701.2771,528.299,697.616,535.8413,707.3462"
                 style="stroke: #A80036; stroke-width: 1.25;"/>
        <text fill="#000000" font-family="sans-serif" font-size="16.25" lengthAdjust="spacingAndGlyphs"
              textLength="47.5" x="525" y="639.3689">possui
        </text>
        <text fill="#000000" font-family="sans-serif" font-size="16.25" lengthAdjust="spacingAndGlyphs"
              textLength="8.75" x="511.1856" y="611.0979">1
        </text>
        <text fill="#000000" font-family="sans-serif" font-size="16.25" lengthAdjust="spacingAndGlyphs"
              textLength="8.75" x="523.9435" y="693.9821">1
        </text><!--MD5=[e80876926070d9049300eb8f80d48663]
link RegistoCompetenciaTecnica to CompetenciaTecnica-->
        <path d="M523.3325,767.99 C495.93,807.235 446.59,877.8963 411.0137,928.8475 " fill="none"
              id="RegistoCompetenciaTecnica-&gt;CompetenciaTecnica" style="stroke: #A80036; stroke-width: 1.25;"/>
        <polygon fill="#A80036"
                 points="407.1813,934.3363,417.7214,927.9749,410.7594,929.2119,409.5224,922.2498,407.1813,934.3363"
                 style="stroke: #A80036; stroke-width: 1.25;"/>
        <text fill="#000000" font-family="sans-serif" font-size="16.25" lengthAdjust="spacingAndGlyphs"
              textLength="47.5" x="478.75" y="849.3689">possui
        </text>
        <text fill="#000000" font-family="sans-serif" font-size="16.25" lengthAdjust="spacingAndGlyphs"
              textLength="8.75" x="508.8492" y="794.273">1
        </text>
        <text fill="#000000" font-family="sans-serif" font-size="16.25" lengthAdjust="spacingAndGlyphs"
              textLength="6.25" x="406.5582" y="920.7244">*
        </text><!--MD5=[e538c9efa8de58386edc6206f3c58807]
link CompetenciaTecnica to AreaAtividade-->
        <path d="M341.8663,1046.8763 C322.4663,1086.5662 296.2663,1140.1712 276.1962,1181.2313 " fill="none"
              id="CompetenciaTecnica-&gt;AreaAtividade" style="stroke: #A80036; stroke-width: 1.25;"/>
        <polygon fill="#A80036"
                 points="273.2813,1187.1951,282.7142,1179.2842,276.0262,1181.5802,273.7302,1174.8922,273.2813,1187.1951"
                 style="stroke: #A80036; stroke-width: 1.25;"/>
        <text fill="#000000" font-family="sans-serif" font-size="16.25" lengthAdjust="spacingAndGlyphs"
              textLength="76.25" x="302.5" y="1145.6189">referente a
        </text>
        <text fill="#000000" font-family="sans-serif" font-size="16.25" lengthAdjust="spacingAndGlyphs"
              textLength="6.25" x="331.3963" y="1073.1359">*
        </text>
        <text fill="#000000" font-family="sans-serif" font-size="16.25" lengthAdjust="spacingAndGlyphs"
              textLength="8.75" x="268.0005" y="1173.9534">1
        </text><!--MD5=[333932e5e4606ec9852f0cecc179b212]
link Categoria to AreaAtividade-->
        <path d="M755.5663,1023.3625 C643.445,1071.6038 430.4388,1163.2513 318.7375,1211.3118 " fill="none"
              id="Categoria-&gt;AreaAtividade" style="stroke: #A80036; stroke-width: 1.25;"/>
        <polygon fill="#A80036"
                 points="312.84,1213.8491,325.1502,1213.9934,318.5807,1211.3779,321.1962,1204.8083,312.84,1213.8491"
                 style="stroke: #A80036; stroke-width: 1.25;"/>
        <text fill="#000000" font-family="sans-serif" font-size="16.25" lengthAdjust="spacingAndGlyphs"
              textLength="77.5" x="505" y="1145.6189">tem/requer
        </text>
        <text fill="#000000" font-family="sans-serif" font-size="16.25" lengthAdjust="spacingAndGlyphs"
              textLength="6.25" x="739.5392" y="1023.1978">*
        </text>
        <text fill="#000000" font-family="sans-serif" font-size="16.25" lengthAdjust="spacingAndGlyphs"
              textLength="8.75" x="322.3759" y="1205.4272">1
        </text><!--MD5=[356637b2f958ae72e05476dfd0749f83]
link Categoria to CaraterCT-->
        <path d="M828.75,1090.2088 C828.75,1124.1225 828.75,1160.8038 828.75,1189.667 " fill="none"
              id="Categoria-&gt;CaraterCT" style="stroke: #A80036; stroke-width: 1.25;"/>
        <polygon fill="#A80036"
                 points="828.75,1196.0771,833.75,1184.8271,828.75,1189.8271,823.75,1184.8271,828.75,1196.0771"
                 style="stroke: #A80036; stroke-width: 1.25;"/>
        <text fill="#000000" font-family="sans-serif" font-size="16.25" lengthAdjust="spacingAndGlyphs"
              textLength="77.5" x="830" y="1145.6189">tem/requer
        </text>
        <text fill="#000000" font-family="sans-serif" font-size="16.25" lengthAdjust="spacingAndGlyphs"
              textLength="8.75" x="819.624" y="1116.5307">1
        </text>
        <text fill="#000000" font-family="sans-serif" font-size="16.25" lengthAdjust="spacingAndGlyphs"
              textLength="6.25" x="821.9434" y="1182.7487">*
        </text><!--MD5=[4b76c9749821a17462167c8c2590d802]
link CaraterCT to GrauDeProficiencia-->
        <path d="M890.8538,1243.75 C916.1975,1243.75 946.6837,1243.75 977.1538,1243.75 " fill="none"
              id="CaraterCT-&gt;GrauDeProficiencia" style="stroke: #A80036; stroke-width: 1.25;"/>
        <polygon fill="#A80036"
                 points="983.6538,1243.75,972.4038,1238.75,977.4038,1243.75,972.4038,1248.75,983.6538,1243.75"
                 style="stroke: #A80036; stroke-width: 1.25;"/>
        <text fill="#000000" font-family="sans-serif" font-size="16.25" lengthAdjust="spacingAndGlyphs"
              textLength="47.5" x="913.4375" y="1235.6189">possui
        </text>
        <text fill="#000000" font-family="sans-serif" font-size="16.25" lengthAdjust="spacingAndGlyphs"
              textLength="8.75" x="900.6178" y="1239.2125">1
        </text>
        <text fill="#000000" font-family="sans-serif" font-size="16.25" lengthAdjust="spacingAndGlyphs"
              textLength="8.75" x="965.1131" y="1239.9756">1
        </text><!--MD5=[2d9644cc97c44eb2aedfa20034b77268]
link DefinirCategoriaController to RegistoCompetenciaTecnica-->
        <path d="M579.3288,275.315 C595.705,298.0975 612.4575,324.7363 623.75,351.25 C671.74,463.92 666.4663,499.4038 678.75,621.25 C679.7525,631.2 683.4125,634.9038 678.75,643.75 C665.1413,669.57 640.715,689.5638 616.345,704.2488 "
              fill="none" id="DefinirCategoriaController-&gt;RegistoCompetenciaTecnica"
              style="stroke: #A80036; stroke-width: 1.25; stroke-dasharray: 7.0,7.0;"/>
        <polygon fill="#A80036"
                 points="610.8213,707.49,623.0548,706.1104,616.2121,704.3276,617.9949,697.485,610.8213,707.49"
                 style="stroke: #A80036; stroke-width: 1.25;"/><!--MD5=[71e3297e2b99ea1f35fba325b2815584]
link DefinirCategoriaController to RegistoAreaDeAtividade-->
        <path d="M417.2425,246.8337 C382.9975,262.3013 347.6738,283.6888 322.5,312.5 C224.0375,425.1887 193.7575,608.7688 184.815,692.3325 "
              fill="none" id="DefinirCategoriaController-&gt;RegistoAreaDeAtividade"
              style="stroke: #A80036; stroke-width: 1.25; stroke-dasharray: 7.0,7.0;"/>
        <polygon fill="#A80036"
                 points="184.1588,698.6575,190.2922,687.9831,184.8033,692.4408,180.3455,686.9519,184.1588,698.6575"
                 style="stroke: #A80036; stroke-width: 1.25;"/><!--MD5=[8a73ef54eef4199f6d051a759bb0f6b1]
link DefinirCategoriaController to RegistoCategoria-->
        <path d="M612.455,275.315 C637.5425,297.2225 663.3738,323.3375 682.5,351.25 C752.9075,454.0037 795.2175,595.2 815.065,674.9325 "
              fill="none" id="DefinirCategoriaController-&gt;RegistoCategoria"
              style="stroke: #A80036; stroke-width: 1.25; stroke-dasharray: 7.0,7.0;"/>
        <polygon fill="#A80036"
                 points="816.57,681.0362,818.7308,668.9163,815.0735,674.9681,809.0217,671.3107,816.57,681.0362"
                 style="stroke: #A80036; stroke-width: 1.25;"/><!--MD5=[4793352e399399c8d175d8e5dc1cb73e]
@startuml
skinparam classAttributeIconSize 0
class DefinirCategoriaUI {
}
class GrauDeProficiencia #0041A{
    -int grauDeProficiencencia
    +GrauDeProficiencia(int GrauDeProficiencia)
}
class DefinirCategoriaController {
  +novaCategoria(desc)
  +setAT(atCod)
  +addCaraterCT(ctCod,ob)
  +registaCategoria()
}
class RegistoCategoria #0041A{
    **+addCategoria(Categoria catg)**
    **+validaCategoria(Categoria catg)**
    **+getListaCategorias()**
}
class RegistoAreaDeAtividade #0041A{
    **+AreaAtividade getAT(atCod)**
    
}
class RegistoCompetenciaTecnica #0041A{
}

class Plataforma {
  -designacao
  +getAT(atCod)
  +getCT(catCod)
  +getListaCT()
  +getListaAT()
  +novaCategoria(desc)
  +registaCategoria(cat)
  -validaCategoria(cat)
  -geraCategoriaId()
  -addCategoria(cat)
}

class CompetenciaTecnica {
  -codigo
  -descBreve
  -descDetalhada
}

class CaraterCT {
  -obrigatoria
  +CaraterCT(ct,ob)
}


class Categoria {
  -id
  -descricao
  +Categoria(id,desc)
  +setAT(at)
  +addCaraterCT(ct,ob)
  +valida()
  -validaCaraterCT(cct)
  -addCaraterCT(cct)
}

class AreaAtividade {
  -codigo
  -descBreve
  -descDetalhada
}

DefinirCategoriaUI ..> DefinirCategoriaController
DefinirCategoriaController ..> Plataforma
DefinirCategoriaController ..> AreaAtividade
DefinirCategoriaController ..> CompetenciaTecnica
DefinirCategoriaController ..> Categoria
Plataforma "1" - -> "1" RegistoCategoria : possui
RegistoCategoria"1" - -> "*" Categoria : possui
Plataforma "1" - -> "1" RegistoAreaDeAtividade : possui
RegistoAreaDeAtividade"1" - -> "*" AreaAtividade : possui
Plataforma "1" - -> "1" RegistoCompetenciaTecnica : possui
RegistoCompetenciaTecnica"1" - -> "*" CompetenciaTecnica : possui
CompetenciaTecnica "*" -> "1" AreaAtividade : referente a
Categoria "*" - -> "1" AreaAtividade : tem/requer
Categoria "1" - -> "*" CaraterCT : tem/requer
CaraterCT "1" -> "1" GrauDeProficiencia : possui
DefinirCategoriaController ..> RegistoCompetenciaTecnica
DefinirCategoriaController ..> RegistoAreaDeAtividade
DefinirCategoriaController ..> RegistoCategoria


@enduml

PlantUML version 1.2020.07(Sun Apr 19 12:42:40 BST 2020)
(GPL source distribution)
Java Runtime: OpenJDK Runtime Environment
JVM: OpenJDK 64-Bit Server VM
Java Version: 11.0.6+8-b765.40
Operating System: Windows 10
Default Encoding: Cp1252
Language: pt
Country: PT
--></g></svg>