@startuml
autonumber
hide footbox
actor "Administrativo" as ADM

participant ":DefinirCategoriaUI" as UI
participant ":DefinircategoriaController" as CTRL
participant ":Plataforma" as PLAT
participant "la\n:RegistoAreaAtividade" as LIST_AT
participant "at\n:AreaAtividade" as AT
participant "cat\n:Categoria" as CAT
participant "lct\n:RegistoCompetenciaTecnica" as LIST_CT
participant "ct:\nCompetenciaTecnica" as CT
participant "cct\n:CaraterCT" as CARACT_CT
participant "lcat\n:RegistoCategoria" as LIST_CAT
participant "grauProf\n:GrauDeProficiencia" as grauP #0041AB

activate ADM

ADM -> UI : inicia a definição de nova categoria de tarefa
activate UI
UI -> CTRL : **initialize()**
activate CTRL
CTRL -> PLAT : **getListaCategorias()**
activate PLAT
deactivate
deactivate
UI --> ADM : solicita a descrição
deactivate UI

ADM -> UI : introduz a descrição solicitada
activate UI
UI -> CTRL : la=novaCategoria(desc)
activate CTRL
CTRL -> PLAT : cat=novaCategoria(desc)
activate PLAT
PLAT -> PLAT : catId=geraCategoriaId()
PLAT--> CAT**: create(catId,desc)
deactivate PLAT
CTRL -> PLAT : la=getListaAT()
activate PLAT
deactivate PLAT
deactivate CTRL
UI --> ADM : mostra lista de AT e solicita escolha de uma delas
deactivate UI

ADM -> UI : seleciona uma AT
activate UI
UI -> CTRL : lct=setAT(atCod)
activate CTRL
CTRL -> LIST_AT : **at=getAT(atCod)**
activate LIST_AT
deactivate LIST_AT
CTRL -> CAT : setAT(at)
activate CAT
deactivate CAT
CTRL -> PLAT : **lct=getListaCT()**
activate PLAT
deactivate PLAT
deactivate CTRL
UI --> ADM : mostra lista de CT e solicita escolha de uma delas
deactivate UI

loop
ADM -> UI : seleciona uma CT
activate UI
UI --> ADM : solicita o caráter da CT selecionada
deactivate UI

ADM -> UI : introduz o caráter da CT selecionada
activate UI
UI -->ADM : **solicita o grau de proficiência**
deactivate UI
ADM ->UI : **introduz o grau de proficiência**
activate UI
UI -> CTRL : addCaraterCT(ctCod,ob,**grauProf**)
activate CTRL
CTRL -> LIST_CT : ct=getCT(catCod)
activate LIST_CT
deactivate LIST_CT
CTRL -> CAT : addCaraterCT(ct,ob,grauProf)
activate CAT
CAT --> CARACT_CT** : create(ct,ob)
activate CARACT_CT
CARACT_CT -->  grauP** #0041AB: **create(grauProf)**
deactivate
CAT -> CAT : validaCaraterCT(cct)
CAT -> CAT : addCaraterCT(cct)
|||
deactivate CAT
deactivate CTRL
end loop
UI --> ADM : apresenta dados e solicita confirmação
deactivate UI

ADM -> UI : confirma
activate UI
UI -> CTRL : registaCategoria()
activate CTRL
CTRL -> LIST_CAT : registaCategoria(cat)
activate LIST_CAT
LIST_CAT -> CAT : valida()
activate CAT
deactivate CAT
LIST_CAT -> LIST_CAT : **validaCategoria(cat)**
LIST_CAT -> LIST_CAT : **addCategoria(cat)**
deactivate LIST_CAT
deactivate CTRL
UI --> ADM : informa sucesso da operação
deactivate UI

deactivate ADM

@enduml
