@startuml
autonumber
'hide footbox
actor "Administrativo" as ADM

participant ":EspecificarCompetenciaTecnicaUI" as UI
participant ":EspecificarCompetenciaTecnicaController" as CTRL
participant ":Plataforma" as PLAT
participant "raa\n:RegistoAreasAtividade" as RAA
participant "rct\n:RegistoCompetenciasTecnicas" as RCT
participant "ct\n:CompetenciaTecnica" as COMPETENCIA
participant "la\n:List<AreaAtividade>" as LISTA_AREAS
participant "at\n:AreaAtividade" as AREA
participant "gdp\n:GrauDeProficiencia" as GDP
participant "lgdp\n:ListaGrausDeProficiencia" as LGDP


activate ADM
ADM -> UI : inicia a especificação de uma competência técnica
activate UI
UI --> ADM : solicita os dados \n(código único, descrição breve e detalhada)
deactivate UI

ADM -> UI : introduz os dados solicitados
activate UI

UI -> CTRL : la=getAreasAtividade()
activate CTRL
CTRL -> PLAT : raa=getRegistoAreasAtividade()
activate PLAT
deactivate PLAT
CTRL -> RAA : la=getAreasAtividade()
activate RAA

UI --> ADM : mostra a lista de áreas de atividade e pede para selecionar uma
deactivate CTRL
deactivate RAA
deactivate UI

ADM -> UI : seleciona uma área de atividade
activate UI

UI -> CTRL : novaCompetencia(cod,dsBreve,dsDet,atCod)
activate CTRL
CTRL -> PLAT : rct=getRegistoCompetenciasTecnicas()
activate PLAT
deactivate PLAT
CTRL -> RAA: at=getAreaAtividadeByCod(atCod)
activate RAA
|||
deactivate RAA

CTRL -> RCT: ct=novaCompetencia(cod,dsBreve,dsDet,at)
activate RCT

RCT --> COMPETENCIA**: create(cod,dsBreve,dsDet,at)
deactivate RCT
deactivate CTRL
loop
UI --> ADM : solicita os dados necessários para a criação de um grau \nde proficiência (valor e designação)
deactivate UI
ADM -> UI : introduz os dados solicitados
activate UI
UI -> CTRL : novoGrauDeProficiencia(valor,designacao)
activate CTRL
CTRL -> COMPETENCIA : gdp=novoGrauDeProficiencia(valor,designacao)
activate COMPETENCIA
COMPETENCIA --> GDP** : create(valor,designacao)
COMPETENCIA -> COMPETENCIA : validaGrauDeProficiencia(gdp)
COMPETENCIA -> COMPETENCIA : addGrauDeProficiencia(gdp)
deactivate COMPETENCIA
deactivate CTRL
end loop
UI --> ADM : apresenta os dados e solicita confirmação
deactivate UI
ADM -> UI : confirma os dados
activate UI
UI -> CTRL : registaCompetencia()
activate CTRL

CTRL -> RCT : registaCompetencia(ct)
activate RCT

RCT -> RCT : validaCompetencia(ct)
RCT -> RCT : addCompetencia(ct)

UI --> ADM : informa do sucesso da operação
deactivate RCT
deactivate CTRL
deactivate UI


deactivate ADM

@enduml
