<?xml version="1.0" encoding="UTF-8" standalone="no"?>
<svg xmlns="http://www.w3.org/2000/svg" contentScriptType="application/ecmascript" contentStyleType="text/css"
     height="870.3px" preserveAspectRatio="none" style="width:718px;height:870px;" version="1.1" viewBox="0 0 718 870"
     width="718.2px" zoomAndPan="magnify"><defs><filter height="300%" id="f9cgjm3aigova" width="300%" x="-1" y="-1"><feGaussianBlur result="blurOut" stdDeviation="1.8"/><feColorMatrix in="blurOut" result="blurOut2" type="matrix" values="0 0 0 0 0 0 0 0 0 0 0 0 0 0 0 0 0 0 .4 0"/><feOffset dx="3.6" dy="3.6" in="blurOut2" result="blurOut3"/><feBlend in="SourceGraphic" in2="blurOut3" mode="normal"/></filter></defs><g><!--MD5=[380d12a68ed0046a60f31008a02875d0]
class AplicacaoPOT--><rect fill="#FEFECE" filter="url(#f9cgjm3aigova)" height="68.1047" id="AplicacaoPOT" style="stroke: #A80036; stroke-width: 1.35;" width="99.9" x="5.4" y="241.2"/><ellipse cx="19.71" cy="255.6" fill="#ADD1B2" rx="9.9" ry="9.9" style="stroke: #A80036; stroke-width: 0.9;"/><path d="M21.51,252.45 Q21.6928,252 21.9038,251.775 Q22.1147,251.55 22.3537,251.55 Q22.7756,251.55 23.0428,251.8031 Q23.31,252.0563 23.31,252.6469 L23.31,254.0531 Q23.31,254.6438 23.0569,254.8969 Q22.8038,255.15 22.41,255.15 Q22.0584,255.15 21.8334,254.9953 Q21.6084,254.8406 21.51,254.4328 Q21.4678,254.1516 21.3131,253.9969 Q21.0319,253.7016 20.5256,253.5328 Q20.0194,253.35 19.5131,253.35 Q18.8803,253.35 18.3459,253.6031 Q17.8256,253.8563 17.4178,254.4188 Q17.01,254.9813 17.01,255.7547 L17.01,256.5844 Q17.01,257.5125 17.7694,258.1313 Q18.5288,258.75 19.8788,258.75 Q20.6803,258.75 21.2428,258.5672 Q21.5663,258.4688 21.9319,258.1453 Q22.1709,257.9625 22.2975,257.9063 Q22.4241,257.85 22.5788,257.85 Q22.8741,257.85 23.085,258.0891 Q23.31,258.3141 23.31,258.6375 Q23.31,258.9469 23.0006,259.3125 Q22.5506,259.8469 21.8334,260.1422 Q20.8913,260.55 19.7381,260.55 Q18.3881,260.55 17.3053,260.0156 Q16.4334,259.5938 15.8147,258.6797 Q15.21,257.7656 15.21,256.6828 L15.21,255.6984 Q15.21,254.5734 15.7444,253.5891 Q16.2928,252.6047 17.235,252.0844 Q18.1913,251.55 19.26,251.55 Q19.9069,251.55 20.4694,251.775 Q21.0319,252 21.51,252.45 Z "/><text fill="#000000" font-family="sans-serif" font-size="10.8" lengthAdjust="spacingAndGlyphs" textLength="69.3" x="32.49" y="260.0191">AplicacaoPOT</text><line style="stroke: #A80036; stroke-width: 1.35;" x1="6.3" x2="104.4" y1="270" y2="270"/><line style="stroke: #A80036; stroke-width: 1.35;" x1="6.3" x2="104.4" y1="277.2" y2="277.2"/><text fill="#000000" font-family="sans-serif" font-size="9.9" lengthAdjust="spacingAndGlyphs" textLength="89.1" x="10.8" y="291.0771">+static getInstance()</text><text fill="#000000" font-family="sans-serif" font-size="9.9" lengthAdjust="spacingAndGlyphs" textLength="81.9" x="10.8" y="303.5294">+getSessaoAtual()</text><!--MD5=[1e13576e8c070e32200b62ceaa1f39ec]
class SessaoUtilizador--><rect fill="#FEFECE" filter="url(#f9cgjm3aigova)" height="55.6523" id="SessaoUtilizador" style="stroke: #A80036; stroke-width: 1.35;" width="113.4" x="137.25" y="247.5"/><ellipse cx="150.75" cy="261.9" fill="#ADD1B2" rx="9.9" ry="9.9" style="stroke: #A80036; stroke-width: 0.9;"/><path d="M152.55,258.75 Q152.7328,258.3 152.9438,258.075 Q153.1547,257.85 153.3938,257.85 Q153.8156,257.85 154.0828,258.1031 Q154.35,258.3563 154.35,258.9469 L154.35,260.3531 Q154.35,260.9438 154.0969,261.1969 Q153.8438,261.45 153.45,261.45 Q153.0984,261.45 152.8734,261.2953 Q152.6484,261.1406 152.55,260.7328 Q152.5078,260.4516 152.3531,260.2969 Q152.0719,260.0016 151.5656,259.8328 Q151.0594,259.65 150.5531,259.65 Q149.9203,259.65 149.3859,259.9031 Q148.8656,260.1563 148.4578,260.7188 Q148.05,261.2813 148.05,262.0547 L148.05,262.8844 Q148.05,263.8125 148.8094,264.4313 Q149.5688,265.05 150.9188,265.05 Q151.7203,265.05 152.2828,264.8672 Q152.6063,264.7688 152.9719,264.4453 Q153.2109,264.2625 153.3375,264.2063 Q153.4641,264.15 153.6188,264.15 Q153.9141,264.15 154.125,264.3891 Q154.35,264.6141 154.35,264.9375 Q154.35,265.2469 154.0406,265.6125 Q153.5906,266.1469 152.8734,266.4422 Q151.9313,266.85 150.7781,266.85 Q149.4281,266.85 148.3453,266.3156 Q147.4734,265.8938 146.8547,264.9797 Q146.25,264.0656 146.25,262.9828 L146.25,261.9984 Q146.25,260.8734 146.7844,259.8891 Q147.3328,258.9047 148.275,258.3844 Q149.2313,257.85 150.3,257.85 Q150.9469,257.85 151.5094,258.075 Q152.0719,258.3 152.55,258.75 Z "/><text fill="#000000" font-family="sans-serif" font-size="10.8" lengthAdjust="spacingAndGlyphs" textLength="84.6" x="163.35" y="266.3191">SessaoUtilizador</text><line style="stroke: #A80036; stroke-width: 1.35;" x1="138.15" x2="249.75" y1="276.3" y2="276.3"/><line style="stroke: #A80036; stroke-width: 1.35;" x1="138.15" x2="249.75" y1="283.5" y2="283.5"/><text fill="#000000" font-family="sans-serif" font-size="9.9" lengthAdjust="spacingAndGlyphs" textLength="87.3" x="142.65" y="297.3771">+getEmailUtilizador()</text><!--MD5=[ac8682ea5466d223e49472789fb200d2]
class Colaborador--><rect fill="#FEFECE" filter="url(#f9cgjm3aigova)" height="130.3664" id="Colaborador" style="stroke: #A80036; stroke-width: 1.35;" width="181.8" x="328.05" y="730.8"/><ellipse cx="384.075" cy="745.2" fill="#ADD1B2" rx="9.9" ry="9.9" style="stroke: #A80036; stroke-width: 0.9;"/><path d="M385.875,742.05 Q386.0578,741.6 386.2688,741.375 Q386.4797,741.15 386.7188,741.15 Q387.1406,741.15 387.4078,741.4031 Q387.675,741.6563 387.675,742.2469 L387.675,743.6531 Q387.675,744.2438 387.4219,744.4969 Q387.1688,744.75 386.775,744.75 Q386.4234,744.75 386.1984,744.5953 Q385.9734,744.4406 385.875,744.0328 Q385.8328,743.7516 385.6781,743.5969 Q385.3969,743.3016 384.8906,743.1328 Q384.3844,742.95 383.8781,742.95 Q383.2453,742.95 382.7109,743.2031 Q382.1906,743.4563 381.7828,744.0188 Q381.375,744.5813 381.375,745.3547 L381.375,746.1844 Q381.375,747.1125 382.1344,747.7313 Q382.8938,748.35 384.2438,748.35 Q385.0453,748.35 385.6078,748.1672 Q385.9313,748.0688 386.2969,747.7453 Q386.5359,747.5625 386.6625,747.5063 Q386.7891,747.45 386.9438,747.45 Q387.2391,747.45 387.45,747.6891 Q387.675,747.9141 387.675,748.2375 Q387.675,748.5469 387.3656,748.9125 Q386.9156,749.4469 386.1984,749.7422 Q385.2563,750.15 384.1031,750.15 Q382.7531,750.15 381.6703,749.6156 Q380.7984,749.1938 380.1797,748.2797 Q379.575,747.3656 379.575,746.2828 L379.575,745.2984 Q379.575,744.1734 380.1094,743.1891 Q380.6578,742.2047 381.6,741.6844 Q382.5563,741.15 383.625,741.15 Q384.2719,741.15 384.8344,741.375 Q385.3969,741.6 385.875,742.05 Z "/><text fill="#000000" font-family="sans-serif" font-size="10.8" lengthAdjust="spacingAndGlyphs" textLength="62.1" x="402.525" y="749.6191">Colaborador</text><line style="stroke: #A80036; stroke-width: 1.35;" x1="328.95" x2="508.95" y1="759.6" y2="759.6"/><text fill="#000000" font-family="sans-serif" font-size="9.9" lengthAdjust="spacingAndGlyphs" textLength="54.9" x="333.45" y="773.4771">-String nome</text><text fill="#000000" font-family="sans-serif" font-size="9.9" lengthAdjust="spacingAndGlyphs" textLength="62.1" x="333.45" y="785.9294">-String funcao</text><text fill="#000000" font-family="sans-serif" font-size="9.9" lengthAdjust="spacingAndGlyphs" textLength="66.6" x="333.45" y="798.3817">-String telefone</text><text fill="#000000" font-family="sans-serif" font-size="9.9" lengthAdjust="spacingAndGlyphs" textLength="53.1" x="333.45" y="810.8341">-String email</text><line style="stroke: #A80036; stroke-width: 1.35;" x1="328.95" x2="508.95" y1="816.6094" y2="816.6094"/><text fill="#000000" font-family="sans-serif" font-size="9.9" lengthAdjust="spacingAndGlyphs" textLength="171" x="333.45" y="830.4864">+Colaborador(nome, funcao, telf, email)</text><text fill="#000000" font-family="sans-serif" font-size="9.9" lengthAdjust="spacingAndGlyphs" textLength="47.7" x="333.45" y="842.9388">+getEmail()</text><text fill="#000000" font-family="sans-serif" font-size="9.9" lengthAdjust="spacingAndGlyphs" textLength="50.4" x="333.45" y="855.3911">+getNome()</text><!--MD5=[fc070331499534e06f56ea3fbbe0e889]
class RegistoColaborador--><rect fill="#FEFECE" filter="url(#f9cgjm3aigova)" height="43.2" id="RegistoColaborador" style="stroke: #A80036; stroke-width: 1.35;" width="130.5" x="565.2" y="617.4"/><ellipse cx="578.7" cy="631.8" fill="#ADD1B2" rx="9.9" ry="9.9" style="stroke: #A80036; stroke-width: 0.9;"/><path d="M580.5,628.65 Q580.6828,628.2 580.8938,627.975 Q581.1047,627.75 581.3438,627.75 Q581.7656,627.75 582.0328,628.0031 Q582.3,628.2563 582.3,628.8469 L582.3,630.2531 Q582.3,630.8438 582.0469,631.0969 Q581.7938,631.35 581.4,631.35 Q581.0484,631.35 580.8234,631.1953 Q580.5984,631.0406 580.5,630.6328 Q580.4578,630.3516 580.3031,630.1969 Q580.0219,629.9016 579.5156,629.7328 Q579.0094,629.55 578.5031,629.55 Q577.8703,629.55 577.3359,629.8031 Q576.8156,630.0563 576.4078,630.6188 Q576,631.1813 576,631.9547 L576,632.7844 Q576,633.7125 576.7594,634.3313 Q577.5188,634.95 578.8688,634.95 Q579.6703,634.95 580.2328,634.7672 Q580.5563,634.6688 580.9219,634.3453 Q581.1609,634.1625 581.2875,634.1063 Q581.4141,634.05 581.5688,634.05 Q581.8641,634.05 582.075,634.2891 Q582.3,634.5141 582.3,634.8375 Q582.3,635.1469 581.9906,635.5125 Q581.5406,636.0469 580.8234,636.3422 Q579.8813,636.75 578.7281,636.75 Q577.3781,636.75 576.2953,636.2156 Q575.4234,635.7938 574.8047,634.8797 Q574.2,633.9656 574.2,632.8828 L574.2,631.8984 Q574.2,630.7734 574.7344,629.7891 Q575.2828,628.8047 576.225,628.2844 Q577.1813,627.75 578.25,627.75 Q578.8969,627.75 579.4594,627.975 Q580.0219,628.2 580.5,628.65 Z "/><ellipse cx="591.3" cy="631.35" fill="#84BE84" rx="-1.8" ry="-1.8" style="stroke: #038048; stroke-width: 0.9;"/><text fill="#000000" font-family="sans-serif" font-size="10.8" lengthAdjust="spacingAndGlyphs" textLength="100.8" x="592.2" y="636.2191">RegistoColaborador</text><line style="stroke: #A80036; stroke-width: 1.35;" x1="566.1" x2="694.8" y1="646.2" y2="646.2"/><line style="stroke: #A80036; stroke-width: 1.35;" x1="566.1" x2="694.8" y1="653.4" y2="653.4"/><!--MD5=[807977ceb130c090ed5febfb6de2bdea]
class Organizacao--><rect fill="#FEFECE" filter="url(#f9cgjm3aigova)" height="167.7234" id="Organizacao" style="stroke: #A80036; stroke-width: 1.35;" width="243" x="346.05" y="379.8"/><ellipse cx="432.675" cy="394.2" fill="#ADD1B2" rx="9.9" ry="9.9" style="stroke: #A80036; stroke-width: 0.9;"/><path d="M434.475,391.05 Q434.6578,390.6 434.8688,390.375 Q435.0797,390.15 435.3188,390.15 Q435.7406,390.15 436.0078,390.4031 Q436.275,390.6563 436.275,391.2469 L436.275,392.6531 Q436.275,393.2438 436.0219,393.4969 Q435.7688,393.75 435.375,393.75 Q435.0234,393.75 434.7984,393.5953 Q434.5734,393.4406 434.475,393.0328 Q434.4328,392.7516 434.2781,392.5969 Q433.9969,392.3016 433.4906,392.1328 Q432.9844,391.95 432.4781,391.95 Q431.8453,391.95 431.3109,392.2031 Q430.7906,392.4563 430.3828,393.0188 Q429.975,393.5813 429.975,394.3547 L429.975,395.1844 Q429.975,396.1125 430.7344,396.7313 Q431.4938,397.35 432.8438,397.35 Q433.6453,397.35 434.2078,397.1672 Q434.5313,397.0688 434.8969,396.7453 Q435.1359,396.5625 435.2625,396.5063 Q435.3891,396.45 435.5438,396.45 Q435.8391,396.45 436.05,396.6891 Q436.275,396.9141 436.275,397.2375 Q436.275,397.5469 435.9656,397.9125 Q435.5156,398.4469 434.7984,398.7422 Q433.8563,399.15 432.7031,399.15 Q431.3531,399.15 430.2703,398.6156 Q429.3984,398.1938 428.7797,397.2797 Q428.175,396.3656 428.175,395.2828 L428.175,394.2984 Q428.175,393.1734 428.7094,392.1891 Q429.2578,391.2047 430.2,390.6844 Q431.1563,390.15 432.225,390.15 Q432.8719,390.15 433.4344,390.375 Q433.9969,390.6 434.475,391.05 Z "/><text fill="#000000" font-family="sans-serif" font-size="10.8" lengthAdjust="spacingAndGlyphs" textLength="62.1" x="451.125" y="398.6191">Organizacao</text><line style="stroke: #A80036; stroke-width: 1.35;" x1="346.95" x2="588.15" y1="408.6" y2="408.6"/><text fill="#000000" font-family="sans-serif" font-size="9.9" lengthAdjust="spacingAndGlyphs" textLength="54.9" x="351.45" y="422.4771">-String nome</text><text fill="#000000" font-family="sans-serif" font-size="9.9" lengthAdjust="spacingAndGlyphs" textLength="45" x="351.45" y="434.9294">-String NIF</text><text fill="#000000" font-family="sans-serif" font-size="9.9" lengthAdjust="spacingAndGlyphs" textLength="66.6" x="351.45" y="447.3817">-String website</text><text fill="#000000" font-family="sans-serif" font-size="9.9" lengthAdjust="spacingAndGlyphs" textLength="66.6" x="351.45" y="459.8341">-String telefone</text><text fill="#000000" font-family="sans-serif" font-size="9.9" lengthAdjust="spacingAndGlyphs" textLength="53.1" x="351.45" y="472.2864">-String email</text><line style="stroke: #A80036; stroke-width: 1.35;" x1="346.95" x2="588.15" y1="478.0617" y2="478.0617"/><text fill="#000000" font-family="sans-serif" font-size="9.9" lengthAdjust="spacingAndGlyphs" text-decoration="underline" textLength="232.2" x="351.45" y="491.9388">Colaborador novoColaborador(nome,funcao,tlf, email)</text><text fill="#000000" font-family="sans-serif" font-size="9.9" lengthAdjust="spacingAndGlyphs" textLength="118.8" x="351.45" y="504.3911">+registaColaborador(colab)</text><text fill="#000000" font-family="sans-serif" font-size="9.9" lengthAdjust="spacingAndGlyphs" textLength="114.3" x="351.45" y="516.8435">+validaColaborador(colab)</text><text fill="#000000" font-family="sans-serif" font-size="9.9" lengthAdjust="spacingAndGlyphs" textLength="103.5" x="351.45" y="529.2958">-addColaborador(colab)</text><text fill="#000000" font-family="sans-serif" font-size="9.9" lengthAdjust="spacingAndGlyphs" textLength="50.4" x="351.45" y="541.7481">-geraPwd()</text><!--MD5=[ecaed46f78f8cfe1e9ce18477649be18]
class Plataforma--><rect fill="#FEFECE" filter="url(#f9cgjm3aigova)" height="68.1047" id="Plataforma" style="stroke: #A80036; stroke-width: 1.35;" width="203.4" x="409.95" y="241.2"/><ellipse cx="480.825" cy="255.6" fill="#ADD1B2" rx="9.9" ry="9.9" style="stroke: #A80036; stroke-width: 0.9;"/><path d="M482.625,252.45 Q482.8078,252 483.0188,251.775 Q483.2297,251.55 483.4688,251.55 Q483.8906,251.55 484.1578,251.8031 Q484.425,252.0563 484.425,252.6469 L484.425,254.0531 Q484.425,254.6438 484.1719,254.8969 Q483.9188,255.15 483.525,255.15 Q483.1734,255.15 482.9484,254.9953 Q482.7234,254.8406 482.625,254.4328 Q482.5828,254.1516 482.4281,253.9969 Q482.1469,253.7016 481.6406,253.5328 Q481.1344,253.35 480.6281,253.35 Q479.9953,253.35 479.4609,253.6031 Q478.9406,253.8563 478.5328,254.4188 Q478.125,254.9813 478.125,255.7547 L478.125,256.5844 Q478.125,257.5125 478.8844,258.1313 Q479.6438,258.75 480.9938,258.75 Q481.7953,258.75 482.3578,258.5672 Q482.6813,258.4688 483.0469,258.1453 Q483.2859,257.9625 483.4125,257.9063 Q483.5391,257.85 483.6938,257.85 Q483.9891,257.85 484.2,258.0891 Q484.425,258.3141 484.425,258.6375 Q484.425,258.9469 484.1156,259.3125 Q483.6656,259.8469 482.9484,260.1422 Q482.0063,260.55 480.8531,260.55 Q479.5031,260.55 478.4203,260.0156 Q477.5484,259.5938 476.9297,258.6797 Q476.325,257.7656 476.325,256.6828 L476.325,255.6984 Q476.325,254.5734 476.8594,253.5891 Q477.4078,252.6047 478.35,252.0844 Q479.3063,251.55 480.375,251.55 Q481.0219,251.55 481.5844,251.775 Q482.1469,252 482.625,252.45 Z "/><text fill="#000000" font-family="sans-serif" font-size="10.8" lengthAdjust="spacingAndGlyphs" textLength="54" x="499.275" y="260.0191">Plataforma</text><line style="stroke: #A80036; stroke-width: 1.35;" x1="410.85" x2="612.45" y1="270" y2="270"/><text fill="#000000" font-family="sans-serif" font-size="9.9" lengthAdjust="spacingAndGlyphs" textLength="81.9" x="415.35" y="283.8771">-String designacao</text><line style="stroke: #A80036; stroke-width: 1.35;" x1="410.85" x2="612.45" y1="289.6523" y2="289.6523"/><text fill="#000000" font-family="sans-serif" font-size="9.9" lengthAdjust="spacingAndGlyphs" textLength="192.6" x="415.35" y="303.5294">+getOrganizacaoByEmailUtilizador(emailUtlz)</text><!--MD5=[ad1e0dfb7967d80be5dad4c9388df9ec]
class EspecificarColaboradorController--><rect fill="#FEFECE" filter="url(#f9cgjm3aigova)" height="68.1047" id="EspecificarColaboradorController" style="stroke: #A80036; stroke-width: 1.35;" width="203.4" x="196.65" y="117.9"/><ellipse cx="214.2" cy="132.3" fill="#ADD1B2" rx="9.9" ry="9.9" style="stroke: #A80036; stroke-width: 0.9;"/><path d="M216,129.15 Q216.1828,128.7 216.3938,128.475 Q216.6047,128.25 216.8438,128.25 Q217.2656,128.25 217.5328,128.5031 Q217.8,128.7563 217.8,129.3469 L217.8,130.7531 Q217.8,131.3438 217.5469,131.5969 Q217.2938,131.85 216.9,131.85 Q216.5484,131.85 216.3234,131.6953 Q216.0984,131.5406 216,131.1328 Q215.9578,130.8516 215.8031,130.6969 Q215.5219,130.4016 215.0156,130.2328 Q214.5094,130.05 214.0031,130.05 Q213.3703,130.05 212.8359,130.3031 Q212.3156,130.5563 211.9078,131.1188 Q211.5,131.6813 211.5,132.4547 L211.5,133.2844 Q211.5,134.2125 212.2594,134.8313 Q213.0188,135.45 214.3688,135.45 Q215.1703,135.45 215.7328,135.2672 Q216.0563,135.1688 216.4219,134.8453 Q216.6609,134.6625 216.7875,134.6063 Q216.9141,134.55 217.0688,134.55 Q217.3641,134.55 217.575,134.7891 Q217.8,135.0141 217.8,135.3375 Q217.8,135.6469 217.4906,136.0125 Q217.0406,136.5469 216.3234,136.8422 Q215.3813,137.25 214.2281,137.25 Q212.8781,137.25 211.7953,136.7156 Q210.9234,136.2938 210.3047,135.3797 Q209.7,134.4656 209.7,133.3828 L209.7,132.3984 Q209.7,131.2734 210.2344,130.2891 Q210.7828,129.3047 211.725,128.7844 Q212.6813,128.25 213.75,128.25 Q214.3969,128.25 214.9594,128.475 Q215.5219,128.7 216,129.15 Z "/><text fill="#000000" font-family="sans-serif" font-size="10.8" lengthAdjust="spacingAndGlyphs" textLength="165.6" x="227.7" y="136.7191">EspecificarColaboradorController</text><line style="stroke: #A80036; stroke-width: 1.35;" x1="197.55" x2="399.15" y1="146.7" y2="146.7"/><line style="stroke: #A80036; stroke-width: 1.35;" x1="197.55" x2="399.15" y1="153.9" y2="153.9"/><text fill="#000000" font-family="sans-serif" font-size="9.9" lengthAdjust="spacingAndGlyphs" textLength="192.6" x="202.05" y="167.7771">+novoColaborador(nome, funcao, telf, email)</text><text fill="#000000" font-family="sans-serif" font-size="9.9" lengthAdjust="spacingAndGlyphs" textLength="95.4" x="202.05" y="180.2294">+registaColaborador()</text><!--MD5=[fdd143688dd4c22e6f2ee475119423ce]
class EspecificarColaboradorUI--><rect fill="#FEFECE" filter="url(#f9cgjm3aigova)" height="43.2" id="EspecificarColaboradorUI" style="stroke: #A80036; stroke-width: 1.35;" width="156.6" x="220.05" y="13.5"/><ellipse cx="233.55" cy="27.9" fill="#ADD1B2" rx="9.9" ry="9.9" style="stroke: #A80036; stroke-width: 0.9;"/><path d="M235.35,24.75 Q235.5328,24.3 235.7438,24.075 Q235.9547,23.85 236.1938,23.85 Q236.6156,23.85 236.8828,24.1031 Q237.15,24.3563 237.15,24.9469 L237.15,26.3531 Q237.15,26.9438 236.8969,27.1969 Q236.6438,27.45 236.25,27.45 Q235.8984,27.45 235.6734,27.2953 Q235.4484,27.1406 235.35,26.7328 Q235.3078,26.4516 235.1531,26.2969 Q234.8719,26.0016 234.3656,25.8328 Q233.8594,25.65 233.3531,25.65 Q232.7203,25.65 232.1859,25.9031 Q231.6656,26.1563 231.2578,26.7188 Q230.85,27.2813 230.85,28.0547 L230.85,28.8844 Q230.85,29.8125 231.6094,30.4313 Q232.3688,31.05 233.7188,31.05 Q234.5203,31.05 235.0828,30.8672 Q235.4063,30.7688 235.7719,30.4453 Q236.0109,30.2625 236.1375,30.2063 Q236.2641,30.15 236.4188,30.15 Q236.7141,30.15 236.925,30.3891 Q237.15,30.6141 237.15,30.9375 Q237.15,31.2469 236.8406,31.6125 Q236.3906,32.1469 235.6734,32.4422 Q234.7313,32.85 233.5781,32.85 Q232.2281,32.85 231.1453,32.3156 Q230.2734,31.8938 229.6547,30.9797 Q229.05,30.0656 229.05,28.9828 L229.05,27.9984 Q229.05,26.8734 229.5844,25.8891 Q230.1328,24.9047 231.075,24.3844 Q232.0313,23.85 233.1,23.85 Q233.7469,23.85 234.3094,24.075 Q234.8719,24.3 235.35,24.75 Z "/><text fill="#000000" font-family="sans-serif" font-size="10.8" lengthAdjust="spacingAndGlyphs" textLength="127.8" x="246.15" y="32.3191">EspecificarColaboradorUI</text><line style="stroke: #A80036; stroke-width: 1.35;" x1="220.95" x2="375.75" y1="42.3" y2="42.3"/><line style="stroke: #A80036; stroke-width: 1.35;" x1="220.95" x2="375.75" y1="49.5" y2="49.5"/><!--MD5=[ed5c6b4e01c9b1c9efc043b411d08420]
class AutorizacaoFacade--><rect fill="#FEFECE" filter="url(#f9cgjm3aigova)" height="55.6523" id="AutorizacaoFacade" style="stroke: #A80036; stroke-width: 1.35;" width="239.4" x="408.15" y="7.2"/><ellipse cx="477.225" cy="21.6" fill="#ADD1B2" rx="9.9" ry="9.9" style="stroke: #A80036; stroke-width: 0.9;"/><path d="M479.025,18.45 Q479.2078,18 479.4188,17.775 Q479.6297,17.55 479.8688,17.55 Q480.2906,17.55 480.5578,17.8031 Q480.825,18.0563 480.825,18.6469 L480.825,20.0531 Q480.825,20.6438 480.5719,20.8969 Q480.3188,21.15 479.925,21.15 Q479.5734,21.15 479.3484,20.9953 Q479.1234,20.8406 479.025,20.4328 Q478.9828,20.1516 478.8281,19.9969 Q478.5469,19.7016 478.0406,19.5328 Q477.5344,19.35 477.0281,19.35 Q476.3953,19.35 475.8609,19.6031 Q475.3406,19.8563 474.9328,20.4188 Q474.525,20.9813 474.525,21.7547 L474.525,22.5844 Q474.525,23.5125 475.2844,24.1313 Q476.0438,24.75 477.3938,24.75 Q478.1953,24.75 478.7578,24.5672 Q479.0813,24.4688 479.4469,24.1453 Q479.6859,23.9625 479.8125,23.9063 Q479.9391,23.85 480.0938,23.85 Q480.3891,23.85 480.6,24.0891 Q480.825,24.3141 480.825,24.6375 Q480.825,24.9469 480.5156,25.3125 Q480.0656,25.8469 479.3484,26.1422 Q478.4063,26.55 477.2531,26.55 Q475.9031,26.55 474.8203,26.0156 Q473.9484,25.5938 473.3297,24.6797 Q472.725,23.7656 472.725,22.6828 L472.725,21.6984 Q472.725,20.5734 473.2594,19.5891 Q473.8078,18.6047 474.75,18.0844 Q475.7063,17.55 476.775,17.55 Q477.4219,17.55 477.9844,17.775 Q478.5469,18 479.025,18.45 Z "/><text fill="#000000" font-family="sans-serif" font-size="10.8" lengthAdjust="spacingAndGlyphs" textLength="93.6" x="495.675" y="26.0191">AutorizacaoFacade</text><line style="stroke: #A80036; stroke-width: 1.35;" x1="409.05" x2="646.65" y1="36" y2="36"/><line style="stroke: #A80036; stroke-width: 1.35;" x1="409.05" x2="646.65" y1="43.2" y2="43.2"/><text fill="#000000" font-family="sans-serif" font-size="9.9" lengthAdjust="spacingAndGlyphs" textLength="228.6" x="413.55" y="57.0771">+registaUtilizadorComPapel(nome, email, pwd, papel)</text><!--MD5=[7aecb8a5e4cb8171db5b67a6e4c81cad]
class AlgoritmoGeraPwd--><rect fill="#FEFECE" filter="url(#f9cgjm3aigova)" height="55.6523" id="AlgoritmoGeraPwd" style="stroke: #A80036; stroke-width: 1.35;" width="122.4" x="582.75" y="768.15"/><ellipse cx="596.25" cy="782.55" fill="#B4A7E5" rx="9.9" ry="9.9" style="stroke: #A80036; stroke-width: 0.9;"/><path d="M597.15,779.85 L597.15,785.25 L598.95,785.25 L599.3859,785.25 L599.85,785.8125 L599.85,786.15 L599.85,786.4875 L599.3859,787.05 L598.95,787.05 L593.55,787.05 L593.1141,787.05 L592.65,786.4875 L592.65,786.15 L592.65,785.8125 L593.1141,785.25 L593.55,785.25 L595.35,785.25 L595.35,779.85 L593.55,779.85 L593.1141,779.85 L592.65,779.2875 L592.65,778.95 L592.65,778.6125 L593.1141,778.05 L593.55,778.05 L598.95,778.05 L599.3859,778.05 L599.85,778.6125 L599.85,778.95 L599.85,779.2875 L599.3859,779.85 L598.95,779.85 L597.15,779.85 Z "/><ellipse cx="608.85" cy="782.1" fill="#84BE84" rx="-1.8" ry="-1.8" style="stroke: #038048; stroke-width: 0.9;"/><text fill="#000000" font-family="sans-serif" font-size="10.8" font-style="italic" lengthAdjust="spacingAndGlyphs" textLength="92.7" x="609.75" y="786.9691">AlgoritmoGeraPwd</text><line style="stroke: #A80036; stroke-width: 1.35;" x1="583.65" x2="704.25" y1="796.95" y2="796.95"/><line style="stroke: #A80036; stroke-width: 1.35;" x1="583.65" x2="704.25" y1="804.15" y2="804.15"/><text fill="#000000" font-family="sans-serif" font-size="9.9" lengthAdjust="spacingAndGlyphs" textLength="94.5" x="588.15" y="818.0271">geraPwd(nome,email)</text><!--MD5=[efc07359af4002ede352d360e3e5f791]
link EspecificarColaboradorUI to EspecificarColaboradorController--><path d="M298.35,56.862 C298.35,72.5229 298.35,94.4019 298.35,113.1471 " fill="none" id="EspecificarColaboradorUI-&gt;EspecificarColaboradorController" style="stroke: #A80036; stroke-width: 0.9; stroke-dasharray: 7.0,7.0;"/><polygon fill="#A80036" points="298.35,117.8397,301.95,109.7397,298.35,113.3397,294.75,109.7397,298.35,117.8397" style="stroke: #A80036; stroke-width: 0.9;"/><!--MD5=[e749425d82a7a68558984fefba013df9]
link EspecificarColaboradorController to Plataforma--><path d="M356.9175,186.3612 C385.3647,202.5648 419.5836,222.057 448.6014,238.5864 " fill="none" id="EspecificarColaboradorController-&gt;Plataforma" style="stroke: #A80036; stroke-width: 0.9; stroke-dasharray: 7.0,7.0;"/><polygon fill="#A80036" points="452.8431,241.0029,447.5881,233.8646,448.9334,238.7748,444.0232,240.1202,452.8431,241.0029" style="stroke: #A80036; stroke-width: 0.9;"/><!--MD5=[3ea4a54878a3bfc205bf7413d5ce6eb6]
link EspecificarColaboradorController to Organizacao--><path d="M316.6182,186.4269 C341.1594,231.3324 385.6581,312.7554 420.003,375.5988 " fill="none" id="EspecificarColaboradorController-&gt;Organizacao" style="stroke: #A80036; stroke-width: 0.9; stroke-dasharray: 7.0,7.0;"/><polygon fill="#A80036" points="422.2503,379.7109,421.5246,370.8767,420.0921,375.7622,415.2066,374.3298,422.2503,379.7109" style="stroke: #A80036; stroke-width: 0.9;"/><!--MD5=[ea1c4a716374c6a44de667b4314b01f1]
link EspecificarColaboradorController to Colaborador--><path d="M298.35,186.5214 C298.35,210.9204 298.35,244.7577 298.35,274.5 C298.35,274.5 298.35,274.5 298.35,639.9 C298.35,672.4305 315.0675,702.2574 336.0537,726.8859 " fill="none" id="EspecificarColaboradorController-&gt;Colaborador" style="stroke: #A80036; stroke-width: 0.9; stroke-dasharray: 7.0,7.0;"/><polygon fill="#A80036" points="339.1794,730.4814,336.5835,722.0061,336.2276,727.0848,331.1489,726.7289,339.1794,730.4814" style="stroke: #A80036; stroke-width: 0.9;"/><!--MD5=[02d41b23cb35f939ef8b963b265ce2f7]
link EspecificarColaboradorController to AplicacaoPOT--><path d="M230.9373,186.3873 C197.8056,202.8339 157.3038,222.9948 121.05,241.2 C117.3573,243.054 113.5503,244.971 109.7163,246.9051 " fill="none" id="EspecificarColaboradorController-&gt;AplicacaoPOT" style="stroke: #A80036; stroke-width: 0.9; stroke-dasharray: 7.0,7.0;"/><polygon fill="#A80036" points="105.5493,249.0075,114.4026,248.5722,109.5667,246.9801,111.1588,242.1443,105.5493,249.0075" style="stroke: #A80036; stroke-width: 0.9;"/><!--MD5=[c8a52fc0a4d9920b9d40f732a5d371b3]
link EspecificarColaboradorController to SessaoUtilizador--><path d="M269.5455,186.5223 C254.1555,204.4332 235.3437,226.3266 220.3362,243.792 " fill="none" id="EspecificarColaboradorController-&gt;SessaoUtilizador" style="stroke: #A80036; stroke-width: 0.9; stroke-dasharray: 7.0,7.0;"/><polygon fill="#A80036" points="217.3878,247.2237,225.3969,243.4258,220.3203,243.8104,219.9356,238.7338,217.3878,247.2237" style="stroke: #A80036; stroke-width: 0.9;"/><!--MD5=[1c2ad462e362697fcdc859a6327d55c7]
link Plataforma to Organizacao--><path d="M503.766,309.6063 C499.4226,327.9555 493.8075,351.6759 488.3013,374.9382 " fill="none" id="Plataforma-&gt;Organizacao" style="stroke: #A80036; stroke-width: 0.9;"/><polygon fill="#A80036" points="487.2015,379.5831,492.57,372.5298,488.2378,375.204,485.5635,370.8718,487.2015,379.5831" style="stroke: #A80036; stroke-width: 0.9;"/><text fill="#000000" font-family="sans-serif" font-size="11.7" lengthAdjust="spacingAndGlyphs" textLength="34.2" x="497.25" y="349.6456">possui</text><text fill="#000000" font-family="sans-serif" font-size="11.7" lengthAdjust="spacingAndGlyphs" textLength="6.3" x="495.6385" y="328.6605">1</text><text fill="#000000" font-family="sans-serif" font-size="11.7" lengthAdjust="spacingAndGlyphs" textLength="4.5" x="484.0882" y="370.0675">*</text><!--MD5=[7296e0c3d7a269ffc659e7b6e149cafa]
link Plataforma to RegistoColaborador--><path d="M551.0304,309.7638 C570.2724,328.374 591.9084,353.1303 604.35,379.8 C640.917,458.1882 637.3269,564.2064 633.2373,612.3771 " fill="none" id="Plataforma-&gt;RegistoColaborador" style="stroke: #A80036; stroke-width: 0.9;"/><polygon fill="#A80036" points="632.8161,617.1318,637.1172,609.3813,633.2134,612.6494,629.9453,608.7456,632.8161,617.1318" style="stroke: #A80036; stroke-width: 0.9;"/><text fill="#000000" font-family="sans-serif" font-size="11.7" lengthAdjust="spacingAndGlyphs" textLength="71.1" x="636.75" y="468.4456">tem registado</text><text fill="#000000" font-family="sans-serif" font-size="11.7" lengthAdjust="spacingAndGlyphs" textLength="6.3" x="550.5046" y="328.5824">1</text><text fill="#000000" font-family="sans-serif" font-size="11.7" lengthAdjust="spacingAndGlyphs" textLength="4.5" x="628.3459" y="607.4692">*</text><!--MD5=[b811d3993ee0037141ac6394bf224c74]
link RegistoColaborador to Colaborador--><path d="M595.6956,660.7494 C582.6816,668.8359 567.8955,678.3624 554.85,687.6 C537.2721,700.0479 518.8986,713.9439 501.5484,727.5042 " fill="none" id="RegistoColaborador-&gt;Colaborador" style="stroke: #A80036; stroke-width: 0.9;"/><polygon fill="#A80036" points="497.6298,730.575,506.2259,728.4123,501.1718,727.7993,501.7847,722.7452,497.6298,730.575" style="stroke: #A80036; stroke-width: 0.9;"/><text fill="#000000" font-family="sans-serif" font-size="11.7" lengthAdjust="spacingAndGlyphs" textLength="71.1" x="555.75" y="700.6456">tem registado</text><text fill="#000000" font-family="sans-serif" font-size="11.7" lengthAdjust="spacingAndGlyphs" textLength="6.3" x="580.1564" y="679.99">1</text><text fill="#000000" font-family="sans-serif" font-size="11.7" lengthAdjust="spacingAndGlyphs" textLength="4.5" x="501.0116" y="720.8492">*</text><!--MD5=[0e5ef7140fec91707d06b672000f2862]
link Organizacao to RegistoColaborador--><path d="M518.6889,547.4664 C529.9101,562.6215 542.4489,577.6515 555.75,590.4 C565.1487,599.4081 576.495,607.6728 587.4741,614.7009 " fill="none" id="Organizacao-&gt;RegistoColaborador" style="stroke: #A80036; stroke-width: 0.9;"/><polygon fill="#A80036" points="591.498,617.2326,586.5599,609.8715,587.6894,614.8358,582.7251,615.9653,591.498,617.2326" style="stroke: #A80036; stroke-width: 0.9;"/><text fill="#000000" font-family="sans-serif" font-size="11.7" lengthAdjust="spacingAndGlyphs" textLength="71.1" x="556.65" y="587.2456">tem registado</text><text fill="#000000" font-family="sans-serif" font-size="11.7" lengthAdjust="spacingAndGlyphs" textLength="6.3" x="516.213" y="566.8765">1</text><text fill="#000000" font-family="sans-serif" font-size="11.7" lengthAdjust="spacingAndGlyphs" textLength="4.5" x="576.44" y="607.5958">*</text><!--MD5=[567db691f9836c63f305bad1024cbc66]
link Organizacao to Colaborador--><path d="M424.7118,547.3809 C415.2879,569.5524 406.683,593.8983 401.85,617.4 C394.5888,652.7106 397.4526,692.6166 402.741,725.6583 " fill="none" id="Organizacao-&gt;Colaborador" style="stroke: #A80036; stroke-width: 0.9;"/><polygon fill="#A80036" points="403.5375,730.4814,405.7678,721.9026,402.8033,726.0417,398.6642,723.0773,403.5375,730.4814" style="stroke: #A80036; stroke-width: 0.9;"/><text fill="#000000" font-family="sans-serif" font-size="11.7" lengthAdjust="spacingAndGlyphs" textLength="55.8" x="402.75" y="643.9456">tem gestor</text><text fill="#000000" font-family="sans-serif" font-size="11.7" lengthAdjust="spacingAndGlyphs" textLength="6.3" x="414.7471" y="566.7842">1</text><text fill="#000000" font-family="sans-serif" font-size="11.7" lengthAdjust="spacingAndGlyphs" textLength="6.3" x="395.4103" y="721.086">1</text><!--MD5=[567db691f9836c63f305bad1024cbc66]
link Organizacao to Colaborador--><path d="M471.0096,547.2522 C471.0978,582.4296 469.3698,623.7441 463.05,660.6 C459.3069,682.4277 452.7369,705.5559 445.7925,726.3666 " fill="none" id="Organizacao-&gt;Colaborador-1" style="stroke: #A80036; stroke-width: 0.9;"/><polygon fill="#A80036" points="444.3066,730.7703,450.3075,724.2466,445.7454,726.5065,443.4855,721.9444,444.3066,730.7703" style="stroke: #A80036; stroke-width: 0.9;"/><text fill="#000000" font-family="sans-serif" font-size="11.7" lengthAdjust="spacingAndGlyphs" textLength="19.8" x="469.35" y="643.9456">tem</text><text fill="#000000" font-family="sans-serif" font-size="11.7" lengthAdjust="spacingAndGlyphs" textLength="6.3" x="464.7352" y="566.9295">1</text><text fill="#000000" font-family="sans-serif" font-size="11.7" lengthAdjust="spacingAndGlyphs" textLength="18" x="427.9934" y="721.0646">1..*</text><!--MD5=[35275be16751b6e24c2f3960694fc31b]
link RegistoColaborador to AlgoritmoGeraPwd--><path d="M632.2707,660.8376 C634.5594,687.1563 638.5104,732.5919 641.1762,763.2459 " fill="none" id="RegistoColaborador-&gt;AlgoritmoGeraPwd" style="stroke: #A80036; stroke-width: 0.9; stroke-dasharray: 7.0,7.0;"/><polygon fill="#A80036" points="641.592,768.0339,644.4749,759.6518,641.2012,763.5509,637.3021,760.2772,641.592,768.0339" style="stroke: #A80036; stroke-width: 0.9;"/><!--MD5=[6cacc67078561b67570042040b3e9ede]
@startuml
skinparam classAttributeIconSize 0

class AplicacaoPOT
{
  +static getInstance()
  +getSessaoAtual()
}

class SessaoUtilizador
{
  +getEmailUtilizador()

}

class Colaborador {
  -String nome
  -String funcao
  -String telefone
  -String email
  +Colaborador(nome, funcao, telf, email)
  +getEmail()
  +getNome()
}
+class RegistoColaborador{

}

class Organizacao {
  -String nome
  -String NIF
  -String website
  -String telefone
  -String email
  {static} Colaborador novoColaborador(nome,funcao,tlf, email)
  +registaColaborador(colab)
  +validaColaborador(colab)
  -addColaborador(colab)
  -geraPwd()
}

class Plataforma {
  -String designacao
  +getOrganizacaoByEmailUtilizador(emailUtlz)
}

class EspecificarColaboradorController {
  +novoColaborador(nome, funcao, telf, email)
  +registaColaborador()
}

class EspecificarColaboradorUI {

}

class AutorizacaoFacade {
  +registaUtilizadorComPapel(nome, email, pwd, papel)
}
+interface AlgoritmoGeraPwd{
geraPwd(nome,email)
}

EspecificarColaboradorUI ..> EspecificarColaboradorController
EspecificarColaboradorController ..> Plataforma
EspecificarColaboradorController ..> Organizacao
EspecificarColaboradorController ..> Colaborador
EspecificarColaboradorController ..> AplicacaoPOT
EspecificarColaboradorController ..> SessaoUtilizador
Plataforma "1" - -> "*" Organizacao : possui
Plataforma "1" - -> "*" RegistoColaborador : tem registado
RegistoColaborador "1" - -> "*" Colaborador : tem registado
Organizacao "1" - -> "*" RegistoColaborador : tem registado

Organizacao "1" - -> "1" Colaborador : tem gestor
Organizacao "1" - -> "1..*" Colaborador : tem
RegistoColaborador ..> AlgoritmoGeraPwd

@enduml

PlantUML version 1.2020.07(Sun Apr 19 12:42:40 BST 2020)
(GPL source distribution)
Java Runtime: OpenJDK Runtime Environment
JVM: OpenJDK 64-Bit Server VM
Java Version: 11.0.6+8-b765.25
Operating System: Windows 10
Default Encoding: Cp1252
Language: pt
Country: PT
--></g></svg>