@startuml

actor "Colaborador da Organização" as CO

participant ":Sistema" as S
autonumber
activate CO
CO ->S : Inicia a publicação da tarefa.
activate S
S -->CO: Pede os dados necessários: \n(Tarefa, Período de publicitação, Periodo de apresentação de candidaturas,\n Período de decisão, Regime aplicado).
deactivate
CO ->S : Introduz os dados necessários.
activate S
S-->CO : Apresenta o anúncio e pede confirmação de publicação.
deactivate
CO->S : Confirma o anúncio.
activate S
S-->CO : Operação bem sucedida.
deactivate
deactivate CO



@enduml