<?xml version="1.0" encoding="UTF-8" standalone="no"?>
<svg xmlns="http://www.w3.org/2000/svg" contentScriptType="application/ecmascript" contentStyleType="text/css"
     height="661.25px" preserveAspectRatio="none" style="width:2653px;height:661px;" version="1.1"
     viewBox="0 0 2653 661" width="2653.75px" zoomAndPan="magnify"><defs><filter height="300%" id="fajeggzph7b05" width="300%" x="-1" y="-1"><feGaussianBlur result="blurOut" stdDeviation="2.5"/><feColorMatrix in="blurOut" result="blurOut2" type="matrix" values="0 0 0 0 0 0 0 0 0 0 0 0 0 0 0 0 0 0 .4 0"/><feOffset dx="5.0" dy="5.0" in="blurOut2" result="blurOut3"/><feBlend in="SourceGraphic" in2="blurOut3" mode="normal"/></filter></defs><g><!--MD5=[ecaed46f78f8cfe1e9ce18477649be18]
class Plataforma--><rect fill="#FEFECE" filter="url(#fajeggzph7b05)" height="67.2949" id="Plataforma" style="stroke: #A80036; stroke-width: 1.875;" width="128.75" x="7.5" y="173.75"/><ellipse cx="32.4375" cy="193.75" fill="#ADD1B2" rx="13.75" ry="13.75" style="stroke: #A80036; stroke-width: 1.25;"/><path d="M34.9375,189.375 Q35.1914,188.75 35.4844,188.4375 Q35.7773,188.125 36.1094,188.125 Q36.6953,188.125 37.0664,188.4766 Q37.4375,188.8281 37.4375,189.6484 L37.4375,191.6016 Q37.4375,192.4219 37.0859,192.7734 Q36.7344,193.125 36.1875,193.125 Q35.6992,193.125 35.3867,192.9102 Q35.0742,192.6953 34.9375,192.1289 Q34.8789,191.7383 34.6641,191.5234 Q34.2734,191.1133 33.5703,190.8789 Q32.8672,190.625 32.1641,190.625 Q31.2852,190.625 30.543,190.9766 Q29.8203,191.3281 29.2539,192.1094 Q28.6875,192.8906 28.6875,193.9648 L28.6875,195.1172 Q28.6875,196.4063 29.7422,197.2656 Q30.7969,198.125 32.6719,198.125 Q33.7852,198.125 34.5664,197.8711 Q35.0156,197.7344 35.5234,197.2852 Q35.8555,197.0313 36.0313,196.9531 Q36.207,196.875 36.4219,196.875 Q36.832,196.875 37.125,197.207 Q37.4375,197.5195 37.4375,197.9688 Q37.4375,198.3984 37.0078,198.9063 Q36.3828,199.6484 35.3867,200.0586 Q34.0781,200.625 32.4766,200.625 Q30.6016,200.625 29.0977,199.8828 Q27.8867,199.2969 27.0273,198.0273 Q26.1875,196.7578 26.1875,195.2539 L26.1875,193.8867 Q26.1875,192.3242 26.9297,190.957 Q27.6914,189.5898 29,188.8672 Q30.3281,188.125 31.8125,188.125 Q32.7109,188.125 33.4922,188.4375 Q34.2734,188.75 34.9375,189.375 Z "/><text fill="#000000" font-family="sans-serif" font-size="15" lengthAdjust="spacingAndGlyphs" textLength="75" x="51.3125" y="199.8877">Plataforma</text><line style="stroke: #A80036; stroke-width: 1.875;" x1="8.75" x2="135" y1="213.75" y2="213.75"/><text fill="#000000" font-family="sans-serif" font-size="13.75" lengthAdjust="spacingAndGlyphs" textLength="113.75" x="15" y="233.0237">-String designacao</text><!--MD5=[807977ceb130c090ed5febfb6de2bdea]
class Organizacao--><rect fill="#FEFECE" filter="url(#fajeggzph7b05)" height="136.4746" id="Organizacao" style="stroke: #A80036; stroke-width: 1.875;" width="126.25" x="488.75" y="10.625"/><ellipse cx="507.5" cy="30.625" fill="#ADD1B2" rx="13.75" ry="13.75" style="stroke: #A80036; stroke-width: 1.25;"/><path d="M510,26.25 Q510.2539,25.625 510.5469,25.3125 Q510.8398,25 511.1719,25 Q511.7578,25 512.1289,25.3516 Q512.5,25.7031 512.5,26.5234 L512.5,28.4766 Q512.5,29.2969 512.1484,29.6484 Q511.7969,30 511.25,30 Q510.7617,30 510.4492,29.7852 Q510.1367,29.5703 510,29.0039 Q509.9414,28.6133 509.7266,28.3984 Q509.3359,27.9883 508.6328,27.7539 Q507.9297,27.5 507.2266,27.5 Q506.3477,27.5 505.6055,27.8516 Q504.8828,28.2031 504.3164,28.9844 Q503.75,29.7656 503.75,30.8398 L503.75,31.9922 Q503.75,33.2813 504.8047,34.1406 Q505.8594,35 507.7344,35 Q508.8477,35 509.6289,34.7461 Q510.0781,34.6094 510.5859,34.1602 Q510.918,33.9063 511.0938,33.8281 Q511.2695,33.75 511.4844,33.75 Q511.8945,33.75 512.1875,34.082 Q512.5,34.3945 512.5,34.8438 Q512.5,35.2734 512.0703,35.7813 Q511.4453,36.5234 510.4492,36.9336 Q509.1406,37.5 507.5391,37.5 Q505.6641,37.5 504.1602,36.7578 Q502.9492,36.1719 502.0898,34.9023 Q501.25,33.6328 501.25,32.1289 L501.25,30.7617 Q501.25,29.1992 501.9922,27.832 Q502.7539,26.4648 504.0625,25.7422 Q505.3906,25 506.875,25 Q507.7734,25 508.5547,25.3125 Q509.3359,25.625 510,26.25 Z "/><text fill="#000000" font-family="sans-serif" font-size="15" lengthAdjust="spacingAndGlyphs" textLength="86.25" x="525" y="36.7627">Organizacao</text><line style="stroke: #A80036; stroke-width: 1.875;" x1="490" x2="613.75" y1="50.625" y2="50.625"/><text fill="#000000" font-family="sans-serif" font-size="13.75" lengthAdjust="spacingAndGlyphs" textLength="76.25" x="496.25" y="69.8987">-String nome</text><text fill="#000000" font-family="sans-serif" font-size="13.75" lengthAdjust="spacingAndGlyphs" textLength="62.5" x="496.25" y="87.1936">-String NIF</text><text fill="#000000" font-family="sans-serif" font-size="13.75" lengthAdjust="spacingAndGlyphs" textLength="92.5" x="496.25" y="104.4885">-String website</text><text fill="#000000" font-family="sans-serif" font-size="13.75" lengthAdjust="spacingAndGlyphs" textLength="92.5" x="496.25" y="121.7834">-String telefone</text><text fill="#000000" font-family="sans-serif" font-size="13.75" lengthAdjust="spacingAndGlyphs" textLength="73.75" x="496.25" y="139.0784">-String email</text><!--MD5=[b0f240be72c8ea8a063442502d85fc08]
class CaraterCT--><rect fill="#FEFECE" filter="url(#fajeggzph7b05)" height="67.2949" id="CaraterCT" style="stroke: #A80036; stroke-width: 1.875;" width="136.25" x="1801.875" y="342.5"/><ellipse cx="1831.875" cy="362.5" fill="#ADD1B2" rx="13.75" ry="13.75" style="stroke: #A80036; stroke-width: 1.25;"/><path d="M1834.375,358.125 Q1834.6289,357.5 1834.9219,357.1875 Q1835.2148,356.875 1835.5469,356.875 Q1836.1328,356.875 1836.5039,357.2266 Q1836.875,357.5781 1836.875,358.3984 L1836.875,360.3516 Q1836.875,361.1719 1836.5234,361.5234 Q1836.1719,361.875 1835.625,361.875 Q1835.1367,361.875 1834.8242,361.6602 Q1834.5117,361.4453 1834.375,360.8789 Q1834.3164,360.4883 1834.1016,360.2734 Q1833.7109,359.8633 1833.0078,359.6289 Q1832.3047,359.375 1831.6016,359.375 Q1830.7227,359.375 1829.9805,359.7266 Q1829.2578,360.0781 1828.6914,360.8594 Q1828.125,361.6406 1828.125,362.7148 L1828.125,363.8672 Q1828.125,365.1563 1829.1797,366.0156 Q1830.2344,366.875 1832.1094,366.875 Q1833.2227,366.875 1834.0039,366.6211 Q1834.4531,366.4844 1834.9609,366.0352 Q1835.293,365.7813 1835.4688,365.7031 Q1835.6445,365.625 1835.8594,365.625 Q1836.2695,365.625 1836.5625,365.957 Q1836.875,366.2695 1836.875,366.7188 Q1836.875,367.1484 1836.4453,367.6563 Q1835.8203,368.3984 1834.8242,368.8086 Q1833.5156,369.375 1831.9141,369.375 Q1830.0391,369.375 1828.5352,368.6328 Q1827.3242,368.0469 1826.4648,366.7773 Q1825.625,365.5078 1825.625,364.0039 L1825.625,362.6367 Q1825.625,361.0742 1826.3672,359.707 Q1827.1289,358.3398 1828.4375,357.6172 Q1829.7656,356.875 1831.25,356.875 Q1832.1484,356.875 1832.9297,357.1875 Q1833.7109,357.5 1834.375,358.125 Z "/><text fill="#000000" font-family="sans-serif" font-size="15" lengthAdjust="spacingAndGlyphs" textLength="71.25" x="1851.875" y="368.6377">CaraterCT</text><line style="stroke: #A80036; stroke-width: 1.875;" x1="1803.125" x2="1936.875" y1="382.5" y2="382.5"/><text fill="#000000" font-family="sans-serif" font-size="13.75" lengthAdjust="spacingAndGlyphs" textLength="121.25" x="1809.375" y="401.7737">-Boolean obrigatoria</text><!--MD5=[1f687b5315377fe49fca59b457947463]
class Freelancer--><rect fill="#FEFECE" filter="url(#fajeggzph7b05)" height="119.1797" id="Freelancer" style="stroke: #A80036; stroke-width: 1.875;" width="113.75" x="337.5" y="283.125"/><ellipse cx="356.25" cy="303.125" fill="#ADD1B2" rx="13.75" ry="13.75" style="stroke: #A80036; stroke-width: 1.25;"/><path d="M358.75,298.75 Q359.0039,298.125 359.2969,297.8125 Q359.5898,297.5 359.9219,297.5 Q360.5078,297.5 360.8789,297.8516 Q361.25,298.2031 361.25,299.0234 L361.25,300.9766 Q361.25,301.7969 360.8984,302.1484 Q360.5469,302.5 360,302.5 Q359.5117,302.5 359.1992,302.2852 Q358.8867,302.0703 358.75,301.5039 Q358.6914,301.1133 358.4766,300.8984 Q358.0859,300.4883 357.3828,300.2539 Q356.6797,300 355.9766,300 Q355.0977,300 354.3555,300.3516 Q353.6328,300.7031 353.0664,301.4844 Q352.5,302.2656 352.5,303.3398 L352.5,304.4922 Q352.5,305.7813 353.5547,306.6406 Q354.6094,307.5 356.4844,307.5 Q357.5977,307.5 358.3789,307.2461 Q358.8281,307.1094 359.3359,306.6602 Q359.668,306.4063 359.8438,306.3281 Q360.0195,306.25 360.2344,306.25 Q360.6445,306.25 360.9375,306.582 Q361.25,306.8945 361.25,307.3438 Q361.25,307.7734 360.8203,308.2813 Q360.1953,309.0234 359.1992,309.4336 Q357.8906,310 356.2891,310 Q354.4141,310 352.9102,309.2578 Q351.6992,308.6719 350.8398,307.4023 Q350,306.1328 350,304.6289 L350,303.2617 Q350,301.6992 350.7422,300.332 Q351.5039,298.9648 352.8125,298.2422 Q354.1406,297.5 355.625,297.5 Q356.5234,297.5 357.3047,297.8125 Q358.0859,298.125 358.75,298.75 Z "/><text fill="#000000" font-family="sans-serif" font-size="15" lengthAdjust="spacingAndGlyphs" textLength="73.75" x="373.75" y="309.2627">Freelancer</text><line style="stroke: #A80036; stroke-width: 1.875;" x1="338.75" x2="450" y1="323.125" y2="323.125"/><text fill="#000000" font-family="sans-serif" font-size="13.75" lengthAdjust="spacingAndGlyphs" textLength="76.25" x="345" y="342.3987">-String nome</text><text fill="#000000" font-family="sans-serif" font-size="13.75" lengthAdjust="spacingAndGlyphs" textLength="62.5" x="345" y="359.6936">-String NIF</text><text fill="#000000" font-family="sans-serif" font-size="13.75" lengthAdjust="spacingAndGlyphs" textLength="92.5" x="345" y="376.9885">-String telefone</text><text fill="#000000" font-family="sans-serif" font-size="13.75" lengthAdjust="spacingAndGlyphs" textLength="73.75" x="345" y="394.2834">-String email</text><!--MD5=[36c1942e8942a3e4f47e6de3733e3d18]
class Endereco--><rect fill="#FEFECE" filter="url(#fajeggzph7b05)" height="101.8848" id="Endereco" style="stroke: #A80036; stroke-width: 1.875;" width="118.75" x="655.625" y="145"/><ellipse cx="680" cy="165" fill="#ADD1B2" rx="13.75" ry="13.75" style="stroke: #A80036; stroke-width: 1.25;"/><path d="M682.5,160.625 Q682.7539,160 683.0469,159.6875 Q683.3398,159.375 683.6719,159.375 Q684.2578,159.375 684.6289,159.7266 Q685,160.0781 685,160.8984 L685,162.8516 Q685,163.6719 684.6484,164.0234 Q684.2969,164.375 683.75,164.375 Q683.2617,164.375 682.9492,164.1602 Q682.6367,163.9453 682.5,163.3789 Q682.4414,162.9883 682.2266,162.7734 Q681.8359,162.3633 681.1328,162.1289 Q680.4297,161.875 679.7266,161.875 Q678.8477,161.875 678.1055,162.2266 Q677.3828,162.5781 676.8164,163.3594 Q676.25,164.1406 676.25,165.2148 L676.25,166.3672 Q676.25,167.6563 677.3047,168.5156 Q678.3594,169.375 680.2344,169.375 Q681.3477,169.375 682.1289,169.1211 Q682.5781,168.9844 683.0859,168.5352 Q683.418,168.2813 683.5938,168.2031 Q683.7695,168.125 683.9844,168.125 Q684.3945,168.125 684.6875,168.457 Q685,168.7695 685,169.2188 Q685,169.6484 684.5703,170.1563 Q683.9453,170.8984 682.9492,171.3086 Q681.6406,171.875 680.0391,171.875 Q678.1641,171.875 676.6602,171.1328 Q675.4492,170.5469 674.5898,169.2773 Q673.75,168.0078 673.75,166.5039 L673.75,165.1367 Q673.75,163.5742 674.4922,162.207 Q675.2539,160.8398 676.5625,160.1172 Q677.8906,159.375 679.375,159.375 Q680.2734,159.375 681.0547,159.6875 Q681.8359,160 682.5,160.625 Z "/><text fill="#000000" font-family="sans-serif" font-size="15" lengthAdjust="spacingAndGlyphs" textLength="66.25" x="698.75" y="171.1377">Endereco</text><line style="stroke: #A80036; stroke-width: 1.875;" x1="656.875" x2="773.125" y1="185" y2="185"/><text fill="#000000" font-family="sans-serif" font-size="13.75" lengthAdjust="spacingAndGlyphs" textLength="71.25" x="663.125" y="204.2737">-String local</text><text fill="#000000" font-family="sans-serif" font-size="13.75" lengthAdjust="spacingAndGlyphs" textLength="102.5" x="663.125" y="221.5686">-String codPostal</text><text fill="#000000" font-family="sans-serif" font-size="13.75" lengthAdjust="spacingAndGlyphs" textLength="103.75" x="663.125" y="238.8635">-String localidade</text><!--MD5=[5dd1d6732c071e710b9290b531f2fa3b]
class Utilizador--><rect fill="#FEFECE" filter="url(#fajeggzph7b05)" height="101.8848" id="Utilizador" style="stroke: #A80036; stroke-width: 1.875;" width="121.25" x="654.375" y="291.25"/><ellipse cx="681" cy="311.25" fill="#ADD1B2" rx="13.75" ry="13.75" style="stroke: #A80036; stroke-width: 1.25;"/><path d="M683.5,306.875 Q683.7539,306.25 684.0469,305.9375 Q684.3398,305.625 684.6719,305.625 Q685.2578,305.625 685.6289,305.9766 Q686,306.3281 686,307.1484 L686,309.1016 Q686,309.9219 685.6484,310.2734 Q685.2969,310.625 684.75,310.625 Q684.2617,310.625 683.9492,310.4102 Q683.6367,310.1953 683.5,309.6289 Q683.4414,309.2383 683.2266,309.0234 Q682.8359,308.6133 682.1328,308.3789 Q681.4297,308.125 680.7266,308.125 Q679.8477,308.125 679.1055,308.4766 Q678.3828,308.8281 677.8164,309.6094 Q677.25,310.3906 677.25,311.4648 L677.25,312.6172 Q677.25,313.9063 678.3047,314.7656 Q679.3594,315.625 681.2344,315.625 Q682.3477,315.625 683.1289,315.3711 Q683.5781,315.2344 684.0859,314.7852 Q684.418,314.5313 684.5938,314.4531 Q684.7695,314.375 684.9844,314.375 Q685.3945,314.375 685.6875,314.707 Q686,315.0195 686,315.4688 Q686,315.8984 685.5703,316.4063 Q684.9453,317.1484 683.9492,317.5586 Q682.6406,318.125 681.0391,318.125 Q679.1641,318.125 677.6602,317.3828 Q676.4492,316.7969 675.5898,315.5273 Q674.75,314.2578 674.75,312.7539 L674.75,311.3867 Q674.75,309.8242 675.4922,308.457 Q676.2539,307.0898 677.5625,306.3672 Q678.8906,305.625 680.375,305.625 Q681.2734,305.625 682.0547,305.9375 Q682.8359,306.25 683.5,306.875 Z "/><text fill="#000000" font-family="sans-serif" font-size="15" lengthAdjust="spacingAndGlyphs" textLength="63.75" x="700.25" y="317.3877">Utilizador</text><line style="stroke: #A80036; stroke-width: 1.875;" x1="655.625" x2="774.375" y1="331.25" y2="331.25"/><text fill="#000000" font-family="sans-serif" font-size="13.75" lengthAdjust="spacingAndGlyphs" textLength="76.25" x="661.875" y="350.5237">-String nome</text><text fill="#000000" font-family="sans-serif" font-size="13.75" lengthAdjust="spacingAndGlyphs" textLength="73.75" x="661.875" y="367.8186">-String email</text><text fill="#000000" font-family="sans-serif" font-size="13.75" lengthAdjust="spacingAndGlyphs" textLength="106.25" x="661.875" y="385.1135">-String password</text><!--MD5=[27c2d4bbe9f7b9d3b0ea2797cc54308a]
class Tarefa--><rect fill="#FEFECE" filter="url(#fajeggzph7b05)" height="136.4746" id="Tarefa" style="stroke: #A80036; stroke-width: 1.875;" width="128.75" x="1257.5" y="380.625"/><ellipse cx="1296.5" cy="400.625" fill="#ADD1B2" rx="13.75" ry="13.75" style="stroke: #A80036; stroke-width: 1.25;"/><path d="M1299,396.25 Q1299.2539,395.625 1299.5469,395.3125 Q1299.8398,395 1300.1719,395 Q1300.7578,395 1301.1289,395.3516 Q1301.5,395.7031 1301.5,396.5234 L1301.5,398.4766 Q1301.5,399.2969 1301.1484,399.6484 Q1300.7969,400 1300.25,400 Q1299.7617,400 1299.4492,399.7852 Q1299.1367,399.5703 1299,399.0039 Q1298.9414,398.6133 1298.7266,398.3984 Q1298.3359,397.9883 1297.6328,397.7539 Q1296.9297,397.5 1296.2266,397.5 Q1295.3477,397.5 1294.6055,397.8516 Q1293.8828,398.2031 1293.3164,398.9844 Q1292.75,399.7656 1292.75,400.8398 L1292.75,401.9922 Q1292.75,403.2813 1293.8047,404.1406 Q1294.8594,405 1296.7344,405 Q1297.8477,405 1298.6289,404.7461 Q1299.0781,404.6094 1299.5859,404.1602 Q1299.918,403.9063 1300.0938,403.8281 Q1300.2695,403.75 1300.4844,403.75 Q1300.8945,403.75 1301.1875,404.082 Q1301.5,404.3945 1301.5,404.8438 Q1301.5,405.2734 1301.0703,405.7813 Q1300.4453,406.5234 1299.4492,406.9336 Q1298.1406,407.5 1296.5391,407.5 Q1294.6641,407.5 1293.1602,406.7578 Q1291.9492,406.1719 1291.0898,404.9023 Q1290.25,403.6328 1290.25,402.1289 L1290.25,400.7617 Q1290.25,399.1992 1290.9922,397.832 Q1291.7539,396.4648 1293.0625,395.7422 Q1294.3906,395 1295.875,395 Q1296.7734,395 1297.5547,395.3125 Q1298.3359,395.625 1299,396.25 Z "/><text fill="#000000" font-family="sans-serif" font-size="15" lengthAdjust="spacingAndGlyphs" textLength="43.75" x="1318.5" y="406.7627">Tarefa</text><line style="stroke: #A80036; stroke-width: 1.875;" x1="1258.75" x2="1385" y1="420.625" y2="420.625"/><text fill="#000000" font-family="sans-serif" font-size="13.75" lengthAdjust="spacingAndGlyphs" textLength="106.25" x="1265" y="439.8987">-String referencia</text><text fill="#000000" font-family="sans-serif" font-size="13.75" lengthAdjust="spacingAndGlyphs" textLength="113.75" x="1265" y="457.1936">-String designacao</text><text fill="#000000" font-family="sans-serif" font-size="13.75" lengthAdjust="spacingAndGlyphs" textLength="81.25" x="1265" y="474.4885">-String dsTec</text><text fill="#000000" font-family="sans-serif" font-size="13.75" lengthAdjust="spacingAndGlyphs" textLength="91.25" x="1265" y="491.7834">-int duracaoEst</text><text fill="#000000" font-family="sans-serif" font-size="13.75" lengthAdjust="spacingAndGlyphs" textLength="101.25" x="1265" y="509.0784">-double custoEst</text><!--MD5=[19db0db7353a4bf63eefc676e5ba9b80]
class Anuncio--><rect fill="#FEFECE" filter="url(#fajeggzph7b05)" height="136.4746" id="Anuncio" style="stroke: #A80036; stroke-width: 1.875;" width="157.5" x="958.75" y="380.625"/><ellipse cx="1005.625" cy="400.625" fill="#ADD1B2" rx="13.75" ry="13.75" style="stroke: #A80036; stroke-width: 1.25;"/><path d="M1008.125,396.25 Q1008.3789,395.625 1008.6719,395.3125 Q1008.9648,395 1009.2969,395 Q1009.8828,395 1010.2539,395.3516 Q1010.625,395.7031 1010.625,396.5234 L1010.625,398.4766 Q1010.625,399.2969 1010.2734,399.6484 Q1009.9219,400 1009.375,400 Q1008.8867,400 1008.5742,399.7852 Q1008.2617,399.5703 1008.125,399.0039 Q1008.0664,398.6133 1007.8516,398.3984 Q1007.4609,397.9883 1006.7578,397.7539 Q1006.0547,397.5 1005.3516,397.5 Q1004.4727,397.5 1003.7305,397.8516 Q1003.0078,398.2031 1002.4414,398.9844 Q1001.875,399.7656 1001.875,400.8398 L1001.875,401.9922 Q1001.875,403.2813 1002.9297,404.1406 Q1003.9844,405 1005.8594,405 Q1006.9727,405 1007.7539,404.7461 Q1008.2031,404.6094 1008.7109,404.1602 Q1009.043,403.9063 1009.2188,403.8281 Q1009.3945,403.75 1009.6094,403.75 Q1010.0195,403.75 1010.3125,404.082 Q1010.625,404.3945 1010.625,404.8438 Q1010.625,405.2734 1010.1953,405.7813 Q1009.5703,406.5234 1008.5742,406.9336 Q1007.2656,407.5 1005.6641,407.5 Q1003.7891,407.5 1002.2852,406.7578 Q1001.0742,406.1719 1000.2148,404.9023 Q999.375,403.6328 999.375,402.1289 L999.375,400.7617 Q999.375,399.1992 1000.1172,397.832 Q1000.8789,396.4648 1002.1875,395.7422 Q1003.5156,395 1005,395 Q1005.8984,395 1006.6797,395.3125 Q1007.4609,395.625 1008.125,396.25 Z "/><text fill="#000000" font-family="sans-serif" font-size="15" lengthAdjust="spacingAndGlyphs" textLength="55" x="1029.375" y="406.7627">Anuncio</text><line style="stroke: #A80036; stroke-width: 1.875;" x1="960" x2="1115" y1="420.625" y2="420.625"/><text fill="#000000" font-family="sans-serif" font-size="13.75" lengthAdjust="spacingAndGlyphs" textLength="101.25" x="966.25" y="439.8987">-String refTarefa</text><text fill="#000000" font-family="sans-serif" font-size="13.75" lengthAdjust="spacingAndGlyphs" textLength="111.25" x="966.25" y="457.1936">-String periodoPub</text><text fill="#000000" font-family="sans-serif" font-size="13.75" lengthAdjust="spacingAndGlyphs" textLength="120" x="966.25" y="474.4885">-String peridooCand</text><text fill="#000000" font-family="sans-serif" font-size="13.75" lengthAdjust="spacingAndGlyphs" textLength="142.5" x="966.25" y="491.7834">-String periodoSeriacao</text><text fill="#000000" font-family="sans-serif" font-size="13.75" lengthAdjust="spacingAndGlyphs" textLength="123.75" x="966.25" y="509.0784">-String refRegimento</text><!--MD5=[475c5b924ed41035684e2831311827d2]
class Candidatura--><rect fill="#FEFECE" filter="url(#fajeggzph7b05)" height="101.8848" id="Candidatura" style="stroke: #A80036; stroke-width: 1.875;" width="125" x="652.5" y="437.5"/><ellipse cx="671.25" cy="457.5" fill="#ADD1B2" rx="13.75" ry="13.75" style="stroke: #A80036; stroke-width: 1.25;"/><path d="M673.75,453.125 Q674.0039,452.5 674.2969,452.1875 Q674.5898,451.875 674.9219,451.875 Q675.5078,451.875 675.8789,452.2266 Q676.25,452.5781 676.25,453.3984 L676.25,455.3516 Q676.25,456.1719 675.8984,456.5234 Q675.5469,456.875 675,456.875 Q674.5117,456.875 674.1992,456.6602 Q673.8867,456.4453 673.75,455.8789 Q673.6914,455.4883 673.4766,455.2734 Q673.0859,454.8633 672.3828,454.6289 Q671.6797,454.375 670.9766,454.375 Q670.0977,454.375 669.3555,454.7266 Q668.6328,455.0781 668.0664,455.8594 Q667.5,456.6406 667.5,457.7148 L667.5,458.8672 Q667.5,460.1563 668.5547,461.0156 Q669.6094,461.875 671.4844,461.875 Q672.5977,461.875 673.3789,461.6211 Q673.8281,461.4844 674.3359,461.0352 Q674.668,460.7813 674.8438,460.7031 Q675.0195,460.625 675.2344,460.625 Q675.6445,460.625 675.9375,460.957 Q676.25,461.2695 676.25,461.7188 Q676.25,462.1484 675.8203,462.6563 Q675.1953,463.3984 674.1992,463.8086 Q672.8906,464.375 671.2891,464.375 Q669.4141,464.375 667.9102,463.6328 Q666.6992,463.0469 665.8398,461.7773 Q665,460.5078 665,459.0039 L665,457.6367 Q665,456.0742 665.7422,454.707 Q666.5039,453.3398 667.8125,452.6172 Q669.1406,451.875 670.625,451.875 Q671.5234,451.875 672.3047,452.1875 Q673.0859,452.5 673.75,453.125 Z "/><text fill="#000000" font-family="sans-serif" font-size="15" lengthAdjust="spacingAndGlyphs" textLength="85" x="688.75" y="463.6377">Candidatura</text><line style="stroke: #A80036; stroke-width: 1.875;" x1="653.75" x2="776.25" y1="477.5" y2="477.5"/><text fill="#000000" font-family="sans-serif" font-size="13.75" lengthAdjust="spacingAndGlyphs" textLength="80" x="660" y="496.7737">-Integer valor</text><text fill="#000000" font-family="sans-serif" font-size="13.75" lengthAdjust="spacingAndGlyphs" textLength="93.75" x="660" y="514.0686">-String duracao</text><text fill="#000000" font-family="sans-serif" font-size="13.75" lengthAdjust="spacingAndGlyphs" textLength="73.75" x="660" y="531.3635">-String texto</text><!--MD5=[1d8aa98091123bff90ff3eeff52b11fd]
class Reconhecimento--><rect fill="#FEFECE" filter="url(#fajeggzph7b05)" height="84.5898" id="Reconhecimento" style="stroke: #A80036; stroke-width: 1.875;" width="157.5" x="1791.25" y="563.75"/><ellipse cx="1810" cy="583.75" fill="#ADD1B2" rx="13.75" ry="13.75" style="stroke: #A80036; stroke-width: 1.25;"/><path d="M1812.5,579.375 Q1812.7539,578.75 1813.0469,578.4375 Q1813.3398,578.125 1813.6719,578.125 Q1814.2578,578.125 1814.6289,578.4766 Q1815,578.8281 1815,579.6484 L1815,581.6016 Q1815,582.4219 1814.6484,582.7734 Q1814.2969,583.125 1813.75,583.125 Q1813.2617,583.125 1812.9492,582.9102 Q1812.6367,582.6953 1812.5,582.1289 Q1812.4414,581.7383 1812.2266,581.5234 Q1811.8359,581.1133 1811.1328,580.8789 Q1810.4297,580.625 1809.7266,580.625 Q1808.8477,580.625 1808.1055,580.9766 Q1807.3828,581.3281 1806.8164,582.1094 Q1806.25,582.8906 1806.25,583.9648 L1806.25,585.1172 Q1806.25,586.4063 1807.3047,587.2656 Q1808.3594,588.125 1810.2344,588.125 Q1811.3477,588.125 1812.1289,587.8711 Q1812.5781,587.7344 1813.0859,587.2852 Q1813.418,587.0313 1813.5938,586.9531 Q1813.7695,586.875 1813.9844,586.875 Q1814.3945,586.875 1814.6875,587.207 Q1815,587.5195 1815,587.9688 Q1815,588.3984 1814.5703,588.9063 Q1813.9453,589.6484 1812.9492,590.0586 Q1811.6406,590.625 1810.0391,590.625 Q1808.1641,590.625 1806.6602,589.8828 Q1805.4492,589.2969 1804.5898,588.0273 Q1803.75,586.7578 1803.75,585.2539 L1803.75,583.8867 Q1803.75,582.3242 1804.4922,580.957 Q1805.2539,579.5898 1806.5625,578.8672 Q1807.8906,578.125 1809.375,578.125 Q1810.2734,578.125 1811.0547,578.4375 Q1811.8359,578.75 1812.5,579.375 Z "/><text fill="#000000" font-family="sans-serif" font-size="15" lengthAdjust="spacingAndGlyphs" textLength="117.5" x="1827.5" y="589.8877">Reconhecimento</text><line style="stroke: #A80036; stroke-width: 1.875;" x1="1792.5" x2="1947.5" y1="603.75" y2="603.75"/><text fill="#000000" font-family="sans-serif" font-size="13.75" lengthAdjust="spacingAndGlyphs" textLength="113.75" x="1798.75" y="623.0237">-String designacao</text><text fill="#000000" font-family="sans-serif" font-size="13.75" lengthAdjust="spacingAndGlyphs" textLength="70" x="1798.75" y="640.3186">-String data</text><!--MD5=[a322db5a7ec64d2ff8f2d6cf1831dcec]
class CompetenciaTecnica--><rect fill="#FEFECE" filter="url(#fajeggzph7b05)" height="101.8848" id="CompetenciaTecnica" style="stroke: #A80036; stroke-width: 1.875;" width="186.25" x="2118.75" y="430"/><ellipse cx="2137.5" cy="450" fill="#ADD1B2" rx="13.75" ry="13.75" style="stroke: #A80036; stroke-width: 1.25;"/><path d="M2140,445.625 Q2140.2539,445 2140.5469,444.6875 Q2140.8398,444.375 2141.1719,444.375 Q2141.7578,444.375 2142.1289,444.7266 Q2142.5,445.0781 2142.5,445.8984 L2142.5,447.8516 Q2142.5,448.6719 2142.1484,449.0234 Q2141.7969,449.375 2141.25,449.375 Q2140.7617,449.375 2140.4492,449.1602 Q2140.1367,448.9453 2140,448.3789 Q2139.9414,447.9883 2139.7266,447.7734 Q2139.3359,447.3633 2138.6328,447.1289 Q2137.9297,446.875 2137.2266,446.875 Q2136.3477,446.875 2135.6055,447.2266 Q2134.8828,447.5781 2134.3164,448.3594 Q2133.75,449.1406 2133.75,450.2148 L2133.75,451.3672 Q2133.75,452.6563 2134.8047,453.5156 Q2135.8594,454.375 2137.7344,454.375 Q2138.8477,454.375 2139.6289,454.1211 Q2140.0781,453.9844 2140.5859,453.5352 Q2140.918,453.2813 2141.0938,453.2031 Q2141.2695,453.125 2141.4844,453.125 Q2141.8945,453.125 2142.1875,453.457 Q2142.5,453.7695 2142.5,454.2188 Q2142.5,454.6484 2142.0703,455.1563 Q2141.4453,455.8984 2140.4492,456.3086 Q2139.1406,456.875 2137.5391,456.875 Q2135.6641,456.875 2134.1602,456.1328 Q2132.9492,455.5469 2132.0898,454.2773 Q2131.25,453.0078 2131.25,451.5039 L2131.25,450.1367 Q2131.25,448.5742 2131.9922,447.207 Q2132.7539,445.8398 2134.0625,445.1172 Q2135.3906,444.375 2136.875,444.375 Q2137.7734,444.375 2138.5547,444.6875 Q2139.3359,445 2140,445.625 Z "/><text fill="#000000" font-family="sans-serif" font-size="15" lengthAdjust="spacingAndGlyphs" textLength="146.25" x="2155" y="456.1377">CompetenciaTecnica</text><line style="stroke: #A80036; stroke-width: 1.875;" x1="2120" x2="2303.75" y1="470" y2="470"/><text fill="#000000" font-family="sans-serif" font-size="13.75" lengthAdjust="spacingAndGlyphs" textLength="83.75" x="2126.25" y="489.2737">-String codigo</text><text fill="#000000" font-family="sans-serif" font-size="13.75" lengthAdjust="spacingAndGlyphs" textLength="110" x="2126.25" y="506.5686">-String descBreve</text><text fill="#000000" font-family="sans-serif" font-size="13.75" lengthAdjust="spacingAndGlyphs" textLength="133.75" x="2126.25" y="523.8635">-String descDetalhada</text><!--MD5=[0d4fe674cc1d46ec0fc990086e50801a]
class GrauProficiencia--><rect fill="#FEFECE" filter="url(#fajeggzph7b05)" height="84.5898" id="GrauProficiencia" style="stroke: #A80036; stroke-width: 1.875;" width="153.75" x="2486.25" y="512.5"/><ellipse cx="2505" cy="532.5" fill="#ADD1B2" rx="13.75" ry="13.75" style="stroke: #A80036; stroke-width: 1.25;"/><path d="M2507.5,528.125 Q2507.7539,527.5 2508.0469,527.1875 Q2508.3398,526.875 2508.6719,526.875 Q2509.2578,526.875 2509.6289,527.2266 Q2510,527.5781 2510,528.3984 L2510,530.3516 Q2510,531.1719 2509.6484,531.5234 Q2509.2969,531.875 2508.75,531.875 Q2508.2617,531.875 2507.9492,531.6602 Q2507.6367,531.4453 2507.5,530.8789 Q2507.4414,530.4883 2507.2266,530.2734 Q2506.8359,529.8633 2506.1328,529.6289 Q2505.4297,529.375 2504.7266,529.375 Q2503.8477,529.375 2503.1055,529.7266 Q2502.3828,530.0781 2501.8164,530.8594 Q2501.25,531.6406 2501.25,532.7148 L2501.25,533.8672 Q2501.25,535.1563 2502.3047,536.0156 Q2503.3594,536.875 2505.2344,536.875 Q2506.3477,536.875 2507.1289,536.6211 Q2507.5781,536.4844 2508.0859,536.0352 Q2508.418,535.7813 2508.5938,535.7031 Q2508.7695,535.625 2508.9844,535.625 Q2509.3945,535.625 2509.6875,535.957 Q2510,536.2695 2510,536.7188 Q2510,537.1484 2509.5703,537.6563 Q2508.9453,538.3984 2507.9492,538.8086 Q2506.6406,539.375 2505.0391,539.375 Q2503.1641,539.375 2501.6602,538.6328 Q2500.4492,538.0469 2499.5898,536.7773 Q2498.75,535.5078 2498.75,534.0039 L2498.75,532.6367 Q2498.75,531.0742 2499.4922,529.707 Q2500.2539,528.3398 2501.5625,527.6172 Q2502.8906,526.875 2504.375,526.875 Q2505.2734,526.875 2506.0547,527.1875 Q2506.8359,527.5 2507.5,528.125 Z "/><text fill="#000000" font-family="sans-serif" font-size="15" lengthAdjust="spacingAndGlyphs" textLength="113.75" x="2522.5" y="538.6377">GrauProficiencia</text><line style="stroke: #A80036; stroke-width: 1.875;" x1="2487.5" x2="2638.75" y1="552.5" y2="552.5"/><text fill="#000000" font-family="sans-serif" font-size="13.75" lengthAdjust="spacingAndGlyphs" textLength="113.75" x="2493.75" y="571.7737">-String designacao</text><text fill="#000000" font-family="sans-serif" font-size="13.75" lengthAdjust="spacingAndGlyphs" textLength="80" x="2493.75" y="589.0686">-Integer valor</text><!--MD5=[7e1ce8ab2bf669717f28e918f4971b9a]
class Categoria--><rect fill="#FEFECE" filter="url(#fajeggzph7b05)" height="84.5898" id="Categoria" style="stroke: #A80036; stroke-width: 1.875;" width="118.75" x="1596.25" y="406.25"/><ellipse cx="1620.0625" cy="426.25" fill="#ADD1B2" rx="13.75" ry="13.75" style="stroke: #A80036; stroke-width: 1.25;"/><path d="M1622.5625,421.875 Q1622.8164,421.25 1623.1094,420.9375 Q1623.4023,420.625 1623.7344,420.625 Q1624.3203,420.625 1624.6914,420.9766 Q1625.0625,421.3281 1625.0625,422.1484 L1625.0625,424.1016 Q1625.0625,424.9219 1624.7109,425.2734 Q1624.3594,425.625 1623.8125,425.625 Q1623.3242,425.625 1623.0117,425.4102 Q1622.6992,425.1953 1622.5625,424.6289 Q1622.5039,424.2383 1622.2891,424.0234 Q1621.8984,423.6133 1621.1953,423.3789 Q1620.4922,423.125 1619.7891,423.125 Q1618.9102,423.125 1618.168,423.4766 Q1617.4453,423.8281 1616.8789,424.6094 Q1616.3125,425.3906 1616.3125,426.4648 L1616.3125,427.6172 Q1616.3125,428.9063 1617.3672,429.7656 Q1618.4219,430.625 1620.2969,430.625 Q1621.4102,430.625 1622.1914,430.3711 Q1622.6406,430.2344 1623.1484,429.7852 Q1623.4805,429.5313 1623.6563,429.4531 Q1623.832,429.375 1624.0469,429.375 Q1624.457,429.375 1624.75,429.707 Q1625.0625,430.0195 1625.0625,430.4688 Q1625.0625,430.8984 1624.6328,431.4063 Q1624.0078,432.1484 1623.0117,432.5586 Q1621.7031,433.125 1620.1016,433.125 Q1618.2266,433.125 1616.7227,432.3828 Q1615.5117,431.7969 1614.6523,430.5273 Q1613.8125,429.2578 1613.8125,427.7539 L1613.8125,426.3867 Q1613.8125,424.8242 1614.5547,423.457 Q1615.3164,422.0898 1616.625,421.3672 Q1617.9531,420.625 1619.4375,420.625 Q1620.3359,420.625 1621.1172,420.9375 Q1621.8984,421.25 1622.5625,421.875 Z "/><text fill="#000000" font-family="sans-serif" font-size="15" lengthAdjust="spacingAndGlyphs" textLength="67.5" x="1638.6875" y="432.3877">Categoria</text><line style="stroke: #A80036; stroke-width: 1.875;" x1="1597.5" x2="1713.75" y1="446.25" y2="446.25"/><text fill="#000000" font-family="sans-serif" font-size="13.75" lengthAdjust="spacingAndGlyphs" textLength="53.75" x="1603.75" y="465.5237">-String id</text><text fill="#000000" font-family="sans-serif" font-size="13.75" lengthAdjust="spacingAndGlyphs" textLength="103.75" x="1603.75" y="482.8186">-String descricao</text><ellipse cx="1870" cy="296.25" fill="#000000" rx="2.5" ry="2.5" style="stroke: none; stroke-width: 1.25;"/><!--MD5=[6e2447ab21e8306ba086e4b40354d84c]
link Categoria to apoint2392--><path d="M1692.975,405.6825 C1718.0625,378.16 1753.6375,343.5712 1791.25,321.25 C1818.975,304.8 1858.7875,297.8213 1867.1625,296.4913 " fill="none" id="Categoria-apoint2392" style="stroke: #A80036; stroke-width: 1.25;"/><!--MD5=[978ab017ce53f495522a062241030517]
link apoint2392 to CompetenciaTecnica--><path d="M1873.225,296.705 C1882.2125,298.8075 1919.9625,308.0413 1948.75,321.25 C2015.3375,351.8063 2085.9375,395.6963 2137.0375,429.7813 " fill="none" id="apoint2392-CompetenciaTecnica" style="stroke: #A80036; stroke-width: 1.25;"/><!--MD5=[e4c930bef18405f8f7e4bf9c3d292ccb]
link apoint2392 to CaraterCT--><path d="M1870,299.1013 C1870,313.3588 1870,327.6175 1870,341.875 " fill="none" id="apoint2392-CaraterCT" style="stroke: #A80036; stroke-width: 1.25; stroke-dasharray: 7.0,7.0;"/><!--MD5=[1c2ad462e362697fcdc859a6327d55c7]
link Plataforma to Organizacao--><path d="M136.5338,190.4025 C228.3687,165.6412 397.345,120.08 488.4725,95.5087 " fill="none" id="Plataforma-Organizacao" style="stroke: #A80036; stroke-width: 1.25;"/><text fill="#000000" font-family="sans-serif" font-size="16.25" lengthAdjust="spacingAndGlyphs" textLength="107.5" x="175" y="143.1189">tem registadas</text><polygon fill="#000000" points="286.25,134.5947,293.75,138.3447,286.25,142.0947,286.25,134.5947" style="stroke: #000000; stroke-width: 1.25;"/><text fill="#000000" font-family="sans-serif" font-size="16.25" lengthAdjust="spacingAndGlyphs" textLength="8.75" x="146.2416" y="206.3186">1</text><text fill="#000000" font-family="sans-serif" font-size="16.25" lengthAdjust="spacingAndGlyphs" textLength="6.25" x="472.4513" y="116.3236">*</text><!--MD5=[39c0de7668d8063a4eb96c23050b3de2]
link Plataforma to Freelancer--><path d="M136.3463,234.1713 C194.815,258.8375 280.9013,295.1563 336.9938,318.82 " fill="none" id="Plataforma-Freelancer" style="stroke: #A80036; stroke-width: 1.25;"/><text fill="#000000" font-family="sans-serif" font-size="16.25" lengthAdjust="spacingAndGlyphs" textLength="107.5" x="175" y="245.6189">tem registados</text><polygon fill="#000000" points="286.25,237.0947,293.75,240.8447,286.25,244.5947,286.25,237.0947" style="stroke: #000000; stroke-width: 1.25;"/><text fill="#000000" font-family="sans-serif" font-size="16.25" lengthAdjust="spacingAndGlyphs" textLength="8.75" x="146.458" y="256.4736">1</text><text fill="#000000" font-family="sans-serif" font-size="16.25" lengthAdjust="spacingAndGlyphs" textLength="25" x="302.6035" y="333.8513">1..*</text><!--MD5=[3e4842a9a39f581fdf016dfd12392cbc]
link Freelancer to Candidatura--><path d="M451.4025,368.1425 C507.5338,393.9475 593.9,433.6513 652.05,460.385 " fill="none" id="Freelancer-Candidatura" style="stroke: #A80036; stroke-width: 1.25;"/><text fill="#000000" font-family="sans-serif" font-size="16.25" lengthAdjust="spacingAndGlyphs" textLength="21.25" x="533.125" y="380.6189">faz</text><polygon fill="#000000" points="558.125,372.0947,565.625,375.8447,558.125,379.5947,558.125,372.0947" style="stroke: #000000; stroke-width: 1.25;"/><text fill="#000000" font-family="sans-serif" font-size="16.25" lengthAdjust="spacingAndGlyphs" textLength="8.75" x="461.1885" y="390.6927">1</text><text fill="#000000" font-family="sans-serif" font-size="16.25" lengthAdjust="spacingAndGlyphs" textLength="6.25" x="636.0952" y="474.634">*</text><!--MD5=[6a7c57800a31452a20aa2f5037e36afb]
link Freelancer to Utilizador--><path d="M451.4025,342.5 C508.2475,342.5 596.0975,342.5 654.2525,342.5 " fill="none" id="Freelancer-Utilizador" style="stroke: #A80036; stroke-width: 1.25;"/><text fill="#000000" font-family="sans-serif" font-size="16.25" lengthAdjust="spacingAndGlyphs" textLength="76.25" x="505.625" y="338.1189">atua como</text><polygon fill="#000000" points="585.625,329.5947,593.125,333.3447,585.625,337.0947,585.625,329.5947" style="stroke: #000000; stroke-width: 1.25;"/><text fill="#000000" font-family="sans-serif" font-size="16.25" lengthAdjust="spacingAndGlyphs" textLength="27.5" x="461.3556" y="360.7758">0..1</text><text fill="#000000" font-family="sans-serif" font-size="16.25" lengthAdjust="spacingAndGlyphs" textLength="8.75" x="635.5306" y="360.9809">1</text><!--MD5=[4b7ea55301832702787bcdc026640b66]
link Freelancer to Endereco--><path d="M451.4025,316.8575 C508.6038,290.5613 597.2013,249.83 655.3425,223.1013 " fill="none" id="Freelancer-Endereco" style="stroke: #A80036; stroke-width: 1.25;"/><text fill="#000000" font-family="sans-serif" font-size="16.25" lengthAdjust="spacingAndGlyphs" textLength="27.5" x="530" y="238.1189">tem</text><polygon fill="#000000" points="561.25,229.5947,568.75,233.3447,561.25,237.0947,561.25,229.5947" style="stroke: #000000; stroke-width: 1.25;"/><text fill="#000000" font-family="sans-serif" font-size="16.25" lengthAdjust="spacingAndGlyphs" textLength="27.5" x="461.3556" y="331.5274">0..1</text><text fill="#000000" font-family="sans-serif" font-size="16.25" lengthAdjust="spacingAndGlyphs" textLength="6.25" x="639.4789" y="245.6937">*</text><!--MD5=[7fbeb7bcd2a7737111d998de4a14bf4d]
link Freelancer to Reconhecimento--><path d="M431.315,402.02 C483.0062,479.81 586.585,606.25 713.75,606.25 C713.75,606.25 713.75,606.25 1656.875,606.25 C1701.2,606.25 1750.7375,606.25 1790.7625,606.25 " fill="none" id="Freelancer-Reconhecimento" style="stroke: #A80036; stroke-width: 1.25;"/><text fill="#000000" font-family="sans-serif" font-size="16.25" lengthAdjust="spacingAndGlyphs" textLength="47.5" x="1155" y="601.8689">possui</text><polygon fill="#000000" points="1206.25,593.3447,1213.75,597.0947,1206.25,600.8447,1206.25,593.3447" style="stroke: #000000; stroke-width: 1.25;"/><text fill="#000000" font-family="sans-serif" font-size="16.25" lengthAdjust="spacingAndGlyphs" textLength="8.75" x="427.348" y="429.1004">1</text><text fill="#000000" font-family="sans-serif" font-size="16.25" lengthAdjust="spacingAndGlyphs" textLength="6.25" x="1774.9893" y="624.3243">*</text><!--MD5=[4acb55c95f695e24b0193d5697296d13]
link Reconhecimento to CompetenciaTecnica--><path d="M1949.2125,578.9445 C1988.8375,564.9285 2037.7,547.4374 2081.25,531.25 C2093.325,526.7611 2106,521.965 2118.5125,517.185 " fill="none" id="Reconhecimento-CompetenciaTecnica" style="stroke: #A80036; stroke-width: 1.25;"/><text fill="#000000" font-family="sans-serif" font-size="16.25" lengthAdjust="spacingAndGlyphs" textLength="76.25" x="1987.5" y="526.8689">referente a</text><polygon fill="#000000" points="2067.5,518.3447,2075,522.0947,2067.5,525.8447,2067.5,518.3447" style="stroke: #000000; stroke-width: 1.25;"/><text fill="#000000" font-family="sans-serif" font-size="16.25" lengthAdjust="spacingAndGlyphs" textLength="8.75" x="1958.8773" y="593.8616">1</text><text fill="#000000" font-family="sans-serif" font-size="16.25" lengthAdjust="spacingAndGlyphs" textLength="6.25" x="2102.3122" y="538.8453">*</text><!--MD5=[37c76b693b9cd1bbf25661bba94ed967]
link Reconhecimento to GrauProficiencia--><path d="M1948.85,601.6031 C2035.6625,596.2893 2180.4625,587.0801 2305,577.5 C2365.925,572.813 2434.9125,566.7274 2486.0375,562.0671 " fill="none" id="Reconhecimento-GrauProficiencia" style="stroke: #A80036; stroke-width: 1.25;"/><text fill="#000000" font-family="sans-serif" font-size="16.25" lengthAdjust="spacingAndGlyphs" textLength="76.25" x="2165.625" y="573.1189">referente a</text><polygon fill="#000000" points="2245.625,564.5947,2253.125,568.3447,2245.625,572.0947,2245.625,564.5947" style="stroke: #000000; stroke-width: 1.25;"/><text fill="#000000" font-family="sans-serif" font-size="16.25" lengthAdjust="spacingAndGlyphs" textLength="8.75" x="1958.993" y="619.1762">1</text><text fill="#000000" font-family="sans-serif" font-size="16.25" lengthAdjust="spacingAndGlyphs" textLength="8.75" x="2467.3593" y="581.0679">1</text><!--MD5=[0d731ff285a62a08178b23be6cceb109]
link CompetenciaTecnica to GrauProficiencia--><path d="M2305.2125,500.7238 C2361.5125,512.63 2432.675,527.6771 2485.775,538.9065 " fill="none" id="CompetenciaTecnica-GrauProficiencia" style="stroke: #A80036; stroke-width: 1.25;"/><text fill="#000000" font-family="sans-serif" font-size="16.25" lengthAdjust="spacingAndGlyphs" textLength="87.5" x="2343.75" y="504.3689">associado a</text><polygon fill="#000000" points="2435,495.8447,2442.5,499.5947,2435,503.3447,2435,495.8447" style="stroke: #000000; stroke-width: 1.25;"/><text fill="#000000" font-family="sans-serif" font-size="16.25" lengthAdjust="spacingAndGlyphs" textLength="8.75" x="2315.2891" y="520.6865">1</text><text fill="#000000" font-family="sans-serif" font-size="16.25" lengthAdjust="spacingAndGlyphs" textLength="8.75" x="2467.5755" y="555.12">1</text><!--MD5=[439a6ad1de0b5aa57a973cae1bf36ce5]
link Anuncio to Tarefa--><path d="M1116.52,448.75 C1160.8438,448.75 1215.6775,448.75 1257.345,448.75 " fill="none" id="Anuncio-Tarefa" style="stroke: #A80036; stroke-width: 1.25;"/><text fill="#000000" font-family="sans-serif" font-size="16.25" lengthAdjust="spacingAndGlyphs" textLength="27.5" x="1165" y="444.3689">tem</text><polygon fill="#000000" points="1196.25,435.8447,1203.75,439.5947,1196.25,443.3447,1196.25,435.8447" style="stroke: #000000; stroke-width: 1.25;"/><text fill="#000000" font-family="sans-serif" font-size="16.25" lengthAdjust="spacingAndGlyphs" textLength="8.75" x="1126.1625" y="466.7876">1</text><text fill="#000000" font-family="sans-serif" font-size="16.25" lengthAdjust="spacingAndGlyphs" textLength="6.25" x="1241.1582" y="467.1034">*</text><!--MD5=[cc2561a0285988b367253361d2d1973d]
link Tarefa to Categoria--><path d="M1386.6,448.75 C1447.0875,448.75 1537.4125,448.75 1596.1125,448.75 " fill="none" id="Tarefa-Categoria" style="stroke: #A80036; stroke-width: 1.25;"/><text fill="#000000" font-family="sans-serif" font-size="16.25" lengthAdjust="spacingAndGlyphs" textLength="116.25" x="1425" y="444.3689">enquadra-se em</text><polygon fill="#000000" points="1545,435.8447,1552.5,439.5947,1545,443.3447,1545,435.8447" style="stroke: #000000; stroke-width: 1.25;"/><text fill="#000000" font-family="sans-serif" font-size="16.25" lengthAdjust="spacingAndGlyphs" textLength="8.75" x="1396.3172" y="467.0403">1</text><text fill="#000000" font-family="sans-serif" font-size="16.25" lengthAdjust="spacingAndGlyphs" textLength="8.75" x="1577.5797" y="467.2152">1</text><!--MD5=[74d0d806cbbb596d67efd8351294ed2d]
link Categoria to CompetenciaTecnica--><path d="M1715.0875,452.1663 C1811.1625,457.805 2003.6875,469.105 2118.4375,475.8388 " fill="none" id="Categoria-CompetenciaTecnica" style="stroke: #A80036; stroke-width: 1.25;"/><text fill="#000000" font-family="sans-serif" font-size="16.25" lengthAdjust="spacingAndGlyphs" textLength="45" x="1839.375" y="451.8689">requer</text><polygon fill="#000000" points="1888.125,443.3447,1895.625,447.0947,1888.125,450.8447,1888.125,443.3447" style="stroke: #000000; stroke-width: 1.25;"/><text fill="#000000" font-family="sans-serif" font-size="16.25" lengthAdjust="spacingAndGlyphs" textLength="6.25" x="1725.0624" y="471.2411">*</text><text fill="#000000" font-family="sans-serif" font-size="16.25" lengthAdjust="spacingAndGlyphs" textLength="6.25" x="2102.2295" y="493.2352">*</text><!--MD5=[32a129d5bc595627aea1e24e185c5fa2]
link Organizacao to Anuncio--><path d="M615.3638,79.8613 C662.88,83.28 728.3325,93.7288 777.5,123.75 C879.9888,186.3287 958.615,304.9838 1001.0663,380.3013 " fill="none" id="Organizacao-Anuncio" style="stroke: #A80036; stroke-width: 1.25;"/><text fill="#000000" font-family="sans-serif" font-size="16.25" lengthAdjust="spacingAndGlyphs" textLength="60" x="676.875" y="79.3689">publicita</text><polygon fill="#000000" points="740.625,70.8447,748.125,74.5947,740.625,78.3447,740.625,70.8447" style="stroke: #000000; stroke-width: 1.25;"/><text fill="#000000" font-family="sans-serif" font-size="16.25" lengthAdjust="spacingAndGlyphs" textLength="8.75" x="624.9071" y="98.3078">1</text><text fill="#000000" font-family="sans-serif" font-size="16.25" lengthAdjust="spacingAndGlyphs" textLength="8.75" x="987.0876" y="367.1327">1</text><!--MD5=[360c74ee5c5ac6d45db6366086fca09a]
link Candidatura to Anuncio--><path d="M777.57,481.085 C829.1112,474.6425 903.0638,465.3987 958.7075,458.4425 " fill="none" id="Candidatura-Anuncio" style="stroke: #A80036; stroke-width: 1.25;"/><text fill="#000000" font-family="sans-serif" font-size="16.25" lengthAdjust="spacingAndGlyphs" textLength="87.5" x="816.25" y="459.3689">associada a</text><polygon fill="#000000" points="907.5,450.8447,915,454.5947,907.5,458.3447,907.5,450.8447" style="stroke: #000000; stroke-width: 1.25;"/><text fill="#000000" font-family="sans-serif" font-size="16.25" lengthAdjust="spacingAndGlyphs" textLength="8.75" x="787.4025" y="498.3743">1</text><text fill="#000000" font-family="sans-serif" font-size="16.25" lengthAdjust="spacingAndGlyphs" textLength="8.75" x="939.8215" y="477.7245">1</text><!--MD5=[0193968bbc2979470bd0deeaf3a0e42d]
@startuml
skinparam classAttributeIconSize 0

hide methods
left to right direction

class Plataforma {
  -String designacao
}

class Organizacao {
  -String nome
  -String NIF
  -String website
  -String telefone
  -String email
}
class CaraterCT {
  -Boolean obrigatoria
}

class Freelancer {
  -String nome
  -String NIF
  -String telefone
  -String email
}
class Endereco {
  -String local
  -String codPostal
  -String localidade
}

class Utilizador {
  -String nome
  -String email
  -String password
}

class Tarefa {
   -String referencia
   -String designacao
   -String dsTec
   -int duracaoEst
   -double custoEst
}

class Anuncio {
   -String refTarefa
   -String periodoPub
   -String peridooCand
   -String periodoSeriacao
   -String refRegimento
}

class Candidatura {
   -Integer valor
   -String duracao
   -String texto
}

class Reconhecimento {
   -String designacao
   -String data
}

class CompetenciaTecnica {
   -String codigo
   -String descBreve
   -String descDetalhada
}
class GrauProficiencia {
   -String designacao
   -Integer valor
}
class Categoria {
   -String id
   -String descricao
}
(Categoria, CompetenciaTecnica) .. CaraterCT
Plataforma "1" - - "*" Organizacao : tem registadas >
Plataforma "1" - - "1..*" Freelancer: tem registados >
Freelancer "1" - - "*" Candidatura : faz >
Freelancer "0..1" - - "1" Utilizador : atua como >
Freelancer "0..1" - - "*" Endereco : tem >
Freelancer "1" - - "*" Reconhecimento : possui >
Reconhecimento "1" - - "*" CompetenciaTecnica : referente a >
Reconhecimento "1" - - "1" GrauProficiencia : referente a >
CompetenciaTecnica "1" - - "1" GrauProficiencia : associado a >
Anuncio "1" - - "*" Tarefa : tem >
Tarefa "1" - - "1" Categoria : enquadra-se em >
Categoria "*" - - "*" CompetenciaTecnica : requer >
Organizacao "1" - - "1" Anuncio : publicita >
Candidatura "1" - - "1" Anuncio : associada a >
@enduml

PlantUML version 1.2020.07(Sun Apr 19 12:42:40 BST 2020)
(GPL source distribution)
Java Runtime: OpenJDK Runtime Environment
JVM: OpenJDK 64-Bit Server VM
Java Version: 11.0.6+8-b765.25
Operating System: Windows 10
Default Encoding: Cp1252
Language: pt
Country: PT
--></g></svg>