@startuml
skinparam classAttributeIconSize 0

class EfetuarCandidaturaUI {
}
class EfetuarCandidaturaController {
-Plataforma m_oPlataforma;
-AplicacaoPOT app;
-SessaoUtilizador sessao;
-String emailUser;
-RegistoFreelancer rf;
-Freelancer m_oFreelancer;
-List<Freelancer> listaFreelancer;
-List<Anuncio> listaAnunciosDisponiveis;
  +novoCandidatura(valor, nrDias, texto)
  +getListaAnunciosDisponiveis()
  +efetuarCandidatura()
  +getAnuncio(Id)
}

class AplicacaoPOT{
-final Plataforma m_oPlataforma;
-final AutorizacaoFacade m_oAutorizacao;
  +getInstance()
  +getSessaoAtual()
}

class SessaoUtilizador{

-Utilizador m_oUtilizador
  +getEmailUser()
}

class Plataforma {
  - RegistoFreelancer freelancers;
  - RegistoAnuncio anuncio;
  -String designacao
  +getRegistoFreelancer()
  +getRegistoAnuncio()
}

class Candidatura {
    -double valor
    -int nrDias
    -String texto
    +Candidatura(valor, duracao, texto)
}


class Anuncio {
    -Periodo pDePub
    -Periodo pDeCand
    -Periodo pDeDec
    +getListaCandidatura()
    +efetuarCandidatura()
    +addCandidatura()
}
class RegistoAnuncio{
-static List<Anuncio> anuncios
  +getListaAnunciosDisponivel(m_oFreelancer)
  }
class RegistoCandidatura{
 - int valor;
    - int nrDias;
    - static String texto;
    - Candidatura candidatura;
  +novaCandidatura(valor, nrDias, texto)
    -validaCandidatura(candidatura)
}

class RegistoFreelancer{
-    private List<Freelancer> freelancerList;
private List<Freelancer> freelancerList;
getAnuncioByEmail(User)
}


EfetuarCandidaturaUI ..> EfetuarCandidaturaController
EfetuarCandidaturaController ..> Plataforma
EfetuarCandidaturaController ..> AplicacaoPOT
EfetuarCandidaturaController ..> Anuncio
EfetuarCandidaturaController ..> SessaoUtilizador
EfetuarCandidaturaController ..> RegistoAnuncio
EfetuarCandidaturaController ..> RegistoCandidatura
EfetuarCandidaturaController ..> Candidatura

RegistoAnuncio "1" --> " * "  Anuncio : tem
Anuncio "1" --> " * "  RegistoCandidatura : possui
RegistoCandidatura "1" --> " * "  Candidatura : tem
Plataforma "1" --> " * "  RegistoAnuncio : possui
Plataforma"1"-->"*" RegistoFreelancer : possui
RegistoFreelancer"1"-->"*"Freelancer : tem
@enduml

