<?xml version="1.0" encoding="UTF-8" standalone="no"?>
<svg xmlns="http://www.w3.org/2000/svg" contentScriptType="application/ecmascript" contentStyleType="text/css"
     height="398.125px" preserveAspectRatio="none" style="width:564px;height:398px;" version="1.1" viewBox="0 0 564 398"
     width="564.375px" zoomAndPan="magnify"><defs><filter height="300%" id="f1047i0an27w16" width="300%" x="-1" y="-1"><feGaussianBlur result="blurOut" stdDeviation="1.75"/><feColorMatrix in="blurOut" result="blurOut2" type="matrix" values="0 0 0 0 0 0 0 0 0 0 0 0 0 0 0 0 0 0 .4 0"/><feOffset dx="3.5" dy="3.5" in="blurOut2" result="blurOut3"/><feBlend in="SourceGraphic" in2="blurOut3" mode="normal"/></filter></defs><g><rect fill="#FFFFFF" filter="url(#f1047i0an27w16)" height="219.7686" style="stroke: #A80036; stroke-width: 0.875;" width="8.75" x="35.4375" y="85.4082"/><rect fill="#FFFFFF" filter="url(#f1047i0an27w16)" height="26.5576" style="stroke: #A80036; stroke-width: 0.875;" width="8.75" x="522.8125" y="104.9658"/><rect fill="#FFFFFF" filter="url(#f1047i0an27w16)" height="40.8652" style="stroke: #A80036; stroke-width: 0.875;" width="8.75" x="522.8125" y="158.0811"/><rect fill="#FFFFFF" filter="url(#f1047i0an27w16)" height="26.5576" style="stroke: #A80036; stroke-width: 0.875;" width="8.75" x="522.8125" y="225.5039"/><rect fill="#FFFFFF" filter="url(#f1047i0an27w16)" height="26.5576" style="stroke: #A80036; stroke-width: 0.875;" width="8.75" x="522.8125" y="278.6191"/><line style="stroke: #A80036; stroke-width: 0.875; stroke-dasharray: 5.0,5.0;" x1="39.375" x2="39.375" y1="76.6582" y2="320.9268"/><line style="stroke: #A80036; stroke-width: 0.875; stroke-dasharray: 5.0,5.0;" x1="527.1875" x2="527.1875" y1="76.6582" y2="320.9268"/><text fill="#000000" font-family="sans-serif" font-size="12.25" lengthAdjust="spacingAndGlyphs" textLength="60.375" x="7" y="73.9666">Freelancer</text><ellipse cx="39.8125" cy="11.375" fill="#FEFECE" filter="url(#f1047i0an27w16)" rx="7" ry="7" style="stroke: #A80036; stroke-width: 1.75;"/><path d="M39.8125,18.375 L39.8125,42 M28.4375,25.375 L51.1875,25.375 M39.8125,42 L28.4375,55.125 M39.8125,42 L51.1875,55.125 " fill="none" filter="url(#f1047i0an27w16)" style="stroke: #A80036; stroke-width: 1.75;"/><text fill="#000000" font-family="sans-serif" font-size="12.25" lengthAdjust="spacingAndGlyphs" textLength="60.375" x="7" y="332.7683">Freelancer</text><ellipse cx="39.8125" cy="344.21" fill="#FEFECE" filter="url(#f1047i0an27w16)" rx="7" ry="7" style="stroke: #A80036; stroke-width: 1.75;"/><path d="M39.8125,351.21 L39.8125,374.835 M28.4375,358.21 L51.1875,358.21 M39.8125,374.835 L28.4375,387.96 M39.8125,374.835 L51.1875,387.96 " fill="none" filter="url(#f1047i0an27w16)" style="stroke: #A80036; stroke-width: 1.75;"/><rect fill="#FEFECE" filter="url(#f1047i0an27w16)" height="27.6582" style="stroke: #A80036; stroke-width: 1.3125;" width="59.5" x="495.6875" y="44.625"/><text fill="#000000" font-family="sans-serif" font-size="12.25" lengthAdjust="spacingAndGlyphs" textLength="47.25" x="501.8125" y="63.4666">:Sistema</text><rect fill="#FEFECE" filter="url(#f1047i0an27w16)" height="27.6582" style="stroke: #A80036; stroke-width: 1.3125;" width="59.5" x="495.6875" y="320.0518"/><text fill="#000000" font-family="sans-serif" font-size="12.25" lengthAdjust="spacingAndGlyphs" textLength="47.25" x="501.8125" y="338.8933">:Sistema</text><rect fill="#FFFFFF" filter="url(#f1047i0an27w16)" height="219.7686" style="stroke: #A80036; stroke-width: 0.875;" width="8.75" x="35.4375" y="85.4082"/><rect fill="#FFFFFF" filter="url(#f1047i0an27w16)" height="26.5576" style="stroke: #A80036; stroke-width: 0.875;" width="8.75" x="522.8125" y="104.9658"/><rect fill="#FFFFFF" filter="url(#f1047i0an27w16)" height="40.8652" style="stroke: #A80036; stroke-width: 0.875;" width="8.75" x="522.8125" y="158.0811"/><rect fill="#FFFFFF" filter="url(#f1047i0an27w16)" height="26.5576" style="stroke: #A80036; stroke-width: 0.875;" width="8.75" x="522.8125" y="225.5039"/><rect fill="#FFFFFF" filter="url(#f1047i0an27w16)" height="26.5576" style="stroke: #A80036; stroke-width: 0.875;" width="8.75" x="522.8125" y="278.6191"/><polygon fill="#A80036" points="512.3125,101.4658,521.0625,104.9658,512.3125,108.4658,515.8125,104.9658" style="stroke: #A80036; stroke-width: 0.875;"/><line style="stroke: #A80036; stroke-width: 0.875;" x1="44.1875" x2="517.5625" y1="104.9658" y2="104.9658"/><text fill="#000000" font-family="sans-serif" font-size="11.375" font-weight="bold" lengthAdjust="spacingAndGlyphs" textLength="6.125" x="50.3125" y="100.7164">1</text><text fill="#000000" font-family="sans-serif" font-size="11.375" lengthAdjust="spacingAndGlyphs" textLength="101.5" x="59.9375" y="100.7164">Inicia a candidatura.</text><polygon fill="#A80036" points="53.8125,128.0234,45.0625,131.5234,53.8125,135.0234,50.3125,131.5234" style="stroke: #A80036; stroke-width: 0.875;"/><line style="stroke: #A80036; stroke-width: 0.875; stroke-dasharray: 2.0,2.0;" x1="48.5625" x2="526.3125" y1="131.5234" y2="131.5234"/><text fill="#000000" font-family="sans-serif" font-size="11.375" font-weight="bold" lengthAdjust="spacingAndGlyphs" textLength="6.125" x="59.0625" y="127.274">2</text><text fill="#000000" font-family="sans-serif" font-size="11.375" lengthAdjust="spacingAndGlyphs" textLength="318.5" x="68.6875" y="127.274">Mostra a lista de anuncios que é permitido fazer a  candidatura</text><polygon fill="#A80036" points="512.3125,154.5811,521.0625,158.0811,512.3125,161.5811,515.8125,158.0811" style="stroke: #A80036; stroke-width: 0.875;"/><line style="stroke: #A80036; stroke-width: 0.875;" x1="44.1875" x2="517.5625" y1="158.0811" y2="158.0811"/><text fill="#000000" font-family="sans-serif" font-size="11.375" font-weight="bold" lengthAdjust="spacingAndGlyphs" textLength="6.125" x="50.3125" y="153.8317">3</text><text fill="#000000" font-family="sans-serif" font-size="11.375" lengthAdjust="spacingAndGlyphs" textLength="252.875" x="59.9375" y="153.8317">Seleciona o anuncio a que se pretende candidatar</text><polygon fill="#A80036" points="53.8125,195.4463,45.0625,198.9463,53.8125,202.4463,50.3125,198.9463" style="stroke: #A80036; stroke-width: 0.875;"/><line style="stroke: #A80036; stroke-width: 0.875; stroke-dasharray: 2.0,2.0;" x1="48.5625" x2="526.3125" y1="198.9463" y2="198.9463"/><text fill="#000000" font-family="sans-serif" font-size="11.375" font-weight="bold" lengthAdjust="spacingAndGlyphs" textLength="6.125" x="59.0625" y="187.5431">4</text><text fill="#000000" font-family="sans-serif" font-size="11.375" lengthAdjust="spacingAndGlyphs" textLength="168" x="68.6875" y="180.3893">Reconhece o grau de proficiencia</text><text fill="#000000" font-family="sans-serif" font-size="11.375" lengthAdjust="spacingAndGlyphs" textLength="448" x="68.6875" y="194.6969">minimo para a candidatura e solicita os dados pretendidos(valor, numero de dias e texto)</text><polygon fill="#A80036" points="512.3125,222.0039,521.0625,225.5039,512.3125,229.0039,515.8125,225.5039" style="stroke: #A80036; stroke-width: 0.875;"/><line style="stroke: #A80036; stroke-width: 0.875;" x1="44.1875" x2="517.5625" y1="225.5039" y2="225.5039"/><text fill="#000000" font-family="sans-serif" font-size="11.375" font-weight="bold" lengthAdjust="spacingAndGlyphs" textLength="6.125" x="50.3125" y="221.2545">5</text><text fill="#000000" font-family="sans-serif" font-size="11.375" lengthAdjust="spacingAndGlyphs" textLength="151.375" x="59.9375" y="221.2545">Introduz os dados solicitados.</text><polygon fill="#A80036" points="53.8125,248.5615,45.0625,252.0615,53.8125,255.5615,50.3125,252.0615" style="stroke: #A80036; stroke-width: 0.875;"/><line style="stroke: #A80036; stroke-width: 0.875; stroke-dasharray: 2.0,2.0;" x1="48.5625" x2="526.3125" y1="252.0615" y2="252.0615"/><text fill="#000000" font-family="sans-serif" font-size="11.375" font-weight="bold" lengthAdjust="spacingAndGlyphs" textLength="6.125" x="59.0625" y="247.8121">6</text><text fill="#000000" font-family="sans-serif" font-size="11.375" lengthAdjust="spacingAndGlyphs" textLength="229.25" x="68.6875" y="247.8121">Apresenta os dados e pede sua confirmação.</text><polygon fill="#A80036" points="512.3125,275.1191,521.0625,278.6191,512.3125,282.1191,515.8125,278.6191" style="stroke: #A80036; stroke-width: 0.875;"/><line style="stroke: #A80036; stroke-width: 0.875;" x1="44.1875" x2="517.5625" y1="278.6191" y2="278.6191"/><text fill="#000000" font-family="sans-serif" font-size="11.375" font-weight="bold" lengthAdjust="spacingAndGlyphs" textLength="6.125" x="50.3125" y="274.3698">7</text><text fill="#000000" font-family="sans-serif" font-size="11.375" lengthAdjust="spacingAndGlyphs" textLength="98" x="59.9375" y="274.3698">Confirma os dados.</text><polygon fill="#A80036" points="49.4375,301.6768,40.6875,305.1768,49.4375,308.6768,45.9375,305.1768" style="stroke: #A80036; stroke-width: 0.875;"/><line style="stroke: #A80036; stroke-width: 0.875; stroke-dasharray: 2.0,2.0;" x1="44.1875" x2="526.3125" y1="305.1768" y2="305.1768"/><text fill="#000000" font-family="sans-serif" font-size="11.375" font-weight="bold" lengthAdjust="spacingAndGlyphs" textLength="6.125" x="54.6875" y="300.9274">8</text><text fill="#000000" font-family="sans-serif" font-size="11.375" lengthAdjust="spacingAndGlyphs" textLength="155.75" x="64.3125" y="300.9274">operação concluida sem erros.</text><!--MD5=[1fa44763beb30c860c2055de462195c5]
@startuml
autonumber
actor "Freelancer" as F
participant ":Sistema" as S
activate F
F -> S: Inicia a candidatura.
activate S
S- ->F: Mostra a lista de anuncios que é permitido fazer a  candidatura
deactivate S
F->S: Seleciona o anuncio a que se pretende candidatar
activate S
S- ->F: Reconhece o grau de proficiencia \nminimo para a candidatura e solicita os dados pretendidos(valor, numero de dias e texto)
deactivate S
F->S:Introduz os dados solicitados.
activate S
S- ->F:Apresenta os dados e pede sua confirmação.
deactivate S
F->S: Confirma os dados.
activate S
S- ->F: operação concluida sem erros.
deactivate S
deactivate F
@enduml

PlantUML version 1.2020.07(Sun Apr 19 12:42:40 BST 2020)
(GPL source distribution)
Java Runtime: OpenJDK Runtime Environment
JVM: OpenJDK 64-Bit Server VM
Java Version: 11.0.6+8-b765.25
Operating System: Windows 10
Default Encoding: Cp1252
Language: pt
Country: PT
--></g></svg>