@startuml
autonumber

actor "Freelancer" as FREELANCER
participant ":EfetuarCandidaturaUI" as UI
participant ":EfetuarCandidaturaController" as CONTROLLER
participant ":AplicacaoPOT" as POT
participant "app\n:AplicacaoPOT" as APP
participant "sessao\n:SessaoUtilizador" as SESSAO
participant ":Plataforma" as PLAT
participant "rf\n:RegistoFreelancer" as RF
participant "ra\n:RegistoAnuncio" as RA
participant "RegistoCandidatura" as RC
participant "anuncio\n:Anuncio" as ANUNCIO
participant "candidatura\n:Candidatura" as CAND


activate FREELANCER
FREELANCER -> UI : Inicia a candidatura
activate UI
UI -> CONTROLLER : ListaAnunciosDisponiveis = getListaAnunciosDisponiveis()
activate CONTROLLER
CONTROLLER -> POT : app = getInstance()
activate POT
deactivate POT
CONTROLLER -> APP: sessao = getSessaoAtual()
activate APP
deactivate APP
CONTROLLER -> SESSAO: emailUser = getEmailUtilizador()
activate SESSAO
deactivate SESSAO
CONTROLLER -> PLAT: rf = getRegistoFreelancer()
activate PLAT
deactivate PLAT
CONTROLLER -> RF: m_oFreelancer=getFreelancerByEmail(emailUser)
activate RF
deactivate RF
CONTROLLER -> PLAT: ra = getRegistoAnuncio
activate PLAT
deactivate PLAT
CONTROLLER -> RA: listaAnuncios=getListaAnuncioDisponivel(freelancer)
activate RA
deactivate RA
deactivate CONTROLLER
UI --> FREELANCER: Mostra a lista de anúncios que é permitido fazer a  candidatura
deactivate UI
FREELANCER -> UI :  Seleciona o anuncio a que se pretende candidatar
activate UI
UI->CONTROLLER:getAnuncio(id)
activate CONTROLLER
CONTROLLER-->RA: anuncio=getAnuncio(id)
activate RA
deactivate RA
deactivate CONTROLLER
UI --> FREELANCER: Solicita os dados pretendidos(valor, numero de dias e texto(opcional))
deactivate UI
FREELANCER -> UI :Introduz os dados solicitados.
activate UI
UI -> CONTROLLER : novaCandidatura(valor,nrDias,texto)
activate CONTROLLER
CONTROLLER-->ANUNCIO: listaCandidaturas=getListaCandidatura()
activate ANUNCIO
deactivate ANUNCIO
CONTROLLER -> RC : candidatura = novaCandidatura(valor,nrDias,texto)
activate RC
RC -> CAND** : create(valor,nrDias,texto)
deactivate RC
CONTROLLER -> RC : validaCandidatura(candidatura)
activate  RC
deactivate RC
deactivate CONTROLLER
UI --> FREELANCER: Apresenta os dados e pede sua confirmação.
deactivate UI
FREELANCER ->  UI :  Confirma os dados.
activate UI
UI -> CONTROLLER : efetuarCandidatura(candidatura)
activate CONTROLLER
CONTROLLER -> ANUNCIO : efetuarCandidatura(candidatura)
activate ANUNCIO
ANUNCIO->ANUNCIO: addCandidatura(candidatura)
deactivate ANUNCIO
deactivate CONTROLLER
UI --> FREELANCER: Operação concluída sem erros.
deactivate UI
deactivate FREELANCER
@enduml
