<?xml version="1.0" encoding="UTF-8" standalone="no"?>
<svg xmlns="http://www.w3.org/2000/svg" contentScriptType="application/ecmascript" contentStyleType="text/css"
     height="1097.25px" preserveAspectRatio="none" style="width:1459px;height:1097px;" version="1.1"
     viewBox="0 0 1459 1097" width="1459.5px" zoomAndPan="magnify">
    <defs>
        <filter height="300%" id="fusjzsrc0z5q7" width="300%" x="-1" y="-1">
            <feGaussianBlur result="blurOut" stdDeviation="2.1"/>
            <feColorMatrix in="blurOut" result="blurOut2" type="matrix"
                           values="0 0 0 0 0 0 0 0 0 0 0 0 0 0 0 0 0 0 .4 0"/>
            <feOffset dx="4.2" dy="4.2" in="blurOut2" result="blurOut3"/>
            <feBlend in="SourceGraphic" in2="blurOut3" mode="normal"/>
        </filter>
    </defs>
    <g>
        <rect fill="#FFFFFF" filter="url(#fusjzsrc0z5q7)" height="883.4684" style="stroke: #A80036; stroke-width: 1.05;"
              width="10.5" x="68.25" y="102.4898"/>
        <rect fill="#FFFFFF" filter="url(#fusjzsrc0z5q7)" height="49.0383" style="stroke: #A80036; stroke-width: 1.05;"
              width="10.5" x="360.15" y="125.959"/>
        <rect fill="#FFFFFF" filter="url(#fusjzsrc0z5q7)" height="95.6074" style="stroke: #A80036; stroke-width: 1.05;"
              width="10.5" x="360.15" y="206.8664"/>
        <rect fill="#FFFFFF" filter="url(#fusjzsrc0z5q7)" height="122.2266" style="stroke: #A80036; stroke-width: 1.05;"
              width="10.5" x="360.15" y="334.343"/>
        <rect fill="#FFFFFF" filter="url(#fusjzsrc0z5q7)" height="279.0047" style="stroke: #A80036; stroke-width: 1.05;"
              width="10.5" x="360.15" y="488.4387"/>
        <rect fill="#FFFFFF" filter="url(#fusjzsrc0z5q7)" height="186.6457" style="stroke: #A80036; stroke-width: 1.05;"
              width="10.5" x="360.15" y="799.3125"/>
        <rect fill="#FFFFFF" filter="url(#fusjzsrc0z5q7)" height="63.7383" style="stroke: #A80036; stroke-width: 1.05;"
              width="10.5" x="684.6" y="238.7355"/>
        <rect fill="#FFFFFF" filter="url(#fusjzsrc0z5q7)" height="90.3574" style="stroke: #A80036; stroke-width: 1.05;"
              width="10.5" x="684.6" y="366.2121"/>
        <rect fill="#FFFFFF" filter="url(#fusjzsrc0z5q7)" height="47.6191" style="stroke: #A80036; stroke-width: 1.05;"
              width="10.5" x="684.6" y="520.3078"/>
        <rect fill="#FFFFFF" filter="url(#fusjzsrc0z5q7)" height="144.1781" style="stroke: #A80036; stroke-width: 1.05;"
              width="10.5" x="684.6" y="591.3961"/>
        <rect fill="#FFFFFF" filter="url(#fusjzsrc0z5q7)" height="115.5574" style="stroke: #A80036; stroke-width: 1.05;"
              width="10.5" x="684.6" y="831.1816"/>
        <rect fill="#FFFFFF" filter="url(#fusjzsrc0z5q7)" height="31.8691" style="stroke: #A80036; stroke-width: 1.05;"
              width="10.5" x="1062.6" y="270.6047"/>
        <rect fill="#FFFFFF" filter="url(#fusjzsrc0z5q7)" height="58.4883" style="stroke: #A80036; stroke-width: 1.05;"
              width="10.5" x="1062.6" y="398.0813"/>
        <rect fill="#FFFFFF" filter="url(#fusjzsrc0z5q7)" height="15.75" style="stroke: #A80036; stroke-width: 1.05;"
              width="10.5" x="1062.6" y="552.177"/>
        <rect fill="#FFFFFF" filter="url(#fusjzsrc0z5q7)" height="31.8691" style="stroke: #A80036; stroke-width: 1.05;"
              width="10.5" x="1062.6" y="623.2652"/>
        <rect fill="#FFFFFF" filter="url(#fusjzsrc0z5q7)" height="31.5" style="stroke: #A80036; stroke-width: 1.05;"
              width="10.5" x="1062.6" y="704.0742"/>
        <rect fill="#FFFFFF" filter="url(#fusjzsrc0z5q7)" height="83.6883" style="stroke: #A80036; stroke-width: 1.05;"
              width="10.5" x="1062.6" y="863.0508"/>
        <rect fill="#FFFFFF" filter="url(#fusjzsrc0z5q7)" height="146.7457" style="stroke: #000000; stroke-width: 2.1;"
              width="1111.95" x="13.65" y="413.8313"/>
        <line style="stroke: #A80036; stroke-width: 1.05; stroke-dasharray: 5.0,5.0;" x1="73.5" x2="73.5" y1="91.9898"
              y2="1004.8582"/>
        <line style="stroke: #A80036; stroke-width: 1.05; stroke-dasharray: 5.0,5.0;" x1="364.875" x2="364.875"
              y1="91.9898" y2="1004.8582"/>
        <line style="stroke: #A80036; stroke-width: 1.05; stroke-dasharray: 5.0,5.0;" x1="689.325" x2="689.325"
              y1="91.9898" y2="1004.8582"/>
        <line style="stroke: #A80036; stroke-width: 1.05; stroke-dasharray: 5.0,5.0;" x1="1067.85" x2="1067.85"
              y1="91.9898" y2="1004.8582"/>
        <line style="stroke: #A80036; stroke-width: 1.05; stroke-dasharray: 5.0,5.0;" x1="1379.7" x2="1379.7"
              y1="666.6352" y2="1004.8582"/>
        <text fill="#000000" font-family="sans-serif" font-size="14.7" lengthAdjust="spacingAndGlyphs" textLength="92.4"
              x="24.15" y="88.7599">Administrativo
        </text>
        <ellipse cx="73.5" cy="13.65" fill="#FEFECE" filter="url(#fusjzsrc0z5q7)" rx="8.4" ry="8.4"
                 style="stroke: #A80036; stroke-width: 2.1;"/>
        <path d="M73.5,22.05 L73.5,50.4 M59.85,30.45 L87.15,30.45 M73.5,50.4 L59.85,66.15 M73.5,50.4 L87.15,66.15 "
              fill="none" filter="url(#fusjzsrc0z5q7)" style="stroke: #A80036; stroke-width: 2.1;"/>
        <text fill="#000000" font-family="sans-serif" font-size="14.7" lengthAdjust="spacingAndGlyphs" textLength="92.4"
              x="24.15" y="1019.0681">Administrativo
        </text>
        <ellipse cx="73.5" cy="1032.798" fill="#FEFECE" filter="url(#fusjzsrc0z5q7)" rx="8.4" ry="8.4"
                 style="stroke: #A80036; stroke-width: 2.1;"/>
        <path d="M73.5,1041.198 L73.5,1069.548 M59.85,1049.598 L87.15,1049.598 M73.5,1069.548 L59.85,1085.298 M73.5,1069.548 L87.15,1085.298 "
              fill="none" filter="url(#fusjzsrc0z5q7)" style="stroke: #A80036; stroke-width: 2.1;"/>
        <rect fill="#FEFECE" filter="url(#fusjzsrc0z5q7)" height="33.1898"
              style="stroke: #A80036; stroke-width: 1.5750000000000002;" width="139.65" x="293.475" y="53.55"/>
        <text fill="#000000" font-family="sans-serif" font-size="14.7" lengthAdjust="spacingAndGlyphs"
              textLength="124.95" x="300.825" y="76.1599">:DefinirCategoriaUI
        </text>
        <rect fill="#FEFECE" filter="url(#fusjzsrc0z5q7)" height="33.1898"
              style="stroke: #A80036; stroke-width: 1.5750000000000002;" width="139.65" x="293.475" y="1003.8082"/>
        <text fill="#000000" font-family="sans-serif" font-size="14.7" lengthAdjust="spacingAndGlyphs"
              textLength="124.95" x="300.825" y="1026.4181">:DefinirCategoriaUI
        </text>
        <rect fill="#FEFECE" filter="url(#fusjzsrc0z5q7)" height="33.1898"
              style="stroke: #A80036; stroke-width: 1.5750000000000002;" width="192.15" x="591.675" y="53.55"/>
        <text fill="#000000" font-family="sans-serif" font-size="14.7" lengthAdjust="spacingAndGlyphs"
              textLength="177.45" x="599.025" y="76.1599">:DefinirCategoriaController
        </text>
        <rect fill="#FEFECE" filter="url(#fusjzsrc0z5q7)" height="33.1898"
              style="stroke: #A80036; stroke-width: 1.5750000000000002;" width="192.15" x="591.675" y="1003.8082"/>
        <text fill="#000000" font-family="sans-serif" font-size="14.7" lengthAdjust="spacingAndGlyphs"
              textLength="177.45" x="599.025" y="1026.4181">:DefinirCategoriaController
        </text>
        <rect fill="#FEFECE" filter="url(#fusjzsrc0z5q7)" height="33.1898"
              style="stroke: #A80036; stroke-width: 1.5750000000000002;" width="90.3" x="1020.6" y="53.55"/>
        <text fill="#000000" font-family="sans-serif" font-size="14.7" lengthAdjust="spacingAndGlyphs" textLength="75.6"
              x="1027.95" y="76.1599">:Plataforma
        </text>
        <rect fill="#FEFECE" filter="url(#fusjzsrc0z5q7)" height="33.1898"
              style="stroke: #A80036; stroke-width: 1.5750000000000002;" width="90.3" x="1020.6" y="1003.8082"/>
        <text fill="#000000" font-family="sans-serif" font-size="14.7" lengthAdjust="spacingAndGlyphs" textLength="75.6"
              x="1027.95" y="1026.4181">:Plataforma
        </text>
        <rect fill="#FEFECE" filter="url(#fusjzsrc0z5q7)" height="33.1898"
              style="stroke: #A80036; stroke-width: 1.5750000000000002;" width="139.65" x="1308.3" y="1003.8082"/>
        <text fill="#000000" font-family="sans-serif" font-size="14.7" lengthAdjust="spacingAndGlyphs"
              textLength="124.95" x="1315.65" y="1026.4181">ct:CategoriaTarefa
        </text>
        <rect fill="#FFFFFF" filter="url(#fusjzsrc0z5q7)" height="883.4684" style="stroke: #A80036; stroke-width: 1.05;"
              width="10.5" x="68.25" y="102.4898"/>
        <rect fill="#FFFFFF" filter="url(#fusjzsrc0z5q7)" height="49.0383" style="stroke: #A80036; stroke-width: 1.05;"
              width="10.5" x="360.15" y="125.959"/>
        <rect fill="#FFFFFF" filter="url(#fusjzsrc0z5q7)" height="95.6074" style="stroke: #A80036; stroke-width: 1.05;"
              width="10.5" x="360.15" y="206.8664"/>
        <rect fill="#FFFFFF" filter="url(#fusjzsrc0z5q7)" height="122.2266" style="stroke: #A80036; stroke-width: 1.05;"
              width="10.5" x="360.15" y="334.343"/>
        <rect fill="#FFFFFF" filter="url(#fusjzsrc0z5q7)" height="279.0047" style="stroke: #A80036; stroke-width: 1.05;"
              width="10.5" x="360.15" y="488.4387"/>
        <rect fill="#FFFFFF" filter="url(#fusjzsrc0z5q7)" height="186.6457" style="stroke: #A80036; stroke-width: 1.05;"
              width="10.5" x="360.15" y="799.3125"/>
        <rect fill="#FFFFFF" filter="url(#fusjzsrc0z5q7)" height="63.7383" style="stroke: #A80036; stroke-width: 1.05;"
              width="10.5" x="684.6" y="238.7355"/>
        <rect fill="#FFFFFF" filter="url(#fusjzsrc0z5q7)" height="90.3574" style="stroke: #A80036; stroke-width: 1.05;"
              width="10.5" x="684.6" y="366.2121"/>
        <rect fill="#FFFFFF" filter="url(#fusjzsrc0z5q7)" height="47.6191" style="stroke: #A80036; stroke-width: 1.05;"
              width="10.5" x="684.6" y="520.3078"/>
        <rect fill="#FFFFFF" filter="url(#fusjzsrc0z5q7)" height="144.1781" style="stroke: #A80036; stroke-width: 1.05;"
              width="10.5" x="684.6" y="591.3961"/>
        <rect fill="#FFFFFF" filter="url(#fusjzsrc0z5q7)" height="115.5574" style="stroke: #A80036; stroke-width: 1.05;"
              width="10.5" x="684.6" y="831.1816"/>
        <rect fill="#FFFFFF" filter="url(#fusjzsrc0z5q7)" height="31.8691" style="stroke: #A80036; stroke-width: 1.05;"
              width="10.5" x="1062.6" y="270.6047"/>
        <rect fill="#FFFFFF" filter="url(#fusjzsrc0z5q7)" height="58.4883" style="stroke: #A80036; stroke-width: 1.05;"
              width="10.5" x="1062.6" y="398.0813"/>
        <rect fill="#FFFFFF" filter="url(#fusjzsrc0z5q7)" height="15.75" style="stroke: #A80036; stroke-width: 1.05;"
              width="10.5" x="1062.6" y="552.177"/>
        <rect fill="#FFFFFF" filter="url(#fusjzsrc0z5q7)" height="31.8691" style="stroke: #A80036; stroke-width: 1.05;"
              width="10.5" x="1062.6" y="623.2652"/>
        <rect fill="#FFFFFF" filter="url(#fusjzsrc0z5q7)" height="31.5" style="stroke: #A80036; stroke-width: 1.05;"
              width="10.5" x="1062.6" y="704.0742"/>
        <rect fill="#FFFFFF" filter="url(#fusjzsrc0z5q7)" height="83.6883" style="stroke: #A80036; stroke-width: 1.05;"
              width="10.5" x="1062.6" y="863.0508"/>
        <polygon fill="#A80036" points="347.55,121.759,358.05,125.959,347.55,130.159,351.75,125.959"
                 style="stroke: #A80036; stroke-width: 1.05;"/>
        <line style="stroke: #A80036; stroke-width: 1.05;" x1="78.75" x2="353.85" y1="125.959" y2="125.959"/>
        <text fill="#000000" font-family="sans-serif" font-size="13.65" font-weight="bold"
              lengthAdjust="spacingAndGlyphs" textLength="7.35" x="86.1" y="120.8597">1
        </text>
        <text fill="#000000" font-family="sans-serif" font-size="13.65" lengthAdjust="spacingAndGlyphs"
              textLength="149.1" x="97.65" y="120.8597">nova Categoria de Tarefa
        </text>
        <polygon fill="#A80036" points="90.3,170.7973,79.8,174.9973,90.3,179.1973,86.1,174.9973"
                 style="stroke: #A80036; stroke-width: 1.05;"/>
        <line style="stroke: #A80036; stroke-width: 1.05; stroke-dasharray: 2.0,2.0;" x1="84" x2="364.35" y1="174.9973"
              y2="174.9973"/>
        <text fill="#000000" font-family="sans-serif" font-size="13.65" font-weight="bold"
              lengthAdjust="spacingAndGlyphs" textLength="7.35" x="96.6" y="161.3134">2
        </text>
        <text fill="#000000" font-family="sans-serif" font-size="13.65" lengthAdjust="spacingAndGlyphs" textLength="84"
              x="108.15" y="152.7289">solicita dados
        </text>
        <text fill="#000000" font-family="sans-serif" font-size="13.65" lengthAdjust="spacingAndGlyphs"
              textLength="67.2" x="108.15" y="169.898">(descrição)
        </text>
        <polygon fill="#A80036" points="347.55,202.6664,358.05,206.8664,347.55,211.0664,351.75,206.8664"
                 style="stroke: #A80036; stroke-width: 1.05;"/>
        <line style="stroke: #A80036; stroke-width: 1.05;" x1="78.75" x2="353.85" y1="206.8664" y2="206.8664"/>
        <text fill="#000000" font-family="sans-serif" font-size="13.65" font-weight="bold"
              lengthAdjust="spacingAndGlyphs" textLength="7.35" x="86.1" y="201.7671">3
        </text>
        <text fill="#000000" font-family="sans-serif" font-size="13.65" lengthAdjust="spacingAndGlyphs"
              textLength="177.45" x="97.65" y="201.7671">introduz os dados solicitados
        </text>
        <polygon fill="#A80036" points="672,234.5355,682.5,238.7355,672,242.9355,676.2,238.7355"
                 style="stroke: #A80036; stroke-width: 1.05;"/>
        <line style="stroke: #A80036; stroke-width: 1.05;" x1="370.65" x2="678.3" y1="238.7355" y2="238.7355"/>
        <text fill="#000000" font-family="sans-serif" font-size="13.65" font-weight="bold"
              lengthAdjust="spacingAndGlyphs" textLength="7.35" x="378" y="233.6363">4
        </text>
        <text fill="#000000" font-family="sans-serif" font-size="13.65" lengthAdjust="spacingAndGlyphs"
              textLength="110.25" x="389.55" y="233.6363">getAreaAtividade()
        </text>
        <polygon fill="#A80036" points="1050,266.4047,1060.5,270.6047,1050,274.8047,1054.2,270.6047"
                 style="stroke: #A80036; stroke-width: 1.05;"/>
        <line style="stroke: #A80036; stroke-width: 1.05;" x1="695.1" x2="1056.3" y1="270.6047" y2="270.6047"/>
        <text fill="#000000" font-family="sans-serif" font-size="13.65" font-weight="bold"
              lengthAdjust="spacingAndGlyphs" textLength="7.35" x="702.45" y="265.5054">5
        </text>
        <text fill="#000000" font-family="sans-serif" font-size="13.65" lengthAdjust="spacingAndGlyphs"
              textLength="110.25" x="714" y="265.5054">getAreaAtividade()
        </text>
        <polygon fill="#A80036" points="90.3,298.2738,79.8,302.4738,90.3,306.6738,86.1,302.4738"
                 style="stroke: #A80036; stroke-width: 1.05;"/>
        <line style="stroke: #A80036; stroke-width: 1.05; stroke-dasharray: 2.0,2.0;" x1="84" x2="364.35" y1="302.4738"
              y2="302.4738"/>
        <text fill="#000000" font-family="sans-serif" font-size="13.65" font-weight="bold"
              lengthAdjust="spacingAndGlyphs" textLength="7.35" x="96.6" y="297.3746">6
        </text>
        <text fill="#000000" font-family="sans-serif" font-size="13.65" lengthAdjust="spacingAndGlyphs"
              textLength="203.7" x="108.15" y="297.3746">mostra lista de áreas de atividade
        </text>
        <polygon fill="#A80036" points="347.55,330.143,358.05,334.343,347.55,338.543,351.75,334.343"
                 style="stroke: #A80036; stroke-width: 1.05;"/>
        <line style="stroke: #A80036; stroke-width: 1.05;" x1="78.75" x2="353.85" y1="334.343" y2="334.343"/>
        <text fill="#000000" font-family="sans-serif" font-size="13.65" font-weight="bold"
              lengthAdjust="spacingAndGlyphs" textLength="7.35" x="86.1" y="329.2437">7
        </text>
        <text fill="#000000" font-family="sans-serif" font-size="13.65" lengthAdjust="spacingAndGlyphs"
              textLength="163.8" x="97.65" y="329.2437">seleciona área de atividade
        </text>
        <polygon fill="#A80036" points="672,362.0121,682.5,366.2121,672,370.4121,676.2,366.2121"
                 style="stroke: #A80036; stroke-width: 1.05;"/>
        <line style="stroke: #A80036; stroke-width: 1.05;" x1="370.65" x2="678.3" y1="366.2121" y2="366.2121"/>
        <text fill="#000000" font-family="sans-serif" font-size="13.65" font-weight="bold"
              lengthAdjust="spacingAndGlyphs" textLength="7.35" x="378" y="361.1128">8
        </text>
        <text fill="#000000" font-family="sans-serif" font-size="13.65" lengthAdjust="spacingAndGlyphs"
              textLength="169.05" x="389.55" y="361.1128">getCompetenciasTecnicas()
        </text>
        <polygon fill="#A80036" points="1050,393.8813,1060.5,398.0813,1050,402.2813,1054.2,398.0813"
                 style="stroke: #A80036; stroke-width: 1.05;"/>
        <line style="stroke: #A80036; stroke-width: 1.05;" x1="695.1" x2="1056.3" y1="398.0813" y2="398.0813"/>
        <text fill="#000000" font-family="sans-serif" font-size="13.65" font-weight="bold"
              lengthAdjust="spacingAndGlyphs" textLength="7.35" x="702.45" y="392.982">9
        </text>
        <text fill="#000000" font-family="sans-serif" font-size="13.65" lengthAdjust="spacingAndGlyphs"
              textLength="169.05" x="714" y="392.982">getCompetenciasTecnicas()
        </text>
        <path d="M13.65,413.8313 L90.3,413.8313 L90.3,422.2313 L79.8,432.7313 L13.65,432.7313 L13.65,413.8313 "
              fill="#EEEEEE" style="stroke: #000000; stroke-width: 1.05;"/>
        <rect fill="none" height="146.7457" style="stroke: #000000; stroke-width: 2.1;" width="1111.95" x="13.65"
              y="413.8313"/>
        <text fill="#000000" font-family="sans-serif" font-size="13.65" font-weight="bold"
              lengthAdjust="spacingAndGlyphs" textLength="29.4" x="29.4" y="429.0511">loop
        </text>
        <text fill="#000000" font-family="sans-serif" font-size="11.55" font-weight="bold"
              lengthAdjust="spacingAndGlyphs" textLength="129.15" x="106.05" y="427.9211">[pelo menos uma vez]
        </text>
        <polygon fill="#A80036" points="90.3,452.3695,79.8,456.5695,90.3,460.7695,86.1,456.5695"
                 style="stroke: #A80036; stroke-width: 1.05;"/>
        <line style="stroke: #A80036; stroke-width: 1.05; stroke-dasharray: 2.0,2.0;" x1="84" x2="364.35" y1="456.5695"
              y2="456.5695"/>
        <text fill="#000000" font-family="sans-serif" font-size="13.65" font-weight="bold"
              lengthAdjust="spacingAndGlyphs" textLength="14.7" x="96.6" y="451.4703">10
        </text>
        <text fill="#000000" font-family="sans-serif" font-size="13.65" lengthAdjust="spacingAndGlyphs"
              textLength="216.3" x="115.5" y="451.4703">mostra lista competências técnicas
        </text>
        <polygon fill="#A80036" points="347.55,484.2387,358.05,488.4387,347.55,492.6387,351.75,488.4387"
                 style="stroke: #A80036; stroke-width: 1.05;"/>
        <line style="stroke: #A80036; stroke-width: 1.05;" x1="78.75" x2="353.85" y1="488.4387" y2="488.4387"/>
        <text fill="#000000" font-family="sans-serif" font-size="13.65" font-weight="bold"
              lengthAdjust="spacingAndGlyphs" textLength="14.7" x="86.1" y="483.3394">11
        </text>
        <text fill="#000000" font-family="sans-serif" font-size="13.65" lengthAdjust="spacingAndGlyphs"
              textLength="195.3" x="105" y="483.3394">seleciona competência técnicas
        </text>
        <polygon fill="#A80036" points="672,516.1078,682.5,520.3078,672,524.5078,676.2,520.3078"
                 style="stroke: #A80036; stroke-width: 1.05;"/>
        <line style="stroke: #A80036; stroke-width: 1.05;" x1="370.65" x2="678.3" y1="520.3078" y2="520.3078"/>
        <text fill="#000000" font-family="sans-serif" font-size="13.65" font-weight="bold"
              lengthAdjust="spacingAndGlyphs" textLength="14.7" x="378" y="515.2085">12
        </text>
        <text fill="#000000" font-family="sans-serif" font-size="13.65" lengthAdjust="spacingAndGlyphs"
              textLength="129.15" x="396.9" y="515.2085">getByID(refCompTec)
        </text>
        <polygon fill="#A80036" points="1050,547.977,1060.5,552.177,1050,556.377,1054.2,552.177"
                 style="stroke: #A80036; stroke-width: 1.05;"/>
        <line style="stroke: #A80036; stroke-width: 1.05;" x1="695.1" x2="1056.3" y1="552.177" y2="552.177"/>
        <text fill="#000000" font-family="sans-serif" font-size="13.65" font-weight="bold"
              lengthAdjust="spacingAndGlyphs" textLength="14.7" x="702.45" y="547.0777">13
        </text>
        <text fill="#000000" font-family="sans-serif" font-size="13.65" lengthAdjust="spacingAndGlyphs"
              textLength="328.65" x="721.35" y="547.0777">compTec = getCompetenciaTecnicaByID(refCompTec)
        </text>
        <polygon fill="#A80036" points="672,587.1961,682.5,591.3961,672,595.5961,676.2,591.3961"
                 style="stroke: #A80036; stroke-width: 1.05;"/>
        <line style="stroke: #A80036; stroke-width: 1.05;" x1="370.65" x2="678.3" y1="591.3961" y2="591.3961"/>
        <text fill="#000000" font-family="sans-serif" font-size="13.65" font-weight="bold"
              lengthAdjust="spacingAndGlyphs" textLength="14.7" x="378" y="586.2968">14
        </text>
        <text fill="#000000" font-family="sans-serif" font-size="13.65" lengthAdjust="spacingAndGlyphs"
              textLength="275.1" x="396.9" y="586.2968">novaCategoriaTarefa(desc,aatv,listaCompTec)
        </text>
        <polygon fill="#A80036" points="1050,619.0652,1060.5,623.2652,1050,627.4652,1054.2,623.2652"
                 style="stroke: #A80036; stroke-width: 1.05;"/>
        <line style="stroke: #A80036; stroke-width: 1.05;" x1="695.1" x2="1056.3" y1="623.2652" y2="623.2652"/>
        <text fill="#000000" font-family="sans-serif" font-size="13.65" font-weight="bold"
              lengthAdjust="spacingAndGlyphs" textLength="14.7" x="702.45" y="618.166">15
        </text>
        <text fill="#000000" font-family="sans-serif" font-size="13.65" lengthAdjust="spacingAndGlyphs"
              textLength="295.05" x="721.35" y="618.166">ct=novaCategoriaTarefa(desc,aatv,listaCompTec)
        </text>
        <polygon fill="#A80036" points="1295.7,650.9344,1306.2,655.1344,1295.7,659.3344,1299.9,655.1344"
                 style="stroke: #A80036; stroke-width: 1.05;"/>
        <line style="stroke: #A80036; stroke-width: 1.05; stroke-dasharray: 2.0,2.0;" x1="1067.85" x2="1302"
              y1="655.1344" y2="655.1344"/>
        <text fill="#000000" font-family="sans-serif" font-size="13.65" font-weight="bold"
              lengthAdjust="spacingAndGlyphs" textLength="14.7" x="1075.2" y="650.0351">16
        </text>
        <text fill="#000000" font-family="sans-serif" font-size="13.65" lengthAdjust="spacingAndGlyphs"
              textLength="191.1" x="1094.1" y="650.0351">create(desc,aatv,listaCompTec)
        </text>
        <rect fill="#FEFECE" filter="url(#fusjzsrc0z5q7)" height="33.1898"
              style="stroke: #A80036; stroke-width: 1.5750000000000002;" width="139.65" x="1308.3" y="631.6652"/>
        <text fill="#000000" font-family="sans-serif" font-size="14.7" lengthAdjust="spacingAndGlyphs"
              textLength="124.95" x="1315.65" y="654.2751">ct:CategoriaTarefa
        </text>
        <polygon fill="#A80036" points="1050,699.8742,1060.5,704.0742,1050,708.2742,1054.2,704.0742"
                 style="stroke: #A80036; stroke-width: 1.05;"/>
        <line style="stroke: #A80036; stroke-width: 1.05;" x1="695.1" x2="1056.3" y1="704.0742" y2="704.0742"/>
        <text fill="#000000" font-family="sans-serif" font-size="13.65" font-weight="bold"
              lengthAdjust="spacingAndGlyphs" textLength="14.7" x="702.45" y="698.975">17
        </text>
        <text fill="#000000" font-family="sans-serif" font-size="13.65" lengthAdjust="spacingAndGlyphs"
              textLength="148.05" x="721.35" y="698.975">validaCategoriaTarefa(ct)
        </text>
        <polygon fill="#A80036" points="90.3,763.2434,79.8,767.4434,90.3,771.6434,86.1,767.4434"
                 style="stroke: #A80036; stroke-width: 1.05;"/>
        <line style="stroke: #A80036; stroke-width: 1.05; stroke-dasharray: 2.0,2.0;" x1="84" x2="364.35" y1="767.4434"
              y2="767.4434"/>
        <text fill="#000000" font-family="sans-serif" font-size="13.65" font-weight="bold"
              lengthAdjust="spacingAndGlyphs" textLength="14.7" x="96.6" y="762.3441">18
        </text>
        <text fill="#000000" font-family="sans-serif" font-size="13.65" lengthAdjust="spacingAndGlyphs"
              textLength="237.3" x="115.5" y="762.3441">apresenta dados e solicita confirmação
        </text>
        <polygon fill="#A80036" points="347.55,795.1125,358.05,799.3125,347.55,803.5125,351.75,799.3125"
                 style="stroke: #A80036; stroke-width: 1.05;"/>
        <line style="stroke: #A80036; stroke-width: 1.05;" x1="78.75" x2="353.85" y1="799.3125" y2="799.3125"/>
        <text fill="#000000" font-family="sans-serif" font-size="13.65" font-weight="bold"
              lengthAdjust="spacingAndGlyphs" textLength="14.7" x="86.1" y="794.2132">19
        </text>
        <text fill="#000000" font-family="sans-serif" font-size="13.65" lengthAdjust="spacingAndGlyphs" textLength="189"
              x="105" y="794.2132">confirma os dados introduzidos
        </text>
        <polygon fill="#A80036" points="672,826.9816,682.5,831.1816,672,835.3816,676.2,831.1816"
                 style="stroke: #A80036; stroke-width: 1.05;"/>
        <line style="stroke: #A80036; stroke-width: 1.05;" x1="370.65" x2="678.3" y1="831.1816" y2="831.1816"/>
        <text fill="#000000" font-family="sans-serif" font-size="13.65" font-weight="bold"
              lengthAdjust="spacingAndGlyphs" textLength="14.7" x="378" y="826.0824">20
        </text>
        <text fill="#000000" font-family="sans-serif" font-size="13.65" lengthAdjust="spacingAndGlyphs"
              textLength="143.85" x="396.9" y="826.0824">registaCategoriaTarefa()
        </text>
        <polygon fill="#A80036" points="1050,858.8508,1060.5,863.0508,1050,867.2508,1054.2,863.0508"
                 style="stroke: #A80036; stroke-width: 1.05;"/>
        <line style="stroke: #A80036; stroke-width: 1.05;" x1="695.1" x2="1056.3" y1="863.0508" y2="863.0508"/>
        <text fill="#000000" font-family="sans-serif" font-size="13.65" font-weight="bold"
              lengthAdjust="spacingAndGlyphs" textLength="14.7" x="702.45" y="857.9515">21
        </text>
        <text fill="#000000" font-family="sans-serif" font-size="13.65" lengthAdjust="spacingAndGlyphs"
              textLength="155.4" x="721.35" y="857.9515">registaCategoriaTarefa(ct)
        </text>
        <line style="stroke: #A80036; stroke-width: 1.05;" x1="1073.1" x2="1117.2" y1="894.9199" y2="894.9199"/>
        <line style="stroke: #A80036; stroke-width: 1.05;" x1="1117.2" x2="1117.2" y1="894.9199" y2="908.5699"/>
        <line style="stroke: #A80036; stroke-width: 1.05;" x1="1074.15" x2="1117.2" y1="908.5699" y2="908.5699"/>
        <polygon fill="#A80036" points="1084.65,904.3699,1074.15,908.5699,1084.65,912.7699,1080.45,908.5699"
                 style="stroke: #A80036; stroke-width: 1.05;"/>
        <text fill="#000000" font-family="sans-serif" font-size="13.65" font-weight="bold"
              lengthAdjust="spacingAndGlyphs" textLength="14.7" x="1080.45" y="889.8207">22
        </text>
        <text fill="#000000" font-family="sans-serif" font-size="13.65" lengthAdjust="spacingAndGlyphs"
              textLength="148.05" x="1099.35" y="889.8207">validaCategoriaTarefa(ct)
        </text>
        <line style="stroke: #A80036; stroke-width: 1.05;" x1="1073.1" x2="1117.2" y1="945.6891" y2="945.6891"/>
        <line style="stroke: #A80036; stroke-width: 1.05;" x1="1117.2" x2="1117.2" y1="945.6891" y2="959.3391"/>
        <line style="stroke: #A80036; stroke-width: 1.05;" x1="1067.85" x2="1117.2" y1="959.3391" y2="959.3391"/>
        <polygon fill="#A80036" points="1078.35,955.1391,1067.85,959.3391,1078.35,963.5391,1074.15,959.3391"
                 style="stroke: #A80036; stroke-width: 1.05;"/>
        <text fill="#000000" font-family="sans-serif" font-size="13.65" font-weight="bold"
              lengthAdjust="spacingAndGlyphs" textLength="14.7" x="1080.45" y="940.5898">23
        </text>
        <text fill="#000000" font-family="sans-serif" font-size="13.65" lengthAdjust="spacingAndGlyphs"
              textLength="136.5" x="1099.35" y="940.5898">addCategoriaTarefa(ct)
        </text>
        <polygon fill="#A80036" points="85.05,981.7582,74.55,985.9582,85.05,990.1582,80.85,985.9582"
                 style="stroke: #A80036; stroke-width: 1.05;"/>
        <line style="stroke: #A80036; stroke-width: 1.05; stroke-dasharray: 2.0,2.0;" x1="78.75" x2="364.35"
              y1="985.9582" y2="985.9582"/>
        <text fill="#000000" font-family="sans-serif" font-size="13.65" font-weight="bold"
              lengthAdjust="spacingAndGlyphs" textLength="14.7" x="91.35" y="980.8589">24
        </text>
        <text fill="#000000" font-family="sans-serif" font-size="13.65" lengthAdjust="spacingAndGlyphs"
              textLength="144.9" x="110.25" y="980.8589">operação bem sucedida
        </text><!--MD5=[08a477acd2be12a6c4c96e9895c5ea1d]
@startuml
autonumber
actor "Administrativo" as ADM

participant ":DefinirCategoriaUI" as UI
participant ":DefinirCategoriaController" as CTRL
participant ":Plataforma" as PLAT
participant "ct:CategoriaTarefa" as CATEGORIA

activate ADM
ADM -> UI : nova Categoria de Tarefa
activate UI
UI - -> ADM : solicita dados \n(descrição)
deactivate UI

ADM -> UI : introduz os dados solicitados
activate UI
UI -> CTRL : getAreaAtividade()
activate CTRL
CTRL -> PLAT : getAreaAtividade()
activate PLAT
UI - -> ADM : mostra lista de áreas de atividade
deactivate PLAT
deactivate CTRL
deactivate UI

ADM -> UI : seleciona área de atividade
activate UI
UI -> CTRL : getCompetenciasTecnicas()
activate CTRL
CTRL -> PLAT : getCompetenciasTecnicas()
activate PLAT
loop pelo menos uma vez
UI - -> ADM : mostra lista competências técnicas
deactivate PLAT
deactivate CTRL
deactivate UI


ADM -> UI : seleciona competência técnicas
activate UI
UI -> CTRL: getByID(refCompTec)
activate CTRL
CTRL -> PLAT: compTec = getCompetenciaTecnicaByID(refCompTec)
activate PLAT
end
deactivate PLAT
deactivate CTRL
UI -> CTRL : novaCategoriaTarefa(desc,aatv,listaCompTec)
activate CTRL
CTRL -> PLAT: ct=novaCategoriaTarefa(desc,aatv,listaCompTec)
activate PLAT
PLAT - -> CATEGORIA ** : create(desc,aatv,listaCompTec)
deactivate PLAT

CTRL -> PLAT: validaCategoriaTarefa(ct)
activate PLAT
deactivate PLAT
deactivate CTRL
UI - -> ADM : apresenta dados e solicita confirmação
deactivate UI

ADM -> UI : confirma os dados introduzidos
activate UI

UI -> CTRL: registaCategoriaTarefa()
activate CTRL
CTRL ->PLAT: registaCategoriaTarefa(ct)
activate PLAT
PLAT -> PLAT: validaCategoriaTarefa(ct)
PLAT -> PLAT: addCategoriaTarefa(ct)

deactivate PLAT
deactivate CTRL

UI - -> ADM : operação bem sucedida
deactivate UI

deactivate ADM

@enduml

PlantUML version 1.2020.03beta6(Unknown compile time)
(GPL source distribution)
Java Runtime: OpenJDK Runtime Environment
JVM: OpenJDK 64-Bit Server VM
Java Version: 11.0.6+8-b520.43
Operating System: Windows 10
Default Encoding: Cp1252
Language: pt
Country: PT
--></g></svg>