@startuml
@startuml
autonumber
actor "Administrativo" as ADM

participant ":DefinirCategoriaUI" as UI
participant ":DefinirCategoriaController" as CTRL
participant ":Plataforma" as PLAT
participant "ct:CategoriaTarefa" as CATEGORIA

activate ADM
ADM -> UI : nova Categoria de Tarefa
activate UI
UI --> ADM : solicita dados \n(descrição)
deactivate UI

ADM -> UI : introduz os dados solicitados
activate UI
UI -> CTRL : getAreaAtividade()
activate CTRL
CTRL -> PLAT : getAreaAtividade()
activate PLAT
UI --> ADM : mostra lista de áreas de atividade
deactivate PLAT
deactivate CTRL
deactivate UI

ADM -> UI : seleciona área de atividade
activate UI
UI -> CTRL : getCompetenciasTecnicas()
activate CTRL
CTRL -> PLAT : getCompetenciasTecnicas()
activate PLAT
loop pelo menos uma vez
UI --> ADM : mostra lista competências técnicas
deactivate PLAT
deactivate CTRL
deactivate UI


ADM -> UI : seleciona competência técnicas
activate UI
UI -> CTRL: getByID(refCompTec)
activate CTRL
CTRL -> PLAT: compTec = getCompetenciaTecnicaByID(refCompTec)
activate PLAT
end
deactivate PLAT
deactivate CTRL
UI -> CTRL : novaCategoriaTarefa(desc,aatv,listaCompTec)
activate CTRL
CTRL -> PLAT: ct=novaCategoriaTarefa(desc,aatv,listaCompTec)
activate PLAT
PLAT --> CATEGORIA ** : create(desc,aatv,listaCompTec)
deactivate PLAT

CTRL -> PLAT: validaCategoriaTarefa(ct)
activate PLAT
deactivate PLAT
deactivate CTRL
UI --> ADM : apresenta dados e solicita confirmação
deactivate UI

ADM -> UI : confirma os dados introduzidos
activate UI

UI -> CTRL: registaCategoriaTarefa()
activate CTRL
CTRL ->PLAT: registaCategoriaTarefa(ct)
activate PLAT
PLAT -> PLAT: validaCategoriaTarefa(ct)
PLAT -> PLAT: addCategoriaTarefa(ct)

deactivate PLAT
deactivate CTRL

UI --> ADM : operação bem sucedida
deactivate UI

deactivate ADM

@enduml

