<?xml version="1.0" encoding="UTF-8" standalone="no"?>
<svg xmlns="http://www.w3.org/2000/svg"
     contentScriptType="application/ecmascript" contentStyleType="text/css" height="896.25px" preserveAspectRatio="none"
     style="width:1053px;height:896px;" version="1.1" viewBox="0 0 1053 896" width="1053.75px" zoomAndPan="magnify">
    <defs>
        <filter height="300%" id="f1q48ia7h4xe76" width="300%" x="-1" y="-1">
            <feGaussianBlur result="blurOut" stdDeviation="2.5"/>
            <feColorMatrix in="blurOut" result="blurOut2" type="matrix"
                           values="0 0 0 0 0 0 0 0 0 0 0 0 0 0 0 0 0 0 .4 0"/>
            <feOffset dx="5.0" dy="5.0" in="blurOut2" result="blurOut3"/>
            <feBlend in="SourceGraphic" in2="blurOut3" mode="normal"/>
        </filter>
    </defs>
    <g><!--MD5=[0da4819e727627a164d095489c41830f]
class DefinirCompetenciaTecnicaUI-->
        <rect fill="#FEFECE" filter="url(#f1q48ia7h4xe76)" height="60" id="DefinirCompetenciaTecnicaUI"
              style="stroke: #A80036; stroke-width: 1.875;" width="246.25" x="606.875" y="10"/>
        <ellipse cx="625.625" cy="30" fill="#ADD1B2" rx="13.75" ry="13.75"
                 style="stroke: #A80036; stroke-width: 1.25;"/>
        <path d="M628.125,25.625 Q628.3789,25 628.6719,24.6875 Q628.9648,24.375 629.2969,24.375 Q629.8828,24.375 630.2539,24.7266 Q630.625,25.0781 630.625,25.8984 L630.625,27.8516 Q630.625,28.6719 630.2734,29.0234 Q629.9219,29.375 629.375,29.375 Q628.8867,29.375 628.5742,29.1602 Q628.2617,28.9453 628.125,28.3789 Q628.0664,27.9883 627.8516,27.7734 Q627.4609,27.3633 626.7578,27.1289 Q626.0547,26.875 625.3516,26.875 Q624.4727,26.875 623.7305,27.2266 Q623.0078,27.5781 622.4414,28.3594 Q621.875,29.1406 621.875,30.2148 L621.875,31.3672 Q621.875,32.6563 622.9297,33.5156 Q623.9844,34.375 625.8594,34.375 Q626.9727,34.375 627.7539,34.1211 Q628.2031,33.9844 628.7109,33.5352 Q629.043,33.2813 629.2188,33.2031 Q629.3945,33.125 629.6094,33.125 Q630.0195,33.125 630.3125,33.457 Q630.625,33.7695 630.625,34.2188 Q630.625,34.6484 630.1953,35.1563 Q629.5703,35.8984 628.5742,36.3086 Q627.2656,36.875 625.6641,36.875 Q623.7891,36.875 622.2852,36.1328 Q621.0742,35.5469 620.2148,34.2773 Q619.375,33.0078 619.375,31.5039 L619.375,30.1367 Q619.375,28.5742 620.1172,27.207 Q620.8789,25.8398 622.1875,25.1172 Q623.5156,24.375 625,24.375 Q625.8984,24.375 626.6797,24.6875 Q627.4609,25 628.125,25.625 Z "/>
        <text fill="#000000" font-family="sans-serif" font-size="15" lengthAdjust="spacingAndGlyphs" textLength="206.25"
              x="643.125" y="36.1377">DefinirCompetenciaTecnicaUI
        </text>
        <line style="stroke: #A80036; stroke-width: 1.875;" x1="608.125" x2="851.875" y1="50" y2="50"/>
        <line style="stroke: #A80036; stroke-width: 1.875;" x1="608.125" x2="851.875" y1="60" y2="60"/><!--MD5=[85e676883f45f77d1620a5adf281e406]
class DefinirCompetenciaTecnicaController-->
        <rect fill="#FEFECE" filter="url(#f1q48ia7h4xe76)" height="111.8848" id="DefinirCompetenciaTecnicaController"
              style="stroke: #A80036; stroke-width: 1.875;" width="621.25" x="419.375" y="146.25"/>
        <ellipse cx="595.3125" cy="166.25" fill="#ADD1B2" rx="13.75" ry="13.75"
                 style="stroke: #A80036; stroke-width: 1.25;"/>
        <path d="M597.8125,161.875 Q598.0664,161.25 598.3594,160.9375 Q598.6523,160.625 598.9844,160.625 Q599.5703,160.625 599.9414,160.9766 Q600.3125,161.3281 600.3125,162.1484 L600.3125,164.1016 Q600.3125,164.9219 599.9609,165.2734 Q599.6094,165.625 599.0625,165.625 Q598.5742,165.625 598.2617,165.4102 Q597.9492,165.1953 597.8125,164.6289 Q597.7539,164.2383 597.5391,164.0234 Q597.1484,163.6133 596.4453,163.3789 Q595.7422,163.125 595.0391,163.125 Q594.1602,163.125 593.418,163.4766 Q592.6953,163.8281 592.1289,164.6094 Q591.5625,165.3906 591.5625,166.4648 L591.5625,167.6172 Q591.5625,168.9063 592.6172,169.7656 Q593.6719,170.625 595.5469,170.625 Q596.6602,170.625 597.4414,170.3711 Q597.8906,170.2344 598.3984,169.7852 Q598.7305,169.5313 598.9063,169.4531 Q599.082,169.375 599.2969,169.375 Q599.707,169.375 600,169.707 Q600.3125,170.0195 600.3125,170.4688 Q600.3125,170.8984 599.8828,171.4063 Q599.2578,172.1484 598.2617,172.5586 Q596.9531,173.125 595.3516,173.125 Q593.4766,173.125 591.9727,172.3828 Q590.7617,171.7969 589.9023,170.5273 Q589.0625,169.2578 589.0625,167.7539 L589.0625,166.3867 Q589.0625,164.8242 589.8047,163.457 Q590.5664,162.0898 591.875,161.3672 Q593.2031,160.625 594.6875,160.625 Q595.5859,160.625 596.3672,160.9375 Q597.1484,161.25 597.8125,161.875 Z "/>
        <text fill="#000000" font-family="sans-serif" font-size="15" lengthAdjust="spacingAndGlyphs" textLength="258.75"
              x="620.9375" y="172.3877">DefinirCompetenciaTecnicaController
        </text>
        <line style="stroke: #A80036; stroke-width: 1.875;" x1="420.625" x2="1039.375" y1="186.25" y2="186.25"/>
        <line style="stroke: #A80036; stroke-width: 1.875;" x1="420.625" x2="1039.375" y1="196.25" y2="196.25"/>
        <ellipse cx="433.125" cy="210" fill="#000000" rx="3.75" ry="3.75" style="stroke: #000000; stroke-width: 1.25;"/>
        <text fill="#000000" font-family="sans-serif" font-size="13.75" lengthAdjust="spacingAndGlyphs"
              textLength="588.75" x="444.375" y="215.5237">+void novaCompetenciaTecnica(String descBreve,String
            descDetalhada, String id, String refArea)
        </text>
        <ellipse cx="433.125" cy="227.2949" fill="#000000" rx="3.75" ry="3.75"
                 style="stroke: #000000; stroke-width: 1.25;"/>
        <text fill="#000000" font-family="sans-serif" font-size="13.75" lengthAdjust="spacingAndGlyphs"
              textLength="426.25" x="444.375" y="232.8186">+void verificarCompetenciaTecnica(CompetenciaTecnica
            competencia)
        </text>
        <ellipse cx="433.125" cy="244.5898" fill="#000000" rx="3.75" ry="3.75"
                 style="stroke: #000000; stroke-width: 1.25;"/>
        <text fill="#000000" font-family="sans-serif" font-size="13.75" lengthAdjust="spacingAndGlyphs" textLength="185"
              x="444.375" y="250.1135">+void listarAreasDeAtividade()
        </text><!--MD5=[ecaed46f78f8cfe1e9ce18477649be18]
class Plataforma-->
        <rect fill="#FEFECE" filter="url(#f1q48ia7h4xe76)" height="163.7695" id="Plataforma"
              style="stroke: #A80036; stroke-width: 1.875;" width="770" x="7.5" y="335"/>
        <ellipse cx="349.6875" cy="355" fill="#ADD1B2" rx="13.75" ry="13.75"
                 style="stroke: #A80036; stroke-width: 1.25;"/>
        <path d="M352.1875,350.625 Q352.4414,350 352.7344,349.6875 Q353.0273,349.375 353.3594,349.375 Q353.9453,349.375 354.3164,349.7266 Q354.6875,350.0781 354.6875,350.8984 L354.6875,352.8516 Q354.6875,353.6719 354.3359,354.0234 Q353.9844,354.375 353.4375,354.375 Q352.9492,354.375 352.6367,354.1602 Q352.3242,353.9453 352.1875,353.3789 Q352.1289,352.9883 351.9141,352.7734 Q351.5234,352.3633 350.8203,352.1289 Q350.1172,351.875 349.4141,351.875 Q348.5352,351.875 347.793,352.2266 Q347.0703,352.5781 346.5039,353.3594 Q345.9375,354.1406 345.9375,355.2148 L345.9375,356.3672 Q345.9375,357.6563 346.9922,358.5156 Q348.0469,359.375 349.9219,359.375 Q351.0352,359.375 351.8164,359.1211 Q352.2656,358.9844 352.7734,358.5352 Q353.1055,358.2813 353.2813,358.2031 Q353.457,358.125 353.6719,358.125 Q354.082,358.125 354.375,358.457 Q354.6875,358.7695 354.6875,359.2188 Q354.6875,359.6484 354.2578,360.1563 Q353.6328,360.8984 352.6367,361.3086 Q351.3281,361.875 349.7266,361.875 Q347.8516,361.875 346.3477,361.1328 Q345.1367,360.5469 344.2773,359.2773 Q343.4375,358.0078 343.4375,356.5039 L343.4375,355.1367 Q343.4375,353.5742 344.1797,352.207 Q344.9414,350.8398 346.25,350.1172 Q347.5781,349.375 349.0625,349.375 Q349.9609,349.375 350.7422,349.6875 Q351.5234,350 352.1875,350.625 Z "/>
        <text fill="#000000" font-family="sans-serif" font-size="15" lengthAdjust="spacingAndGlyphs" textLength="75"
              x="375.3125" y="361.1377">Plataforma
        </text>
        <line style="stroke: #A80036; stroke-width: 1.875;" x1="8.75" x2="776.25" y1="375" y2="375"/>
        <ellipse cx="21.25" cy="388.75" fill="#000000" rx="3.75" ry="3.75"
                 style="stroke: #000000; stroke-width: 1.25;"/>
        <text fill="#000000" font-family="sans-serif" font-size="13.75" lengthAdjust="spacingAndGlyphs"
              textLength="113.75" x="32.5" y="394.2737">-String designacao
        </text>
        <ellipse cx="21.25" cy="406.0449" fill="#000000" rx="3.75" ry="3.75"
                 style="stroke: #000000; stroke-width: 1.25;"/>
        <text fill="#000000" font-family="sans-serif" font-size="13.75" lengthAdjust="spacingAndGlyphs"
              textLength="266.25" x="32.5" y="411.5686">-Lista de Atividade listaDeAreasDeAtividade
        </text>
        <line style="stroke: #A80036; stroke-width: 1.875;" x1="8.75" x2="776.25" y1="419.5898" y2="419.5898"/>
        <ellipse cx="21.25" cy="433.3398" fill="#000000" rx="3.75" ry="3.75"
                 style="stroke: #000000; stroke-width: 1.25;"/>
        <text fill="#000000" font-family="sans-serif" font-size="13.75" lengthAdjust="spacingAndGlyphs" textLength="585"
              x="32.5" y="438.8635">+void novaCompetenciaTecnica(String descBreve,String descDetalhada, String
            id,AreaAtividade)
        </text>
        <ellipse cx="21.25" cy="450.6348" fill="#000000" rx="3.75" ry="3.75"
                 style="stroke: #000000; stroke-width: 1.25;"/>
        <text fill="#000000" font-family="sans-serif" font-size="13.75" lengthAdjust="spacingAndGlyphs"
              textLength="426.25" x="32.5" y="456.1584">+void verificarCompetenciaTecnica(CompetenciaTecnica
            competencia)
        </text>
        <ellipse cx="21.25" cy="467.9297" fill="#000000" rx="3.75" ry="3.75"
                 style="stroke: #000000; stroke-width: 1.25;"/>
        <text fill="#000000" font-family="sans-serif" font-size="13.75" lengthAdjust="spacingAndGlyphs" textLength="185"
              x="32.5" y="473.4534">+void listarAreasDeAtividade()
        </text>
        <ellipse cx="21.25" cy="485.2246" fill="#000000" rx="3.75" ry="3.75"
                 style="stroke: #000000; stroke-width: 1.25;"/>
        <text fill="#000000" font-family="sans-serif" font-size="13.75" lengthAdjust="spacingAndGlyphs"
              textLength="737.5" x="32.5" y="490.7483">-CompetenciaTecnica novaCompetenciaTecnica(String descBreve,
            String descDetalhada, String id, AreaDeAtividade area)
        </text><!--MD5=[a322db5a7ec64d2ff8f2d6cf1831dcec]
class CompetenciaTecnica-->
        <rect fill="#FEFECE" filter="url(#f1q48ia7h4xe76)" height="129.1797" id="CompetenciaTecnica"
              style="stroke: #A80036; stroke-width: 1.875;" width="602.5" x="406.25" y="596.25"/>
        <ellipse cx="629.0625" cy="616.25" fill="#ADD1B2" rx="13.75" ry="13.75"
                 style="stroke: #A80036; stroke-width: 1.25;"/>
        <path d="M631.5625,611.875 Q631.8164,611.25 632.1094,610.9375 Q632.4023,610.625 632.7344,610.625 Q633.3203,610.625 633.6914,610.9766 Q634.0625,611.3281 634.0625,612.1484 L634.0625,614.1016 Q634.0625,614.9219 633.7109,615.2734 Q633.3594,615.625 632.8125,615.625 Q632.3242,615.625 632.0117,615.4102 Q631.6992,615.1953 631.5625,614.6289 Q631.5039,614.2383 631.2891,614.0234 Q630.8984,613.6133 630.1953,613.3789 Q629.4922,613.125 628.7891,613.125 Q627.9102,613.125 627.168,613.4766 Q626.4453,613.8281 625.8789,614.6094 Q625.3125,615.3906 625.3125,616.4648 L625.3125,617.6172 Q625.3125,618.9063 626.3672,619.7656 Q627.4219,620.625 629.2969,620.625 Q630.4102,620.625 631.1914,620.3711 Q631.6406,620.2344 632.1484,619.7852 Q632.4805,619.5313 632.6563,619.4531 Q632.832,619.375 633.0469,619.375 Q633.457,619.375 633.75,619.707 Q634.0625,620.0195 634.0625,620.4688 Q634.0625,620.8984 633.6328,621.4063 Q633.0078,622.1484 632.0117,622.5586 Q630.7031,623.125 629.1016,623.125 Q627.2266,623.125 625.7227,622.3828 Q624.5117,621.7969 623.6523,620.5273 Q622.8125,619.2578 622.8125,617.7539 L622.8125,616.3867 Q622.8125,614.8242 623.5547,613.457 Q624.3164,612.0898 625.625,611.3672 Q626.9531,610.625 628.4375,610.625 Q629.3359,610.625 630.1172,610.9375 Q630.8984,611.25 631.5625,611.875 Z "/>
        <text fill="#000000" font-family="sans-serif" font-size="15" lengthAdjust="spacingAndGlyphs" textLength="146.25"
              x="654.6875" y="622.3877">CompetenciaTecnica
        </text>
        <line style="stroke: #A80036; stroke-width: 1.875;" x1="407.5" x2="1007.5" y1="636.25" y2="636.25"/>
        <ellipse cx="420" cy="650" fill="#000000" rx="3.75" ry="3.75" style="stroke: #000000; stroke-width: 1.25;"/>
        <text fill="#000000" font-family="sans-serif" font-size="13.75" lengthAdjust="spacingAndGlyphs" textLength="110"
              x="431.25" y="655.5237">-String descBreve
        </text>
        <ellipse cx="420" cy="667.2949" fill="#000000" rx="3.75" ry="3.75"
                 style="stroke: #000000; stroke-width: 1.25;"/>
        <text fill="#000000" font-family="sans-serif" font-size="13.75" lengthAdjust="spacingAndGlyphs"
              textLength="133.75" x="431.25" y="672.8186">-String descDetalhada
        </text>
        <ellipse cx="420" cy="684.5898" fill="#000000" rx="3.75" ry="3.75"
                 style="stroke: #000000; stroke-width: 1.25;"/>
        <text fill="#000000" font-family="sans-serif" font-size="13.75" lengthAdjust="spacingAndGlyphs"
              textLength="53.75" x="431.25" y="690.1135">-String id
        </text>
        <line style="stroke: #A80036; stroke-width: 1.875;" x1="407.5" x2="1007.5" y1="698.1348" y2="698.1348"/>
        <ellipse cx="420" cy="711.8848" fill="#000000" rx="3.75" ry="3.75"
                 style="stroke: #000000; stroke-width: 1.25;"/>
        <text fill="#000000" font-family="sans-serif" font-size="13.75" lengthAdjust="spacingAndGlyphs" textLength="570"
              x="431.25" y="717.4084">-«CompetenciaTecnica(String descBreve, String descDetalhada,String
            id,AreaAtividade area)»
        </text><!--MD5=[02456e6632d968d6f68141e5893c6991]
class AreaAtividade-->
        <rect fill="#FEFECE" filter="url(#f1q48ia7h4xe76)" height="60" id="AreaAtividade"
              style="stroke: #A80036; stroke-width: 1.875;" width="132.5" x="641.25" y="822.5"/>
        <ellipse cx="660" cy="842.5" fill="#ADD1B2" rx="13.75" ry="13.75" style="stroke: #A80036; stroke-width: 1.25;"/>
        <path d="M662.5,838.125 Q662.7539,837.5 663.0469,837.1875 Q663.3398,836.875 663.6719,836.875 Q664.2578,836.875 664.6289,837.2266 Q665,837.5781 665,838.3984 L665,840.3516 Q665,841.1719 664.6484,841.5234 Q664.2969,841.875 663.75,841.875 Q663.2617,841.875 662.9492,841.6602 Q662.6367,841.4453 662.5,840.8789 Q662.4414,840.4883 662.2266,840.2734 Q661.8359,839.8633 661.1328,839.6289 Q660.4297,839.375 659.7266,839.375 Q658.8477,839.375 658.1055,839.7266 Q657.3828,840.0781 656.8164,840.8594 Q656.25,841.6406 656.25,842.7148 L656.25,843.8672 Q656.25,845.1563 657.3047,846.0156 Q658.3594,846.875 660.2344,846.875 Q661.3477,846.875 662.1289,846.6211 Q662.5781,846.4844 663.0859,846.0352 Q663.418,845.7813 663.5938,845.7031 Q663.7695,845.625 663.9844,845.625 Q664.3945,845.625 664.6875,845.957 Q665,846.2695 665,846.7188 Q665,847.1484 664.5703,847.6563 Q663.9453,848.3984 662.9492,848.8086 Q661.6406,849.375 660.0391,849.375 Q658.1641,849.375 656.6602,848.6328 Q655.4492,848.0469 654.5898,846.7773 Q653.75,845.5078 653.75,844.0039 L653.75,842.6367 Q653.75,841.0742 654.4922,839.707 Q655.2539,838.3398 656.5625,837.6172 Q657.8906,836.875 659.375,836.875 Q660.2734,836.875 661.0547,837.1875 Q661.8359,837.5 662.5,838.125 Z "/>
        <text fill="#000000" font-family="sans-serif" font-size="15" lengthAdjust="spacingAndGlyphs" textLength="92.5"
              x="677.5" y="848.6377">AreaAtividade
        </text>
        <line style="stroke: #A80036; stroke-width: 1.875;" x1="642.5" x2="772.5" y1="862.5" y2="862.5"/>
        <line style="stroke: #A80036; stroke-width: 1.875;" x1="642.5" x2="772.5" y1="872.5" y2="872.5"/><!--MD5=[51c1c3002064e6b34e020997fd5aa81d]
link DefinirCompetenciaTecnicaUI to DefinirCompetenciaTecnicaController-->
        <path d="M730,70.225 C730,89.4863 730,115.5213 730,139.3088 " fill="none"
              id="DefinirCompetenciaTecnicaUI-&gt;DefinirCompetenciaTecnicaController"
              style="stroke: #A80036; stroke-width: 1.25; stroke-dasharray: 7.0,7.0;"/>
        <polygon fill="#A80036" points="730,145.9512,735,134.7012,730,139.7012,725,134.7012,730,145.9512"
                 style="stroke: #A80036; stroke-width: 1.25;"/><!--MD5=[b752b082cecb692f45a0470217a1f7d9]
link DefinirCompetenciaTecnicaController to Plataforma-->
        <path d="M642.2075,258.865 C607.0238,280.9525 565.6863,306.9025 526.8813,331.2638 " fill="none"
              id="DefinirCompetenciaTecnicaController-&gt;Plataforma"
              style="stroke: #A80036; stroke-width: 1.25; stroke-dasharray: 7.0,7.0;"/>
        <polygon fill="#A80036"
                 points="521.175,334.845,533.3614,333.0974,526.4682,331.5216,528.044,324.6284,521.175,334.845"
                 style="stroke: #A80036; stroke-width: 1.25;"/><!--MD5=[637eabe07687f5c4cbe5337015cfc83a]
link DefinirCompetenciaTecnicaController to CompetenciaTecnica-->
        <path d="M767.0963,258.775 C780.2188,281.3763 793.3612,308.4438 800,335 C817.6513,405.605 818.7975,428.4412 800,498.75 C791.39,530.955 774.6013,563.3988 757.6625,590.6138 "
              fill="none" id="DefinirCompetenciaTecnicaController-&gt;CompetenciaTecnica"
              style="stroke: #A80036; stroke-width: 1.25; stroke-dasharray: 7.0,7.0;"/>
        <polygon fill="#A80036"
                 points="754.275,595.985,764.5047,589.1355,757.6085,590.6982,756.0458,583.802,754.275,595.985"
                 style="stroke: #A80036; stroke-width: 1.25;"/><!--MD5=[a77d152358ce76c19672aacd9fb0ada1]
link Plataforma to CompetenciaTecnica-->
        <path d="M509.7371,507.9146 C509.7371,507.9146 579.7425,561.5288 611.3863,585.765 " fill="none"
              id="Plataforma-CompetenciaTecnica" style="stroke: #A80036; stroke-width: 1.25;"/>
        <polygon fill="#A80036"
                 points="624.69,595.9525,618.799,585.1424,619.7282,592.1521,612.7184,593.0813,624.69,595.9525"
                 style="stroke: #A80036; stroke-width: 1.25;"/>
        <line style="stroke: #A80036; stroke-width: 1.25;" x1="619.7282" x2="611.7894" y1="592.1521" y2="586.0725"/>
        <polygon fill="#FFFFFF"
                 points="497.8287,498.7938,500.7427,507.3236,509.7371,507.9146,506.8232,499.3847,497.8287,498.7938"
                 style="stroke: #A80036; stroke-width: 1.25;"/>
        <text fill="#000000" font-family="sans-serif" font-size="16.25" lengthAdjust="spacingAndGlyphs"
              textLength="47.5" x="571.25" y="554.3689">possui
        </text>
        <polygon fill="#000000" points="622.5,545.8447,630,549.5947,622.5,553.3447,622.5,545.8447"
                 style="stroke: #000000; stroke-width: 1.25;"/>
        <text fill="#000000" font-family="sans-serif" font-size="16.25" lengthAdjust="spacingAndGlyphs"
              textLength="8.75" x="500.1206" y="525.7392">1
        </text>
        <text fill="#000000" font-family="sans-serif" font-size="16.25" lengthAdjust="spacingAndGlyphs"
              textLength="6.25" x="606.8925" y="582.7879">*
        </text><!--MD5=[b1f7cd6e7fc8eb2e1166bb5d69141287]
reverse link CompetenciaTecnica to AreaAtividade-->
        <path d="M707.5,741.9075 C707.5,770.3295 707.5,800.5575 707.5,822.0105 " fill="none"
              id="CompetenciaTecnica&lt;-AreaAtividade" style="stroke: #A80036; stroke-width: 1.25;"/>
        <polygon fill="#FFFFFF" points="707.5,725.4613,702.5,732.9613,707.5,740.4613,712.5,732.9613,707.5,725.4613"
                 style="stroke: #A80036; stroke-width: 1.25;"/>
        <text fill="#000000" font-family="sans-serif" font-size="16.25" lengthAdjust="spacingAndGlyphs"
              textLength="47.5" x="708.75" y="780.6189">possui
        </text>
        <polygon fill="#000000" points="726.875,791.6895,730.625,799.1895,734.375,791.6895,726.875,791.6895"
                 style="stroke: #000000; stroke-width: 1.25;"/>
        <text fill="#000000" font-family="sans-serif" font-size="16.25" lengthAdjust="spacingAndGlyphs"
              textLength="8.75" x="698.1621" y="752.3869">1
        </text>
        <text fill="#000000" font-family="sans-serif" font-size="16.25" lengthAdjust="spacingAndGlyphs"
              textLength="8.75" x="697.6836" y="809.0636">1
        </text><!--MD5=[97c34a2b9480939d6af27fc432b856b7]
@startuml
class DefinirCompetenciaTecnicaUI{
}

class DefinirCompetenciaTecnicaController{
    *+void novaCompetenciaTecnica(String descBreve,String descDetalhada, String id, String refArea)
    *+void verificarCompetenciaTecnica(CompetenciaTecnica competencia)
    *+void listarAreasDeAtividade()
}
class Plataforma{
    *+void novaCompetenciaTecnica(String descBreve,String descDetalhada, String id,AreaAtividade)
    *+void verificarCompetenciaTecnica(CompetenciaTecnica competencia)
    *+void listarAreasDeAtividade()
    *-String designacao
    *-Lista de Atividade listaDeAreasDeAtividade
    *-CompetenciaTecnica novaCompetenciaTecnica(String descBreve, String descDetalhada, String id, AreaDeAtividade area)

}
class CompetenciaTecnica{
    *-String descBreve
    *-String descDetalhada
    *-String id
    *-«CompetenciaTecnica(String descBreve, String descDetalhada,String id,AreaAtividade area)»

}


DefinirCompetenciaTecnicaUI ..>DefinirCompetenciaTecnicaController
DefinirCompetenciaTecnicaController ..>Plataforma
DefinirCompetenciaTecnicaController ..>CompetenciaTecnica
Plataforma "1" o- -> "*" CompetenciaTecnica : possui >
CompetenciaTecnica"1" o- -"1"AreaAtividade : possui >





@enduml

PlantUML version 1.2020.03beta6(Unknown compile time)
(GPL source distribution)
Java Runtime: OpenJDK Runtime Environment
JVM: OpenJDK 64-Bit Server VM
Java Version: 11.0.6+8-b520.43
Operating System: Windows 10
Default Encoding: Cp1252
Language: pt
Country: PT
-->
    </g>
</svg>