@startuml
autonumber
actor "Gestor da Organização" as COL

participant Sistema as s

activate COL
activate s
COL -> s : Inicia especificação de colaborador

s--> COL:\n Solicita os dados do colaborador \n(nome,funcao,telemovel,email,password)
deactivate s
COL -> s : \n Introduz os dados
activate s

s --> COL : \nApresenta os dados e pede a sua confirmação
deactivate s
COL->s : \nConfirma os dados apresentados
activate s
s-->COL: \n Operação efetuada com sucesso
deactivate s
deactivate COL
@enduml