@startuml
autonumber
actor "Gestor da Organização" as Gest

participant ":RegistoColaboradorUI" as RegColUI
participant ":RegistoColaboradorControler" as RegColCon
participant ":Organização" as Org
participant "col:Colaborador" as Col
participant ":AutorizacaoFacade" as Aut

activate Gest
activate RegColUI
Gest -> RegColUI : Registo outros colaboradores
RegColUI--> Gest : O sistema pede dados(nome,funcao,telemovel,email,password)
Gest->RegColUI:  Introduz os dados pretendidos
RegColUI->RegColCon: novoColaborador(nome,funcao,telemovel,email,password)
activate RegColCon
RegColCon->Org: col=novoColaborador(nome,funcao,telemovel,email,password)
activate Org
Org--> Col**:  create(nome,funcao,telemovel,emai,password)
deactivate Org
RegColCon->Org: validaColaborador(col,password)
activate Org
deactivate Org
deactivate RegColCon
RegColUI-->Gest:  Apresenta os dados inseridos e pede a sua confirmação
deactivate RegColUI
Gest->RegColUI: Confirma os dados
activate RegColUI
RegColUI->RegColCon: registaColabor()
activate RegColCon
RegColCon->Org: registaColabor(col,password)
activate Org
Org->Org: validaColaborador(col,password)
Org->Col: nome=getNome()
activate Col
deactivate Col
Org->Col: email=getEmail()
activate Col
deactivate Col
Org->Aut: registaUtilizadorComPapel(nome,email,password,papel)
activate Aut
deactivate Aut
Org->Org: addColaboradpr(col)
RegColUI-->Gest: Operação efetuada com sucesso
deactivate RegColCon
deactivate Org
deactivate RegColUI
deactivate Gest
@enduml