@startuml
hide methods
left to right direction

class Plataforma{
*-String designação
}

class Organização{
        *- String nome;
        *- String nif;
        *- String website;
        *- String telefone;
        *- String email;


}


class Colaborador{
      *-String  nome
      * -String funcao
      * -String telefone
      * -String email
}

  class Utilizador{
      *-String nome
      *-String telefone
      *-String email
      *-String password
                }
                class Gestor{
               * -String nome
               * -String telefone
               * -String email
               * -String password
               * -String funcao
                }

               Plataforma"1"--"*"Organização:tem registada->
               Organização"1"--"1..*"Colaborador:tem >
               Organização "1"--"1..*" Gestor:tem >
               Gestor "1"--"1..*"Colaborador: especcifica >
               Gestor "1"--"1"Colaborador: atua como >
               Gestor "1"--"1"Utilizador : atua como >
               Colaborador"1..*"--"1"Utilizador:atua como >

@enduml