@startuml

autonumber
actor Colaborador as C

participant ":EspecificarTarefaUI" as UI
participant ":EspecificarTarefaController" as CTRL
participant ":Organizacao" as ORG
participant ":Plataforma" as PLAT
participant "lc:List<Categoria>"
participant "cat:Categoria"
participant "tarefa:Tarefa" as TAREFA

activate C
C -> UI : inicia a especificação de tarefa
activate UI
UI --> C : solicita dados necessários (referência, designação, descrição informal, descrição técnica, duração e custo)
deactivate UI

C -> UI : introduz dados solicitados
activate UI
UI -> CTRL : lc = getCatedorias()
activate CTRL
CTRL -> PLAT : lc = getCategorias()
activate PLAT
UI --> C : mostra lista de categorias e pede para selecionar uma
deactivate UI
deactivate CTRL
deactivate PLAT

C -> UI : seleciona categoria
activate UI
UI -> CTRL : novaTarefa(ref, des, dsInformal, dsTecnica, dur, cust, catByRef)
activate CTRL
CTRL -> PLAT : cat = getCategoriasByRef(catByRef)
activate PLAT
deactivate PLAT
CTRL -> ORG : tarefa=novaTarefa(ref, des, dsInformal, dsTecnica, dur, cust, cat)
activate ORG
ORG --> TAREFA ** : create(ref, des, dsInformal, dsTecnica, dur, cust, cat)
deactivate ORG

CTRL -> ORG : validaTarefa(tarefa)
activate ORG
deactivate ORG

deactivate CTRL
UI --> C : apresenta dados e solicita confirmação
deactivate UI

C -> UI : confirma
activate UI

UI -> CTRL: registaTarefa()
activate CTRL
CTRL -> ORG : registaTarefa(tarefa)
activate ORG
ORG -> ORG : validaTarefa(tarefa)
ORG -> ORG : addTarefa(tarefa)
UI --> C : operação bem sucedida
deactivate UI
deactivate C
deactivate CTRL
deactivate ORG

@enduml