@startuml
skinparam classAttributeIconSize 0
left to right direction

class AtualizarCandidaturaUI {
}

class AtualizarCandidaturaController {
  +getCandidaturasDoFreelancer()
  +getCandidaturaById(candId)
  +atualizarCandidatura(candidaturaSelecionada,anuncioId,valorPrt,nrDias,txtApres,txtMotiv)
}

class Plataforma {
    -String designacao
    +getRegistoFreelancers()
    +getRegistoAnuncios()
}

class RegistoFreelancer
{
 +getFreelancerByEmail(email)
}

class RegistoAnuncios
{
  +getAnuncioById(anuncioId)
}

class Freelancer {
    -String nome
    -String NIF
    -String telefone
    -String email
}

class Anuncio
{
    -Date dtInicioPublicitacao
    -Date dtFimPublicitacao
    -Date dtInicioCandidatura
    -Date dtFimCandidatura
    -Date dtInicioSeriacao
    -Date dtFimSeriacao
    +atualizarCandidatura(candidaturaSelecionada,valorPrt,nrDias,txtApres,txtMotiv)
    +aceitaCandidaturas()

}

class ListaCandidaturas
{
  +getCandidaturasDoFreelancer(freel)
  +getCandidaturaById(candId)
  +atualizarCandidatura(candidaturaSelecionada,valorPrt,nrDias,txtApres,txtMotiv)
  -validaCandidatura(candidaturaSelecionada)
}

class Candidatura
{
    -Date dataCandidatura
    -Double valorPretendido
    -Integer nrDias
    -String txtApresentacao
    -String txtMotivacao
    +atualizarCandidatura(dataCandidatura,valorPrt,nrDias,txtApres,txtMotiv)

}

AtualizarCandidaturaUI ..> AtualizarCandidaturaController
AtualizarCandidaturaController ..> Plataforma
AtualizarCandidaturaController ..> RegistoFreelancer
AtualizarCandidaturaController ..> RegistoAnuncios

Plataforma "1" --> "1" RegistoAnuncios : possui
Plataforma "1" --> "1" RegistoFreelancer : possui

RegistoAnuncios "1" --> "*" Anuncio : agrega
Anuncio "1" --> "1" ListaCandidaturas : possui
ListaCandidaturas "1" --> "*" Candidatura : agrega

Candidatura "*" --> "1"  Freelancer: realizada por >

RegistoFreelancer "1" --> "*" Freelancer: agrega


@enduml
