@startuml
autonumber

actor "Freelancer" as FRL
participant ":AtualizarCandidaturaUI" as UI
participant ":AtualizarCandidaturaController" as CTRL
participant ":Plataforma" as PLAT
participant "rfree:\nRegistoFreelancer" as RFREEL
participant "ranu:\nRegistoAnuncios" as RANU
participant "anu:\nAnuncio" as ANUN
participant ":ListaCandidaturas" as LCAND
participant "cand:\nCandidatura" as CAND
participant "freel:\nFreelancer" as FREEL



activate FRL
FRL -> UI : inicia atualizar candidatura
activate UI

UI -> CTRL : listaCandidaturas = getCandidaturasDoFreelancer()
activate CTRL

CTRL -> PLAT: rfree = getRegistoFreelancers()
activate PLAT
deactivate PLAT

CTRL -> RFREEL : freel=getFreelancerByEmail(email)
note right
O email foi obtido através do objeto
SessaoUtilizador como demonstrado noutros diagramas.
end note
activate RFREEL
deactivate RFREEL

CTRL -> PLAT: ranu = getRegistoAnuncios()
activate PLAT
deactivate PLAT

CTRL -> LCAND : listaCandidaturas=getCandidaturasDoFreelancer(freel)
activate LCAND
ref over LCAND : SD_getCandidaturasFreelancer(freel)
deactivate LCAND
deactivate CTRL

UI --> FRL : mostra lista de candidaturas do freelancer
deactivate UI
FRL -> UI : seleciona candidatura da lista
activate UI
UI -> CTRL : candidaturaSelecionada=getCandidaturaById(candId)
activate CTRL
CTRL -> LCAND: candidaturaSelecionada=getCandidaturaById(candId)
activate LCAND
deactivate LCAND


deactivate CTRL
UI --> FRL : mostra dados da candidatura
deactivate UI

FRL -> UI : introduz os dados solicitados \n(valorPrt,nrDias,txtApres,txtMotiv)
activate UI
UI -> CTRL : atualizarCandidatura(candidaturaSelecionada,anuncioId,valorPrt,nrDias,txtApres,txtMotiv)
activate CTRL

CTRL -> RANU: anu = getAnuncioById(anuncioId)
activate RANU
note right
O "anuncioId", no limite, pode corresponder à referência da tarefa associada.
end note
deactivate RANU
CTRL -> ANUN: atualizarCandidatura(candidaturaSelecionada,valorPrt,nrDias,txtApres,txtMotiv)
activate ANUN
ANUN -> ANUN: aceitaCandidaturas()
ANUN -> LCAND:atualizarCandidatura(candidaturaSelecionada,valorPrt,nrDias,txtApres,txtMotiv)

activate LCAND
LCAND -> CAND:candidaturaSelecionada = atualizarCandidatura(valorPrt,nrDias,txtApres,txtMotiv)

activate CAND
deactivate CAND
deactivate LCAND
ANUN -> LCAND: validaCandidatura(candidaturaSelecionada)

activate LCAND


deactivate LCAND
deactivate ANUN
UI --> FRL : apresenta dados da candidatura e solicita confirmacao
deactivate CTRL
deactivate UI

FRL -> UI : confirma dados da candidatura
activate UI

UI --> FRL: informa do sucesso da operacao


deactivate UI

@enduml
