<?xml version="1.0" encoding="UTF-8" standalone="no"?>
<svg xmlns="http://www.w3.org/2000/svg" contentScriptType="application/ecmascript" contentStyleType="text/css"
     height="560px" preserveAspectRatio="none" style="width:1311px;height:560px;" version="1.1" viewBox="0 0 1311 560"
     width="1311.25px" zoomAndPan="magnify">
    <defs>
        <filter height="300%" id="f1c8fddcjgymx0" width="300%" x="-1" y="-1">
            <feGaussianBlur result="blurOut" stdDeviation="2.5"/>
            <feColorMatrix in="blurOut" result="blurOut2" type="matrix"
                           values="0 0 0 0 0 0 0 0 0 0 0 0 0 0 0 0 0 0 .4 0"/>
            <feOffset dx="5.0" dy="5.0" in="blurOut2" result="blurOut3"/>
            <feBlend in="SourceGraphic" in2="blurOut3" mode="normal"/>
        </filter>
    </defs>
    <g>
        <rect fill="#FFFFFF" filter="url(#f1c8fddcjgymx0)" height="435.5762"
              style="stroke: #A80036; stroke-width: 1.25;" width="12.5" x="143.125" y="62.0117"/>
        <rect fill="#FFFFFF" filter="url(#f1c8fddcjgymx0)" height="37.5" style="stroke: #A80036; stroke-width: 1.25;"
              width="12.5" x="589.375" y="89.9512"/>
        <rect fill="#FFFFFF" filter="url(#f1c8fddcjgymx0)" height="37.5" style="stroke: #A80036; stroke-width: 1.25;"
              width="12.5" x="729.375" y="165.3906"/>
        <rect fill="#FFFFFF" filter="url(#f1c8fddcjgymx0)" height="18.75" style="stroke: #A80036; stroke-width: 1.25;"
              width="12.5" x="874.375" y="326.709"/>
        <rect fill="#FFFFFF" filter="url(#f1c8fddcjgymx0)" height="37.5" style="stroke: #A80036; stroke-width: 1.25;"
              width="12.5" x="874.375" y="373.3984"/>
        <rect fill="#FFFFFF" filter="url(#f1c8fddcjgymx0)" height="37.5" style="stroke: #A80036; stroke-width: 1.25;"
              width="12.5" x="1235.625" y="448.8379"/>
        <rect fill="#FFFFFF" filter="url(#f1c8fddcjgymx0)" height="115.0684" style="stroke: #000000; stroke-width: 2.5;"
              width="958.75" x="16.25" y="221.6406"/>
        <line style="stroke: #A80036; stroke-width: 1.25; stroke-dasharray: 5.0,5.0;" x1="148.75" x2="148.75"
              y1="49.5117" y2="508.8379"/>
        <line style="stroke: #A80036; stroke-width: 1.25; stroke-dasharray: 5.0,5.0;" x1="595" x2="595" y1="49.5117"
              y2="508.8379"/>
        <line style="stroke: #A80036; stroke-width: 1.25; stroke-dasharray: 5.0,5.0;" x1="735" x2="735" y1="49.5117"
              y2="508.8379"/>
        <line style="stroke: #A80036; stroke-width: 1.25; stroke-dasharray: 5.0,5.0;" x1="880" x2="880" y1="49.5117"
              y2="508.8379"/>
        <line style="stroke: #A80036; stroke-width: 1.25; stroke-dasharray: 5.0,5.0;" x1="1071.25" x2="1071.25"
              y1="49.5117" y2="508.8379"/>
        <line style="stroke: #A80036; stroke-width: 1.25; stroke-dasharray: 5.0,5.0;" x1="1241.25" x2="1241.25"
              y1="49.5117" y2="508.8379"/>
        <rect fill="#FEFECE" filter="url(#f1c8fddcjgymx0)" height="39.5117"
              style="stroke: #A80036; stroke-width: 1.875;" width="236.25" x="28.75" y="3.75"/>
        <text fill="#000000" font-family="sans-serif" font-size="17.5" lengthAdjust="spacingAndGlyphs"
              textLength="218.75" x="37.5" y="30.6665">:AdjudicaranuncioController
        </text>
        <rect fill="#FEFECE" filter="url(#f1c8fddcjgymx0)" height="39.5117"
              style="stroke: #A80036; stroke-width: 1.875;" width="236.25" x="28.75" y="507.5879"/>
        <text fill="#000000" font-family="sans-serif" font-size="17.5" lengthAdjust="spacingAndGlyphs"
              textLength="218.75" x="37.5" y="534.5044">:AdjudicaranuncioController
        </text>
        <rect fill="#FEFECE" filter="url(#f1c8fddcjgymx0)" height="39.5117"
              style="stroke: #A80036; stroke-width: 1.875;" width="148.75" x="518.75" y="3.75"/>
        <text fill="#000000" font-family="sans-serif" font-size="17.5" lengthAdjust="spacingAndGlyphs"
              textLength="131.25" x="527.5" y="30.6665">org:Organizacao
        </text>
        <rect fill="#FEFECE" filter="url(#f1c8fddcjgymx0)" height="39.5117"
              style="stroke: #A80036; stroke-width: 1.875;" width="148.75" x="518.75" y="507.5879"/>
        <text fill="#000000" font-family="sans-serif" font-size="17.5" lengthAdjust="spacingAndGlyphs"
              textLength="131.25" x="527.5" y="534.5044">org:Organizacao
        </text>
        <rect fill="#FEFECE" filter="url(#f1c8fddcjgymx0)" height="39.5117"
              style="stroke: #A80036; stroke-width: 1.875;" width="96.25" x="685" y="3.75"/>
        <text fill="#000000" font-family="sans-serif" font-size="17.5" lengthAdjust="spacingAndGlyphs"
              textLength="78.75" x="693.75" y="30.6665">tar:Tarefa
        </text>
        <rect fill="#FEFECE" filter="url(#f1c8fddcjgymx0)" height="39.5117"
              style="stroke: #A80036; stroke-width: 1.875;" width="96.25" x="685" y="507.5879"/>
        <text fill="#000000" font-family="sans-serif" font-size="17.5" lengthAdjust="spacingAndGlyphs"
              textLength="78.75" x="693.75" y="534.5044">tar:Tarefa
        </text>
        <rect fill="#FEFECE" filter="url(#f1c8fddcjgymx0)" height="39.5117"
              style="stroke: #A80036; stroke-width: 1.875;" width="158.75" x="798.75" y="3.75"/>
        <text fill="#000000" font-family="sans-serif" font-size="17.5" lengthAdjust="spacingAndGlyphs"
              textLength="141.25" x="807.5" y="30.6665">cand:Candidatura
        </text>
        <rect fill="#FEFECE" filter="url(#f1c8fddcjgymx0)" height="39.5117"
              style="stroke: #A80036; stroke-width: 1.875;" width="158.75" x="798.75" y="507.5879"/>
        <text fill="#000000" font-family="sans-serif" font-size="17.5" lengthAdjust="spacingAndGlyphs"
              textLength="141.25" x="807.5" y="534.5044">cand:Candidatura
        </text>
        <rect fill="#FEFECE" filter="url(#f1c8fddcjgymx0)" height="39.5117"
              style="stroke: #A80036; stroke-width: 1.875;" width="188.75" x="975" y="3.75"/>
        <text fill="#000000" font-family="sans-serif" font-size="17.5" lengthAdjust="spacingAndGlyphs"
              textLength="171.25" x="983.75" y="30.6665">freelancer:Freelancer
        </text>
        <rect fill="#FEFECE" filter="url(#f1c8fddcjgymx0)" height="39.5117"
              style="stroke: #A80036; stroke-width: 1.875;" width="188.75" x="975" y="507.5879"/>
        <text fill="#000000" font-family="sans-serif" font-size="17.5" lengthAdjust="spacingAndGlyphs"
              textLength="171.25" x="983.75" y="534.5044">freelancer:Freelancer
        </text>
        <rect fill="#FEFECE" filter="url(#f1c8fddcjgymx0)" height="39.5117"
              style="stroke: #A80036; stroke-width: 1.875;" width="116.25" x="1181.25" y="3.75"/>
        <text fill="#000000" font-family="sans-serif" font-size="17.5" lengthAdjust="spacingAndGlyphs"
              textLength="98.75" x="1190" y="30.6665">anu:Anuncio
        </text>
        <rect fill="#FEFECE" filter="url(#f1c8fddcjgymx0)" height="39.5117"
              style="stroke: #A80036; stroke-width: 1.875;" width="116.25" x="1181.25" y="507.5879"/>
        <text fill="#000000" font-family="sans-serif" font-size="17.5" lengthAdjust="spacingAndGlyphs"
              textLength="98.75" x="1190" y="534.5044">anu:Anuncio
        </text>
        <rect fill="#FFFFFF" filter="url(#f1c8fddcjgymx0)" height="435.5762"
              style="stroke: #A80036; stroke-width: 1.25;" width="12.5" x="143.125" y="62.0117"/>
        <rect fill="#FFFFFF" filter="url(#f1c8fddcjgymx0)" height="37.5" style="stroke: #A80036; stroke-width: 1.25;"
              width="12.5" x="589.375" y="89.9512"/>
        <rect fill="#FFFFFF" filter="url(#f1c8fddcjgymx0)" height="37.5" style="stroke: #A80036; stroke-width: 1.25;"
              width="12.5" x="729.375" y="165.3906"/>
        <rect fill="#FFFFFF" filter="url(#f1c8fddcjgymx0)" height="18.75" style="stroke: #A80036; stroke-width: 1.25;"
              width="12.5" x="874.375" y="326.709"/>
        <rect fill="#FFFFFF" filter="url(#f1c8fddcjgymx0)" height="37.5" style="stroke: #A80036; stroke-width: 1.25;"
              width="12.5" x="874.375" y="373.3984"/>
        <rect fill="#FFFFFF" filter="url(#f1c8fddcjgymx0)" height="37.5" style="stroke: #A80036; stroke-width: 1.25;"
              width="12.5" x="1235.625" y="448.8379"/>
        <polygon fill="#A80036" points="574.375,84.9512,586.875,89.9512,574.375,94.9512,579.375,89.9512"
                 style="stroke: #A80036; stroke-width: 1.25;"/>
        <line style="stroke: #A80036; stroke-width: 1.25;" x1="155.625" x2="581.875" y1="89.9512" y2="89.9512"/>
        <text fill="#000000" font-family="sans-serif" font-size="16.25" font-weight="bold"
              lengthAdjust="spacingAndGlyphs" textLength="8.75" x="164.375" y="83.8806">1
        </text>
        <text fill="#000000" font-family="sans-serif" font-size="16.25" lengthAdjust="spacingAndGlyphs"
              textLength="222.5" x="178.125" y="83.8806">String refOrg=String getEmail()
        </text>
        <polygon fill="#A80036" points="714.375,160.3906,726.875,165.3906,714.375,170.3906,719.375,165.3906"
                 style="stroke: #A80036; stroke-width: 1.25;"/>
        <line style="stroke: #A80036; stroke-width: 1.25;" x1="155.625" x2="721.875" y1="165.3906" y2="165.3906"/>
        <text fill="#000000" font-family="sans-serif" font-size="16.25" font-weight="bold"
              lengthAdjust="spacingAndGlyphs" textLength="8.75" x="164.375" y="159.3201">2
        </text>
        <text fill="#000000" font-family="sans-serif" font-size="16.25" lengthAdjust="spacingAndGlyphs"
              textLength="312.5" x="178.125" y="159.3201">String descTararefa = String getDescricao()
        </text>
        <path d="M16.25,221.6406 L883.75,221.6406 L883.75,231.6406 L871.25,244.1406 L16.25,244.1406 L16.25,221.6406 "
              fill="#EEEEEE" style="stroke: #000000; stroke-width: 1.25;"/>
        <rect fill="none" height="115.0684" style="stroke: #000000; stroke-width: 2.5;" width="958.75" x="16.25"
              y="221.6406"/>
        <text fill="#000000" font-family="sans-serif" font-size="16.25" font-weight="bold"
              lengthAdjust="spacingAndGlyphs" textLength="811.25" x="35" y="239.7595">Nota: este conjunto de métodos
            pretende demonstar o conceito e não deve ser levado de forma literal
        </text>
        <line style="stroke: #A80036; stroke-width: 1.25;" x1="155.625" x2="208.125" y1="272.5195" y2="272.5195"/>
        <line style="stroke: #A80036; stroke-width: 1.25;" x1="208.125" x2="208.125" y1="272.5195" y2="288.7695"/>
        <line style="stroke: #A80036; stroke-width: 1.25;" x1="156.875" x2="208.125" y1="288.7695" y2="288.7695"/>
        <polygon fill="#A80036" points="169.375,283.7695,156.875,288.7695,169.375,293.7695,164.375,288.7695"
                 style="stroke: #A80036; stroke-width: 1.25;"/>
        <text fill="#000000" font-family="sans-serif" font-size="16.25" font-weight="bold"
              lengthAdjust="spacingAndGlyphs" textLength="8.75" x="164.375" y="266.449">3
        </text>
        <text fill="#000000" font-family="sans-serif" font-size="16.25" lengthAdjust="spacingAndGlyphs"
              textLength="402.5" x="178.125" y="266.449">data dataAfetoInicial =data Date.getCurrentdate() +1 dia
        </text>
        <polygon fill="#A80036" points="859.375,321.709,871.875,326.709,859.375,331.709,864.375,326.709"
                 style="stroke: #A80036; stroke-width: 1.25;"/>
        <line style="stroke: #A80036; stroke-width: 1.25;" x1="155.625" x2="866.875" y1="326.709" y2="326.709"/>
        <text fill="#000000" font-family="sans-serif" font-size="16.25" font-weight="bold"
              lengthAdjust="spacingAndGlyphs" textLength="8.75" x="164.375" y="320.6384">4
        </text>
        <text fill="#000000" font-family="sans-serif" font-size="16.25" lengthAdjust="spacingAndGlyphs" textLength="480"
              x="178.125" y="320.6384">data dataAfetoFinal =data dataAfetoInicial +int getNumeroDeDias()
        </text>
        <polygon fill="#A80036" points="859.375,368.3984,871.875,373.3984,859.375,378.3984,864.375,373.3984"
                 style="stroke: #A80036; stroke-width: 1.25;"/>
        <line style="stroke: #A80036; stroke-width: 1.25;" x1="155.625" x2="866.875" y1="373.3984" y2="373.3984"/>
        <text fill="#000000" font-family="sans-serif" font-size="16.25" font-weight="bold"
              lengthAdjust="spacingAndGlyphs" textLength="8.75" x="164.375" y="367.3279">5
        </text>
        <text fill="#000000" font-family="sans-serif" font-size="16.25" lengthAdjust="spacingAndGlyphs" textLength="325"
              x="178.125" y="367.3279">double valorAPagar=double getValorAPagar()
        </text>
        <polygon fill="#A80036" points="1220.625,443.8379,1233.125,448.8379,1220.625,453.8379,1225.625,448.8379"
                 style="stroke: #A80036; stroke-width: 1.25;"/>
        <line style="stroke: #A80036; stroke-width: 1.25;" x1="155.625" x2="1228.125" y1="448.8379" y2="448.8379"/>
        <text fill="#000000" font-family="sans-serif" font-size="16.25" font-weight="bold"
              lengthAdjust="spacingAndGlyphs" textLength="8.75" x="164.375" y="442.7673">6
        </text>
        <text fill="#000000" font-family="sans-serif" font-size="16.25" lengthAdjust="spacingAndGlyphs"
              textLength="236.25" x="178.125" y="442.7673">String refAnuncio = String getId()
        </text><!--MD5=[f4c30e7487051b37db58fb57dcd610ca]
@startuml

participant ":AdjudicaranuncioController" as ctr
participant "org:Organizacao" as org
participant "tar:Tarefa" as tar
participant "cand:Candidatura" as cand
participant "freelancer:Freelancer" as free
participant "anu:Anuncio" as anu

autonumber
activate ctr
ctr-> org:String refOrg=String getEmail()
activate org
deactivate
ctr->tar:String descTararefa = String getDescricao()
activate tar
deactivate
group Nota: este conjunto de métodos pretende demonstar o conceito e não deve ser levado de forma literal
ctr -> ctr: data dataAfetoInicial =data Date.getCurrentdate() +1 dia
ctr ->cand: data dataAfetoFinal =data dataAfetoInicial +int getNumeroDeDias()
activate cand
end
deactivate
ctr->cand:double valorAPagar=double getValorAPagar()
activate cand
deactivate
ctr -> anu:String refAnuncio = String getId()
activate anu
deactivate




@enduml

PlantUML version 1.2020.09(Sun May 10 11:51:06 BST 2020)
(GPL source distribution)
Java Runtime: OpenJDK Runtime Environment
JVM: OpenJDK 64-Bit Server VM
Java Version: 11.0.6+8-b765.40
Operating System: Windows 10
Default Encoding: Cp1252
Language: pt
Country: PT
-->
    </g>
</svg>