<?xml version="1.0" encoding="UTF-8" standalone="no"?>
<svg xmlns="http://www.w3.org/2000/svg" contentScriptType="application/ecmascript" contentStyleType="text/css"
     height="1822.5px" preserveAspectRatio="none" style="width:3890px;height:1822px;" version="1.1"
     viewBox="0 0 3890 1822" width="3890px" zoomAndPan="magnify">
    <defs>
        <filter height="300%" id="fmxni570x62z0" width="300%" x="-1" y="-1">
            <feGaussianBlur result="blurOut" stdDeviation="2.5"/>
            <feColorMatrix in="blurOut" result="blurOut2" type="matrix"
                           values="0 0 0 0 0 0 0 0 0 0 0 0 0 0 0 0 0 0 .4 0"/>
            <feOffset dx="5.0" dy="5.0" in="blurOut2" result="blurOut3"/>
            <feBlend in="SourceGraphic" in2="blurOut3" mode="normal"/>
        </filter>
    </defs>
    <g>
        <rect fill="#FFFFFF" filter="url(#fmxni570x62z0)" height="1567.627" style="stroke: #A80036; stroke-width: 1.25;"
              width="12.5" x="34.375" y="122.0117"/>
        <rect fill="#FFFFFF" filter="url(#fmxni570x62z0)" height="399.3262" style="stroke: #A80036; stroke-width: 1.25;"
              width="12.5" x="579.375" y="149.9512"/>
        <rect fill="#FFFFFF" filter="url(#fmxni570x62z0)" height="729.3457" style="stroke: #A80036; stroke-width: 1.25;"
              width="12.5" x="579.375" y="625.1563"/>
        <rect fill="#FFFFFF" filter="url(#fmxni570x62z0)" height="297.1973" style="stroke: #A80036; stroke-width: 1.25;"
              width="12.5" x="579.375" y="1392.4414"/>
        <rect fill="#FFFFFF" filter="url(#fmxni570x62z0)" height="361.3867" style="stroke: #A80036; stroke-width: 1.25;"
              width="12.5" x="991.875" y="187.8906"/>
        <rect fill="#FFFFFF" filter="url(#fmxni570x62z0)" height="644.7168" style="stroke: #A80036; stroke-width: 1.25;"
              width="12.5" x="991.875" y="663.0957"/>
        <rect fill="#FFFFFF" filter="url(#fmxni570x62z0)" height="212.5684" style="stroke: #A80036; stroke-width: 1.25;"
              width="12.5" x="991.875" y="1430.3809"/>
        <rect fill="#FFFFFF" filter="url(#fmxni570x62z0)" height="37.5" style="stroke: #A80036; stroke-width: 1.25;"
              width="12.5" x="1423.125" y="285.459"/>
        <rect fill="#FFFFFF" filter="url(#fmxni570x62z0)" height="37.5" style="stroke: #A80036; stroke-width: 1.25;"
              width="12.5" x="1423.125" y="436.3379"/>
        <rect fill="#FFFFFF" filter="url(#fmxni570x62z0)" height="37.5" style="stroke: #A80036; stroke-width: 1.25;"
              width="12.5" x="1423.125" y="511.7773"/>
        <rect fill="#FFFFFF" filter="url(#fmxni570x62z0)" height="37.5" style="stroke: #A80036; stroke-width: 1.25;"
              width="12.5" x="1603.75" y="360.8984"/>
        <rect fill="#FFFFFF" filter="url(#fmxni570x62z0)" height="37.5" style="stroke: #A80036; stroke-width: 1.25;"
              width="12.5" x="1817.5" y="701.0352"/>
        <rect fill="#FFFFFF" filter="url(#fmxni570x62z0)" height="37.5" style="stroke: #A80036; stroke-width: 1.25;"
              width="12.5" x="1965" y="782.7246"/>
        <rect fill="#FFFFFF" filter="url(#fmxni570x62z0)" height="37.5" style="stroke: #A80036; stroke-width: 1.25;"
              width="12.5" x="1965" y="939.8535"/>
        <rect fill="#FFFFFF" filter="url(#fmxni570x62z0)" height="37.5" style="stroke: #A80036; stroke-width: 1.25;"
              width="12.5" x="2085.625" y="864.4141"/>
        <rect fill="#FFFFFF" filter="url(#fmxni570x62z0)" height="232.8906" style="stroke: #A80036; stroke-width: 1.25;"
              width="12.5" x="2345" y="1074.9219"/>
        <rect fill="#FFFFFF" filter="url(#fmxni570x62z0)" height="35" style="stroke: #A80036; stroke-width: 1.25;"
              width="12.5" x="2351.25" y="1272.8125"/>
        <rect fill="#FFFFFF" filter="url(#fmxni570x62z0)" height="174.6289" style="stroke: #A80036; stroke-width: 1.25;"
              width="12.5" x="2345" y="1468.3203"/>
        <rect fill="#FFFFFF" filter="url(#fmxni570x62z0)" height="35" style="stroke: #A80036; stroke-width: 1.25;"
              width="12.5" x="2351.25" y="1516.2598"/>
        <rect fill="#FFFFFF" filter="url(#fmxni570x62z0)" height="35" style="stroke: #A80036; stroke-width: 1.25;"
              width="12.5" x="2351.25" y="1607.9492"/>
        <rect fill="#FFFFFF" filter="url(#fmxni570x62z0)" height="90.7617" style="stroke: #A80036; stroke-width: 1.25;"
              width="12.5" x="3605" y="1125.3613"/>
        <rect fill="#FFFFFF" filter="url(#fmxni570x62z0)" height="35" style="stroke: #A80036; stroke-width: 1.25;"
              width="12.5" x="3611.25" y="1181.123"/>
        <line style="stroke: #A80036; stroke-width: 1.25; stroke-dasharray: 5.0,5.0;" x1="40" x2="40" y1="109.5117"
              y2="1712.1387"/>
        <line style="stroke: #A80036; stroke-width: 1.25; stroke-dasharray: 5.0,5.0;" x1="585" x2="585" y1="109.5117"
              y2="1712.1387"/>
        <line style="stroke: #A80036; stroke-width: 1.25; stroke-dasharray: 5.0,5.0;" x1="997.5" x2="997.5"
              y1="109.5117" y2="1712.1387"/>
        <line style="stroke: #A80036; stroke-width: 1.25; stroke-dasharray: 5.0,5.0;" x1="1429.375" x2="1429.375"
              y1="109.5117" y2="1712.1387"/>
        <line style="stroke: #A80036; stroke-width: 1.25; stroke-dasharray: 5.0,5.0;" x1="1609.375" x2="1609.375"
              y1="109.5117" y2="1712.1387"/>
        <line style="stroke: #A80036; stroke-width: 1.25; stroke-dasharray: 5.0,5.0;" x1="1823.125" x2="1823.125"
              y1="109.5117" y2="1712.1387"/>
        <line style="stroke: #A80036; stroke-width: 1.25; stroke-dasharray: 5.0,5.0;" x1="1970.625" x2="1970.625"
              y1="109.5117" y2="1712.1387"/>
        <line style="stroke: #A80036; stroke-width: 1.25; stroke-dasharray: 5.0,5.0;" x1="2091.875" x2="2091.875"
              y1="109.5117" y2="1712.1387"/>
        <line style="stroke: #A80036; stroke-width: 1.25; stroke-dasharray: 5.0,5.0;" x1="2206.875" x2="2206.875"
              y1="109.5117" y2="1712.1387"/>
        <line style="stroke: #A80036; stroke-width: 1.25; stroke-dasharray: 5.0,5.0;" x1="2350.625" x2="2350.625"
              y1="109.5117" y2="1712.1387"/>
        <line style="stroke: #A80036; stroke-width: 1.25; stroke-dasharray: 5.0,5.0;" x1="3611.25" x2="3611.25"
              y1="1126.5527" y2="1712.1387"/>
        <line style="stroke: #A80036; stroke-width: 1.25; stroke-dasharray: 5.0,5.0;" x1="3817.5" x2="3817.5"
              y1="109.5117" y2="1712.1387"/>
        <text fill="#000000" font-family="sans-serif" font-size="17.5" lengthAdjust="spacingAndGlyphs"
              textLength="53.75" x="10" y="105.6665">Gestor
        </text>
        <ellipse cx="40.625" cy="16.25" fill="#FEFECE" filter="url(#fmxni570x62z0)" rx="10" ry="10"
                 style="stroke: #A80036; stroke-width: 2.5;"/>
        <path d="M40.625,26.25 L40.625,60 M24.375,36.25 L56.875,36.25 M40.625,60 L24.375,78.75 M40.625,60 L56.875,78.75 "
              fill="none" filter="url(#fmxni570x62z0)" style="stroke: #A80036; stroke-width: 2.5;"/>
        <text fill="#000000" font-family="sans-serif" font-size="17.5" lengthAdjust="spacingAndGlyphs"
              textLength="53.75" x="10" y="1729.0552">Gestor
        </text>
        <ellipse cx="40.625" cy="1745.4004" fill="#FEFECE" filter="url(#fmxni570x62z0)" rx="10" ry="10"
                 style="stroke: #A80036; stroke-width: 2.5;"/>
        <path d="M40.625,1755.4004 L40.625,1789.1504 M24.375,1765.4004 L56.875,1765.4004 M40.625,1789.1504 L24.375,1807.9004 M40.625,1789.1504 L56.875,1807.9004 "
              fill="none" filter="url(#fmxni570x62z0)" style="stroke: #A80036; stroke-width: 2.5;"/>
        <rect fill="#FEFECE" filter="url(#fmxni570x62z0)" height="39.5117" style="stroke: #A80036; stroke-width: 1.875;"
              width="173.75" x="496.25" y="63.75"/>
        <text fill="#000000" font-family="sans-serif" font-size="17.5" lengthAdjust="spacingAndGlyphs"
              textLength="156.25" x="505" y="90.6665">:AdjudicaranuncioUI
        </text>
        <rect fill="#FEFECE" filter="url(#fmxni570x62z0)" height="39.5117" style="stroke: #A80036; stroke-width: 1.875;"
              width="173.75" x="496.25" y="1710.8887"/>
        <text fill="#000000" font-family="sans-serif" font-size="17.5" lengthAdjust="spacingAndGlyphs"
              textLength="156.25" x="505" y="1737.8052">:AdjudicaranuncioUI
        </text>
        <rect fill="#FEFECE" filter="url(#fmxni570x62z0)" height="39.5117" style="stroke: #A80036; stroke-width: 1.875;"
              width="236.25" x="877.5" y="63.75"/>
        <text fill="#000000" font-family="sans-serif" font-size="17.5" lengthAdjust="spacingAndGlyphs"
              textLength="218.75" x="886.25" y="90.6665">:AdjudicaranuncioController
        </text>
        <rect fill="#FEFECE" filter="url(#fmxni570x62z0)" height="39.5117" style="stroke: #A80036; stroke-width: 1.875;"
              width="236.25" x="877.5" y="1710.8887"/>
        <text fill="#000000" font-family="sans-serif" font-size="17.5" lengthAdjust="spacingAndGlyphs"
              textLength="218.75" x="886.25" y="1737.8052">:AdjudicaranuncioController
        </text>
        <rect fill="#FEFECE" filter="url(#fmxni570x62z0)" height="39.5117" style="stroke: #A80036; stroke-width: 1.875;"
              width="107.5" x="1373.125" y="63.75"/>
        <text fill="#000000" font-family="sans-serif" font-size="17.5" lengthAdjust="spacingAndGlyphs" textLength="90"
              x="1381.875" y="90.6665">:Plataforma
        </text>
        <rect fill="#FEFECE" filter="url(#fmxni570x62z0)" height="39.5117" style="stroke: #A80036; stroke-width: 1.875;"
              width="107.5" x="1373.125" y="1710.8887"/>
        <text fill="#000000" font-family="sans-serif" font-size="17.5" lengthAdjust="spacingAndGlyphs" textLength="90"
              x="1381.875" y="1737.8052">:Plataforma
        </text>
        <rect fill="#FEFECE" filter="url(#fmxni570x62z0)" height="39.5117" style="stroke: #A80036; stroke-width: 1.875;"
              width="218.75" x="1498.125" y="63.75"/>
        <text fill="#000000" font-family="sans-serif" font-size="17.5" lengthAdjust="spacingAndGlyphs"
              textLength="201.25" x="1506.875" y="90.6665">rOrg:RegistoOrganizacao
        </text>
        <rect fill="#FEFECE" filter="url(#fmxni570x62z0)" height="39.5117" style="stroke: #A80036; stroke-width: 1.875;"
              width="218.75" x="1498.125" y="1710.8887"/>
        <text fill="#000000" font-family="sans-serif" font-size="17.5" lengthAdjust="spacingAndGlyphs"
              textLength="201.25" x="1506.875" y="1737.8052">rOrg:RegistoOrganizacao
        </text>
        <rect fill="#FEFECE" filter="url(#fmxni570x62z0)" height="39.5117" style="stroke: #A80036; stroke-width: 1.875;"
              width="173.75" x="1734.375" y="63.75"/>
        <text fill="#000000" font-family="sans-serif" font-size="17.5" lengthAdjust="spacingAndGlyphs"
              textLength="156.25" x="1743.125" y="90.6665">rAn:RegistoAnuncio
        </text>
        <rect fill="#FEFECE" filter="url(#fmxni570x62z0)" height="39.5117" style="stroke: #A80036; stroke-width: 1.875;"
              width="173.75" x="1734.375" y="1710.8887"/>
        <text fill="#000000" font-family="sans-serif" font-size="17.5" lengthAdjust="spacingAndGlyphs"
              textLength="156.25" x="1743.125" y="1737.8052">rAn:RegistoAnuncio
        </text>
        <rect fill="#FEFECE" filter="url(#fmxni570x62z0)" height="39.5117" style="stroke: #A80036; stroke-width: 1.875;"
              width="86.25" x="1925.625" y="63.75"/>
        <text fill="#000000" font-family="sans-serif" font-size="17.5" lengthAdjust="spacingAndGlyphs"
              textLength="68.75" x="1934.375" y="90.6665">:Anuncio
        </text>
        <rect fill="#FEFECE" filter="url(#fmxni570x62z0)" height="39.5117" style="stroke: #A80036; stroke-width: 1.875;"
              width="86.25" x="1925.625" y="1710.8887"/>
        <text fill="#000000" font-family="sans-serif" font-size="17.5" lengthAdjust="spacingAndGlyphs"
              textLength="68.75" x="1934.375" y="1737.8052">:Anuncio
        </text>
        <rect fill="#FEFECE" filter="url(#fmxni570x62z0)" height="39.5117" style="stroke: #A80036; stroke-width: 1.875;"
              width="120" x="2029.375" y="63.75"/>
        <text fill="#000000" font-family="sans-serif" font-size="17.5" lengthAdjust="spacingAndGlyphs"
              textLength="102.5" x="2038.125" y="90.6665">:Candidatura
        </text>
        <rect fill="#FEFECE" filter="url(#fmxni570x62z0)" height="39.5117" style="stroke: #A80036; stroke-width: 1.875;"
              width="120" x="2029.375" y="1710.8887"/>
        <text fill="#000000" font-family="sans-serif" font-size="17.5" lengthAdjust="spacingAndGlyphs"
              textLength="102.5" x="2038.125" y="1737.8052">:Candidatura
        </text>
        <rect fill="#FEFECE" filter="url(#fmxni570x62z0)" height="39.5117" style="stroke: #A80036; stroke-width: 1.875;"
              width="75" x="2166.875" y="63.75"/>
        <text fill="#000000" font-family="sans-serif" font-size="17.5" lengthAdjust="spacingAndGlyphs" textLength="57.5"
              x="2175.625" y="90.6665">:Tarefa
        </text>
        <rect fill="#FEFECE" filter="url(#fmxni570x62z0)" height="39.5117" style="stroke: #A80036; stroke-width: 1.875;"
              width="75" x="2166.875" y="1710.8887"/>
        <text fill="#000000" font-family="sans-serif" font-size="17.5" lengthAdjust="spacingAndGlyphs" textLength="57.5"
              x="2175.625" y="1737.8052">:Tarefa
        </text>
        <rect fill="#FEFECE" filter="url(#fmxni570x62z0)" height="39.5117" style="stroke: #A80036; stroke-width: 1.875;"
              width="178.75" x="2259.375" y="63.75"/>
        <text fill="#000000" font-family="sans-serif" font-size="17.5" lengthAdjust="spacingAndGlyphs"
              textLength="161.25" x="2268.125" y="90.6665">:RegistoAdjudicacao
        </text>
        <rect fill="#FEFECE" filter="url(#fmxni570x62z0)" height="39.5117" style="stroke: #A80036; stroke-width: 1.875;"
              width="178.75" x="2259.375" y="1710.8887"/>
        <text fill="#000000" font-family="sans-serif" font-size="17.5" lengthAdjust="spacingAndGlyphs"
              textLength="161.25" x="2268.125" y="1737.8052">:RegistoAdjudicacao
        </text>
        <rect fill="#FEFECE" filter="url(#fmxni570x62z0)" height="39.5117" style="stroke: #A80036; stroke-width: 1.875;"
              width="142.5" x="3537.5" y="1710.8887"/>
        <text fill="#000000" font-family="sans-serif" font-size="17.5" lengthAdjust="spacingAndGlyphs" textLength="125"
              x="3546.25" y="1737.8052">adj:Adjudicacao
        </text>
        <rect fill="#FEFECE" filter="url(#fmxni570x62z0)" height="39.5117" style="stroke: #A80036; stroke-width: 1.875;"
              width="122.5" x="3753.75" y="63.75"/>
        <text fill="#000000" font-family="sans-serif" font-size="17.5" lengthAdjust="spacingAndGlyphs" textLength="105"
              x="3762.5" y="90.6665">:Organizacao
        </text>
        <rect fill="#FEFECE" filter="url(#fmxni570x62z0)" height="39.5117" style="stroke: #A80036; stroke-width: 1.875;"
              width="122.5" x="3753.75" y="1710.8887"/>
        <text fill="#000000" font-family="sans-serif" font-size="17.5" lengthAdjust="spacingAndGlyphs" textLength="105"
              x="3762.5" y="1737.8052">:Organizacao
        </text>
        <rect fill="#FFFFFF" filter="url(#fmxni570x62z0)" height="1567.627" style="stroke: #A80036; stroke-width: 1.25;"
              width="12.5" x="34.375" y="122.0117"/>
        <rect fill="#FFFFFF" filter="url(#fmxni570x62z0)" height="399.3262" style="stroke: #A80036; stroke-width: 1.25;"
              width="12.5" x="579.375" y="149.9512"/>
        <rect fill="#FFFFFF" filter="url(#fmxni570x62z0)" height="729.3457" style="stroke: #A80036; stroke-width: 1.25;"
              width="12.5" x="579.375" y="625.1563"/>
        <rect fill="#FFFFFF" filter="url(#fmxni570x62z0)" height="297.1973" style="stroke: #A80036; stroke-width: 1.25;"
              width="12.5" x="579.375" y="1392.4414"/>
        <rect fill="#FFFFFF" filter="url(#fmxni570x62z0)" height="361.3867" style="stroke: #A80036; stroke-width: 1.25;"
              width="12.5" x="991.875" y="187.8906"/>
        <rect fill="#FFFFFF" filter="url(#fmxni570x62z0)" height="644.7168" style="stroke: #A80036; stroke-width: 1.25;"
              width="12.5" x="991.875" y="663.0957"/>
        <rect fill="#FFFFFF" filter="url(#fmxni570x62z0)" height="212.5684" style="stroke: #A80036; stroke-width: 1.25;"
              width="12.5" x="991.875" y="1430.3809"/>
        <rect fill="#FFFFFF" filter="url(#fmxni570x62z0)" height="37.5" style="stroke: #A80036; stroke-width: 1.25;"
              width="12.5" x="1423.125" y="285.459"/>
        <rect fill="#FFFFFF" filter="url(#fmxni570x62z0)" height="37.5" style="stroke: #A80036; stroke-width: 1.25;"
              width="12.5" x="1423.125" y="436.3379"/>
        <rect fill="#FFFFFF" filter="url(#fmxni570x62z0)" height="37.5" style="stroke: #A80036; stroke-width: 1.25;"
              width="12.5" x="1423.125" y="511.7773"/>
        <rect fill="#FFFFFF" filter="url(#fmxni570x62z0)" height="37.5" style="stroke: #A80036; stroke-width: 1.25;"
              width="12.5" x="1603.75" y="360.8984"/>
        <rect fill="#FFFFFF" filter="url(#fmxni570x62z0)" height="37.5" style="stroke: #A80036; stroke-width: 1.25;"
              width="12.5" x="1817.5" y="701.0352"/>
        <rect fill="#FFFFFF" filter="url(#fmxni570x62z0)" height="37.5" style="stroke: #A80036; stroke-width: 1.25;"
              width="12.5" x="1965" y="782.7246"/>
        <rect fill="#FFFFFF" filter="url(#fmxni570x62z0)" height="37.5" style="stroke: #A80036; stroke-width: 1.25;"
              width="12.5" x="1965" y="939.8535"/>
        <rect fill="#FFFFFF" filter="url(#fmxni570x62z0)" height="37.5" style="stroke: #A80036; stroke-width: 1.25;"
              width="12.5" x="2085.625" y="864.4141"/>
        <rect fill="#FFFFFF" filter="url(#fmxni570x62z0)" height="232.8906" style="stroke: #A80036; stroke-width: 1.25;"
              width="12.5" x="2345" y="1074.9219"/>
        <rect fill="#FFFFFF" filter="url(#fmxni570x62z0)" height="35" style="stroke: #A80036; stroke-width: 1.25;"
              width="12.5" x="2351.25" y="1272.8125"/>
        <rect fill="#FFFFFF" filter="url(#fmxni570x62z0)" height="174.6289" style="stroke: #A80036; stroke-width: 1.25;"
              width="12.5" x="2345" y="1468.3203"/>
        <rect fill="#FFFFFF" filter="url(#fmxni570x62z0)" height="35" style="stroke: #A80036; stroke-width: 1.25;"
              width="12.5" x="2351.25" y="1516.2598"/>
        <rect fill="#FFFFFF" filter="url(#fmxni570x62z0)" height="35" style="stroke: #A80036; stroke-width: 1.25;"
              width="12.5" x="2351.25" y="1607.9492"/>
        <rect fill="#FFFFFF" filter="url(#fmxni570x62z0)" height="90.7617" style="stroke: #A80036; stroke-width: 1.25;"
              width="12.5" x="3605" y="1125.3613"/>
        <rect fill="#FFFFFF" filter="url(#fmxni570x62z0)" height="35" style="stroke: #A80036; stroke-width: 1.25;"
              width="12.5" x="3611.25" y="1181.123"/>
        <polygon fill="#A80036" points="564.375,144.9512,576.875,149.9512,564.375,154.9512,569.375,149.9512"
                 style="stroke: #A80036; stroke-width: 1.25;"/>
        <line style="stroke: #A80036; stroke-width: 1.25;" x1="46.875" x2="571.875" y1="149.9512" y2="149.9512"/>
        <text fill="#000000" font-family="sans-serif" font-size="16.25" font-weight="bold"
              lengthAdjust="spacingAndGlyphs" textLength="8.75" x="55.625" y="143.8806">1
        </text>
        <text fill="#000000" font-family="sans-serif" font-size="16.25" lengthAdjust="spacingAndGlyphs" textLength="325"
              x="69.375" y="143.8806">Inicia o processo de adjudicação do anúncio.
        </text>
        <polygon fill="#A80036" points="976.875,182.8906,989.375,187.8906,976.875,192.8906,981.875,187.8906"
                 style="stroke: #A80036; stroke-width: 1.25;"/>
        <line style="stroke: #A80036; stroke-width: 1.25;" x1="591.875" x2="984.375" y1="187.8906" y2="187.8906"/>
        <text fill="#000000" font-family="sans-serif" font-size="16.25" font-weight="bold"
              lengthAdjust="spacingAndGlyphs" textLength="8.75" x="600.625" y="181.8201">2
        </text>
        <text fill="#000000" font-family="sans-serif" font-size="16.25" lengthAdjust="spacingAndGlyphs"
              textLength="362.5" x="614.375" y="181.8201">List&lt;String&gt; lAnunciosString = getListaAnuncios()
        </text>
        <rect fill="#FFFFFF" filter="url(#fmxni570x62z0)" height="53.3789" style="stroke: #000000; stroke-width: 2.5;"
              width="243.75" x="873.75" y="197.8906"/>
        <polygon fill="#EEEEEE"
                 points="873.75,197.8906,951.25,197.8906,951.25,207.8906,938.75,220.3906,873.75,220.3906,873.75,197.8906"
                 style="stroke: #000000; stroke-width: 2.5;"/>
        <text fill="#000000" font-family="sans-serif" font-size="16.25" font-weight="bold"
              lengthAdjust="spacingAndGlyphs" textLength="21.25" x="890" y="217.2595">ref
        </text>
        <text fill="#000000" font-family="sans-serif" font-size="16.25" lengthAdjust="spacingAndGlyphs" textLength="155"
              x="920.625" y="242.2595">UI_ControllerOverview
        </text>
        <polygon fill="#A80036" points="1408.125,280.459,1420.625,285.459,1408.125,290.459,1413.125,285.459"
                 style="stroke: #A80036; stroke-width: 1.25;"/>
        <line style="stroke: #A80036; stroke-width: 1.25;" x1="1004.375" x2="1415.625" y1="285.459" y2="285.459"/>
        <text fill="#000000" font-family="sans-serif" font-size="16.25" font-weight="bold"
              lengthAdjust="spacingAndGlyphs" textLength="8.75" x="1013.125" y="279.3884">3
        </text>
        <text fill="#000000" font-family="sans-serif" font-size="16.25" lengthAdjust="spacingAndGlyphs"
              textLength="381.25" x="1026.875" y="279.3884">rOrg = RegistoOrganizacao getRegistoOrganizacao()
        </text>
        <polygon fill="#A80036" points="1588.75,355.8984,1601.25,360.8984,1588.75,365.8984,1593.75,360.8984"
                 style="stroke: #A80036; stroke-width: 1.25;"/>
        <line style="stroke: #A80036; stroke-width: 1.25;" x1="1004.375" x2="1596.25" y1="360.8984" y2="360.8984"/>
        <text fill="#000000" font-family="sans-serif" font-size="16.25" font-weight="bold"
              lengthAdjust="spacingAndGlyphs" textLength="8.75" x="1013.125" y="354.8279">4
        </text>
        <text fill="#000000" font-family="sans-serif" font-size="16.25" lengthAdjust="spacingAndGlyphs"
              textLength="391.25" x="1026.875" y="354.8279">Organizacao getOrganizacaoByEmail(String emailCol)
        </text>
        <polygon fill="#A80036" points="1408.125,431.3379,1420.625,436.3379,1408.125,441.3379,1413.125,436.3379"
                 style="stroke: #A80036; stroke-width: 1.25;"/>
        <line style="stroke: #A80036; stroke-width: 1.25;" x1="1004.375" x2="1415.625" y1="436.3379" y2="436.3379"/>
        <text fill="#000000" font-family="sans-serif" font-size="16.25" font-weight="bold"
              lengthAdjust="spacingAndGlyphs" textLength="8.75" x="1013.125" y="430.2673">5
        </text>
        <text fill="#000000" font-family="sans-serif" font-size="16.25" lengthAdjust="spacingAndGlyphs"
              textLength="253.75" x="1026.875" y="430.2673">rAn=RegistoAnuncio getAnuncios()
        </text>
        <polygon fill="#A80036" points="1408.125,506.7773,1420.625,511.7773,1408.125,516.7773,1413.125,511.7773"
                 style="stroke: #A80036; stroke-width: 1.25;"/>
        <line style="stroke: #A80036; stroke-width: 1.25;" x1="1004.375" x2="1415.625" y1="511.7773" y2="511.7773"/>
        <text fill="#000000" font-family="sans-serif" font-size="16.25" font-weight="bold"
              lengthAdjust="spacingAndGlyphs" textLength="8.75" x="1013.125" y="505.7068">6
        </text>
        <text fill="#000000" font-family="sans-serif" font-size="16.25" lengthAdjust="spacingAndGlyphs"
              textLength="363.75" x="1026.875" y="505.7068">rAdj=RegistoAdjudicacao getRegistoAdjudicacao()
        </text>
        <polygon fill="#A80036" points="60.625,582.2168,48.125,587.2168,60.625,592.2168,55.625,587.2168"
                 style="stroke: #A80036; stroke-width: 1.25;"/>
        <line style="stroke: #A80036; stroke-width: 1.25; stroke-dasharray: 2.0,2.0;" x1="53.125" x2="584.375"
              y1="587.2168" y2="587.2168"/>
        <text fill="#000000" font-family="sans-serif" font-size="16.25" font-weight="bold"
              lengthAdjust="spacingAndGlyphs" textLength="8.75" x="68.125" y="581.1462">7
        </text>
        <text fill="#000000" font-family="sans-serif" font-size="16.25" lengthAdjust="spacingAndGlyphs"
              textLength="258.75" x="81.875" y="581.1462">Mostra todos os anúncios seriados.
        </text>
        <polygon fill="#A80036" points="564.375,620.1563,576.875,625.1563,564.375,630.1563,569.375,625.1563"
                 style="stroke: #A80036; stroke-width: 1.25;"/>
        <line style="stroke: #A80036; stroke-width: 1.25;" x1="46.875" x2="571.875" y1="625.1563" y2="625.1563"/>
        <text fill="#000000" font-family="sans-serif" font-size="16.25" font-weight="bold"
              lengthAdjust="spacingAndGlyphs" textLength="8.75" x="55.625" y="619.0857">8
        </text>
        <text fill="#000000" font-family="sans-serif" font-size="16.25" lengthAdjust="spacingAndGlyphs"
              textLength="147.5" x="69.375" y="619.0857">Escolhe um anúncio
        </text>
        <polygon fill="#A80036" points="976.875,658.0957,989.375,663.0957,976.875,668.0957,981.875,663.0957"
                 style="stroke: #A80036; stroke-width: 1.25;"/>
        <line style="stroke: #A80036; stroke-width: 1.25;" x1="591.875" x2="984.375" y1="663.0957" y2="663.0957"/>
        <text fill="#000000" font-family="sans-serif" font-size="16.25" font-weight="bold"
              lengthAdjust="spacingAndGlyphs" textLength="8.75" x="600.625" y="657.0251">9
        </text>
        <text fill="#000000" font-family="sans-serif" font-size="16.25" lengthAdjust="spacingAndGlyphs" textLength="280"
              x="614.375" y="657.0251">String geraAdjudicacao(String refAnun)
        </text>
        <polygon fill="#A80036" points="1802.5,696.0352,1815,701.0352,1802.5,706.0352,1807.5,701.0352"
                 style="stroke: #A80036; stroke-width: 1.25;"/>
        <line style="stroke: #A80036; stroke-width: 1.25;" x1="1004.375" x2="1810" y1="701.0352" y2="701.0352"/>
        <text fill="#000000" font-family="sans-serif" font-size="16.25" font-weight="bold"
              lengthAdjust="spacingAndGlyphs" textLength="17.5" x="1013.125" y="694.9646">10
        </text>
        <text fill="#000000" font-family="sans-serif" font-size="16.25" lengthAdjust="spacingAndGlyphs"
              textLength="317.5" x="1035.625" y="694.9646">an=Anuncio getAnuncioById(String refAnun)
        </text>
        <polygon fill="#A80036" points="1950,777.7246,1962.5,782.7246,1950,787.7246,1955,782.7246"
                 style="stroke: #A80036; stroke-width: 1.25;"/>
        <line style="stroke: #A80036; stroke-width: 1.25;" x1="1004.375" x2="1957.5" y1="782.7246" y2="782.7246"/>
        <text fill="#000000" font-family="sans-serif" font-size="16.25" font-weight="bold"
              lengthAdjust="spacingAndGlyphs" textLength="17.5" x="1013.125" y="776.6541">11
        </text>
        <text fill="#000000" font-family="sans-serif" font-size="16.25" lengthAdjust="spacingAndGlyphs"
              textLength="417.5" x="1035.625" y="776.6541">cand =Candidatura getCandidaturaNaPosicao(int posicao)
        </text>
        <path d="M1983.75,754.7852 L1983.75,787.2852 L2765,787.2852 L2765,767.2852 L2752.5,754.7852 L1983.75,754.7852 "
              fill="#FBFB77" filter="url(#fmxni570x62z0)" style="stroke: #A80036; stroke-width: 1.25;"/>
        <path d="M2752.5,754.7852 L2752.5,767.2852 L2765,767.2852 L2752.5,754.7852 " fill="#FBFB77"
              style="stroke: #A80036; stroke-width: 1.25;"/>
        <text fill="#000000" font-family="sans-serif" font-size="16.25" lengthAdjust="spacingAndGlyphs" textLength="755"
              x="1991.25" y="777.9041">Nota: neste contexto a variável posicao é 1, para obter a candidatura que melhor
            se adequa ao anúncio."
        </text>
        <polygon fill="#A80036" points="2070.625,859.4141,2083.125,864.4141,2070.625,869.4141,2075.625,864.4141"
                 style="stroke: #A80036; stroke-width: 1.25;"/>
        <line style="stroke: #A80036; stroke-width: 1.25;" x1="1004.375" x2="2078.125" y1="864.4141" y2="864.4141"/>
        <text fill="#000000" font-family="sans-serif" font-size="16.25" font-weight="bold"
              lengthAdjust="spacingAndGlyphs" textLength="17.5" x="1013.125" y="858.3435">12
        </text>
        <text fill="#000000" font-family="sans-serif" font-size="16.25" lengthAdjust="spacingAndGlyphs" textLength="270"
              x="1035.625" y="858.3435">freelancer=Freelancer getFreelancer()
        </text>
        <polygon fill="#A80036" points="1950,934.8535,1962.5,939.8535,1950,944.8535,1955,939.8535"
                 style="stroke: #A80036; stroke-width: 1.25;"/>
        <line style="stroke: #A80036; stroke-width: 1.25;" x1="1004.375" x2="1957.5" y1="939.8535" y2="939.8535"/>
        <text fill="#000000" font-family="sans-serif" font-size="16.25" font-weight="bold"
              lengthAdjust="spacingAndGlyphs" textLength="17.5" x="1013.125" y="933.783">13
        </text>
        <text fill="#000000" font-family="sans-serif" font-size="16.25" lengthAdjust="spacingAndGlyphs"
              textLength="153.75" x="1035.625" y="933.783">tar=Tarefa getTarefa()
        </text>
        <rect fill="#FFFFFF" filter="url(#fmxni570x62z0)" height="53.3789" style="stroke: #000000; stroke-width: 2.5;"
              width="243.75" x="873.75" y="987.3535"/>
        <polygon fill="#EEEEEE"
                 points="873.75,987.3535,951.25,987.3535,951.25,997.3535,938.75,1009.8535,873.75,1009.8535,873.75,987.3535"
                 style="stroke: #000000; stroke-width: 2.5;"/>
        <text fill="#000000" font-family="sans-serif" font-size="16.25" font-weight="bold"
              lengthAdjust="spacingAndGlyphs" textLength="21.25" x="890" y="1006.7224">ref
        </text>
        <text fill="#000000" font-family="sans-serif" font-size="16.25" lengthAdjust="spacingAndGlyphs" textLength="220"
              x="888.125" y="1031.7224">Ver getDadosNecessários_SD
        </text>
        <polygon fill="#A80036" points="2330,1069.9219,2342.5,1074.9219,2330,1079.9219,2335,1074.9219"
                 style="stroke: #A80036; stroke-width: 1.25;"/>
        <line style="stroke: #A80036; stroke-width: 1.25;" x1="1004.375" x2="2337.5" y1="1074.9219" y2="1074.9219"/>
        <text fill="#000000" font-family="sans-serif" font-size="16.25" font-weight="bold"
              lengthAdjust="spacingAndGlyphs" textLength="17.5" x="1013.125" y="1068.8513">14
        </text>
        <text fill="#000000" font-family="sans-serif" font-size="16.25" lengthAdjust="spacingAndGlyphs"
              textLength="1208.75" x="1035.625" y="1068.8513">adj=Adjudicacao novaAdjudicacao(String refOrg,Freelancer
            freelancer,String descTarefa,date dataAfetoInicial,date dataAfetoFinal,double valorAPagar, String
            refAnuncio)
        </text>
        <polygon fill="#A80036" points="3522.5,1107.8613,3535,1112.8613,3522.5,1117.8613,3527.5,1112.8613"
                 style="stroke: #A80036; stroke-width: 1.25;"/>
        <line style="stroke: #A80036; stroke-width: 1.25;" x1="2357.5" x2="3530" y1="1112.8613" y2="1112.8613"/>
        <text fill="#000000" font-family="sans-serif" font-size="16.25" font-weight="bold"
              lengthAdjust="spacingAndGlyphs" textLength="17.5" x="2366.25" y="1106.7908">15
        </text>
        <text fill="#000000" font-family="sans-serif" font-size="16.25" lengthAdjust="spacingAndGlyphs"
              textLength="1127.5" x="2388.75" y="1106.7908">adj=Adjudicacao create(String refOrg,Freelancer
            freelancer,String descTarefa,date dataAfetoInicial,date dataAfetoFinal,double valorAPagar,String refAnuncio)
        </text>
        <rect fill="#FEFECE" filter="url(#fmxni570x62z0)" height="39.5117" style="stroke: #A80036; stroke-width: 1.875;"
              width="142.5" x="3537.5" y="1084.9219"/>
        <text fill="#000000" font-family="sans-serif" font-size="17.5" lengthAdjust="spacingAndGlyphs" textLength="125"
              x="3546.25" y="1111.8384">adj:Adjudicacao
        </text>
        <line style="stroke: #A80036; stroke-width: 1.25;" x1="3623.75" x2="3676.25" y1="1171.123" y2="1171.123"/>
        <line style="stroke: #A80036; stroke-width: 1.25;" x1="3676.25" x2="3676.25" y1="1171.123" y2="1187.373"/>
        <line style="stroke: #A80036; stroke-width: 1.25;" x1="3625" x2="3676.25" y1="1187.373" y2="1187.373"/>
        <polygon fill="#A80036" points="3637.5,1182.373,3625,1187.373,3637.5,1192.373,3632.5,1187.373"
                 style="stroke: #A80036; stroke-width: 1.25;"/>
        <text fill="#000000" font-family="sans-serif" font-size="16.25" font-weight="bold"
              lengthAdjust="spacingAndGlyphs" textLength="17.5" x="3632.5" y="1165.0525">16
        </text>
        <text fill="#000000" font-family="sans-serif" font-size="16.25" lengthAdjust="spacingAndGlyphs"
              textLength="153.75" x="3655" y="1165.0525">void generarIdEData()
        </text>
        <line style="stroke: #A80036; stroke-width: 1.25;" x1="2363.75" x2="2416.25" y1="1262.8125" y2="1262.8125"/>
        <line style="stroke: #A80036; stroke-width: 1.25;" x1="2416.25" x2="2416.25" y1="1262.8125" y2="1279.0625"/>
        <line style="stroke: #A80036; stroke-width: 1.25;" x1="2365" x2="2416.25" y1="1279.0625" y2="1279.0625"/>
        <polygon fill="#A80036" points="2377.5,1274.0625,2365,1279.0625,2377.5,1284.0625,2372.5,1279.0625"
                 style="stroke: #A80036; stroke-width: 1.25;"/>
        <text fill="#000000" font-family="sans-serif" font-size="16.25" font-weight="bold"
              lengthAdjust="spacingAndGlyphs" textLength="17.5" x="2372.5" y="1256.7419">17
        </text>
        <text fill="#000000" font-family="sans-serif" font-size="16.25" lengthAdjust="spacingAndGlyphs"
              textLength="323.75" x="2395" y="1256.7419">boolean verificaAdjudicacao(Adjudicacao adj)
        </text>
        <polygon fill="#A80036" points="60.625,1349.502,48.125,1354.502,60.625,1359.502,55.625,1354.502"
                 style="stroke: #A80036; stroke-width: 1.25;"/>
        <line style="stroke: #A80036; stroke-width: 1.25; stroke-dasharray: 2.0,2.0;" x1="53.125" x2="584.375"
              y1="1354.502" y2="1354.502"/>
        <text fill="#000000" font-family="sans-serif" font-size="16.25" font-weight="bold"
              lengthAdjust="spacingAndGlyphs" textLength="17.5" x="68.125" y="1348.4314">18
        </text>
        <text fill="#000000" font-family="sans-serif" font-size="16.25" lengthAdjust="spacingAndGlyphs" textLength="480"
              x="90.625" y="1348.4314">Cria a adjudicação, verifica, mostra ao Gestor e pede confirmação.
        </text>
        <polygon fill="#A80036" points="564.375,1387.4414,576.875,1392.4414,564.375,1397.4414,569.375,1392.4414"
                 style="stroke: #A80036; stroke-width: 1.25;"/>
        <line style="stroke: #A80036; stroke-width: 1.25;" x1="46.875" x2="571.875" y1="1392.4414" y2="1392.4414"/>
        <text fill="#000000" font-family="sans-serif" font-size="16.25" font-weight="bold"
              lengthAdjust="spacingAndGlyphs" textLength="17.5" x="55.625" y="1386.3708">19
        </text>
        <text fill="#000000" font-family="sans-serif" font-size="16.25" lengthAdjust="spacingAndGlyphs" textLength="135"
              x="78.125" y="1386.3708">Confirma os dados
        </text>
        <polygon fill="#A80036" points="976.875,1425.3809,989.375,1430.3809,976.875,1435.3809,981.875,1430.3809"
                 style="stroke: #A80036; stroke-width: 1.25;"/>
        <line style="stroke: #A80036; stroke-width: 1.25;" x1="591.875" x2="984.375" y1="1430.3809" y2="1430.3809"/>
        <text fill="#000000" font-family="sans-serif" font-size="16.25" font-weight="bold"
              lengthAdjust="spacingAndGlyphs" textLength="17.5" x="600.625" y="1424.3103">20
        </text>
        <text fill="#000000" font-family="sans-serif" font-size="16.25" lengthAdjust="spacingAndGlyphs"
              textLength="186.25" x="623.125" y="1424.3103">boolean addAdjudicacao()
        </text>
        <polygon fill="#A80036" points="2330,1463.3203,2342.5,1468.3203,2330,1473.3203,2335,1468.3203"
                 style="stroke: #A80036; stroke-width: 1.25;"/>
        <line style="stroke: #A80036; stroke-width: 1.25;" x1="1004.375" x2="2337.5" y1="1468.3203" y2="1468.3203"/>
        <text fill="#000000" font-family="sans-serif" font-size="16.25" font-weight="bold"
              lengthAdjust="spacingAndGlyphs" textLength="17.5" x="1013.125" y="1462.2498">21
        </text>
        <text fill="#000000" font-family="sans-serif" font-size="16.25" lengthAdjust="spacingAndGlyphs"
              textLength="301.25" x="1035.625" y="1462.2498">boolean addAdjudicacao(Adjudicacao adj)
        </text>
        <line style="stroke: #A80036; stroke-width: 1.25;" x1="2363.75" x2="2416.25" y1="1506.2598" y2="1506.2598"/>
        <line style="stroke: #A80036; stroke-width: 1.25;" x1="2416.25" x2="2416.25" y1="1506.2598" y2="1522.5098"/>
        <line style="stroke: #A80036; stroke-width: 1.25;" x1="2365" x2="2416.25" y1="1522.5098" y2="1522.5098"/>
        <polygon fill="#A80036" points="2377.5,1517.5098,2365,1522.5098,2377.5,1527.5098,2372.5,1522.5098"
                 style="stroke: #A80036; stroke-width: 1.25;"/>
        <text fill="#000000" font-family="sans-serif" font-size="16.25" font-weight="bold"
              lengthAdjust="spacingAndGlyphs" textLength="17.5" x="2372.5" y="1500.1892">22
        </text>
        <text fill="#000000" font-family="sans-serif" font-size="16.25" lengthAdjust="spacingAndGlyphs"
              textLength="323.75" x="2395" y="1500.1892">boolean verificaAdjudicacao(Adjudicacao adj)
        </text>
        <line style="stroke: #A80036; stroke-width: 1.25;" x1="2363.75" x2="2416.25" y1="1597.9492" y2="1597.9492"/>
        <line style="stroke: #A80036; stroke-width: 1.25;" x1="2416.25" x2="2416.25" y1="1597.9492" y2="1614.1992"/>
        <line style="stroke: #A80036; stroke-width: 1.25;" x1="2365" x2="2416.25" y1="1614.1992" y2="1614.1992"/>
        <polygon fill="#A80036" points="2377.5,1609.1992,2365,1614.1992,2377.5,1619.1992,2372.5,1614.1992"
                 style="stroke: #A80036; stroke-width: 1.25;"/>
        <text fill="#000000" font-family="sans-serif" font-size="16.25" font-weight="bold"
              lengthAdjust="spacingAndGlyphs" textLength="17.5" x="2372.5" y="1591.8787">23
        </text>
        <text fill="#000000" font-family="sans-serif" font-size="16.25" lengthAdjust="spacingAndGlyphs"
              textLength="301.25" x="2395" y="1591.8787">boolean addAdjudicacao(Adjudicacao adj)
        </text>
        <polygon fill="#A80036" points="54.375,1684.6387,41.875,1689.6387,54.375,1694.6387,49.375,1689.6387"
                 style="stroke: #A80036; stroke-width: 1.25;"/>
        <line style="stroke: #A80036; stroke-width: 1.25;" x1="46.875" x2="584.375" y1="1689.6387" y2="1689.6387"/>
        <text fill="#000000" font-family="sans-serif" font-size="16.25" font-weight="bold"
              lengthAdjust="spacingAndGlyphs" textLength="17.5" x="61.875" y="1683.5681">24
        </text>
        <text fill="#000000" font-family="sans-serif" font-size="16.25" lengthAdjust="spacingAndGlyphs"
              textLength="176.25" x="84.375" y="1683.5681">Operação bem sucedida
        </text><!--MD5=[acde27b75155a744d288fbe30df85398]
@startuml

actor Gestor as col

participant ":AdjudicaranuncioUI" as ui
participant ":AdjudicaranuncioController" as ctrl
participant ":Plataforma" as plat
participant "rOrg:RegistoOrganizacao" as rOrg
participant "rAn:RegistoAnuncio" as rAn
participant ":Anuncio" as an
participant ":Candidatura" as cand
participant ":Tarefa" as tar
participant ":RegistoAdjudicacao" as rAdj
participant "adj:Adjudicacao" as adj
participant ":Organizacao" as org


autonumber
activate col
col ->ui: Inicia o processo de adjudicação do anúncio.
activate ui
ui ->ctrl:List<String> lAnunciosString = getListaAnuncios()
activate ctrl
ref over ctrl
UI_ControllerOverview
end
ctrl -> plat:rOrg = RegistoOrganizacao getRegistoOrganizacao()
activate plat
deactivate
ctrl -> rOrg: Organizacao getOrganizacaoByEmail(String emailCol)
activate rOrg
deactivate
ctrl->plat:rAn=RegistoAnuncio getAnuncios()
activate plat
deactivate
ctrl-> plat: rAdj=RegistoAdjudicacao getRegistoAdjudicacao()
activate plat
deactivate
deactivate
deactivate
ui- ->col:Mostra todos os anúncios seriados.
col->ui:Escolhe um anúncio
activate ui
ui->ctrl:String geraAdjudicacao(String refAnun)
activate ctrl
ctrl->rAn:an=Anuncio getAnuncioById(String refAnun)
activate rAn
deactivate
ctrl->an:cand =Candidatura getCandidaturaNaPosicao(int posicao)
note right
Nota: neste contexto a variável posicao é 1, para obter a candidatura que melhor se adequa ao anúncio."
end note
activate an
deactivate
ctrl ->cand:freelancer=Freelancer getFreelancer()
activate cand
deactivate
ctrl -> an:tar=Tarefa getTarefa()
activate an
deactivate
ref over ctrl
Ver getDadosNecessários_SD
end
ctrl -> rAdj: adj=Adjudicacao novaAdjudicacao(String refOrg,Freelancer freelancer,String descTarefa,date dataAfetoInicial,date dataAfetoFinal,double valorAPagar, String refAnuncio)
activate rAdj
rAdj-> adj**:adj=Adjudicacao create(String refOrg,Freelancer freelancer,String descTarefa,date dataAfetoInicial,date dataAfetoFinal,double valorAPagar,String refAnuncio)
activate adj
adj -> adj :void generarIdEData()
activate adj
deactivate
deactivate
rAdj->rAdj:boolean verificaAdjudicacao(Adjudicacao adj)
activate rAdj
deactivate
deactivate
deactivate
ui - ->col: Cria a adjudicação, verifica, mostra ao Gestor e pede confirmação.
deactivate
col ->ui:Confirma os dados
activate ui
ui->ctrl:boolean addAdjudicacao()
activate ctrl
ctrl -> rAdj:boolean addAdjudicacao(Adjudicacao adj)
activate rAdj
rAdj->rAdj:boolean verificaAdjudicacao(Adjudicacao adj)
activate rAdj
deactivate
rAdj -> rAdj:boolean addAdjudicacao(Adjudicacao adj)
activate rAdj
deactivate
deactivate
deactivate
ui->col : Operação bem sucedida
deactivate
deactivate col

@enduml

PlantUML version 1.2020.09(Sun May 10 11:51:06 BST 2020)
(GPL source distribution)
Java Runtime: OpenJDK Runtime Environment
JVM: OpenJDK 64-Bit Server VM
Java Version: 11.0.6+8-b765.40
Operating System: Windows 10
Default Encoding: Cp1252
Language: pt
Country: PT
-->
    </g>
</svg>