@startuml
skinparam classAttributeIconSize 0
hide methods
left to right direction


class Plataforma{
    -String designação
}

class Organizacao{
   -String nome
   -String NIF
   -String website
   -String telefone
   -String email
}
class Anuncio{
    -Date dtInicioPublicitacao
    -Date dtFimPublicitacao
    -Date dtInicioCandidatura
    -Date dtFimCandidatura
    -Date dtInicioSeriacao
    -Date dtFimSeriacao
}
class AtribuirTarefa{
    -String refOrg
    -String descricaoTarefa
    -Date dataDeInicio
    -Date dataDeTermino
    -double valorAPagar
    -Data de adjudicacao
    -String id
}
class Colaborador{
    -String nome
    -String funcao
    -String telefone
    -String email
}
class Utilizador{
    -String nome
    -String email
    -String password
}
class Freelancer{
    -String nome
    -String NIF
    -String telefone
    -String email
}
class Tarefa{
    -String referencia
    -String designacao
    -String descInformal
    -String descTecnica
    -Integer duracaoEst
    -Double custoEst
}


Plataforma"1"--"*"Organizacao : tem registado >
Organizacao"1"--"*"Anuncio : publica >
Organizacao"1"--"*"Colaborador : tem registado >
Organizacao"1"--"1"Colaborador: age como gestor >
Anuncio"1"--"1"Tarefa: publicita >
Colaborador"1*" --"*"Anuncio : seria >
Colaborador"1" -- "*"AtribuirTarefa: faz a atribuição >
Freelancer"1" -- "1"Utilizador: age como >
Colaborador"1" --"1"Utilizador: age como >
AtribuirTarefa"1" -- "1"Organizacao: referente a >
AtribuirTarefa"1" -- "1"Tarefa: tem uma descrição de >
AtribuirTarefa"1" --"1"Freelancer: atribui a tarefa a >
AtribuirTarefa"*" --"1"Plataforma: são guardados >
Plataforma"1"--"*"Utilizador: tem registado >
Freelancer"*"--"1"Anuncio:candidata-se >
Colaborador"1"--"1"Tarefa: cria >


@enduml