@startuml
autonumber

actor "Colaborador" as COLAB
participant ":SeriarAnuncioUI" as UI
    participant ":SeriarAnuncioController" as CTRL
participant ":Plataforma" as PLAT
participant "rorgs:RegistoOrganizacoes" as RORGS
participant "ra:Registo\nAnuncios" as RANU
participant "lstAnun:List<Anuncios>"
participant "org:Organizacao" as ORG
participant "lstColabs:ListaColaboradores" as LSTCOLABS
participant "lColabs:List<Colaborador>"
participant "colab:Colaborador" as COLABORADOR
participant "anu:Anuncio" as ANU
participant "listaCand:ListaCandidaturas" as LSTCAND
participant "lstCand:List<Candidatura>"
participant "cand:Candidatura" as cand
participant "ps:ProcessoSeriacao" as PS
participant "class:Classificacao" as CLASS
participant AplicacaoPOT as pot
participant "app:AplicacaoPOT" as apppot
participant "sessao:SessaoAtual" as sessao
participant "tarefa:Tarefa" as tar
participant "candClass:Candidatura" as cc
participant "regAA:RegistoAtribuirAnu" as regAA
participant "freelancer:Freelancer"
participant "dataAtribuir:Date"
participant "periodoInicio:Date"
participant "periodoAcabar:Date"

COLAB -> UI : inicia o processo não automático de seriação das candidaturas
activate COLAB
activate UI

UI -> CTRL : lstAnun=getAnunciosPorSeriarNaoAutomaticos()
activate CTRL


CTRL -> pot : **app_getInstance()**
activate pot
deactivate pot
CTRL -> apppot : **sessao=getSessaoAtual()**
activate apppot
deactivate apppot
CTRL -> sessao : **emailUtilizador=getEmailUtilizador()**
activate sessao
deactivate sessao

CTRL -> PLAT: rorgs = getRegistoOrganizacoes()
activate PLAT
deactivate PLAT

CTRL -> RORGS: org = getOrganizacaoByEmailUtilizador(email)
activate RORGS
deactivate RORGS

CTRL -> ORG: lstColabs = getListaColaboradores()
activate ORG
deactivate ORG

CTRL -> LSTCOLABS: colab = getColaboradorByEmail(email)
activate LSTCOLABS
deactivate LSTCOLABS

CTRL -> PLAT : ra = getRegistoAnuncios()
activate PLAT
deactivate PLAT

CTRL -> RANU : lstAnun = getAnunciosPorSeriarNaoAutomaticos(colab)
activate RANU
deactivate RANU
deactivate CTRL

UI --> COLAB: mostra os anúncios publicadas \n pelo colaborador em fase de seriação não automática \n e que ainda não foram seriados e pede-lhe para escolher um
deactivate UI


COLAB -> UI : seleciona um anúncio
activate UI

UI -> CTRL : lstCand = getCandidaturas(anuncioId)
activate CTRL

CTRL -> RANU: anu = getAnuncioPublicadoPor(colab, anuncioId)
activate RANU
deactivate RANU

CTRL -> ANU : listaCand = getListaCandidaturas()
activate ANU
deactivate ANU

CTRL -> LSTCAND : lstCand = getCandidaturas()
activate LSTCAND
deactivate LSTCAND

CTRL -> ANU : ps = novoProcessoSeriacao(colab)
activate ANU
ANU -> PS**: create(tipoReg, colab)
note right
"tipoReg" refere-se a uma instância
de TipoRegimento, aquela pelo qual
se que rege o Anúncio
end note

deactivate ANU
deactivate CTRL


loop [ até que estejam classificadas todas as candidaturas]
UI --> COLAB: mostra as candidaturas que o anúncio \n selecionado recebeu e que ainda estejam por classificar \n e solicita a escolha de uma dessas candidaturas
deactivate UI

COLAB -> UI : seleciona candidatura
activate UI

UI --> COLAB: solicita a classificação da candidatura selecionada **e justificação**
deactivate UI


COLAB -> UI : indica a classificação **e justificação**
activate UI

UI -> CTRL: classifica(candId, ordem, **just**)
activate CTRL

CTRL -> LSTCAND: cand = getCandidatura(candId)
activate LSTCAND
deactivate LSTCAND

CTRL -> PS: addClassificacao(cand,ordem,**just**)
activate PS

PS -> CLASS**: class = create(cand,ordem,**just**)
PS -> PS: validaClassificacao(class)
PS -> PS: addClassificacao(class)
deactivate PS
deactivate CTRL
end loop

UI -> CTRL: lColabs = getColaboradores()
activate CTRL

CTRL -> LSTCOLABS : lColabs = getColaboradores()
activate LSTCOLABS
deactivate LSTCOLABS
deactivate CTRL
loop [até que estejam selecionados todos os outros colaboradores participantes]
UI --> COLAB: mostra a lista dos outros colaboradores da mesma organização (não selecionado) e \n solicita a seleção de um colaborador participante no processo de seriação
deactivate UI


COLAB -> UI : seleciona um colaborador **e faz a atribuição**
activate UI

UI -> CTRL: addParticipante(emailPart)
activate CTRL

CTRL -> LSTCOLABS: part = getColaboradorByEmail(emailPart)
activate LSTCOLABS
deactivate LSTCOLABS

CTRL -> PS: addParticipante(part)
activate PS
deactivate PS
deactivate CTRL
end loop

UI -> CTRL : **atribuirCand()**
activate CTRL
CTRL -> ANU : **tar=getTarefa()**
activate ANU
deactivate ANU
CTRL -> cand : **desc=getDesc()**
activate cand
deactivate cand
CTRL -> PS : **candClass=candByClass(1)**
activate PS
deactivate PS
CTRL -> cc : **freelancer=getFreelancer()**
activate cc
deactivate cc
CTRL -> cc : **valor=getValor()**
activate cc
deactivate cc
CTRL -> cc : **tempo=getTempo()**
activate cc
deactivate cc
CTRL -> CTRL : **dataAtribuir=geraData()**
activate CTRL
deactivate CTRL
CTRL -> CTRL : **periodoInicio=dataAtribuir()**
activate CTRL
deactivate CTRL
CTRL -> CTRL : **periodoAcabar=calculaPeriodoAcabar(periodoAcabar, tempo)**
activate CTRL
deactivate CTRL
CTRL -> ORG : **regAA=getAtribuirAnu()**
activate ORG
deactivate ORG
CTRL -> regAA : **novaAtribuir(org, freelancer, desc, periodoInicio, periodoAcabar, valor, anu)**
activate regAA
regAA -> "atribuicao:AtribuicaoAnuncio"** : **create(org, freelancer, desc, periodoInicio, periodoAcabar, valor, anu)**
regAA -> regAA : **validaAtribuicaoAnuncio(atribuicao)**
regAA -> regAA : **addAtribuicaoAnuncio(atribuicao)**
deactivate regAA

deactivate CTRL

UI --> COLAB: **pede um texto de conclusão sobre o processo**
deactivate UI

COLAB -> UI : **introduz o texto de conclusão**
activate UI
UI -> CTRL : **addTextConc(textoConclusao)**
CTRL -> PS : **addTextConc(textoConclusao)**
activate PS
deactivate PS
deactivate CTRL

UI --> COLAB : apresenta os dados, pedindo ao colaborador para confirmar
deactivate UI

COLAB -> UI : confirma
activate UI

UI -> CTRL: registaProcessoSeriacao()
activate CTRL

CTRL -> ANU: registaProcessoSeriacao(ps)
activate ANU

ANU -> ANU: validaProcessoSeriacao(ps)

ANU -> PS: valida()
activate PS
deactivate PS

ANU -> ANU: setProcessoSeriacao(ps)
deactivate ANU

deactivate ANU
deactivate CTRL
UI --> COLAB: informa do sucesso da operação
deactivate UI

deactivate COLAB
@enduml