<?xml version="1.0" encoding="UTF-8" standalone="no"?>
<svg xmlns="http://www.w3.org/2000/svg" contentScriptType="application/ecmascript" contentStyleType="text/css"
     height="516.6px" preserveAspectRatio="none" style="width:1114px;height:516px;" version="1.1" viewBox="0 0 1114 516"
     width="1114.4px" zoomAndPan="magnify">
    <defs>
        <filter height="300%" id="fjbulrdlr5air" width="300%" x="-1" y="-1">
            <feGaussianBlur result="blurOut" stdDeviation="1.4"/>
            <feColorMatrix in="blurOut" result="blurOut2" type="matrix"
                           values="0 0 0 0 0 0 0 0 0 0 0 0 0 0 0 0 0 0 .4 0"/>
            <feOffset dx="2.8" dy="2.8" in="blurOut2" result="blurOut3"/>
            <feBlend in="SourceGraphic" in2="blurOut3" mode="normal"/>
        </filter>
    </defs>
    <g><!--MD5=[ecaed46f78f8cfe1e9ce18477649be18]
class Plataforma-->
        <rect fill="#FEFECE" filter="url(#fjbulrdlr5air)" height="37.6852" id="Plataforma"
              style="stroke: #A80036; stroke-width: 1.0499999999999998;" width="72.1" x="4.2" y="392"/>
        <ellipse cx="18.165" cy="403.2" fill="#ADD1B2" rx="7.7" ry="7.7" style="stroke: #A80036; stroke-width: 0.7;"/>
        <path d="M19.565,400.75 Q19.7072,400.4 19.8713,400.225 Q20.0353,400.05 20.2212,400.05 Q20.5494,400.05 20.7572,400.2469 Q20.965,400.4437 20.965,400.9031 L20.965,401.9969 Q20.965,402.4562 20.7681,402.6531 Q20.5713,402.85 20.265,402.85 Q19.9916,402.85 19.8166,402.7297 Q19.6416,402.6094 19.565,402.2922 Q19.5322,402.0734 19.4119,401.9531 Q19.1931,401.7234 18.7994,401.5922 Q18.4056,401.45 18.0119,401.45 Q17.5197,401.45 17.1041,401.6469 Q16.6994,401.8438 16.3822,402.2813 Q16.065,402.7188 16.065,403.3203 L16.065,403.9656 Q16.065,404.6875 16.6556,405.1688 Q17.2463,405.65 18.2962,405.65 Q18.9197,405.65 19.3572,405.5078 Q19.6087,405.4313 19.8931,405.1797 Q20.0791,405.0375 20.1775,404.9938 Q20.2759,404.95 20.3963,404.95 Q20.6259,404.95 20.79,405.1359 Q20.965,405.3109 20.965,405.5625 Q20.965,405.8031 20.7244,406.0875 Q20.3744,406.5031 19.8166,406.7328 Q19.0838,407.05 18.1869,407.05 Q17.1369,407.05 16.2947,406.6344 Q15.6166,406.3063 15.1353,405.5953 Q14.665,404.8844 14.665,404.0422 L14.665,403.2766 Q14.665,402.4016 15.0806,401.6359 Q15.5072,400.8703 16.24,400.4656 Q16.9837,400.05 17.815,400.05 Q18.3181,400.05 18.7556,400.225 Q19.1931,400.4 19.565,400.75 Z "/>
        <text fill="#000000" font-family="sans-serif" font-size="8.4" lengthAdjust="spacingAndGlyphs" textLength="42"
              x="28.735" y="406.6371">Plataforma
        </text>
        <line style="stroke: #A80036; stroke-width: 1.0499999999999998;" x1="4.9" x2="75.6" y1="414.4" y2="414.4"/>
        <text fill="#000000" font-family="sans-serif" font-size="7.7" lengthAdjust="spacingAndGlyphs" textLength="63.7"
              x="8.4" y="425.1933">-String designacao
        </text><!--MD5=[807977ceb130c090ed5febfb6de2bdea]
class Organizacao-->
        <rect fill="#FEFECE" filter="url(#fjbulrdlr5air)" height="76.4258" id="Organizacao"
              style="stroke: #A80036; stroke-width: 1.0499999999999998;" width="70.7" x="302.4" y="5.95"/>
        <ellipse cx="312.9" cy="17.15" fill="#ADD1B2" rx="7.7" ry="7.7" style="stroke: #A80036; stroke-width: 0.7;"/>
        <path d="M314.3,14.7 Q314.4422,14.35 314.6063,14.175 Q314.7703,14 314.9562,14 Q315.2844,14 315.4922,14.1969 Q315.7,14.3937 315.7,14.8531 L315.7,15.9469 Q315.7,16.4063 315.5031,16.6031 Q315.3063,16.8 315,16.8 Q314.7266,16.8 314.5516,16.6797 Q314.3766,16.5594 314.3,16.2422 Q314.2672,16.0234 314.1469,15.9031 Q313.9281,15.6734 313.5344,15.5422 Q313.1406,15.4 312.7469,15.4 Q312.2547,15.4 311.8391,15.5969 Q311.4344,15.7938 311.1172,16.2313 Q310.8,16.6688 310.8,17.2703 L310.8,17.9156 Q310.8,18.6375 311.3906,19.1188 Q311.9813,19.6 313.0313,19.6 Q313.6547,19.6 314.0922,19.4578 Q314.3438,19.3812 314.6281,19.1297 Q314.8141,18.9875 314.9125,18.9437 Q315.0109,18.9 315.1312,18.9 Q315.3609,18.9 315.525,19.0859 Q315.7,19.2609 315.7,19.5125 Q315.7,19.7531 315.4594,20.0375 Q315.1094,20.4531 314.5516,20.6828 Q313.8187,21 312.9219,21 Q311.8719,21 311.0297,20.5844 Q310.3516,20.2562 309.8703,19.5453 Q309.4,18.8344 309.4,17.9922 L309.4,17.2266 Q309.4,16.3516 309.8156,15.5859 Q310.2422,14.8203 310.975,14.4156 Q311.7188,14 312.55,14 Q313.0531,14 313.4906,14.175 Q313.9281,14.35 314.3,14.7 Z "/>
        <text fill="#000000" font-family="sans-serif" font-size="8.4" lengthAdjust="spacingAndGlyphs" textLength="48.3"
              x="322.7" y="20.5871">Organizacao
        </text>
        <line style="stroke: #A80036; stroke-width: 1.0499999999999998;" x1="303.1" x2="372.4" y1="28.35" y2="28.35"/>
        <text fill="#000000" font-family="sans-serif" font-size="7.7" lengthAdjust="spacingAndGlyphs" textLength="42.7"
              x="306.6" y="39.1433">-String nome
        </text>
        <text fill="#000000" font-family="sans-serif" font-size="7.7" lengthAdjust="spacingAndGlyphs" textLength="35"
              x="306.6" y="48.8284">-String NIF
        </text>
        <text fill="#000000" font-family="sans-serif" font-size="7.7" lengthAdjust="spacingAndGlyphs" textLength="51.8"
              x="306.6" y="58.5136">-String website
        </text>
        <text fill="#000000" font-family="sans-serif" font-size="7.7" lengthAdjust="spacingAndGlyphs" textLength="51.8"
              x="306.6" y="68.1987">-String telefone
        </text>
        <text fill="#000000" font-family="sans-serif" font-size="7.7" lengthAdjust="spacingAndGlyphs" textLength="41.3"
              x="306.6" y="77.8839">-String email
        </text><!--MD5=[ac8682ea5466d223e49472789fb200d2]
class Colaborador-->
        <rect fill="#FEFECE" filter="url(#fjbulrdlr5air)" height="66.7406" id="Colaborador"
              style="stroke: #A80036; stroke-width: 1.0499999999999998;" width="70.7" x="673.05" y="118.65"/>
        <ellipse cx="683.55" cy="129.85" fill="#ADD1B2" rx="7.7" ry="7.7" style="stroke: #A80036; stroke-width: 0.7;"/>
        <path d="M684.95,127.4 Q685.0922,127.05 685.2562,126.875 Q685.4203,126.7 685.6062,126.7 Q685.9344,126.7 686.1422,126.8969 Q686.35,127.0937 686.35,127.5531 L686.35,128.6469 Q686.35,129.1063 686.1531,129.3031 Q685.9563,129.5 685.65,129.5 Q685.3766,129.5 685.2016,129.3797 Q685.0266,129.2594 684.95,128.9422 Q684.9172,128.7234 684.7969,128.6031 Q684.5781,128.3734 684.1844,128.2422 Q683.7906,128.1 683.3969,128.1 Q682.9047,128.1 682.4891,128.2969 Q682.0844,128.4938 681.7672,128.9313 Q681.45,129.3688 681.45,129.9703 L681.45,130.6156 Q681.45,131.3375 682.0406,131.8188 Q682.6312,132.3 683.6813,132.3 Q684.3047,132.3 684.7422,132.1578 Q684.9938,132.0812 685.2781,131.8297 Q685.4641,131.6875 685.5625,131.6437 Q685.6609,131.6 685.7813,131.6 Q686.0109,131.6 686.175,131.7859 Q686.35,131.9609 686.35,132.2125 Q686.35,132.4531 686.1094,132.7375 Q685.7594,133.1531 685.2016,133.3828 Q684.4688,133.7 683.5719,133.7 Q682.5219,133.7 681.6797,133.2844 Q681.0016,132.9562 680.5203,132.2453 Q680.05,131.5344 680.05,130.6922 L680.05,129.9266 Q680.05,129.0516 680.4656,128.2859 Q680.8922,127.5203 681.625,127.1156 Q682.3688,126.7 683.2,126.7 Q683.7031,126.7 684.1406,126.875 Q684.5781,127.05 684.95,127.4 Z "/>
        <text fill="#000000" font-family="sans-serif" font-size="8.4" lengthAdjust="spacingAndGlyphs" textLength="48.3"
              x="693.35" y="133.2871">Colaborador
        </text>
        <line style="stroke: #A80036; stroke-width: 1.0499999999999998;" x1="673.75" x2="743.05" y1="141.05"
              y2="141.05"/>
        <text fill="#000000" font-family="sans-serif" font-size="7.7" lengthAdjust="spacingAndGlyphs" textLength="42.7"
              x="677.25" y="151.8433">-String nome
        </text>
        <text fill="#000000" font-family="sans-serif" font-size="7.7" lengthAdjust="spacingAndGlyphs" textLength="48.3"
              x="677.25" y="161.5284">-String funcao
        </text>
        <text fill="#000000" font-family="sans-serif" font-size="7.7" lengthAdjust="spacingAndGlyphs" textLength="51.8"
              x="677.25" y="171.2136">-String telefone
        </text>
        <text fill="#000000" font-family="sans-serif" font-size="7.7" lengthAdjust="spacingAndGlyphs" textLength="41.3"
              x="677.25" y="180.8987">-String email
        </text><!--MD5=[d0e9f237fb3c72e1245c36c562ad52c4]
class TipoRegimento-->
        <rect fill="#FEFECE" filter="url(#fjbulrdlr5air)" height="47.3703" id="TipoRegimento"
              style="stroke: #A80036; stroke-width: 1.0499999999999998;" width="91" x="662.9" y="380.8"/>
        <ellipse cx="677.495" cy="392" fill="#ADD1B2" rx="7.7" ry="7.7" style="stroke: #A80036; stroke-width: 0.7;"/>
        <path d="M678.895,389.55 Q679.0372,389.2 679.2013,389.025 Q679.3653,388.85 679.5513,388.85 Q679.8794,388.85 680.0872,389.0469 Q680.295,389.2438 680.295,389.7031 L680.295,390.7969 Q680.295,391.2562 680.0981,391.4531 Q679.9013,391.65 679.595,391.65 Q679.3216,391.65 679.1466,391.5297 Q678.9716,391.4094 678.895,391.0922 Q678.8622,390.8734 678.7419,390.7531 Q678.5231,390.5234 678.1294,390.3922 Q677.7356,390.25 677.3419,390.25 Q676.8497,390.25 676.4341,390.4469 Q676.0294,390.6437 675.7122,391.0812 Q675.395,391.5187 675.395,392.1203 L675.395,392.7656 Q675.395,393.4875 675.9856,393.9688 Q676.5763,394.45 677.6263,394.45 Q678.2497,394.45 678.6872,394.3078 Q678.9388,394.2313 679.2231,393.9797 Q679.4091,393.8375 679.5075,393.7938 Q679.6059,393.75 679.7262,393.75 Q679.9559,393.75 680.12,393.9359 Q680.295,394.1109 680.295,394.3625 Q680.295,394.6031 680.0544,394.8875 Q679.7044,395.3031 679.1466,395.5328 Q678.4137,395.85 677.5169,395.85 Q676.4669,395.85 675.6247,395.4344 Q674.9466,395.1063 674.4653,394.3953 Q673.995,393.6844 673.995,392.8422 L673.995,392.0766 Q673.995,391.2016 674.4106,390.4359 Q674.8372,389.6703 675.57,389.2656 Q676.3138,388.85 677.145,388.85 Q677.6481,388.85 678.0856,389.025 Q678.5231,389.2 678.895,389.55 Z "/>
        <text fill="#000000" font-family="sans-serif" font-size="8.4" lengthAdjust="spacingAndGlyphs" textLength="59.5"
              x="688.205" y="395.4371">TipoRegimento
        </text>
        <line style="stroke: #A80036; stroke-width: 1.0499999999999998;" x1="663.6" x2="753.2" y1="403.2" y2="403.2"/>
        <text fill="#000000" font-family="sans-serif" font-size="7.7" lengthAdjust="spacingAndGlyphs" textLength="63.7"
              x="667.1" y="413.9933">-String designacao
        </text>
        <text fill="#000000" font-family="sans-serif" font-size="7.7" lengthAdjust="spacingAndGlyphs" textLength="82.6"
              x="667.1" y="423.6784">-String descricaoRegras
        </text><!--MD5=[1f687b5315377fe49fca59b457947463]
class Freelancer-->
        <rect fill="#FEFECE" filter="url(#fjbulrdlr5air)" height="66.7406" id="Freelancer"
              style="stroke: #A80036; stroke-width: 1.0499999999999998;" width="63.7" x="1043" y="398.65"/>
        <ellipse cx="1053.5" cy="409.85" fill="#ADD1B2" rx="7.7" ry="7.7" style="stroke: #A80036; stroke-width: 0.7;"/>
        <path d="M1054.9,407.4 Q1055.0422,407.05 1055.2063,406.875 Q1055.3703,406.7 1055.5562,406.7 Q1055.8844,406.7 1056.0922,406.8969 Q1056.3,407.0938 1056.3,407.5531 L1056.3,408.6469 Q1056.3,409.1063 1056.1031,409.3031 Q1055.9063,409.5 1055.6,409.5 Q1055.3266,409.5 1055.1516,409.3797 Q1054.9766,409.2594 1054.9,408.9422 Q1054.8672,408.7234 1054.7469,408.6031 Q1054.5281,408.3734 1054.1344,408.2422 Q1053.7406,408.1 1053.3469,408.1 Q1052.8547,408.1 1052.4391,408.2969 Q1052.0344,408.4938 1051.7172,408.9313 Q1051.4,409.3688 1051.4,409.9703 L1051.4,410.6156 Q1051.4,411.3375 1051.9906,411.8187 Q1052.5813,412.3 1053.6313,412.3 Q1054.2547,412.3 1054.6922,412.1578 Q1054.9438,412.0812 1055.2281,411.8297 Q1055.4141,411.6875 1055.5125,411.6437 Q1055.6109,411.6 1055.7313,411.6 Q1055.9609,411.6 1056.125,411.7859 Q1056.3,411.9609 1056.3,412.2125 Q1056.3,412.4531 1056.0594,412.7375 Q1055.7094,413.1531 1055.1516,413.3828 Q1054.4188,413.7 1053.5219,413.7 Q1052.4719,413.7 1051.6297,413.2844 Q1050.9516,412.9562 1050.4703,412.2453 Q1050,411.5344 1050,410.6922 L1050,409.9266 Q1050,409.0516 1050.4156,408.2859 Q1050.8422,407.5203 1051.575,407.1156 Q1052.3188,406.7 1053.15,406.7 Q1053.6531,406.7 1054.0906,406.875 Q1054.5281,407.05 1054.9,407.4 Z "/>
        <text fill="#000000" font-family="sans-serif" font-size="8.4" lengthAdjust="spacingAndGlyphs" textLength="41.3"
              x="1063.3" y="413.2871">Freelancer
        </text>
        <line style="stroke: #A80036; stroke-width: 1.0499999999999998;" x1="1043.7" x2="1106" y1="421.05" y2="421.05"/>
        <text fill="#000000" font-family="sans-serif" font-size="7.7" lengthAdjust="spacingAndGlyphs" textLength="42.7"
              x="1047.2" y="431.8433">-String nome
        </text>
        <text fill="#000000" font-family="sans-serif" font-size="7.7" lengthAdjust="spacingAndGlyphs" textLength="35"
              x="1047.2" y="441.5284">-String NIF
        </text>
        <text fill="#000000" font-family="sans-serif" font-size="7.7" lengthAdjust="spacingAndGlyphs" textLength="51.8"
              x="1047.2" y="451.2136">-String telefone
        </text>
        <text fill="#000000" font-family="sans-serif" font-size="7.7" lengthAdjust="spacingAndGlyphs" textLength="41.3"
              x="1047.2" y="460.8987">-String email
        </text><!--MD5=[19db0db7353a4bf63eefc676e5ba9b80]
class Anuncio-->
        <rect fill="#FEFECE" filter="url(#fjbulrdlr5air)" height="86.1109" id="Anuncio"
              style="stroke: #A80036; stroke-width: 1.0499999999999998;" width="92.4" x="189" y="264.25"/>
        <ellipse cx="217.14" cy="275.45" fill="#ADD1B2" rx="7.7" ry="7.7" style="stroke: #A80036; stroke-width: 0.7;"/>
        <path d="M218.54,273 Q218.6822,272.65 218.8462,272.475 Q219.0103,272.3 219.1963,272.3 Q219.5244,272.3 219.7322,272.4969 Q219.94,272.6937 219.94,273.1531 L219.94,274.2469 Q219.94,274.7062 219.7431,274.9031 Q219.5463,275.1 219.24,275.1 Q218.9666,275.1 218.7916,274.9797 Q218.6166,274.8594 218.54,274.5422 Q218.5072,274.3234 218.3869,274.2031 Q218.1681,273.9734 217.7744,273.8422 Q217.3806,273.7 216.9869,273.7 Q216.4947,273.7 216.0791,273.8969 Q215.6744,274.0938 215.3572,274.5313 Q215.04,274.9688 215.04,275.5703 L215.04,276.2156 Q215.04,276.9375 215.6306,277.4188 Q216.2212,277.9 217.2712,277.9 Q217.8947,277.9 218.3322,277.7578 Q218.5837,277.6813 218.8681,277.4297 Q219.0541,277.2875 219.1525,277.2438 Q219.2509,277.2 219.3712,277.2 Q219.6009,277.2 219.765,277.3859 Q219.94,277.5609 219.94,277.8125 Q219.94,278.0531 219.6994,278.3375 Q219.3494,278.7531 218.7916,278.9828 Q218.0587,279.3 217.1619,279.3 Q216.1119,279.3 215.2697,278.8844 Q214.5916,278.5563 214.1103,277.8453 Q213.64,277.1344 213.64,276.2922 L213.64,275.5266 Q213.64,274.6516 214.0556,273.8859 Q214.4822,273.1203 215.215,272.7156 Q215.9587,272.3 216.79,272.3 Q217.2931,272.3 217.7306,272.475 Q218.1681,272.65 218.54,273 Z "/>
        <text fill="#000000" font-family="sans-serif" font-size="8.4" lengthAdjust="spacingAndGlyphs" textLength="30.8"
              x="230.86" y="278.8871">Anuncio
        </text>
        <line style="stroke: #A80036; stroke-width: 1.0499999999999998;" x1="189.7" x2="280.7" y1="286.65" y2="286.65"/>
        <text fill="#000000" font-family="sans-serif" font-size="7.7" lengthAdjust="spacingAndGlyphs" textLength="83.3"
              x="193.2" y="297.4433">-Date dtInicioPublicitacao
        </text>
        <text fill="#000000" font-family="sans-serif" font-size="7.7" lengthAdjust="spacingAndGlyphs" textLength="77.7"
              x="193.2" y="307.1284">-Date dtFimPublicitacao
        </text>
        <text fill="#000000" font-family="sans-serif" font-size="7.7" lengthAdjust="spacingAndGlyphs" textLength="84"
              x="193.2" y="316.8136">-Date dtInicioCandidatura
        </text>
        <text fill="#000000" font-family="sans-serif" font-size="7.7" lengthAdjust="spacingAndGlyphs" textLength="78.4"
              x="193.2" y="326.4987">-Date dtFimCandidatura
        </text>
        <text fill="#000000" font-family="sans-serif" font-size="7.7" lengthAdjust="spacingAndGlyphs" textLength="73.5"
              x="193.2" y="336.1839">-Date dtInicioSeriacao
        </text>
        <text fill="#000000" font-family="sans-serif" font-size="7.7" lengthAdjust="spacingAndGlyphs" textLength="67.9"
              x="193.2" y="345.869">-Date dtFimSeriacao
        </text><!--MD5=[475c5b924ed41035684e2831311827d2]
class Candidatura-->
        <rect fill="#FEFECE" filter="url(#fjbulrdlr5air)" height="76.4258" id="Candidatura"
              style="stroke: #A80036; stroke-width: 1.0499999999999998;" width="89.6" x="849.1" y="204.75"/>
        <ellipse cx="868.42" cy="215.95" fill="#ADD1B2" rx="7.7" ry="7.7" style="stroke: #A80036; stroke-width: 0.7;"/>
        <path d="M869.82,213.5 Q869.9622,213.15 870.1262,212.975 Q870.2903,212.8 870.4762,212.8 Q870.8044,212.8 871.0122,212.9969 Q871.22,213.1938 871.22,213.6531 L871.22,214.7469 Q871.22,215.2062 871.0231,215.4031 Q870.8262,215.6 870.52,215.6 Q870.2466,215.6 870.0716,215.4797 Q869.8966,215.3594 869.82,215.0422 Q869.7872,214.8234 869.6669,214.7031 Q869.4481,214.4734 869.0544,214.3422 Q868.6606,214.2 868.2669,214.2 Q867.7747,214.2 867.3591,214.3969 Q866.9544,214.5938 866.6372,215.0313 Q866.32,215.4688 866.32,216.0703 L866.32,216.7156 Q866.32,217.4375 866.9106,217.9188 Q867.5012,218.4 868.5512,218.4 Q869.1747,218.4 869.6122,218.2578 Q869.8637,218.1812 870.1481,217.9297 Q870.3341,217.7875 870.4325,217.7437 Q870.5309,217.7 870.6512,217.7 Q870.8809,217.7 871.045,217.8859 Q871.22,218.0609 871.22,218.3125 Q871.22,218.5531 870.9794,218.8375 Q870.6294,219.2531 870.0716,219.4828 Q869.3387,219.8 868.4419,219.8 Q867.3919,219.8 866.5497,219.3844 Q865.8716,219.0562 865.3903,218.3453 Q864.92,217.6344 864.92,216.7922 L864.92,216.0266 Q864.92,215.1516 865.3356,214.3859 Q865.7622,213.6203 866.495,213.2156 Q867.2387,212.8 868.07,212.8 Q868.5731,212.8 869.0106,212.975 Q869.4481,213.15 869.82,213.5 Z "/>
        <text fill="#000000" font-family="sans-serif" font-size="8.4" lengthAdjust="spacingAndGlyphs" textLength="47.6"
              x="880.18" y="219.3871">Candidatura
        </text>
        <line style="stroke: #A80036; stroke-width: 1.0499999999999998;" x1="849.8" x2="938" y1="227.15" y2="227.15"/>
        <text fill="#000000" font-family="sans-serif" font-size="7.7" lengthAdjust="spacingAndGlyphs" textLength="75.6"
              x="853.3" y="237.9433">-Date dataCandidatura
        </text>
        <text fill="#000000" font-family="sans-serif" font-size="7.7" lengthAdjust="spacingAndGlyphs" textLength="80.5"
              x="853.3" y="247.6284">-Double valorPretendido
        </text>
        <text fill="#000000" font-family="sans-serif" font-size="7.7" lengthAdjust="spacingAndGlyphs" textLength="49.7"
              x="853.3" y="257.3136">-Integer nrDias
        </text>
        <text fill="#000000" font-family="sans-serif" font-size="7.7" lengthAdjust="spacingAndGlyphs" textLength="81.2"
              x="853.3" y="266.9987">-String txtApresentacao
        </text>
        <text fill="#000000" font-family="sans-serif" font-size="7.7" lengthAdjust="spacingAndGlyphs" textLength="67.2"
              x="853.3" y="276.6839">-String txtMotivacao
        </text><!--MD5=[716bba0e94eea125d5a66a891f2c3c34]
class Classificacao-->
        <rect fill="#FEFECE" filter="url(#fjbulrdlr5air)" height="47.3703" id="Classificacao"
              style="stroke: #A80036; stroke-width: 1.0499999999999998;" width="74.9" x="670.95" y="279.3"/>
        <ellipse cx="681.45" cy="290.5" fill="#ADD1B2" rx="7.7" ry="7.7" style="stroke: #A80036; stroke-width: 0.7;"/>
        <path d="M682.85,288.05 Q682.9922,287.7 683.1563,287.525 Q683.3203,287.35 683.5062,287.35 Q683.8344,287.35 684.0422,287.5469 Q684.25,287.7438 684.25,288.2031 L684.25,289.2969 Q684.25,289.7562 684.0531,289.9531 Q683.8562,290.15 683.55,290.15 Q683.2766,290.15 683.1016,290.0297 Q682.9266,289.9094 682.85,289.5922 Q682.8172,289.3734 682.6969,289.2531 Q682.4781,289.0234 682.0844,288.8922 Q681.6906,288.75 681.2969,288.75 Q680.8047,288.75 680.3891,288.9469 Q679.9844,289.1437 679.6672,289.5812 Q679.35,290.0187 679.35,290.6203 L679.35,291.2656 Q679.35,291.9875 679.9406,292.4688 Q680.5313,292.95 681.5813,292.95 Q682.2047,292.95 682.6422,292.8078 Q682.8938,292.7313 683.1781,292.4797 Q683.3641,292.3375 683.4625,292.2938 Q683.5609,292.25 683.6813,292.25 Q683.9109,292.25 684.075,292.4359 Q684.25,292.6109 684.25,292.8625 Q684.25,293.1031 684.0094,293.3875 Q683.6594,293.8031 683.1016,294.0328 Q682.3688,294.35 681.4719,294.35 Q680.4219,294.35 679.5797,293.9344 Q678.9016,293.6063 678.4203,292.8953 Q677.95,292.1844 677.95,291.3422 L677.95,290.5766 Q677.95,289.7016 678.3656,288.9359 Q678.7922,288.1703 679.525,287.7656 Q680.2688,287.35 681.1,287.35 Q681.6031,287.35 682.0406,287.525 Q682.4781,287.7 682.85,288.05 Z "/>
        <text fill="#000000" font-family="sans-serif" font-size="8.4" lengthAdjust="spacingAndGlyphs" textLength="52.5"
              x="691.25" y="293.9371">Classificacao
        </text>
        <line style="stroke: #A80036; stroke-width: 1.0499999999999998;" x1="671.65" x2="745.15" y1="301.7" y2="301.7"/>
        <text fill="#000000" font-family="sans-serif" font-size="7.7" lengthAdjust="spacingAndGlyphs" textLength="44.8"
              x="675.15" y="312.4933">-Integer lugar
        </text>
        <text fill="#000000" font-family="sans-serif" font-size="7.7" lengthAdjust="spacingAndGlyphs" textLength="36.4"
              x="675.15" y="322.1784">-String just
        </text><!--MD5=[aca0f236260d30190baee83e33cc7802]
class ProcessoSeriacao-->
        <rect fill="#FEFECE" filter="url(#fjbulrdlr5air)" height="47.3703" id="ProcessoSeriacao"
              style="stroke: #A80036; stroke-width: 1.0499999999999998;" width="93.8" x="394.1" y="312.2"/>
        <ellipse cx="404.6" cy="323.4" fill="#ADD1B2" rx="7.7" ry="7.7" style="stroke: #A80036; stroke-width: 0.7;"/>
        <path d="M406,320.95 Q406.1422,320.6 406.3063,320.425 Q406.4703,320.25 406.6563,320.25 Q406.9844,320.25 407.1922,320.4469 Q407.4,320.6437 407.4,321.1031 L407.4,322.1969 Q407.4,322.6563 407.2031,322.8531 Q407.0062,323.05 406.7,323.05 Q406.4266,323.05 406.2516,322.9297 Q406.0766,322.8094 406,322.4922 Q405.9672,322.2734 405.8469,322.1531 Q405.6281,321.9234 405.2344,321.7922 Q404.8406,321.65 404.4469,321.65 Q403.9547,321.65 403.5391,321.8469 Q403.1344,322.0438 402.8172,322.4813 Q402.5,322.9188 402.5,323.5203 L402.5,324.1656 Q402.5,324.8875 403.0906,325.3688 Q403.6813,325.85 404.7313,325.85 Q405.3547,325.85 405.7922,325.7078 Q406.0438,325.6312 406.3281,325.3797 Q406.5141,325.2375 406.6125,325.1937 Q406.7109,325.15 406.8312,325.15 Q407.0609,325.15 407.225,325.3359 Q407.4,325.5109 407.4,325.7625 Q407.4,326.0031 407.1594,326.2875 Q406.8094,326.7031 406.2516,326.9328 Q405.5187,327.25 404.6219,327.25 Q403.5719,327.25 402.7297,326.8344 Q402.0516,326.5062 401.5703,325.7953 Q401.1,325.0844 401.1,324.2422 L401.1,323.4766 Q401.1,322.6016 401.5156,321.8359 Q401.9422,321.0703 402.675,320.6656 Q403.4188,320.25 404.25,320.25 Q404.7531,320.25 405.1906,320.425 Q405.6281,320.6 406,320.95 Z "/>
        <text fill="#000000" font-family="sans-serif" font-size="8.4" lengthAdjust="spacingAndGlyphs" textLength="71.4"
              x="414.4" y="326.8371">ProcessoSeriacao
        </text>
        <line style="stroke: #A80036; stroke-width: 1.0499999999999998;" x1="394.8" x2="487.2" y1="334.6" y2="334.6"/>
        <text fill="#000000" font-family="sans-serif" font-size="7.7" lengthAdjust="spacingAndGlyphs" textLength="72.1"
              x="398.3" y="345.3933">-Date dataRealizacao
        </text>
        <text fill="#000000" font-family="sans-serif" font-size="7.7" lengthAdjust="spacingAndGlyphs" textLength="77"
              x="398.3" y="355.0784">-String textoConclusao
        </text><!--MD5=[5562294418c1094ea6b855ee49b655b0]
class Atribuicao-->
        <rect fill="#FEFECE" filter="url(#fjbulrdlr5air)" height="95.7961" id="Atribuicao"
              style="stroke: #A80036; stroke-width: 1.0499999999999998;" width="79.1" x="195.65" y="117.25"/>
        <ellipse cx="214.655" cy="128.45" fill="#ADD1B2" rx="7.7" ry="7.7" style="stroke: #A80036; stroke-width: 0.7;"/>
        <path d="M216.055,126 Q216.1972,125.65 216.3612,125.475 Q216.5253,125.3 216.7112,125.3 Q217.0394,125.3 217.2472,125.4969 Q217.455,125.6938 217.455,126.1531 L217.455,127.2469 Q217.455,127.7063 217.2581,127.9031 Q217.0612,128.1 216.755,128.1 Q216.4816,128.1 216.3066,127.9797 Q216.1316,127.8594 216.055,127.5422 Q216.0222,127.3234 215.9019,127.2031 Q215.6831,126.9734 215.2894,126.8422 Q214.8956,126.7 214.5019,126.7 Q214.0097,126.7 213.5941,126.8969 Q213.1894,127.0937 212.8722,127.5312 Q212.555,127.9687 212.555,128.5703 L212.555,129.2156 Q212.555,129.9375 213.1456,130.4188 Q213.7362,130.9 214.7862,130.9 Q215.4097,130.9 215.8472,130.7578 Q216.0987,130.6813 216.3831,130.4297 Q216.5691,130.2875 216.6675,130.2438 Q216.7659,130.2 216.8862,130.2 Q217.1159,130.2 217.28,130.3859 Q217.455,130.5609 217.455,130.8125 Q217.455,131.0531 217.2144,131.3375 Q216.8644,131.7531 216.3066,131.9828 Q215.5737,132.3 214.6769,132.3 Q213.6269,132.3 212.7847,131.8844 Q212.1066,131.5563 211.6253,130.8453 Q211.155,130.1344 211.155,129.2922 L211.155,128.5266 Q211.155,127.6516 211.5706,126.8859 Q211.9972,126.1203 212.73,125.7156 Q213.4737,125.3 214.305,125.3 Q214.8081,125.3 215.2456,125.475 Q215.6831,125.65 216.055,126 Z "/>
        <text fill="#000000" font-family="sans-serif" font-size="8.4" lengthAdjust="spacingAndGlyphs" textLength="37.8"
              x="226.345" y="131.8871">Atribuicao
        </text>
        <line style="stroke: #A80036; stroke-width: 1.0499999999999998;" x1="196.35" x2="274.05" y1="139.65"
              y2="139.65"/>
        <text fill="#000000" font-family="sans-serif" font-size="7.7" lengthAdjust="spacingAndGlyphs" textLength="35.7"
              x="199.85" y="150.4433">-String org
        </text>
        <text fill="#000000" font-family="sans-serif" font-size="7.7" lengthAdjust="spacingAndGlyphs" textLength="59.5"
              x="199.85" y="160.1284">-String freelancer
        </text>
        <text fill="#000000" font-family="sans-serif" font-size="7.7" lengthAdjust="spacingAndGlyphs" textLength="41.3"
              x="199.85" y="169.8136">-String desc
        </text>
        <text fill="#000000" font-family="sans-serif" font-size="7.7" lengthAdjust="spacingAndGlyphs" textLength="62.3"
              x="199.85" y="179.4987">-Date periodoInicio
        </text>
        <text fill="#000000" font-family="sans-serif" font-size="7.7" lengthAdjust="spacingAndGlyphs" textLength="70.7"
              x="199.85" y="189.1839">-Date periodoAcabar
        </text>
        <text fill="#000000" font-family="sans-serif" font-size="7.7" lengthAdjust="spacingAndGlyphs" textLength="44.1"
              x="199.85" y="198.869">-double valor
        </text>
        <text fill="#000000" font-family="sans-serif" font-size="7.7" lengthAdjust="spacingAndGlyphs" textLength="37.1"
              x="199.85" y="208.5542">-String anu
        </text><!--MD5=[1c2ad462e362697fcdc859a6327d55c7]
link Plataforma to Organizacao-->
        <path d="M45.0978,391.9223 C57.552,339.2025 99.4231,189.315 189,105 C220.8745,74.998 269.5672,58.8609 302.3195,50.8844 "
              fill="none" id="Plataforma-Organizacao" style="stroke: #A80036; stroke-width: 0.7;"/>
        <polygon fill="#000000" points="124.95,123.9,127.05,119.7,129.15,123.9,124.95,123.9"
                 style="stroke: #000000; stroke-width: 0.7;"/>
        <text fill="#000000" font-family="sans-serif" font-size="9.1" lengthAdjust="spacingAndGlyphs" textLength="60.2"
              x="98" y="135.4466">tem registadas
        </text>
        <text fill="#000000" font-family="sans-serif" font-size="9.1" lengthAdjust="spacingAndGlyphs" textLength="4.9"
              x="40.7523" y="384.527">1
        </text>
        <text fill="#000000" font-family="sans-serif" font-size="9.1" lengthAdjust="spacingAndGlyphs" textLength="3.5"
              x="293.3586" y="62.1588">*
        </text><!--MD5=[956ecced288de5de0c5f024757c210bf]
link Plataforma to TipoRegimento-->
        <path d="M76.4659,411.0428 C154.6258,411.348 347.4324,412.0585 508.9,412.3 C568.0108,412.3882 582.8893,415.7412 641.9,412.3 C648.6746,411.9052 655.8216,411.2829 662.809,410.5598 "
              fill="none" id="Plataforma-TipoRegimento" style="stroke: #A80036; stroke-width: 0.7;"/>
        <text fill="#000000" font-family="sans-serif" font-size="9.1" lengthAdjust="spacingAndGlyphs" textLength="30.1"
              x="318.15" y="409.1466">suporta
        </text>
        <polygon fill="#000000" points="350.35,404.373,354.55,406.473,350.35,408.573,350.35,404.373"
                 style="stroke: #000000; stroke-width: 0.7;"/>
        <text fill="#000000" font-family="sans-serif" font-size="9.1" lengthAdjust="spacingAndGlyphs" textLength="4.9"
              x="81.9033" y="421.3223">1
        </text>
        <text fill="#000000" font-family="sans-serif" font-size="9.1" lengthAdjust="spacingAndGlyphs" textLength="3.5"
              x="653.8352" y="421.3705">*
        </text><!--MD5=[3d9e8e0d764359bffb897b36dc4b633a]
link Plataforma to Anuncio-->
        <path d="M76.4498,391.8985 C108.0989,374.9578 154.6006,350.0672 188.9762,331.667 " fill="none"
              id="Plataforma-Anuncio" style="stroke: #A80036; stroke-width: 0.7;"/>
        <text fill="#000000" font-family="sans-serif" font-size="9.1" lengthAdjust="spacingAndGlyphs" textLength="33.6"
              x="111.3" y="341.2466">publicita
        </text>
        <polygon fill="#000000" points="147,336.473,151.2,338.573,147,340.673,147,336.473"
                 style="stroke: #000000; stroke-width: 0.7;"/>
        <text fill="#000000" font-family="sans-serif" font-size="9.1" lengthAdjust="spacingAndGlyphs" textLength="4.9"
              x="81.8849" y="399.4859">1
        </text>
        <text fill="#000000" font-family="sans-serif" font-size="9.1" lengthAdjust="spacingAndGlyphs" textLength="3.5"
              x="179.9292" y="344.5921">*
        </text><!--MD5=[39c0de7668d8063a4eb96c23050b3de2]
link Plataforma to Freelancer-->
        <path d="M62.1224,429.8917 C95.9651,458.2075 165.4863,508.2 234.5,508.2 C234.5,508.2 234.5,508.2 894.6,508.2 C950.145,508.2 1008.21,476.8865 1042.769,454.3799 "
              fill="none" id="Plataforma-Freelancer" style="stroke: #A80036; stroke-width: 0.7;"/>
        <text fill="#000000" font-family="sans-serif" font-size="9.1" lengthAdjust="spacingAndGlyphs" textLength="32.9"
              x="554.4" y="505.7466">tem/usa
        </text>
        <polygon fill="#000000" points="589.4,500.973,593.6,503.073,589.4,505.173,589.4,500.973"
                 style="stroke: #000000; stroke-width: 0.7;"/>
        <text fill="#000000" font-family="sans-serif" font-size="9.1" lengthAdjust="spacingAndGlyphs" textLength="4.9"
              x="61.4711" y="444.7572">1
        </text>
        <text fill="#000000" font-family="sans-serif" font-size="9.1" lengthAdjust="spacingAndGlyphs" textLength="3.5"
              x="1033.8772" y="468.3021">*
        </text><!--MD5=[567db691f9836c63f305bad1024cbc66]
link Organizacao to Colaborador-->
        <path d="M373.2757,58.289 C407.4252,71.8536 461.1656,92.2747 508.9,106.4 C516.7939,108.7359 618.1623,131.6966 673.0073,144.0782 "
              fill="none" id="Organizacao-Colaborador" style="stroke: #A80036; stroke-width: 0.7;"/>
        <text fill="#000000" font-family="sans-serif" font-size="9.1" lengthAdjust="spacingAndGlyphs" textLength="15.4"
              x="428.75" y="64.7466">tem
        </text>
        <polygon fill="#000000" points="446.25,59.973,450.45,62.073,446.25,64.173,446.25,59.973"
                 style="stroke: #000000; stroke-width: 0.7;"/>
        <text fill="#000000" font-family="sans-serif" font-size="9.1" lengthAdjust="spacingAndGlyphs" textLength="4.9"
              x="378.616" y="70.5269">1
        </text>
        <text fill="#000000" font-family="sans-serif" font-size="9.1" lengthAdjust="spacingAndGlyphs" textLength="14"
              x="653.5757" y="140.6055">1..*
        </text><!--MD5=[3fb03004f687adcfc695220fdd65ad26]
link Anuncio to TipoRegimento-->
        <path d="M281.561,336.6559 C312.0838,354.4912 353.8787,375.5843 394.1,385 C487.8475,406.9464 601.3945,407.9474 662.8769,406.4529 "
              fill="none" id="Anuncio-TipoRegimento" style="stroke: #A80036; stroke-width: 0.7;"/>
        <text fill="#000000" font-family="sans-serif" font-size="9.1" lengthAdjust="spacingAndGlyphs" textLength="45.5"
              x="413.7" y="382.5466">rege-se por
        </text>
        <polygon fill="#000000" points="461.3,377.773,465.5,379.873,461.3,381.973,461.3,377.773"
                 style="stroke: #000000; stroke-width: 0.7;"/>
        <text fill="#000000" font-family="sans-serif" font-size="9.1" lengthAdjust="spacingAndGlyphs" textLength="3.5"
              x="287.1238" y="350.1579">*
        </text>
        <text fill="#000000" font-family="sans-serif" font-size="9.1" lengthAdjust="spacingAndGlyphs" textLength="4.9"
              x="652.43" y="416.7887">1
        </text><!--MD5=[0a535575571876f6213287bf563a867d]
link Anuncio to Colaborador-->
        <path d="M281.4287,285.6028 C288.3412,282.9113 295.4777,280.4578 302.4,278.6 C375.767,258.909 575.9614,276.4167 641.9,238.7 C663.3207,226.4472 680.001,204.1305 691.208,185.1948 "
              fill="none" id="Anuncio-Colaborador" style="stroke: #A80036; stroke-width: 0.7;"/>
        <text fill="#000000" font-family="sans-serif" font-size="9.1" lengthAdjust="spacingAndGlyphs" textLength="53.9"
              x="409.5" y="262.1466">publicado por
        </text>
        <polygon fill="#000000" points="465.5,257.373,469.7,259.473,465.5,261.573,465.5,257.373"
                 style="stroke: #000000; stroke-width: 0.7;"/>
        <text fill="#000000" font-family="sans-serif" font-size="9.1" lengthAdjust="spacingAndGlyphs" textLength="3.5"
              x="286.9762" y="293.2017">*
        </text>
        <text fill="#000000" font-family="sans-serif" font-size="9.1" lengthAdjust="spacingAndGlyphs" textLength="4.9"
              x="683.4231" y="200.3545">1
        </text><!--MD5=[27b52c98fcb5387c047ce09b42fcb62d]
link Anuncio to Candidatura-->
        <path d="M281.4434,266.6734 C288.1277,262.2865 295.1984,258.3791 302.4,255.5 C340.4289,240.296 353.2018,248.5679 394.1,246.4 C561.9684,237.5009 762.034,240.0797 849.093,241.8507 "
              fill="none" id="Anuncio-Candidatura" style="stroke: #A80036; stroke-width: 0.7;"/>
        <text fill="#000000" font-family="sans-serif" font-size="9.1" lengthAdjust="spacingAndGlyphs" textLength="27.3"
              x="557.2" y="237.6466">recebe
        </text>
        <polygon fill="#000000" points="586.6,232.873,590.8,234.973,586.6,237.073,586.6,232.873"
                 style="stroke: #000000; stroke-width: 0.7;"/>
        <text fill="#000000" font-family="sans-serif" font-size="9.1" lengthAdjust="spacingAndGlyphs" textLength="4.9"
              x="287.0736" y="272.0836">1
        </text>
        <text fill="#000000" font-family="sans-serif" font-size="9.1" lengthAdjust="spacingAndGlyphs" textLength="3.5"
              x="839.9189" y="251.8592">*
        </text><!--MD5=[02d330b3691aaed85c2b7230cc23c1df]
link Anuncio to ProcessoSeriacao-->
        <path d="M281.4357,329.8043 C288.3167,332.3621 295.442,334.5629 302.4,336 C332.4111,342.1999 366.8861,342.1999 393.8578,340.6494 "
              fill="none" id="Anuncio-ProcessoSeriacao" style="stroke: #A80036; stroke-width: 0.7;"/>
        <text fill="#000000" font-family="sans-serif" font-size="9.1" lengthAdjust="spacingAndGlyphs" textLength="34.3"
              x="316.05" y="333.5466">espoleta
        </text>
        <polygon fill="#000000" points="352.45,328.773,356.65,330.873,352.45,332.973,352.45,328.773"
                 style="stroke: #000000; stroke-width: 0.7;"/>
        <text fill="#000000" font-family="sans-serif" font-size="9.1" lengthAdjust="spacingAndGlyphs" textLength="4.9"
              x="287.065" y="330.019">1
        </text>
        <text fill="#000000" font-family="sans-serif" font-size="9.1" lengthAdjust="spacingAndGlyphs" textLength="15.4"
              x="373.0593" y="351.1283">0..1
        </text><!--MD5=[a66e767a4304f5fa76db98d7839a7a61]
link Candidatura to Freelancer-->
        <path d="M930.937,281.1473 C963.83,315.7714 1011.773,366.2365 1042.958,399.07 " fill="none"
              id="Candidatura-Freelancer" style="stroke: #A80036; stroke-width: 0.7;"/>
        <text fill="#000000" font-family="sans-serif" font-size="9.1" lengthAdjust="spacingAndGlyphs" textLength="51.8"
              x="960.4" y="311.8466">realizada por
        </text>
        <polygon fill="#000000" points="983.15,318.0461,985.25,322.2461,987.35,318.0461,983.15,318.0461"
                 style="stroke: #000000; stroke-width: 0.7;"/>
        <text fill="#000000" font-family="sans-serif" font-size="9.1" lengthAdjust="spacingAndGlyphs" textLength="3.5"
              x="931.9581" y="296.2195">*
        </text>
        <text fill="#000000" font-family="sans-serif" font-size="9.1" lengthAdjust="spacingAndGlyphs" textLength="4.9"
              x="1032.5847" y="404.1772">1
        </text><!--MD5=[577fefe1351fe0f89ea5388d9641a019]
link ProcessoSeriacao to TipoRegimento-->
        <path d="M487.9224,349.1915 C494.9413,351.1389 502.1065,353.0961 508.9,354.9 C561.5939,368.8937 622.4414,383.9437 662.7971,393.7703 "
              fill="none" id="ProcessoSeriacao-TipoRegimento" style="stroke: #A80036; stroke-width: 0.7;"/>
        <text fill="#000000" font-family="sans-serif" font-size="9.1" lengthAdjust="spacingAndGlyphs" textLength="122.5"
              x="509.6" y="352.4466">decorre em concordância com
        </text>
        <polygon fill="#000000" points="634.2,347.673,638.4,349.773,634.2,351.873,634.2,347.673"
                 style="stroke: #000000; stroke-width: 0.7;"/>
        <text fill="#000000" font-family="sans-serif" font-size="9.1" lengthAdjust="spacingAndGlyphs" textLength="3.5"
              x="493.5501" y="360.8384">*
        </text>
        <text fill="#000000" font-family="sans-serif" font-size="9.1" lengthAdjust="spacingAndGlyphs" textLength="4.9"
              x="652.341" y="402.6397">1
        </text><!--MD5=[d8cba5363504d1c2665cc78c5e9b9c32]
link ProcessoSeriacao to Colaborador-->
        <path d="M487.9644,316.9201 C494.9126,314.4204 502.0463,312.053 508.9,310.1 C566.7599,293.6143 593.9801,321.2769 641.9,284.9 C674.1147,260.4448 691.5643,215.9626 700.2429,185.2151 "
              fill="none" id="ProcessoSeriacao-Colaborador" style="stroke: #A80036; stroke-width: 0.7;"/>
        <text fill="#000000" font-family="sans-serif" font-size="9.1" lengthAdjust="spacingAndGlyphs" textLength="51.8"
              x="544.95" y="282.4466">realizado por
        </text>
        <polygon fill="#000000" points="598.85,277.673,603.05,279.773,598.85,281.873,598.85,277.673"
                 style="stroke: #000000; stroke-width: 0.7;"/>
        <text fill="#000000" font-family="sans-serif" font-size="9.1" lengthAdjust="spacingAndGlyphs" textLength="4.9"
              x="493.3691" y="324.9183">1
        </text>
        <text fill="#000000" font-family="sans-serif" font-size="9.1" lengthAdjust="spacingAndGlyphs" textLength="14"
              x="684.0167" y="200.3777">1..*
        </text><!--MD5=[52bd50d7906bad09d4dfcc260d1229dc]
link ProcessoSeriacao to Classificacao-->
        <path d="M488.0547,337.162 C528.913,337.3363 589.8662,335.5212 641.9,325.5 C651.4984,323.6513 661.6099,320.7302 670.9493,317.5998 "
              fill="none" id="ProcessoSeriacao-Classificacao" style="stroke: #A80036; stroke-width: 0.7;"/>
        <text fill="#000000" font-family="sans-serif" font-size="9.1" lengthAdjust="spacingAndGlyphs" textLength="27.3"
              x="557.2" y="323.0466">resulta
        </text>
        <polygon fill="#000000" points="586.6,318.273,590.8,320.373,586.6,322.473,586.6,318.273"
                 style="stroke: #000000; stroke-width: 0.7;"/>
        <text fill="#000000" font-family="sans-serif" font-size="9.1" lengthAdjust="spacingAndGlyphs" textLength="4.9"
              x="493.4693" y="347.3742">1
        </text>
        <text fill="#000000" font-family="sans-serif" font-size="9.1" lengthAdjust="spacingAndGlyphs" textLength="3.5"
              x="661.9367" y="329.9064">*
        </text><!--MD5=[471b8c6ff5fcf31b4b6fb9b4f947344d]
link Classificacao to Candidatura-->
        <path d="M745.913,291.0621 C775.607,281.3517 817.474,267.6618 848.988,257.3578 " fill="none"
              id="Classificacao-Candidatura" style="stroke: #A80036; stroke-width: 0.7;"/>
        <text fill="#000000" font-family="sans-serif" font-size="9.1" lengthAdjust="spacingAndGlyphs" textLength="42.7"
              x="775.6" y="262.8466">referente a
        </text>
        <polygon fill="#000000" points="820.4,258.073,824.6,260.173,820.4,262.273,820.4,258.073"
                 style="stroke: #000000; stroke-width: 0.7;"/>
        <text fill="#000000" font-family="sans-serif" font-size="9.1" lengthAdjust="spacingAndGlyphs" textLength="15.4"
              x="751.4233" y="299.7531">0..1
        </text>
        <text fill="#000000" font-family="sans-serif" font-size="9.1" lengthAdjust="spacingAndGlyphs" textLength="4.9"
              x="838.6118" y="269.1305">1
        </text><!--MD5=[03e7356c6764d9257c8185abe35e43a1]
link Atribuicao to Candidatura-->
        <path d="M275.0258,148.302 C363.8642,112.5404 586.1037,37.8924 753.9,106.4 C802.172,126.1099 842.779,171.5021 867.468,204.5456 "
              fill="none" id="Atribuicao-Candidatura" style="stroke: #A80036; stroke-width: 0.7;"/>
        <text fill="#000000" font-family="sans-serif" font-size="9.1" lengthAdjust="spacingAndGlyphs" textLength="41.3"
              x="550.2" y="76.6466">associada
        </text>
        <polygon fill="#000000" points="593.6,71.873,597.8,73.973,593.6,76.073,593.6,71.873"
                 style="stroke: #000000; stroke-width: 0.7;"/>
        <text fill="#000000" font-family="sans-serif" font-size="9.1" lengthAdjust="spacingAndGlyphs" textLength="4.9"
              x="280.4424" y="156.3234">1
        </text>
        <text fill="#000000" font-family="sans-serif" font-size="9.1" lengthAdjust="spacingAndGlyphs" textLength="4.9"
              x="858.8675" y="197.1682">1
        </text><!--MD5=[77683afdd0955016301cccae592abdd0]
link Atribuicao to ProcessoSeriacao-->
        <path d="M274.827,197.7283 C314.7886,231.1204 376.0274,282.2932 411.7253,312.1223 " fill="none"
              id="Atribuicao-ProcessoSeriacao" style="stroke: #A80036; stroke-width: 0.7;"/>
        <text fill="#000000" font-family="sans-serif" font-size="9.1" lengthAdjust="spacingAndGlyphs" textLength="16.8"
              x="324.8" y="222.2466">feito
        </text>
        <polygon fill="#000000" points="343.7,217.473,347.9,219.573,343.7,221.673,343.7,217.473"
                 style="stroke: #000000; stroke-width: 0.7;"/>
        <text fill="#000000" font-family="sans-serif" font-size="9.1" lengthAdjust="spacingAndGlyphs" textLength="3.5"
              x="280.387" y="212.3219">*
        </text>
        <text fill="#000000" font-family="sans-serif" font-size="9.1" lengthAdjust="spacingAndGlyphs" textLength="4.9"
              x="400.5795" y="304.6123">1
        </text><!--MD5=[5ea52bb0d43b71abcaa065db74bcf587]
link Atribuicao to Anuncio-->
        <path d="M235.2,213.1675 C235.2,229.6539 235.2,248.0009 235.2,264.0862 " fill="none" id="Atribuicao-Anuncio"
              style="stroke: #A80036; stroke-width: 0.7;"/>
        <text fill="#000000" font-family="sans-serif" font-size="9.1" lengthAdjust="spacingAndGlyphs" textLength="16.8"
              x="213.85" y="242.5466">feito
        </text>
        <polygon fill="#000000" points="219.1,248.7461,221.2,252.9461,223.3,248.7461,219.1,248.7461"
                 style="stroke: #000000; stroke-width: 0.7;"/>
        <text fill="#000000" font-family="sans-serif" font-size="9.1" lengthAdjust="spacingAndGlyphs" textLength="4.9"
              x="230.0473" y="228.1563">1
        </text>
        <text fill="#000000" font-family="sans-serif" font-size="9.1" lengthAdjust="spacingAndGlyphs" textLength="4.9"
              x="230.0167" y="256.7023">1
        </text><!--MD5=[16c96d1dd54cea88075e971c3820f831]
link Colaborador to Atribuicao-->
        <path d="M672.8498,152.8821 C586.8723,155.3062 365.0976,161.5579 274.911,164.1003 " fill="none"
              id="Colaborador-Atribuicao" style="stroke: #A80036; stroke-width: 0.7;"/>
        <polygon fill="#000000" points="435.4,150.273,431.2,152.373,435.4,154.473,435.4,150.273"
                 style="stroke: #000000; stroke-width: 0.7;"/>
        <text fill="#000000" font-family="sans-serif" font-size="9.1" lengthAdjust="spacingAndGlyphs" textLength="11.9"
              x="439.6" y="155.0466">faz
        </text>
        <text fill="#000000" font-family="sans-serif" font-size="9.1" lengthAdjust="spacingAndGlyphs" textLength="4.9"
              x="662.606" y="163.2547">1
        </text>
        <text fill="#000000" font-family="sans-serif" font-size="9.1" lengthAdjust="spacingAndGlyphs" textLength="4.9"
              x="280.3129" y="174.1459">1
        </text><!--MD5=[fc81dbe0943e4dec68d849d8e10a0ad8]
@startuml

skinparam classAttributeIconSize 0
hide methods
left to right direction

class Plataforma {
  -String designacao
}

class Organizacao {
  -String nome
  -String NIF
  -String website
  -String telefone
  -String email
}

class Colaborador {
  -String nome
  -String funcao
  -String telefone
  -String email
}

class TipoRegimento
{
    -String designacao
    -String descricaoRegras
}


class Freelancer {
    -String nome
    -String NIF
    -String telefone
    -String email
}

class Anuncio
{
    -Date dtInicioPublicitacao
    -Date dtFimPublicitacao
    -Date dtInicioCandidatura
    -Date dtFimCandidatura
    -Date dtInicioSeriacao
    -Date dtFimSeriacao
}

class Candidatura
{
    -Date dataCandidatura
    -Double valorPretendido
    -Integer nrDias
    -String txtApresentacao
    -String txtMotivacao
}

class Classificacao
{
    -Integer lugar
    -String just
}

class ProcessoSeriacao
{
    -Date dataRealizacao
    -String textoConclusao
}

class Atribuicao{
    -String org
    -String freelancer
    -String desc
    -Date periodoInicio
    -Date periodoAcabar
    -double valor
    -String anu
}

Plataforma "1" - - "*" Organizacao : tem registadas >
Plataforma "1" - - "*" TipoRegimento : suporta >
Plataforma "1" - - "*" Anuncio : publicita >
Plataforma "1" - - "*" Freelancer : tem/usa  >

Organizacao "1" - - "1..*" Colaborador: tem >

Anuncio "*" - - "1" TipoRegimento: rege-se por >
Anuncio "*" - - "1" Colaborador: publicado por >
Anuncio "1" - - "*" Candidatura: recebe >
Anuncio "1" - - "0..1" ProcessoSeriacao: espoleta >

Candidatura "*" - - "1"  Freelancer: realizada por >

ProcessoSeriacao "*" - - "1" TipoRegimento: decorre em concordância com >
ProcessoSeriacao "1" - - "1..*" Colaborador: realizado por >
ProcessoSeriacao "1" - - "*" Classificacao: resulta >

Classificacao "0..1" - - "1" Candidatura: referente a >

Atribuicao "1" - "1" Candidatura : associada >
Atribuicao "*" - "1" ProcessoSeriacao : feito >
Atribuicao "1" - "1" Anuncio : feito >
Colaborador "1" - "1" Atribuicao : faz >

@enduml

PlantUML version 1.2020.09(Sun May 10 11:51:06 BST 2020)
(GPL source distribution)
Java Runtime: OpenJDK Runtime Environment
JVM: OpenJDK 64-Bit Server VM
Java Version: 11.0.6+8-b765.40
Operating System: Windows 10
Default Encoding: Cp1252
Language: pt
Country: PT
-->
    </g>
</svg>